0.00<|#eta|<0.60
284897.0		355753.0		284897.0		70856.0
513488.0		631542.0		513488.0		118054.0
782351.0		968210.0		782351.0		185865.0
1032260.0		1267390.0		1032260.0		235138.0
717960.0		847912.0		717960.0		129952.0
412541.0		480297.0		412541.0		67756.0
179995.0		205827.0		179995.0		25832.0
37959.0		43062.0		37959.0		5103.0
18133.0		19265.0		18133.0		1132.0
7929.0		8522.0		7929.0		593.0
3973.0		4299.0		3973.0		326.0
4305.0		4662.0		4305.0		357.0
0.60<|#eta|<0.80
75770.0		98620.0		75770.0		22850.0
164254.0		203945.0		164254.0		39691.0
263182.0		328245.0		263182.0		65063.0
328734.0		404244.0		328734.0		75510.0
228882.0		271811.0		228882.0		42929.0
130662.0		153683.0		130662.0		23021.0
57184.0		65032.0		57184.0		7848.0
12005.0		13350.0		12005.0		1345.0
5680.0		6064.0		5680.0		384.0
2481.0		2677.0		2481.0		196.0
1321.0		1382.0		1321.0		61.0
1392.0		1474.0		1392.0		82.0
0.80<|#eta|<1.15
125679.0		171975.0		125679.0		46296.0
227978.0		315206.0		227978.0		87228.0
379178.0		524724.0		379178.0		145546.0
496542.0		666298.0		496542.0		169756.0
334095.0		429478.0		334095.0		95383.0
193264.0		244041.0		193264.0		50777.0
84459.0		101765.0		84459.0		17306.0
17278.0		21209.0		17278.0		3931.0
8952.0		9926.0		8952.0		974.0
3938.0		4296.0		3938.0		358.0
1987.0		2128.0		1987.0		141.0
2175.0		2379.0		2175.0		204.0
1.15<|#eta|<1.37
70002.0		100792.0		70002.0		30790.0
123933.0		172225.0		123933.0		48292.0
196234.0		280205.0		196234.0		83971.0
276859.0		372976.0		276859.0		96117.0
186271.0		239568.0		186271.0		53297.0
110835.0		136699.0		110835.0		25864.0
47114.0		57292.0		47114.0		10178.0
9908.0		11767.0		9908.0		1859.0
4627.0		5411.0		4627.0		784.0
2163.0		2469.0		2163.0		306.0
1090.0		1213.0		1090.0		123.0
1153.0		1314.0		1153.0		161.0
1.52<|#eta|<1.81
93125.0		118965.0		93125.0		25840.0
150414.0		190841.0		150414.0		40427.0
225852.0		288987.0		225852.0		63135.0
289852.0		368565.0		289852.0		78713.0
210156.0		255295.0		210156.0		45139.0
123438.0		147273.0		123438.0		23835.0
51862.0		60984.0		51862.0		9122.0
10334.0		12044.0		10334.0		1710.0
4844.0		5568.0		4844.0		724.0
2112.0		2346.0		2112.0		234.0
1142.0		1220.0		1142.0		78.0
1243.0		1317.0		1243.0		74.0
1.81<|#eta|<2.01
61911.0		77253.0		61911.0		15342.0
98907.0		123961.0		98907.0		25054.0
146466.0		176713.0		146466.0		30247.0
185991.0		220812.0		185991.0		34821.0
122133.0		147443.0		122133.0		25310.0
70192.0		82446.0		70192.0		12254.0
30229.0		34331.0		30229.0		4102.0
5949.0		6972.0		5949.0		1023.0
2674.0		3009.0		2674.0		335.0
1115.0		1239.0		1115.0		124.0
542.0		609.0		542.0		67.0
505.0		549.0		505.0		44.0
2.01<|#eta|<2.37
119035.0		138377.0		119035.0		19342.0
187139.0		214201.0		187139.0		27062.0
250215.0		282456.0		250215.0		32241.0
281670.0		324092.0		281670.0		42422.0
185619.0		209451.0		185619.0		23832.0
102161.0		115298.0		102161.0		13137.0
40926.0		47173.0		40926.0		6247.0
8352.0		9469.0		8352.0		1117.0
3630.0		4046.0		3630.0		416.0
1454.0		1609.0		1454.0		155.0
750.0		791.0		750.0		41.0
626.0		698.0		626.0		72.0
