0.00<|#eta|<0.60
282030.0		355753.0		282030.0		73723.0
508562.0		631542.0		508562.0		122980.0
774944.0		968210.0		774944.0		193272.0
1022340.0		1267390.0		1022340.0		245060.0
712567.0		847912.0		712567.0		135345.0
409722.0		480297.0		409722.0		70575.0
179244.0		205827.0		179244.0		26583.0
37838.0		43062.0		37838.0		5224.0
18100.0		19265.0		18100.0		1165.0
7897.0		8522.0		7897.0		625.0
3965.0		4299.0		3965.0		334.0
4310.0		4662.0		4310.0		352.0
0.60<|#eta|<0.80
75254.0		98620.0		75254.0		23366.0
163267.0		203945.0		163267.0		40678.0
261168.0		328245.0		261168.0		67077.0
325711.0		404244.0		325711.0		78533.0
227223.0		271811.0		227223.0		44588.0
129780.0		153683.0		129780.0		23903.0
56987.0		65032.0		56987.0		8045.0
11969.0		13350.0		11969.0		1381.0
5664.0		6064.0		5664.0		400.0
2480.0		2677.0		2480.0		197.0
1320.0		1382.0		1320.0		62.0
1392.0		1474.0		1392.0		82.0
0.80<|#eta|<1.15
123278.0		171975.0		123278.0		48697.0
223352.0		315206.0		223352.0		91854.0
372356.0		524724.0		372356.0		152368.0
488996.0		666298.0		488996.0		177302.0
329844.0		429478.0		329844.0		99634.0
190385.0		244041.0		190385.0		53656.0
83685.0		101765.0		83685.0		18080.0
17128.0		21209.0		17128.0		4081.0
8845.0		9926.0		8845.0		1081.0
3897.0		4296.0		3897.0		399.0
1984.0		2128.0		1984.0		144.0
2178.0		2379.0		2178.0		201.0
1.15<|#eta|<1.37
68301.0		100792.0		68301.0		32491.0
121185.0		172225.0		121185.0		51040.0
191943.0		280205.0		191943.0		88262.0
271300.0		372976.0		271300.0		101676.0
183216.0		239568.0		183216.0		56352.0
109385.0		136699.0		109385.0		27314.0
46639.0		57292.0		46639.0		10653.0
9838.0		11767.0		9838.0		1929.0
4576.0		5411.0		4576.0		835.0
2139.0		2469.0		2139.0		330.0
1083.0		1213.0		1083.0		130.0
1141.0		1314.0		1141.0		173.0
1.52<|#eta|<1.81
92267.0		118965.0		92267.0		26698.0
148711.0		190841.0		148711.0		42130.0
223178.0		288987.0		223178.0		65809.0
286782.0		368565.0		286782.0		81783.0
208259.0		255295.0		208259.0		47036.0
122271.0		147273.0		122271.0		25002.0
51446.0		60984.0		51446.0		9538.0
10251.0		12044.0		10251.0		1793.0
4791.0		5568.0		4791.0		777.0
2097.0		2346.0		2097.0		249.0
1142.0		1220.0		1142.0		78.0
1245.0		1317.0		1245.0		72.0
1.81<|#eta|<2.01
61598.0		77253.0		61598.0		15655.0
98526.0		123961.0		98526.0		25435.0
146293.0		176713.0		146293.0		30420.0
185968.0		220812.0		185968.0		34844.0
122167.0		147443.0		122167.0		25276.0
70261.0		82446.0		70261.0		12185.0
30285.0		34331.0		30285.0		4046.0
5951.0		6972.0		5951.0		1021.0
2668.0		3009.0		2668.0		341.0
1110.0		1239.0		1110.0		129.0
543.0		609.0		543.0		66.0
505.0		549.0		505.0		44.0
2.01<|#eta|<2.37
118515.0		138377.0		118515.0		19862.0
186708.0		214201.0		186708.0		27493.0
249910.0		282456.0		249910.0		32546.0
281735.0		324092.0		281735.0		42357.0
185875.0		209451.0		185875.0		23576.0
102138.0		115298.0		102138.0		13160.0
40858.0		47173.0		40858.0		6315.0
8328.0		9469.0		8328.0		1141.0
3627.0		4046.0		3627.0		419.0
1455.0		1609.0		1455.0		154.0
751.0		791.0		751.0		40.0
628.0		698.0		628.0		70.0
