0.00<|#eta|<0.60
0.008058962257521451
0.0077999562974434555
0.0076501998533375914
0.00782710925603003
0.006360329845550017
0.005869285046544159
0.003648695263497981
0.002809902001764897
0.0017129509473137183
0.003754987092231876
0.0018608978832286294
0.0010725010725011197
0.60<|#eta|<0.80
0.005232204421009912
0.004839540072078208
0.006135660863074821
0.007478156756810295
0.006103505744800564
0.005739086301022267
0.003029277893959903
0.002696629213483126
0.0026385224274406704
0.00037355248412396236
0.0007235890014472002
0.0
0.80<|#eta|<1.15
0.013961331588893677
0.014676116571385123
0.013001120589109627
0.011325262870367392
0.009898062298883792
0.011797198011809451
0.007605758364860216
0.007072469234758794
0.010779770300221592
0.009543761638733717
0.0014097744360902498
0.0012610340479192184
1.15<|#eta|<1.37
0.01687633939201516
0.015955871679489086
0.01531378811941253
0.014904444253785787
0.012752120483537022
0.01060724657824852
0.00829086085317321
0.005948839976204656
0.009425244871557936
0.009720534629404698
0.005770816158285341
0.0091324200913242
1.52<|#eta|<1.81
0.007212205270457739
0.008923658962172731
0.009253011381134768
0.008329602648108225
0.007430619479425804
0.007924059399890049
0.006821461366915971
0.006891398206575916
0.009518678160919558
0.006393861892583064
0.0
0.0015186028853455547
1.81<|#eta|<2.01
0.004051622590708459
0.003073547325368464
0.0009789885294234635
0.00010416100574250908
0.0002305975868640564
0.000836911432937848
0.0016311788179780295
0.0002868617326449163
0.001994017946161497
0.004035512510088712
0.0016420361247947435
0.0
2.01<|#eta|<2.37
0.003757849931708246
0.0020121287949169675
0.0010798142011498868
0.0002005603347198237
0.0012222429112298538
0.00019948307863104642
0.0014415025544273208
0.002534586545569817
0.0007414730598120922
0.0006215040397762328
0.0012642225031606058
0.002865329512893977
