0 < |eta| < 0.6
347002	458122
667481	834862
1105824	1285106
1440609	1638617
967217	1072633
574843	631219
251247	267413
52984	55943
24466	25477
10598	11014
5223	5502
5650	5939
0.6 < |eta| < 0.8
107173	141954
225985	280777
370127	437356
465968	525056
313062	342869
183941	199750
78970	83761
16735	17515
7477	7819
3149	3281
1643	1717
1771	1847
0.8 < |eta| < 1.15
186517	253924
361765	452607
612241	720407
770585	872221
488325	535726
288138	312499
122652	129260
26012	27735
12185	12672
5399	5546
2622	2682
2936	3041
1.15 < |eta| < 1.37
109685	150528
199382	250202
335388	393287
439703	494621
273435	301657
162714	176514
67206	71416
14336	15125
6789	7109
3004	3117
1598	1653
1580	1692
1.52 < |eta| < 1.81
129256	169094
225448	271411
337696	396746
429125	490867
303136	333146
183839	199060
73031	77873
14927	15817
6854	7142
3067	3166
1538	1583
1642	1686
1.81 < |eta| < 2.01
84391	108379
141895	171508
205078	239534
262855	293555
174932	193227
102909	111609
40657	43598
8094	8671
3597	3814
1532	1606
716	753
759	805
2.01 < |eta| < 2.37
152302	193722
250776	296414
338082	383662
390869	436219
251305	276187
144384	157111
55070	59744
10711	11564
4757	5062
1893	2012
889	978
883	979
