0 < |eta| < 0.6
404902	510918
745899	912653
1163473	1366047
1486708	1700079
1008897	1126740
620788	690355
263846	288486
56375	61171
25480	27454
11068	11867
5452	5874
5875	6348
0.6 < |eta| < 0.8
126248	160367
247379	306011
391245	463666
472792	545089
319399	360285
196647	218763
82901	90581
17645	19112
7843	8463
3284	3505
1719	1845
1770	1927
0.8 < |eta| < 1.15
205992	286965
385060	498506
624501	765279
756514	905483
482531	564346
299234	341960
124385	139641
27091	30266
12360	13656
5358	5948
2591	2859
2950	3254
1.15 < |eta| < 1.37
130140	171685
226032	278758
354518	419894
440555	513348
278219	318163
172286	193533
69575	77292
14941	16557
6994	7680
3093	3325
1602	1765
1658	1794
1.52 < |eta| < 1.81
145198	193992
237691	303864
354834	427019
434955	511714
311350	350812
199413	219153
78249	84918
15893	17321
7266	7713
3234	3407
1621	1700
1715	1796
1.81 < |eta| < 2.01
91093	120221
147505	187662
212818	256106
260629	305547
175354	202834
106781	121934
42046	47119
8514	9475
3730	4092
1598	1728
743	804
796	869
2.01 < |eta| < 2.37
170082	212741
265549	321789
350146	409194
396548	454378
257007	290022
152223	171309
57221	64544
11275	12644
4936	5431
1971	2162
942	1049
943	1044
