0 < |eta| < 0.6
348369	458122
671929	834862
1110917	1285106
1448907	1638617
970886	1072633
577604	631219
252177	267413
53315	55943
24670	25477
10715	11014
5329	5502
5746	5939
0.6 < |eta| < 0.8
107034	141954
227696	280777
371405	437356
466607	525056
313600	342869
184885	199750
79377	83761
16862	17515
7557	7819
3193	3281
1664	1717
1796	1847
0.8 < |eta| < 1.15
188466	253924
363281	452607
614312	720407
771544	872221
490731	535726
289834	312499
123225	129260
26151	27735
12288	12672
5437	5546
2638	2682
2967	3041
1.15 < |eta| < 1.37
111289	150528
201771	250202
338566	393287
440736	494621
274736	301657
163355	176514
67365	71416
14390	15125
6842	7109
3020	3117
1609	1653
1612	1692
1.52 < |eta| < 1.81
130878	169094
224954	271411
339815	396746
431660	490867
304235	333146
184555	199060
73320	77873
14987	15817
6898	7142
3078	3166
1544	1583
1651	1686
1.81 < |eta| < 2.01
85073	108379
143382	171508
206342	239534
264234	293555
176423	193227
103389	111609
40897	43598
8192	8671
3641	3814
1555	1606
727	753
786	805
2.01 < |eta| < 2.37
153368	193722
251876	296414
340133	383662
393956	436219
254230	276187
145274	157111
55572	59744
10831	11564
4819	5062
1930	2012
925	978
920	979
