0 < |eta| < 0.6
367999	458122
686721	834862
1097301	1285106
1434519	1638617
961451	1072633
568404	631219
245302	267413
51780	55943
23745	25477
10315	11014
5126	5502
5517	5939
0.6 < |eta| < 0.8
113265	141954
228383	280777
369844	437356
455863	525056
304263	342869
179804	199750
76857	83761
16230	17515
7284	7819
3076	3281
1600	1717
1705	1847
0.8 < |eta| < 1.15
185133	253924
352200	452607
589576	720407
729537	872221
458509	535726
273901	312499
115515	129260
24954	27735
11514	12672
5016	5546
2446	2682
2764	3041
1.15 < |eta| < 1.37
116054	150528
204424	250202
333044	393287
424961	494621
264107	301657
157446	176514
64482	71416
13709	15125
6521	7109
2916	3117
1509	1653
1575	1692
1.52 < |eta| < 1.81
129845	169094
215446	271411
331174	396746
418191	490867
296271	333146
181632	199060
72127	77873
14585	15817
6763	7142
3023	3166
1516	1583
1612	1686
1.81 < |eta| < 2.01
83085	108379
135658	171508
199482	239534
250680	293555
167268	193227
97870	111609
38995	43598
7809	8671
3479	3814
1482	1606
693	753
740	805
2.01 < |eta| < 2.37
155905	193722
245646	296414
328904	383662
381050	436219
244995	276187
139825	157111
53070	59744
10351	11564
4615	5062
1841	2012
880	978
885	979
