0 < |eta| < 0.6
312943.0			405326.0
613603.0			757071.0
1043598.0			1204165.0
1396007.0			1577155.0
922919.0			1018526.0
524317.0			572083.0
233030.0			246340.0
48566.0			50715.0
22856.0			23500.0
9923.0			10161.0
4993.0			5130.0
5370.0			5530.0
0.6 < |eta| < 0.8
94386.0			123541.0
208348.0			255543.0
349775.0			411046.0
449217.0			505023.0
297953.0			325453.0
167533.0			180737.0
73113.0			76941.0
15395.0			15918.0
6970.0			7175.0
2979.0			3057.0
1543.0			1589.0
1725.0			1767.0
0.8 < |eta| < 1.15
166204.0			220883.0
328733.0			406708.0
577505.0			675535.0
742926.0			838959.0
465056.0			507106.0
263060.0			283038.0
113691.0			118879.0
23902.0			25204.0
11387.0			11688.0
5066.0			5144.0
2474.0			2505.0
2766.0			2828.0
1.15 < |eta| < 1.37
97227.0			129371.0
180108.0			221646.0
316596.0			366680.0
424553.0			475894.0
260028.0			285151.0
147912.0			159495.0
62026.0			65540.0
13098.0			13693.0
6339.0			6538.0
2828.0			2909.0
1511.0			1541.0
1522.0			1590.0
1.52 < |eta| < 1.81
114748.0			144196.0
200990.0			238958.0
315350.0			366473.0
414262.0			470020.0
288684.0			315480.0
166465.0			178967.0
67082.0			70828.0
13635.0			14313.0
6383.0			6571.0
2859.0			2925.0
1434.0			1466.0
1546.0			1576.0
1.81 < |eta| < 2.01
76521.0			96537.0
130495.0			155354.0
192481.0			222962.0
253714.0			281563.0
167876.0			183620.0
93924.0			101284.0
37701.0			40077.0
7454.0			7867.0
3384.0			3536.0
1436.0			1484.0
677.0			702.0
727.0			741.0
2.01 < |eta| < 2.37
139318.0			174703.0
231314.0			271039.0
318071.0			358130.0
377891.0			418060.0
241681.0			262352.0
132381.0			142913.0
51203.0			54944.0
9871.0			10484.0
4484.0			4693.0
1795.0			1862.0
859.0			907.0
860.0			914.0
