0 < |eta| < 0.6
331096.0			405326.0
627543.0			757071.0
1031129.0			1204165.0
1382330.0			1577155.0
914005.0			1018526.0
516020.0			572083.0
226758.0			246340.0
47185.0			50715.0
22010.0			23500.0
9562.0			10161.0
4800.0			5130.0
5159.0			5530.0
0.6 < |eta| < 0.8
100282.0			123541.0
209387.0			255543.0
348443.0			411046.0
438934.0			505023.0
289127.0			325453.0
162961.0			180737.0
70813.0			76941.0
14815.0			15918.0
6725.0			7175.0
2868.0			3057.0
1481.0			1589.0
1640.0			1767.0
0.8 < |eta| < 1.15
164274.0			220883.0
319340.0			406708.0
554651.0			675535.0
702560.0			838959.0
434487.0			507106.0
248568.0			283038.0
106645.0			118879.0
22817.0			25204.0
10668.0			11688.0
4674.0			5144.0
2301.0			2505.0
2578.0			2828.0
1.15 < |eta| < 1.37
101968.0			129371.0
182816.0			221646.0
311570.0			366680.0
409367.0			475894.0
249995.0			285151.0
142606.0			159495.0
59389.0			65540.0
12477.0			13693.0
6048.0			6538.0
2739.0			2909.0
1416.0			1541.0
1492.0			1590.0
1.52 < |eta| < 1.81
114492.0			144196.0
193201.0			238958.0
307514.0			366473.0
401427.0			470020.0
281192.0			315480.0
163851.0			178967.0
66005.0			70828.0
13277.0			14313.0
6260.0			6571.0
2812.0			2925.0
1411.0			1466.0
1509.0			1576.0
1.81 < |eta| < 2.01
75077.0			96537.0
123811.0			155354.0
186146.0			222962.0
240731.0			281563.0
159182.0			183620.0
88959.0			101284.0
35944.0			40077.0
7104.0			7867.0
3228.0			3536.0
1366.0			1484.0
643.0			702.0
684.0			741.0
2.01 < |eta| < 2.37
141728.0			174703.0
225743.0			271039.0
307662.0			358130.0
365552.0			418060.0
232983.0			262352.0
127427.0			142913.0
48919.0			54944.0
9427.0			10484.0
4294.0			4693.0
1711.0			1862.0
818.0			907.0
827.0			914.0
