0 < |eta| < 0.6
376899	490621
729605	887685
1152612	1334812
1484833	1681530
1044163	1153037
646247	712004
279192	298203
59984	63631
27258	28515
11959	12408
5832	6126
6325	6649
0.6 < |eta| < 0.8
118450	154467
245615	298036
392183	454674
487776	540794
338946	370033
209413	226085
88470	93583
19158	19976
8445	8826
3531	3671
1897	1973
1905	1987
0.8 < |eta| < 1.15
206257	275259
389964	481454
641624	744579
801145	901644
539739	588327
331325	358330
138753	146281
29834	31657
13751	14247
6043	6224
2908	2986
3267	3378
1.15 < |eta| < 1.37
122159	165529
218428	270730
351317	407744
458385	512022
305122	333219
189576	204194
76693	81415
16461	17397
7607	7949
3326	3455
1785	1851
1777	1888
1.52 < |eta| < 1.81
145389	191317
249195	301050
362609	422222
448072	505765
327044	356686
209377	225785
82501	87993
17022	18082
7697	8051
3471	3603
1730	1787
1814	1871
1.81 < |eta| < 2.01
92232	117709
155863	184868
220419	253033
274260	303553
189267	209401
116865	127089
45587	49128
9276	9944
4066	4299
1709	1781
807	849
868	910
2.01 < |eta| < 2.37
161694	207909
265821	316541
353877	404254
399092	452485
275644	302563
165200	180171
62242	67921
12200	13255
5345	5739
2163	2294
1029	1117
996	1102
