0 < |eta| < 0.6
361542	440347
682704	812970
1089370	1256031
1434998	1619713
988020	1096430
586207	649461
252603	276019
53508	58103
24479	26440
10748	11515
5297	5744
5705	6207
0.6 < |eta| < 0.8
110448	136864
225355	273782
364173	428964
453523	520528
312802	351795
184289	206056
78968	86471
16868	18267
7582	8159
3173	3426
1715	1840
1744	1892
0.8 < |eta| < 1.15
183325	244040
348445	437905
584037	701463
734841	868296
483989	558424
288490	326893
121366	135238
26140	28986
11955	13201
5229	5791
2526	2792
2837	3150
1.15 < |eta| < 1.37
118388	145641
207107	243860
331539	382313
433686	493293
282162	315757
168148	185955
68195	75105
14468	15904
6783	7358
3009	3244
1588	1735
1640	1777
1.52 < |eta| < 1.81
132088	166070
220171	268773
335007	392532
422168	484942
305521	338293
189421	204470
75178	80528
15282	16486
7047	7443
3178	3350
1581	1664
1668	1755
1.81 < |eta| < 2.01
81744	106158
135559	169222
199924	236929
247981	291557
172530	199304
100806	116118
40413	45411
8197	9112
3612	4011
1515	1649
719	786
767	850
2.01 < |eta| < 2.37
152028	189500
240626	291912
323307	379404
377656	434155
254472	287891
146355	165000
55572	62730
10830	12134
4821	5342
1943	2128
929	1039
930	1037
