0 < |eta| < 0.6
692144.1499999998	833777.2300000001   853315.92  177824.92200000002
1261828.77	1490674.7200000002   1560245.8299999998  287722.438
1809712.5499999998	2081617.92   2239842.02  341812.955
2261861.33	2559872.53   2793926.48  374986.831
1578103.65	1769846.4   1956574.0499999998  242612.109
1066433.8099999998	1193238.6799999997   1327931.5  160415.124
530706.21	586567.42   663463.7099999998  71574.681
114940.145	127265.93600000002   144271.06900000002  15387.387499999999
45898.8141	50471.25280000002   56784.113999999994  5753.76171
18750.048300000006	20487.0707   23323.877399999994  2213.7495630000003
9280.7062	10084.397500000001   11504.9731  1034.0302459999998
9454.9628	10393.961299999999   11622.52453  1156.2034415879998
0.6 < |eta| < 0.8
191288.591	232070.18399999998   235921.131  51027.7515
393405.7510000001	470180.12   485720.66299999994  96638.17
605809.76	703747.8499999999   751308.4500000001  123293.038
719565.87	825625.7700000001   890897.4100000001  133394.987
506455.71799999994	572416.11   627660.4999999999  83267.39199999999
340310.51600000006	384984.1810000001   423762.41799999995  56609.6598
169291.02400000003	187925.96600000001   211520.47200000004  23735.356199999995
37296.70589999999	40929.181099999994   46513.17519999999  4468.73062
14673.291699999998	15905.398600000002   18288.0174  1528.3236919999997
6055.1745999999985	6552.43814   7668.754530000002  630.5705019
2968.2740200000003	3175.6039100000003   3634.213980000001  259.622974
2982.8553699999998	3211.44549   3767.495479999999  275.57741999999996
0.8 < |eta| < 1.15
322759.76900000003	412213.497   398915.61399999994  112627.73199999999
612070.36	743608.4000000001   759175.98  164767.91399999996
976896.5699999998	1143348.65   1209615.4000000001  208698.48399999997
1202672.6600000001	1392317.53   1488289.48  235733.29099999997
814337.13	930097.8300000001   1009916.4800000001  144939.66799999998
556620.292	627104.36   693067.47  88624.844
270549.43	301019.297   339075.04799999995  38517.707599999994
59223.2221	65507.92149999999   73829.43900000003  7829.215
24195.519299999996	26654.973700000002   30258.698299999996  3200.3245260000003
9730.95151	10734.84577   12132.20393  1260.039229
4552.038500000001	4923.19118   5518.77685  497.7352386
4895.387919999999	5407.36634   6094.8938  625.6252859999998
1.15 < |eta| < 1.37
206378.044	250682.536   255786.63200000004  55435.55509999999
358742.8900000001	421493.918   444751.42799999996  78139.802
543084.611	627135.26   672501.4700000001  104928.631
706429.9699999999	806200.5   875903.8500000002  124451.12200000002
483865.004	541612.2450000001   599213.0210000001  71867.42899999999
326736.18700000003	362852.938   406814.8779999999  45536.4394
158659.077	174571.87900000004   198694.334  20187.532
33746.12849999999	36770.10970000001   41883.249100000015  3791.1576900000005
14241.611699999998	15363.7394   17750.0035  1386.3817080000001
5608.10715	6069.586990000001   6981.683600000001  586.9766999999999
2821.66967	3047.6077499999997   3546.7323000000006  250.0114037
2839.17357	3036.23423   3443.9269500000005  239.59213590000002
1.52 < |eta| < 1.81
229390.64800000002	288637.12700000004   283894.597  73928.7602
389527.49399999995	476278.5420000001   481834.677  108648.00499999999
567285.787	658863.2899999999   700787.7600000001  113830.48300000001
711677.46	823093.9400000001   879386.02  138715.014
515168.5469999999	579134.907   638155.8  80319.33699999997
353114.9860000001	390643.4919999999   439617.214  47100.731
168367.044	183908.18699999998   209654.01  19426.164800000006
35922.084899999994	39221.7497   44799.42370000001  4174.100060000001
14564.973499999998	15659.4998   17842.2688  1398.725201488
5914.88754	6367.900689999999   7362.973889999998  533.4008279999999
2973.55864	3193.0345999999995   3710.0803100000003  256.4706029000001
2994.5035400000006	3180.75322   3619.0654299999997  227.191536
1.81 < |eta| < 2.01
147665.69000000003	188975.70999999996   182378.808  51762.6413
244389.511	303771.39200000005   301476.17  74149.18400000002
335158.70100000006	397142.63300000003   413341.47800000006  77825.976
416104.234	488898.6760000001   512556.58800000005  91664.02099999998
279629.74	328558.89499999996   344307.664  61129.32689999999
184725.155	212316.76400000005   229941.43899999998  35335.1453
90081.84500000002	102272.79999999999   112702.539  15457.683600000002
19939.6098	22250.0235   24816.6921  2969.4994409999995
7947.749740000002	8904.28069   9822.920189999999  1223.3451906999999
3144.87806	3486.20882   3910.8518300000005  409.24724158799995
1586.1692599999997	1763.04466   1962.5087919999999  223.33053999999998
1488.417142	1662.524303   1863.788341  231.40533299999998
2.01 < |eta| < 2.37
266238.92400000006	323088.49100000004   327243.073  70797.17369999998
420180.13099999994	510320.836   517791.28800000006  112354.55600000001
539644.395	639906.1199999999   667068.29  125451.638
648005.7599999999	744038.88   797194.2  120221.50700000001
437603.488	497335.49700000003   540481.716  74476.42000000001
280366.48299999995	314894.18999999994   347659.62600000005  43549.136499999986
132540.376	148079.827   164370.62099999998  19514.1017
28005.293500000003	31084.485300000004   34724.493899999994  3760.8954499999995
11386.117999999999	12498.492599999998   13921.367480000003  1373.7768459999995
4523.30172	4915.6935300000005   5573.041729999999  527.565155
1964.2736199999997	2157.70771   2420.84704  227.09725590000002
1951.9523680000004	2141.8418319999996   2387.9782649999997  234.52646400000003