0.00<|#eta|<0.60
0.0039895640251012
0.0021613442950270123
0.0007461372030194147
0.00019420384422852432
1.356766297744283e-05
1.406764931666249e-05
0.0005557547288850273
0.00018331695080475718
0.00204203364674016
0.0011959585906001768
0.0006752054416260256
0.0013704068669292413
0.60<|#eta|<0.80
0.002521357571732108
0.0017078106034318363
0.00033570599288679226
6.537237998238687e-05
0.0002496710346667763
0.00025305926272112256
0.0009786918952696677
0.0005045023824775674
0.0007350467506124225
0.00024227004547927589
0.0032843292385369427
0.001341528244104273
0.80<|#eta|<1.15
0.002783941650304045
0.0014907491685018925
0.0005965622129080472
5.928137004329592e-05
4.6441145505227155e-05
3.853048256852176e-05
0.0006744420605931944
0.0015420218209347691
0.0003248647751110667
0.0002897582544676425
0.002770938838718484
0.005131927283369309
1.15<|#eta|<1.37
0.003977168966127431
0.0019406962846867382
0.0007531943576257749
6.514734337992323e-05
8.98663570525482e-05
0.0004771734426661789
0.0010892507020197062
0.0007526108883747495
0.002548474231145459
0.0013034163850900171
0.000615657020984206
0.0038028429451790746
1.52<|#eta|<1.81
0.012246080037385476
0.007775876916097824
0.0024887243468371123
0.0007558322851705102
0.0006282061097330205
0.00042817113687210195
0.001067952352653112
0.0008981836100070417
0.0021810667182522447
0.0026081758064461225
0.004365309125749395
0.0005656323182992029
1.81<|#eta|<2.01
0.0035084397140795476
0.0021784214161164606
0.000470292440711062
6.40035494555713e-05
0.00010245415821497073
0.00023034243102970642
0.0001291472456311782
0.000756019517741513
0.0002595886838270278
0.002022282499185901
0.0026214283039356356
0.0051412025084218715
2.01<|#eta|<2.37
0.004152111127466052
0.0014600486025881931
0.0003554973309169984
3.996466143907362e-05
0.0003546549677940769
0.0008497122154607073
0.00030547284991089274
0.0010846855543575895
0.001602328630613603
0.002869564343018549
0.006938073621428731
1.9903294866119303e-05
