0.00<|#eta|<0.60
339286.0		413109.0		339286.0		73823.0
645499.0		766305.0		645499.0		120806.0
1048260.0		1205480.0		1048260.0		157213.0
1394210.0		1582460.0		1394210.0		188255.0
951420.0		1055180.0		951420.0		103754.0
546333.0		592638.0		546333.0		46305.0
240254.0		254812.0		240254.0		14558.0
50952.0		52638.0		50952.0		1686.0
23616.0		24393.0		23616.0		777.0
10332.0		10622.0		10332.0		290.0
5208.0		5357.0		5208.0		149.0
5447.0		5770.0		5447.0		323.0
0.60<|#eta|<0.80
99277.0		124486.0		99277.0		25209.0
213310.0		255996.0		213310.0		42686.0
353609.0		409638.0		353609.0		56029.0
439147.0		505608.0		439147.0		66461.0
309586.0		337397.0		309586.0		27811.0
171979.0		187491.0		171979.0		15512.0
75497.0		79655.0		75497.0		4158.0
15921.0		16589.0		15921.0		668.0
7336.0		7493.0		7336.0		157.0
3065.0		3177.0		3065.0		112.0
1657.0		1696.0		1657.0		39.0
1740.0		1805.0		1740.0		65.0
0.80<|#eta|<1.15
178119.0		216726.0		178119.0		38607.0
329584.0		397139.0		329584.0		67555.0
564969.0		658748.0		564969.0		93779.0
737926.0		835279.0		737926.0		97353.0
477428.0		531503.0		477428.0		54075.0
271257.0		296729.0		271257.0		25472.0
116434.0		124301.0		116434.0		7867.0
25260.0		26414.0		25260.0		1154.0
11925.0		12159.0		11925.0		234.0
5293.0		5385.0		5293.0		92.0
2551.0		2605.0		2551.0		54.0
2873.0		2950.0		2873.0		77.0
1.15<|#eta|<1.37
96482.0		125895.0		96482.0		29413.0
169369.0		215988.0		169369.0		46619.0
295636.0		353321.0		295636.0		57685.0
396838.0		470819.0		396838.0		73981.0
262040.0		297354.0		262040.0		35314.0
150921.0		167375.0		150921.0		16454.0
64259.0		68548.0		64259.0		4289.0
13651.0		14362.0		13651.0		711.0
6590.0		6789.0		6590.0		199.0
2940.0		3039.0		2940.0		99.0
1571.0		1615.0		1571.0		44.0
1581.0		1665.0		1581.0		84.0
1.52<|#eta|<1.81
118623.0		143951.0		118623.0		25328.0
196860.0		239433.0		196860.0		42573.0
307190.0		364819.0		307190.0		57629.0
395486.0		464536.0		395486.0		69050.0
288090.0		320284.0		288090.0		32194.0
168120.0		183135.0		168120.0		15015.0
67068.0		72997.0		67068.0		5929.0
13906.0		14878.0		13906.0		972.0
6587.0		6830.0		6587.0		243.0
3022.0		3108.0		3022.0		86.0
1475.0		1525.0		1475.0		50.0
1583.0		1642.0		1583.0		59.0
1.81<|#eta|<2.01
89000.0		96191.0		89000.0		7191.0
139070.0		154677.0		139070.0		15607.0
202597.0		221049.0		202597.0		18452.0
253604.0		279129.0		253604.0		25525.0
177344.0		189350.0		177344.0		12006.0
98974.0		105134.0		98974.0		6160.0
39303.0		41669.0		39303.0		2366.0
7791.0		8300.0		7791.0		509.0
3555.0		3708.0		3555.0		153.0
1471.0		1516.0		1471.0		45.0
695.0		723.0		695.0		28.0
760.0		797.0		760.0		37.0
2.01<|#eta|<2.37
156079.0		171938.0		156079.0		15859.0
244031.0		266840.0		244031.0		22809.0
322941.0		352631.0		322941.0		29690.0
378353.0		412847.0		378353.0		34494.0
251680.0		272757.0		251680.0		21077.0
135710.0		149605.0		135710.0		13895.0
53192.0		57403.0		53192.0		4211.0
10140.0		10987.0		10140.0		847.0
4721.0		4956.0		4721.0		235.0
1902.0		1956.0		1902.0		54.0
907.0		967.0		907.0		60.0
922.0		974.0		922.0		52.0
