0.00<|#eta|<0.60
0.0017477227559796749
0.005319030934158087
0.0028951123204034035
0.0026667340722672517
0.0014878977994275955
0.003751025077703418
0.005843523852879784
0.004635434476993772
0.004878448735292862
0.004895499905855805
0.006533507560201657
0.02010398613518205
0.60<|#eta|<0.80
0.008860434105039894
0.0017109642338161146
0.003952270053071194
0.004372952959605159
0.0021369484613081857
0.00443221274621175
0.0043060699265583535
0.00247151727048045
0.004537568397170788
0.009128108278249947
0.007075471698113178
0.006648199445983383
0.80<|#eta|<1.15
0.0018456484224320668
0.008024898083542564
0.006755238725582369
0.003520979217722431
0.003806187359243429
0.004303590144542735
0.003636334381863393
0.005527371848262352
0.0053458343613784765
0.007056638811513416
0.005374280230326267
0.007118644067796609
1.15<|#eta|<1.37
3.9715636045878355e-05
0.005662351612126693
0.0035350290529008177
0.0005012541974728224
0.0037766433274817324
0.002210604929051563
0.0030489583941180065
0.00369029383094277
0.00515539843865076
0.010200723922342947
0.007430340557275539
0.018018018018018056
1.52<|#eta|<1.81
2.084042486671933e-05
0.0027230999903939956
0.0021353054528410187
0.0017372173523687584
0.0033345405952217577
0.0029704862533104226
0.0055207748263627066
0.002755746740153331
0.0035139092240117353
0.00579150579150578
0.007868852459016473
0.013398294762484775
1.81<|#eta|<2.01
0.0014554376189039875
0.0008275309192704583
0.0025469466045989764
0.001468854902213712
0.004520728809083718
0.0013982156105541987
0.0014159207084403214
0.0046987951807229145
0.005393743257820938
0.0079155672823219
0.004149377593360981
0.006273525721455453
2.01<|#eta|<2.37
7.560864962952163e-05
0.0015327537100885413
0.002209108104505808
0.00025190930296214997
0.0009019016927154233
0.004578723973129306
0.004093862690103367
0.00591608264312371
0.0038337368845843267
0.004601226993865004
0.004136504653567741
0.02053388090349073
