0 < |eta| < 0.6
1.0977135999999994	1.3786468000000003  2.1182691400000004e-06  5.57132146e-07
2.0497986	2.4866617000000004  3.97903527e-06  8.71951559e-07
3.0225049999999998	3.4484888000000002  5.868247159999999e-06  8.615211900000002e-07
3.645618100000002	4.102033500000001  7.024443219999999e-06  9.02455268e-07
2.5185020999999996	2.7780521  4.909105360000001e-06  5.39584572e-07
1.7419474000000004	1.906413800000001  3.419792939999999e-06  3.36810676e-07
0.8826967099999999	0.95050885  1.7444664599999997e-06  1.3471809999999997e-07
0.19697773	0.2086971099999999  3.9430387200000015e-07  2.0912789099999997e-08
0.08017694600000001	0.08388559899999999  1.5315510800000002e-07  6.270597819999999e-09
0.03256075499999999	0.03364662899999998  6.48744729e-08  1.73373482e-09
0.015902395799999997	0.016430023999999994  3.26405799e-08  1.1074257150000004e-09
0.016598679100000003	0.017086978099999997  3.06473079e-08  1.3144547229999995e-09
0.6 < |eta| < 0.8
0.31905889000000015	0.3931891800000001  6.239011980000001e-07  1.4927787800000003e-07
0.6441901	0.7547684700000002  1.26510978e-06  2.2270244099999996e-07
0.9962871000000001	1.1252955999999998  1.9177027500000003e-06  2.62116872e-07
1.2198090999999998	1.3441968000000004  2.3680876399999995e-06  2.478933559999999e-07
0.8457211900000001	0.9089291900000002  1.6356829600000003e-06  1.28981037e-07
0.5724057899999999	0.6187058900000002  1.1188824910000001e-06  9.356218189999998e-08
0.28979837999999997	0.30782274000000015  5.562520690000001e-07  3.585875030000001e-08
0.06485857099999999	0.06745186900000004  1.24607733e-07  4.026857129999998e-09
0.026415916999999983	0.027241033000000008  4.987994499999998e-08  1.6241309509999997e-09
0.010856147199999992	0.011070903800000002  2.2023883199999995e-08  9.129481460000001e-10
0.004972049900000001	0.005091778000000002  9.196199249999997e-09  1.2342876372300006e-10
0.005383997600000001	0.0054793638999999965  1.1577650420000005e-08  1.189137412e-10
0.8 < |eta| < 1.15
0.5257130300000001	0.6513277500000001  1.0342935800000002e-06  2.46258728e-07
0.9867535200000003	1.1639219  1.91559999e-06  3.4482882e-07
1.5992104000000003	1.8079536000000005  3.117207430000001e-06  4.0752721300000005e-07
2.0377083	2.2456080999999988  3.9354307900000006e-06  4.1123393e-07
1.3999042999999995	1.5148166999999997  2.726342070000001e-06  2.2849543099999998e-07
0.96299558	1.0324879999999996  1.9047807499999996e-06  1.35873535e-07
0.47754551	0.50169478  9.22694355e-07  4.42500057e-08
0.10543842000000006	0.11115219000000001  2.0830728800000005e-07  1.445042912e-08
0.04379818799999998	0.04503277199999999  8.480221710000002e-08  1.7794785700000004e-09
0.017545683999999992	0.017828375999999996  3.45149526e-08  4.039735853e-10
0.0087545843	0.008905684099999998  2.04444998e-08  1.2193517400000001e-10
0.009108646500000003	0.009263578500000001  1.6799835699999997e-08  3.3435072649999993e-10
1.15 < |eta| < 1.37
0.3150395900000001	0.3934265899999998  6.17873262e-07  1.5059378699999997e-07
0.5706121799999999	0.6607366999999997  1.0852395560000001e-06  1.8030039099999996e-07
0.9074070000000003	0.9969150999999999  1.7657914800000001e-06  1.8049087600000005e-07
1.1969564999999995	1.2976259000000008  2.3307347899999998e-06  1.9901793300000006e-07
0.8313799599999999	0.8867845500000004  1.6133093699999998e-06  1.149237911e-07
0.5375486	0.5989354500000001  1.037925429e-06  1.1159255199999999e-07
0.27398854	0.29070727  5.443313549999999e-07  3.23757877e-08
0.059493396000000004	0.06288015  1.1332097650000002e-07  6.368230279999996e-09
0.024596558	0.02551684500000001  4.3840980800000016e-08  1.7086084299999996e-09
0.0099928552	0.010354997499999997  1.93062507e-08  8.96741105e-10
0.004998375799999999	0.005163258999999997  9.697936589999998e-09  2.0428781900000004e-10
0.005044513100000003	0.005231639800000001  8.939243579999997e-09  2.901317522e-10
1.52 < |eta| < 1.81
0.3592396400000001	0.44690110999999993  6.902855590000001e-07  1.6916174700000002e-07
0.6132331200000002	0.7440566899999996  1.1904173000000004e-06  2.5818445199999995e-07
0.9113890599999999	1.0439561000000004  1.7647033600000001e-06  2.6024493200000006e-07
1.1875114000000004	1.3319865999999998  2.29485592e-06  2.825135840000001e-07
0.88200287	0.9661005699999999  1.7236116099999997e-06  1.7006287100000001e-07
0.6011454600000002	0.6566749900000001  1.167425304e-06  1.094435425e-07
0.29134864999999993	0.3136560199999999  5.655705049999999e-07  4.3271344700000006e-08
0.06300807900000001	0.06658914399999999  1.1937786899999997e-07  6.739318339999998e-09
0.025830475	0.027003941000000007  5.2308590499999986e-08  2.190706520000001e-09
0.010469274800000003	0.010838776900000001  1.8960969400000007e-08  7.375170189999999e-10
0.0048758334000000006	0.0050436573000000005  7.715609830000002e-09  2.715701694e-10
0.005200677999999998	0.0053589881999999995  9.523855630000005e-09  2.74118985e-10
1.81 < |eta| < 2.01
0.24274184999999995	0.29976282  4.79153335e-07  1.0912604549999997e-07
0.41296344	0.47833094000000015  7.80942807e-07  1.3000384599999995e-07
0.5796711	0.6440276199999999  1.1237816700000002e-06  1.3097225299999998e-07
0.7439120999999996	0.8089089100000001  1.4319590699999998e-06  1.29866242e-07
0.5072380599999998	0.5446034300000001  9.64694693e-07  7.775996709999994e-08
0.32864203999999986	0.35333886000000003  6.421224260000001e-07  4.83109618e-08
0.16209453	0.17336079999999998  3.1276095899999983e-07  2.2339373699999994e-08
0.03477097399999998	0.03730422600000001  6.240363849999999e-08  4.84651423e-09
0.014267035699999998	0.015037974100000002  2.7402405999999987e-08  2.8513981359070006e-09
0.005855572700000001	0.006097537000000002  1.20736171e-08  3.1428139490000005e-10
0.002704120855	0.0027991119550000005  4.0223699674999985e-09  5.9702765066002e-11
0.0026214887700000003	0.0027219808700000006  4.16017353e-09  1.3462128210000004e-10
2.01 < |eta| < 2.37
0.4230250099999999	0.52903872  8.29199197e-07  1.97938472e-07
0.6835234299999998	0.8333668100000005  1.3262297999999998e-06  2.895589249999999e-07
0.9394629599999997	1.0881530999999998  1.8411022999999995e-06  2.94150983e-07
1.1242607000000004	1.2790185  2.18964745e-06  3.0358417999999994e-07
0.7429002200000001	0.82112103  1.4403753499999993e-06  1.5229627e-07
0.47868586000000013	0.5266371899999998  9.522293660000001e-07  9.861339040000003e-08
0.23153203000000006	0.25122826000000004  4.418024289999998e-07  4.094783850000003e-08
0.04967962699999999	0.05368274900000003  9.563346740000001e-08  8.892558000000005e-09
0.019889120000000007	0.021237655000000005  4.04615809e-08  2.5440527500000006e-09
0.0077974543	0.008227825000000001  1.33961654e-08  9.747701169999996e-10
0.0035096691000000005	0.0036925009  5.55114631e-09  3.546048937899999e-10
0.0033851228699999995	0.0035369168699999998  5.668111480000002e-09  2.4004036470000005e-10