0 < |eta| < 0.6
1.0974821	1.3786468000000003  2.11765147e-06  5.577495520000001e-07
2.049009399999999	2.4866617000000004  3.97791245e-06  8.730742700000003e-07
3.0215511000000004	3.4484888000000002  5.866712409999998e-06  8.6305509e-07
3.645141400000001	4.102033500000001  7.02372754e-06  9.031713319999999e-07
2.518133799999999	2.7780521  4.908423049999997e-06  5.402653630000001e-07
1.7417995	1.906413800000001  3.419633039999998e-06  3.369703519999999e-07
0.8826229899999999	0.95050885  1.7443556000000003e-06  1.3482882999999996e-07
0.19696907000000002	0.2086971099999999  3.9428285900000006e-07  2.09338209e-08
0.08016747600000002	0.08388559899999999  1.53152362e-07  6.27334146e-09
0.032560023999999986	0.03364662899999998  6.487410860000001e-08  1.7340986e-09
0.015902140799999995	0.016430023999999994  3.26404832e-08  1.1075224410000002e-09
0.0165980751	0.017086978099999997  3.06472264e-08  1.3145362299999994e-09
0.6 < |eta| < 0.8
0.31896801000000025	0.3931891800000001  6.23826161e-07  1.49352978e-07
0.6439729099999998	0.7547684700000002  1.2645807199999999e-06  2.23231057e-07
0.9960414999999999	1.1252955999999998  1.91719888e-06  2.6262035100000006e-07
1.2195383000000004	1.3441968000000004  2.367608290000001e-06  2.4837298700000003e-07
0.8454893799999998	0.9089291900000002  1.6354698e-06  1.2919409900000003e-07
0.57239313	0.6187058900000002  1.1187572370000002e-06  9.368752129999997e-08
0.2897699500000001	0.30782274000000015  5.562126579999999e-07  3.5898097299999995e-08
0.06485492199999998	0.06745186900000004  1.24607068e-07  4.027521019999998e-09
0.026412746999999993	0.027241033000000008  4.9879467199999976e-08  1.6246080039999994e-09
0.010854119199999993	0.011070903800000002  2.2022731899999997e-08  9.140988440000001e-10
0.0049714969000000005	0.005091778000000002  9.195994949999996e-09  1.2363314772300006e-10
0.005383740600000001	0.0054793638999999965  1.1577626480000003e-08  1.189376592e-10
0.8 < |eta| < 1.15
0.5256167	0.6513277500000001  1.034153379e-06  2.463989619999999e-07
0.9866608199999999	1.1639219  1.9156344499999997e-06  3.44794437e-07
1.5991985000000002	1.8079536000000005  3.117060330000001e-06  4.0767489899999993e-07
2.0374643	2.2456080999999988  3.934848029999999e-06  4.118166449999999e-07
1.3997468999999993	1.5148166999999997  2.7260337399999994e-06  2.2880307399999994e-07
0.9629537799999998	1.0324879999999996  1.9046006499999998e-06  1.3605415199999998e-07
0.47754744000000005	0.50169478  9.226906070000002e-07  4.4253782400000004e-08
0.10543330000000005	0.11115219000000001  2.0826150700000005e-07  1.4496206829999999e-08
0.04379304499999998	0.04503277199999999  8.479749220000002e-08  1.7842023600000005e-09
0.017546114999999994	0.017828375999999996  3.45150247e-08  4.039013963e-10
0.0087542445	0.008905684099999998  2.0444435999999998e-08  1.21998937e-10
0.009108853100000003	0.009263578500000001  1.6799878299999997e-08  3.3430807249999995e-10
1.15 < |eta| < 1.37
0.31483228999999996	0.3934265899999998  6.173726349999997e-07  1.510945e-07
0.57026222	0.6607366999999997  1.0846215879999997e-06  1.8091846899999999e-07
0.9070223000000002	0.9969150999999999  1.7652908199999994e-06  1.8099125500000006e-07
1.1967382000000004	1.2976259000000008  2.3304946e-06  1.99256756e-07
0.8312692899999996	0.8867845500000004  1.6129840500000004e-06  1.1524910559999997e-07
0.5378432900000002	0.5989354500000001  1.0385667360000004e-06  1.109516533e-07
0.27402406000000007	0.29070727  5.444389889999998e-07  3.2268151099999995e-08
0.0594939	0.06288015  1.133208402e-07  6.368367309999998e-09
0.024593545	0.02551684500000001  4.38402779e-08  1.7093115999999996e-09
0.0099909033	0.010354997499999997  1.9305868600000002e-08  8.97123174e-10
0.0049981859	0.005163258999999997  9.697990069999998e-09  2.0423432800000004e-10
0.005044073700000002	0.005231639800000001  8.939145269999999e-09  2.902300632e-10
1.52 < |eta| < 1.81
0.35917526	0.44690110999999993  6.902285e-07  1.6921887e-07
0.6131850900000003	0.7440566899999996  1.190518565e-06  2.5808345899999994e-07
0.91139288	1.0439561000000004  1.7646974499999992e-06  2.602507750000001e-07
1.1875095000000007	1.3319865999999998  2.29522167e-06  2.8214752900000006e-07
0.8818508700000002	0.9661005699999999  1.7233144799999999e-06  1.703600350000001e-07
0.6010170600000001	0.6566749900000001  1.1672395630000003e-06  1.0962927629999999e-07
0.2913038600000001	0.3136560199999999  5.654784580000001e-07  4.336341890000001e-08
0.062976141	0.06658914399999999  1.19335691e-07  6.781511619999999e-09
0.025832681	0.027003941000000007  5.23084338e-08  2.19086308e-09
0.010469971800000002	0.010838776900000001  1.89611334e-08  7.37353199e-10
0.004875705900000001	0.0050436573000000005  7.715593630000002e-09  2.715864174e-10
0.005198789899999999	0.0053589881999999995  9.523479670000002e-09  2.7449497699999997e-10
1.81 < |eta| < 2.01
0.24277194999999993	0.29976282  4.79165456e-07  1.0911390390000002e-07
0.4129296100000001	0.47833094000000015  7.808682060000001e-07  1.30078359e-07
0.5797836199999998	0.6440276199999999  1.12401282e-06  1.3074108800000002e-07
0.7437721599999999	0.8089089100000001  1.4316027400000004e-06  1.3022270500000003e-07
0.5070735	0.5446034300000001  9.64413835e-07  7.804076450000001e-08
0.32856775	0.35333886000000003  6.42092303e-07  4.83410558e-08
0.16204067	0.17336079999999998  3.1267258799999997e-07  2.2427788899999998e-08
0.034756206999999976	0.03730422600000001  6.2395021e-08  4.855134729999999e-09
0.014263787699999999	0.015037974100000002  2.7408381899999987e-08  2.845422782907e-09
0.005854512200000002	0.006097537000000002  1.2073450949999999e-08  3.144474549000001e-10
0.002704548355	0.0027991119550000005  4.022423737499998e-09  5.964899706600201e-11
0.0026206986700000002	0.0027219808700000006  4.16002965e-09  1.3476517710000005e-10
2.01 < |eta| < 2.37
0.42298705	0.52903872  8.291508349999999e-07  1.9798678599999992e-07
0.6835194599999999	0.8333668100000005  1.3262696699999996e-06  2.895191719999998e-07
0.9392765400000005	1.0881530999999998  1.84070424e-06  2.9454897599999994e-07
1.1241931000000003	1.2790185  2.18957836e-06  3.0365334499999985e-07
0.7428141500000004	0.82112103  1.4402057099999995e-06  1.52465812e-07
0.47868568000000006	0.5266371899999998  9.522547010000004e-07  9.858792980000003e-08
0.23151328000000004	0.25122826000000004  4.418005769999999e-07  4.0949695700000017e-08
0.04967624599999999	0.05368274900000003  9.563279990000001e-08  8.893224580000005e-09
0.019886158000000004	0.021237655000000005  4.04595866e-08  2.54604721e-09
0.0077948780999999995	0.008227825000000001  1.3394175199999999e-08  9.767605219999996e-10
0.003515123600000001	0.0036925009  5.5720517399999995e-09  3.3369969678999996e-10
0.0033858072700000004	0.0035369168699999998  5.668273930000002e-09  2.3987789670000007e-10