0 < |eta| < 0.6
336571	435047
662134	803351
1071477	1241283
1412385	1600517
980627	1083556
582452	641825
255818	272758
54361	57487
24991	26089
10989	11371
5425	5673
5850	6137
0.6 < |eta| < 0.8
104437	135285
223421	270584
365644	424050
463644	514404
318329	347677
188586	203572
80860	85458
17356	18037
7737	8056
3255	3392
1746	1823
1800	1874
0.8 < |eta| < 1.15
182069	241261
351653	432810
597542	693171
762557	858205
506157	551758
299030	323082
127021	133685
27179	28711
12628	13074
5576	5722
2696	2762
3015	3105
1.15 < |eta| < 1.37
107185	144023
194849	240960
325511	377935
436210	487499
285926	312107
170683	183780
70078	74237
14931	15727
6959	7254
3095	3211
1667	1722
1660	1757
1.52 < |eta| < 1.81
127569	164116
222313	265594
334253	388052
424801	479133
306712	334139
187740	202052
74905	79566
15383	16287
7073	7354
3214	3317
1597	1646
1683	1735
1.81 < |eta| < 2.01
82797	104912
140287	167231
202123	234077
260216	288071
178073	196930
105529	114812
41661	44866
8428	9016
3748	3961
1570	1638
735	777
803	841
2.01 < |eta| < 2.37
146177	187265
242788	288452
328434	374970
378383	429049
259055	284405
149515	163053
56782	62000
11033	11981
4930	5291
1990	2103
943	1029
936	1028
