0 < |eta| < 0.6
370355	484711
718548	877215
1135170	1319121
1463567	1661621
1029722	1139494
637460	703642
275659	294658
59307	62936
26877	28142
11809	12253
5770	6052
6246	6573
0.6 < |eta| < 0.8
116682	152694
242054	294550
386817	449492
481101	534447
334338	365691
206707	223371
87301	92498
18912	19721
8335	8709
3481	3632
1872	1953
1891	1969
0.8 < |eta| < 1.15
202840	272096
384061	475826
632367	735813
790408	891133
532626	581310
327209	354157
137060	144601
29551	31346
13593	14108
5969	6154
2873	2955
3230	3329
1.15 < |eta| < 1.37
120175	163705
215332	267476
346531	403038
451824	506009
301172	329381
187088	201818
75795	80476
16303	17204
7471	7835
3288	3418
1771	1836
1752	1866
1.52 < |eta| < 1.81
143655	189065
245915	297492
357865	417339
441929	499720
322705	352328
206704	223094
81478	86936
16809	17864
7618	7958
3442	3567
1714	1767
1791	1848
1.81 < |eta| < 2.01
91232	116328
152472	182665
215228	249985
270484	299934
186608	206917
115378	125653
44998	48553
9171	9837
4000	4242
1693	1768
796	839
848	901
2.01 < |eta| < 2.37
159275	205441
262247	312780
349255	399528
393831	447175
271975	298920
163022	178036
61408	67130
12020	13089
5274	5682
2138	2268
1014	1106
993	1093
