0 < |eta| < 0.6
370486	484711
718712	877215
1135259	1319121
1463628	1661621
1029841	1139494
637381	703642
275707	294658
59326	62936
26897	28142
11806	12253
5765	6052
6247	6573
0.6 < |eta| < 0.8
116713	152694
242051	294550
386940	449492
481249	534447
334387	365691
206646	223371
87363	92498
18910	19721
8334	8709
3484	3632
1876	1953
1890	1969
0.8 < |eta| < 1.15
202876	272096
384188	475826
632459	735813
790521	891133
532627	581310
327210	354157
137051	144601
29555	31346
13597	14108
5971	6154
2876	2955
3224	3329
1.15 < |eta| < 1.37
120160	163705
215248	267476
346638	403038
451884	506009
301171	329381
187207	201818
75772	80476
16291	17204
7489	7835
3289	3418
1772	1836
1749	1866
1.52 < |eta| < 1.81
143625	189065
245880	297492
357848	417339
441936	499720
322745	352328
206693	223094
81482	86936
16810	17864
7619	7958
3437	3567
1713	1767
1787	1848
1.81 < |eta| < 2.01
91262	116328
153677	182665
217353	249985
270668	299934
186650	206917
115388	125653
45001	48553
9162	9837
4002	4242
1694	1768
797	839
850	901
2.01 < |eta| < 2.37
159321	205441
262259	312780
349256	399528
393913	447175
272023	298920
163045	178036
61415	67130
12038	13089
5276	5682
2139	2268
1016	1106
988	1093
