0 < |eta| < 0.6
356047	435047
673407	803351
1074672	1241283
1415725	1600517
975035	1083556
578487	641825
249328	272758
52912	57487
24124	26089
10607	11371
5239	5673
5635	6137
0.6 < |eta| < 0.8
108866	135285
222230	270584
359300	424050
447355	514404
308553	347677
181971	203572
77920	85458
16669	18037
7492	8056
3141	3392
1694	1823
1723	1874
0.8 < |eta| < 1.15
180575	241261
343208	432810
575798	693171
724991	858205
477567	551758
284844	323082
119805	133685
25866	28711
11831	13074
5150	5722
2486	2762
2802	3105
1.15 < |eta| < 1.37
116795	144023
204486	240960
327184	377935
428001	487499
278591	312107
165966	183780
67409	74237
14328	15727
6654	7254
2979	3211
1565	1722
1619	1757
1.52 < |eta| < 1.81
130525	164116
217290	265594
330775	388052
416432	479133
301412	334139
187035	202052
74255	79566
15073	16287
6961	7354
3159	3317
1566	1646
1655	1735
1.81 < |eta| < 2.01
80551	104912
131608	167231
194325	234077
244377	288071
170109	196930
99534	114812
39853	44866
8079	9016
3560	3961
1495	1638
711	777
760	841
2.01 < |eta| < 2.37
149670	187265
237321	288452
319120	374970
372516	429049
250992	284405
144368	163053
54792	62000
10679	11981
4771	5291
1911	2103
917	1029
929	1028
