0 < |eta| < 0.6
371101	484711
719674	877215
1136751	1319121
1465083	1661621
1030752	1139494
637967	703642
275761	294658
59315	62936
26883	28142
11808	12253
5770	6052
6246	6573
0.6 < |eta| < 0.8
116961	152694
242542	294550
387328	449492
481601	534447
334500	365691
206802	223371
87333	92498
18920	19721
8339	8709
3486	3632
1872	1953
1889	1969
0.8 < |eta| < 1.15
203248	272096
384618	475826
633088	735813
790947	891133
532912	581310
327288	354157
137047	144601
29560	31346
13599	14108
5968	6154
2873	2955
3225	3329
1.15 < |eta| < 1.37
120624	163705
215911	267476
347079	403038
452325	506009
301390	329381
187199	201818
75819	80476
16297	17204
7470	7835
3287	3418
1772	1836
1750	1866
1.52 < |eta| < 1.81
143797	189065
246090	297492
358173	417339
442307	499720
322876	352328
206784	223094
81511	86936
16817	17864
7613	7958
3442	3567
1712	1767
1797	1848
1.81 < |eta| < 2.01
91275	116328
152560	182665
215288	249985
270586	299934
186633	206917
115440	125653
45026	48553
9173	9837
3997	4242
1693	1768
797	839
848	901
2.01 < |eta| < 2.37
159483	205441
262443	312780
349540	399528
393929	447175
272099	298920
163102	178036
61432	67130
12029	13089
5273	5682
2138	2268
1015	1106
994	1093
