0 < |eta| < 0.6
370993	484711
719310	877215
1136174	1319121
1464856	1661621
1030418	1139494
637746	703642
275683	294658
59293	62936
26867	28142
11809	12253
5769	6052
6247	6573
0.6 < |eta| < 0.8
116772	152694
242188	294550
386971	449492
481289	534447
334544	365691
206756	223371
87335	92498
18905	19721
8336	8709
3483	3632
1870	1953
1888	1969
0.8 < |eta| < 1.15
203163	272096
384631	475826
633087	735813
791047	891133
532854	581310
327331	354157
137107	144601
29569	31346
13585	14108
5970	6154
2872	2955
3228	3329
1.15 < |eta| < 1.37
120362	163705
215158	267476
346322	403038
452323	506009
301445	329381
187188	201818
75805	80476
16273	17204
7473	7835
3291	3418
1768	1836
1753	1866
1.52 < |eta| < 1.81
143593	189065
245987	297492
357995	417339
442167	499720
322833	352328
206754	223094
81500	86936
16808	17864
7614	7958
3442	3567
1714	1767
1791	1848
1.81 < |eta| < 2.01
91076	116328
152633	182665
215494	249985
270649	299934
186835	206917
115403	125653
44995	48553
9177	9837
4006	4242
1695	1768
795	839
856	901
2.01 < |eta| < 2.37
159342	205441
262314	312780
349365	399528
394069	447175
272116	298920
163083	178036
61411	67130
12020	13089
5284	5682
2136	2268
1014	1106
992	1093
