0 < |eta| < 0.6
356523	435047
673845	803351
1075149	1241283
1416374	1600517
975520	1083556
578597	641825
249347	272758
52916	57487
24107	26089
10607	11371
5239	5673
5634	6137
0.6 < |eta| < 0.8
108983	135285
222290	270584
359370	424050
447517	514404
308737	347677
181994	203572
77934	85458
16670	18037
7495	8056
3141	3392
1694	1823
1723	1874
0.8 < |eta| < 1.15
180746	241261
343669	432810
576282	693171
725672	858205
477806	551758
284957	323082
119845	133685
25867	28711
11826	13074
5151	5722
2486	2762
2802	3105
1.15 < |eta| < 1.37
116892	144023
204461	240960
327185	377935
428084	487499
278721	312107
165998	183780
67427	74237
14298	15727
6658	7254
2978	3211
1565	1722
1618	1757
1.52 < |eta| < 1.81
130539	164116
217372	265594
330858	388052
416565	479133
301472	334139
187057	202052
74292	79566
15073	16287
6961	7354
3158	3317
1566	1646
1655	1735
1.81 < |eta| < 2.01
80588	104912
131814	167231
194612	234077
244627	288071
170332	196930
99593	114812
39854	44866
8082	9016
3571	3961
1494	1638
711	777
760	841
2.01 < |eta| < 2.37
149772	187265
237387	288452
319172	374970
372588	429049
251084	284405
144395	163053
54780	62000
10673	11981
4771	5291
1911	2103
917	1029
929	1028
