0 < |eta| < 0.6
391920	484711
731169	877215
1139591	1319121
1468338	1661621
1024835	1139494
633498	703642
268778	294658
57731	62936
25956	28142
11393	12253
5569	6052
6017	6573
0.6 < |eta| < 0.8
121393	152694
240529	294550
380190	449492
464539	534447
324377	365691
199393	223371
84217	92498
18161	19721
8063	8709
3356	3632
1821	1953
1807	1969
0.8 < |eta| < 1.15
200875	272096
375130	475826
610006	735813
752229	891133
502803	581310
311838	354157
129356	144601
28133	31346
12733	14108
5518	6154
2648	2955
2996	3329
1.15 < |eta| < 1.37
130998	163705
225585	267476
348183	403038
443927	506009
293678	329381
182158	201818
72918	80476
15622	17204
7162	7835
3164	3418
1669	1836
1713	1866
1.52 < |eta| < 1.81
146469	189065
239978	297492
354197	417339
433422	499720
317201	352328
205985	223094
80844	86936
16465	17864
7496	7958
3376	3567
1675	1767
1760	1848
1.81 < |eta| < 2.01
88431	116328
145990	182665
210908	249985
254654	299934
178481	206917
108824	125653
43063	48553
8807	9837
3806	4242
1627	1768
776	839
820	901
2.01 < |eta| < 2.37
163117	205441
256364	312780
339388	399528
388112	447175
263611	298920
157457	178036
59253	67130
11657	13089
5122	5682
2049	2268
988	1106
982	1093
