0 < |eta| < 0.6
336636	435047
662178	803351
1071514	1241283
1412582	1600517
980765	1083556
582551	641825
255844	272758
54372	57487
24989	26089
10989	11371
5425	5673
5850	6137
0.6 < |eta| < 0.8
104502	135285
223490	270584
365749	424050
463682	514404
318364	347677
188615	203572
80871	85458
17357	18037
7738	8056
3255	3392
1747	1823
1800	1874
0.8 < |eta| < 1.15
182161	241261
351684	432810
597616	693171
762789	858205
506280	551758
299128	323082
127049	133685
27180	28711
12628	13074
5575	5722
2696	2762
3016	3105
1.15 < |eta| < 1.37
107237	144023
195456	240960
326218	377935
436446	487499
285989	312107
170727	183780
70084	74237
14937	15727
6960	7254
3095	3211
1667	1722
1660	1757
1.52 < |eta| < 1.81
127616	164116
222362	265594
334316	388052
424849	479133
306738	334139
187755	202052
74912	79566
15383	16287
7073	7354
3214	3317
1597	1646
1683	1735
1.81 < |eta| < 2.01
83353	104912
140372	167231
202257	234077
260303	288071
178142	196930
105556	114812
41669	44866
8429	9016
3748	3961
1570	1638
735	777
803	841
2.01 < |eta| < 2.37
146246	187265
242818	288452
328473	374970
378426	429049
259065	284405
149526	163053
56789	62000
11034	11981
4930	5291
1990	2103
943	1029
936	1028
