0 < |eta| < 0.6
356052	435047
673410	803351
1074680	1241283
1415736	1600517
975040	1083556
578489	641825
249333	272758
52912	57487
24124	26089
10607	11371
5239	5673
5635	6137
0.6 < |eta| < 0.8
108871	135285
222232	270584
359306	424050
447366	514404
308555	347677
181972	203572
77921	85458
16669	18037
7492	8056
3141	3392
1694	1823
1723	1874
0.8 < |eta| < 1.15
180591	241261
343223	432810
575808	693171
725009	858205
477578	551758
284847	323082
119807	133685
25866	28711
11831	13074
5150	5722
2486	2762
2802	3105
1.15 < |eta| < 1.37
116801	144023
204490	240960
327190	377935
428003	487499
278591	312107
165970	183780
67409	74237
14328	15727
6654	7254
2979	3211
1565	1722
1619	1757
1.52 < |eta| < 1.81
130540	164116
217311	265594
330783	388052
416434	479133
301415	334139
187040	202052
74257	79566
15073	16287
6961	7354
3159	3317
1566	1646
1655	1735
1.81 < |eta| < 2.01
80565	104912
131612	167231
194329	234077
244383	288071
170109	196930
99538	114812
39853	44866
8079	9016
3560	3961
1495	1638
711	777
760	841
2.01 < |eta| < 2.37
149681	187265
237328	288452
319133	374970
372526	429049
250997	284405
144372	163053
54793	62000
10679	11981
4771	5291
1911	2103
917	1029
929	1028
