0 < |eta| < 0.6
356211	435047
673600	803351
1074904	1241283
1415966	1600517
975347	1083556
578524	641825
249355	272758
52911	57487
24111	26089
10609	11371
5239	5673
5635	6137
0.6 < |eta| < 0.8
109090	135285
222566	270584
359633	424050
447749	514404
308705	347677
182006	203572
77934	85458
16670	18037
7492	8056
3141	3392
1693	1823
1724	1874
0.8 < |eta| < 1.15
180780	241261
343685	432810
576371	693171
725546	858205
477775	551758
284901	323082
119802	133685
25863	28711
11832	13074
5152	5722
2486	2762
2801	3105
1.15 < |eta| < 1.37
117062	144023
204748	240960
327537	377935
428273	487499
278840	312107
165991	183780
67443	74237
14328	15727
6654	7254
2976	3211
1565	1722
1619	1757
1.52 < |eta| < 1.81
130638	164116
217472	265594
330921	388052
416733	479133
301583	334139
187085	202052
74316	79566
15093	16287
6963	7354
3159	3317
1566	1646
1655	1735
1.81 < |eta| < 2.01
80592	104912
131646	167231
194363	234077
244496	288071
170132	196930
99575	114812
39859	44866
8080	9016
3558	3961
1495	1638
711	777
760	841
2.01 < |eta| < 2.37
149768	187265
237504	288452
319312	374970
372681	429049
251130	284405
144447	163053
54820	62000
10681	11981
4767	5291
1911	2103
917	1029
930	1028
