0 < |eta| < 0.6
0.03473060092765283
0.025901774480648267
0.00987987992452313
0.003384182815602242
0.003454301009478741
0.0027545186726871894
0.005479922725063623
0.005248945740573235
0.004819543733367657
0.0032078106136945203
0.0038072695458864192
0.0109628653204972
0.6 < |eta| < 0.8
0.029046811552611733
0.02568667502599923
0.00849445726177519
0.0028389077835849932
0.002761377160746501
0.003510901286510289
0.0040152454444933655
0.0021985086156788712
0.0007275309176516448
0.007602147629210416
0.008869291481954991
0.003341925250940569
0.8 < |eta| < 1.15
0.036136875463573394
0.029412017219998348
0.011329904287464039
0.003019477209191015
0.0019175899229573383
0.0017096457858588006
0.0008782502216418303
0.0017806156824429111
0.009696915529343821
0.0066891568333492905
0.015178574962488292
0.0049787909083091894
1.15 < |eta| < 1.37
0.04273691295410036
0.031042880442435937
0.011514741865565326
0.0035713985724198146
0.0030672521360404045
0.005147708463756774
0.002994047630668524
0.0027631643746515535
0.014836665817925334
0.012789630956503277
0.016554367536555592
0.004308438528111183
1.52 < |eta| < 1.81
0.09610834205018785
0.07643662565486303
0.025869207602111487
0.009110157509851438
0.0076414560505215735
0.012828733255314514
0.01669950616762023
0.009735408180814756
0.011600500277141147
0.01767031361191505
0.005235796605104755
0.025957139723703743
1.81 < |eta| < 2.01
0.03214620559967039
0.025589367137410012
0.009348398388625969
0.0036746666893444756
0.0034652627318788134
0.00447433194840541
0.0017407897904177909
0.007962341217404708
0.010390744948365135
0.043023881262105906
0.021248442498978674
0.012948993179691864
2.01 < |eta| < 2.37
0.01568252715304905
0.01316038879476998
0.007125844059602527
0.0032294277664828594
0.0028279587621097536
0.0013693098134010613
0.0009596044090060309
0.005035712364478048
0.0037475381481078076
0.0020604553847776153
0.0045986896033976
0.01544226080515143
