0 < |eta| < 0.6
376889	510918
723529	912653
1164250	1366047
1485117	1700079
1005987	1126740
618844	690355
268329	288486
57384	61171
25999	27454
11378	11867
5543	5874
5986	6348
0.6 < |eta| < 0.8
117913	160367
244759	306011
391003	463666
483235	545089
326085	360285
199652	218763
84917	90581
18223	19112
8044	8463
3364	3505
1757	1845
1843	1927
0.8 < |eta| < 1.15
208017	286965
393960	498506
647728	765279
794027	905483
512272	564346
312177	341960
131557	139641
28202	30266
13070	13656
5745	5948
2776	2859
3134	3254
1.15 < |eta| < 1.37
123325	171685
221248	278758
352128	419894
454522	513348
287199	318163
177525	193533
72185	77292
15593	16557
7280	7680
3171	3325
1692	1765
1664	1794
1.52 < |eta| < 1.81
144835	193992
247940	303864
360676	427019
446231	511714
318209	350812
200791	219153
78893	84918
16200	17321
7346	7713
3285	3407
1649	1700
1734	1796
1.81 < |eta| < 2.01
92422	120221
154433	187662
217680	256106
272738	305547
181008	202834
110871	121934
43305	47119
8779	9475
3843	4092
1650	1728
762	804
818	869
2.01 < |eta| < 2.37
164736	212741
269396	321789
357537	409194
400110	454378
263373	290022
156569	171309
58938	64544
11570	12644
5070	5431
2034	2162
959	1049
948	1044
