0 < |eta| < 0.6
342080	458122
665791	834862
1097736	1285106
1432826	1638617
958644	1072633
566633	631219
249413	267413
52700	55943
24214	25477
10595	11014
5218	5502
5626	5939
0.6 < |eta| < 0.8
105468	141954
225593	280777
369502	437356
465875	525056
310603	342869
182529	199750
78713	83761
16767	17515
7469	7819
3151	3281
1637	1717
1774	1847
0.8 < |eta| < 1.15
186070	253924
359787	452607
611155	720407
765628	872221
486790	535726
285784	312499
122113	129260
25973	27735
12180	12672
5382	5546
2615	2682
2935	3041
1.15 < |eta| < 1.37
109576	150528
199855	250202
330711	393287
438430	494621
272625	301657
162212	176514
66887	71416
14317	15125
6783	7109
2982	3117
1595	1653
1579	1692
1.52 < |eta| < 1.81
129010	169094
224077	271411
336500	396746
428968	490867
302754	333146
182879	199060
72724	77873
14872	15817
6838	7142
3068	3166
1539	1583
1630	1686
1.81 < |eta| < 2.01
83995	108379
141720	171508
203987	239534
262318	293555
172678	193227
101607	111609
40170	43598
8056	8671
3589	3814
1532	1606
716	753
765	805
2.01 < |eta| < 2.37
150963	193722
249092	296414
335771	383662
384495	436219
251003	276187
143830	157111
54623	59744
10630	11564
4743	5062
1901	2012
894	978
889	979
