0 < |eta| < 0.6
400550	510918
740391	912653
1154504	1366047
1476966	1700079
1001901	1126740
616641	690355
262450	288486
56120	61171
25354	27454
11043	11867
5435	5874
5849	6348
0.6 < |eta| < 0.8
125572	160367
245795	306011
389015	463666
471037	545089
318103	360285
194926	218763
82342	90581
17604	19112
7813	8463
3267	3505
1711	1845
1763	1927
0.8 < |eta| < 1.15
204281	286965
381295	498506
620730	765279
751619	905483
480680	564346
297887	341960
123882	139641
26964	30266
12315	13656
5341	5948
2584	2859
2943	3254
1.15 < |eta| < 1.37
129561	171685
224610	278758
353472	419894
437533	513348
277339	318163
171869	193533
69226	77292
14875	16557
6977	7680
3079	3325
1594	1765
1654	1794
1.52 < |eta| < 1.81
143911	193992
236798	303864
352237	427019
433007	511714
308589	350812
198748	219153
77981	84918
15834	17321
7238	7713
3233	3407
1618	1700
1710	1796
1.81 < |eta| < 2.01
90358	120221
145632	187662
211329	256106
258289	305547
173899	202834
105605	121934
41808	47119
8468	9475
3695	4092
1583	1728
739	804
791	869
2.01 < |eta| < 2.37
169271	212741
263706	321789
348191	409194
394760	454378
255705	290022
151394	171309
56914	64544
11222	12644
4917	5431
1960	2162
941	1049
942	1044
