0 < |eta| < 0.6
400557	510918
740438	912653
1154635	1366047
1477039	1700079
1001966	1126740
616716	690355
262477	288486
56129	61171
25356	27454
11044	11867
5439	5874
5852	6348
0.6 < |eta| < 0.8
125578	160367
245827	306011
389070	463666
471079	545089
318146	360285
194979	218763
82358	90581
17608	19112
7816	8463
3267	3505
1712	1845
1763	1927
0.8 < |eta| < 1.15
204321	286965
381307	498506
620736	765279
751621	905483
480694	564346
297931	341960
123906	139641
26971	30266
12317	13656
5342	5948
2583	2859
2943	3254
1.15 < |eta| < 1.37
129609	171685
224636	278758
353507	419894
437575	513348
277385	318163
171897	193533
69229	77292
14876	16557
6979	7680
3080	3325
1594	1765
1655	1794
1.52 < |eta| < 1.81
143923	193992
236812	303864
352269	427019
433036	511714
308598	350812
198748	219153
77983	84918
15834	17321
7239	7713
3233	3407
1617	1700
1710	1796
1.81 < |eta| < 2.01
90384	120221
145637	187662
211338	256106
258320	305547
173934	202834
105635	121934
41818	47119
8469	9475
3696	4092
1583	1728
739	804
792	869
2.01 < |eta| < 2.37
169300	212741
263757	321789
348275	409194
394811	454378
255739	290022
151426	171309
56927	64544
11226	12644
4918	5431
1960	2162
941	1049
942	1044
