0 < |eta| < 0.6
400549	510918
740371	912653
1154486	1366047
1476978	1700079
1001913	1126740
616653	690355
262451	288486
56120	61171
25355	27454
11043	11867
5435	5874
5849	6348
0.6 < |eta| < 0.8
125572	160367
245790	306011
389021	463666
471026	545089
318108	360285
194924	218763
82340	90581
17603	19112
7813	8463
3267	3505
1712	1845
1763	1927
0.8 < |eta| < 1.15
204276	286965
381290	498506
620729	765279
751609	905483
480680	564346
297879	341960
123877	139641
26960	30266
12317	13656
5339	5948
2583	2859
2943	3254
1.15 < |eta| < 1.37
129530	171685
224599	278758
353465	419894
437514	513348
277329	318163
171858	193533
69223	77292
14875	16557
6975	7680
3079	3325
1594	1765
1654	1794
1.52 < |eta| < 1.81
143915	193992
236799	303864
352243	427019
432997	511714
308579	350812
198741	219153
77980	84918
15835	17321
7241	7713
3233	3407
1617	1700
1710	1796
1.81 < |eta| < 2.01
90352	120221
145609	187662
211293	256106
258287	305547
173898	202834
105607	121934
41807	47119
8470	9475
3694	4092
1583	1728
739	804
791	869
2.01 < |eta| < 2.37
169252	212741
263698	321789
348203	409194
394751	454378
255711	290022
151399	171309
56907	64544
11222	12644
4917	5431
1960	2162
941	1049
942	1044
