0 < |eta| < 0.6
342031	458122
665751	834862
1097695	1285106
1432686	1638617
958550	1072633
566549	631219
249398	267413
52699	55943
24214	25477
10596	11014
5217	5502
5626	5939
0.6 < |eta| < 0.8
105391	141954
225536	280777
369421	437356
465849	525056
310592	342869
182497	199750
78709	83761
16758	17515
7468	7819
3149	3281
1637	1717
1773	1847
0.8 < |eta| < 1.15
186006	253924
359746	452607
611101	720407
765504	872221
486714	535726
285728	312499
122102	129260
25973	27735
12180	12672
5382	5546
2615	2682
2935	3041
1.15 < |eta| < 1.37
109495	150528
199460	250202
330195	393287
438477	494621
272642	301657
162186	176514
66880	71416
14317	15125
6783	7109
2981	3117
1595	1653
1575	1692
1.52 < |eta| < 1.81
128977	169094
224035	271411
336446	396746
428924	490867
302703	333146
182864	199060
72719	77873
14871	15817
6838	7142
3068	3166
1539	1583
1630	1686
1.81 < |eta| < 2.01
83665	108379
141648	171508
203887	239534
262227	293555
172635	193227
101584	111609
40165	43598
8054	8671
3589	3814
1532	1606
713	753
764	805
2.01 < |eta| < 2.37
150907	193722
249055	296414
335728	383662
384461	436219
250988	276187
143808	157111
54612	59744
10629	11564
4743	5062
1900	2012
894	978
889	979
