0 < |eta| < 0.6
364104	458122
681722	834862
1088851	1285106
1425155	1638617
954779	1072633
564611	631219
244022	267413
51544	55943
23628	25477
10290	11014
5109	5502
5495	5939
0.6 < |eta| < 0.8
112657	141954
226923	280777
367760	437356
454182	525056
303031	342869
178214	199750
76345	83761
16192	17515
7258	7819
3059	3281
1592	1717
1699	1847
0.8 < |eta| < 1.15
183591	253924
348788	452607
586055	720407
724826	872221
456745	535726
272657	312499
115061	129260
24838	27735
11473	12672
5002	5546
2439	2682
2757	3041
1.15 < |eta| < 1.37
115545	150528
203148	250202
332073	393287
422057	494621
263275	301657
157063	176514
64155	71416
13650	15125
6505	7109
2902	3117
1503	1653
1572	1692
1.52 < |eta| < 1.81
128734	169094
214657	271411
328764	396746
416342	490867
293645	333146
181035	199060
71888	77873
14531	15817
6736	7142
3022	3166
1512	1583
1607	1686
1.81 < |eta| < 2.01
82433	108379
133957	171508
198092	239534
248452	293555
165877	193227
96793	111609
38777	43598
7766	8671
3446	3814
1467	1606
689	753
736	805
2.01 < |eta| < 2.37
155167	193722
243969	296414
327078	383662
379335	436219
243762	276187
139060	157111
52784	59744
10301	11564
4598	5062
1831	2012
879	978
884	979
