0 < |eta| < 0.6
400531	510918
740360	912653
1154477	1366047
1476962	1700079
1001914	1126740
616651	690355
262451	288486
56120	61171
25355	27454
11043	11867
5435	5874
5849	6348
0.6 < |eta| < 0.8
125561	160367
245781	306011
389018	463666
471024	545089
318107	360285
194922	218763
82339	90581
17603	19112
7813	8463
3267	3505
1712	1845
1763	1927
0.8 < |eta| < 1.15
204272	286965
381281	498506
620711	765279
751606	905483
480672	564346
297874	341960
123877	139641
26960	30266
12317	13656
5339	5948
2583	2859
2943	3254
1.15 < |eta| < 1.37
129533	171685
224587	278758
353461	419894
437509	513348
277329	318163
171858	193533
69223	77292
14875	16557
6975	7680
3079	3325
1594	1765
1654	1794
1.52 < |eta| < 1.81
143902	193992
236787	303864
352222	427019
432989	511714
308582	350812
198737	219153
77978	84918
15834	17321
7238	7713
3233	3407
1617	1700
1710	1796
1.81 < |eta| < 2.01
90344	120221
145612	187662
211289	256106
258283	305547
173898	202834
105606	121934
41807	47119
8469	9475
3694	4092
1583	1728
739	804
791	869
2.01 < |eta| < 2.37
169249	212741
263691	321789
348199	409194
394754	454378
255711	290022
151393	171309
56908	64544
11222	12644
4917	5431
1960	2162
941	1049
942	1044
