0 < |eta| < 0.6
342064	458122
665769	834862
1097716	1285106
1432819	1638617
958637	1072633
566624	631219
249410	267413
52700	55943
24214	25477
10595	11014
5218	5502
5626	5939
0.6 < |eta| < 0.8
105440	141954
225573	280777
369486	437356
465863	525056
310603	342869
182527	199750
78713	83761
16764	17515
7469	7819
3151	3281
1637	1717
1773	1847
0.8 < |eta| < 1.15
186059	253924
359772	452607
611132	720407
765620	872221
486790	535726
285781	312499
122112	129260
25973	27735
12180	12672
5382	5546
2615	2682
2935	3041
1.15 < |eta| < 1.37
109518	150528
199821	250202
330677	393287
438410	494621
272618	301657
162211	176514
66895	71416
14317	15125
6783	7109
2982	3117
1597	1653
1579	1692
1.52 < |eta| < 1.81
129019	169094
224079	271411
336490	396746
428957	490867
302732	333146
182875	199060
72719	77873
14871	15817
6838	7142
3068	3166
1539	1583
1633	1686
1.81 < |eta| < 2.01
83995	108379
141716	171508
203980	239534
262305	293555
172667	193227
101602	111609
40172	43598
8054	8671
3589	3814
1532	1606
713	753
765	805
2.01 < |eta| < 2.37
150933	193722
249071	296414
335744	383662
384481	436219
250997	276187
143814	157111
54623	59744
10629	11564
4743	5062
1901	2012
894	978
888	979
