0 < |eta| < 0.6
400523	510918
740349	912653
1154465	1366047
1476944	1700079
1001890	1126740
616638	690355
262445	288486
56120	61171
25355	27454
11041	11867
5435	5874
5849	6348
0.6 < |eta| < 0.8
125551	160367
245781	306011
389013	463666
471028	545089
318107	360285
194924	218763
82341	90581
17602	19112
7813	8463
3267	3505
1712	1845
1763	1927
0.8 < |eta| < 1.15
204257	286965
381285	498506
620716	765279
751514	905483
480612	564346
297836	341960
123871	139641
26960	30266
12317	13656
5339	5948
2583	2859
2943	3254
1.15 < |eta| < 1.37
129521	171685
224472	278758
353393	419894
437621	513348
277374	318163
171859	193533
69213	77292
14870	16557
6975	7680
3079	3325
1594	1765
1654	1794
1.52 < |eta| < 1.81
143894	193992
236793	303864
352221	427019
432986	511714
308578	350812
198741	219153
77980	84918
15834	17321
7239	7713
3232	3407
1617	1700
1710	1796
1.81 < |eta| < 2.01
90259	120221
145606	187662
211301	256106
258295	305547
173900	202834
105613	121934
41811	47119
8470	9475
3694	4092
1583	1728
739	804
791	869
2.01 < |eta| < 2.37
169229	212741
263701	321789
348209	409194
394760	454378
255715	290022
151397	171309
56908	64544
11222	12644
4917	5431
1960	2162
941	1049
942	1044
