0 < |eta| < 0.6
342057	458122
665785	834862
1097710	1285106
1432829	1638617
958625	1072633
566612	631219
249405	267413
52693	55943
24214	25477
10595	11014
5218	5502
5627	5939
0.6 < |eta| < 0.8
105443	141954
225594	280777
369492	437356
465852	525056
310608	342869
182518	199750
78714	83761
16764	17515
7466	7819
3151	3281
1638	1717
1773	1847
0.8 < |eta| < 1.15
186067	253924
359773	452607
611137	720407
765638	872221
486790	535726
285785	312499
122113	129260
25974	27735
12180	12672
5382	5546
2615	2682
2935	3041
1.15 < |eta| < 1.37
109531	150528
199823	250202
330692	393287
438414	494621
272621	301657
162219	176514
66891	71416
14317	15125
6783	7109
2983	3117
1595	1653
1579	1692
1.52 < |eta| < 1.81
129008	169094
224090	271411
336500	396746
428959	490867
302730	333146
182877	199060
72728	77873
14872	15817
6838	7142
3068	3166
1539	1583
1630	1686
1.81 < |eta| < 2.01
83993	108379
141737	171508
204017	239534
262310	293555
172667	193227
101608	111609
40172	43598
8053	8671
3589	3814
1532	1606
713	753
765	805
2.01 < |eta| < 2.37
150939	193722
249079	296414
335745	383662
384488	436219
251001	276187
143809	157111
54621	59744
10628	11564
4743	5062
1901	2012
894	978
889	979
