0 < |eta| < 0.6
364103	458122
681706	834862
1088835	1285106
1425166	1638617
954791	1072633
564623	631219
244022	267413
51544	55943
23629	25477
10290	11014
5109	5502
5495	5939
0.6 < |eta| < 0.8
112664	141954
226937	280777
367784	437356
454184	525056
303042	342869
178216	199750
76343	83761
16191	17515
7258	7819
3059	3281
1593	1717
1699	1847
0.8 < |eta| < 1.15
183600	253924
348789	452607
586056	720407
724825	872221
456747	535726
272650	312499
115056	129260
24835	27735
11475	12672
5001	5546
2438	2682
2757	3041
1.15 < |eta| < 1.37
115558	150528
203145	250202
332077	393287
422065	494621
263267	301657
157054	176514
64152	71416
13650	15125
6503	7109
2902	3117
1503	1653
1572	1692
1.52 < |eta| < 1.81
128744	169094
214655	271411
328785	396746
416356	490867
293640	333146
181048	199060
71894	77873
14532	15817
6737	7142
3022	3166
1512	1583
1608	1686
1.81 < |eta| < 2.01
82435	108379
133946	171508
198070	239534
248463	293555
165876	193227
96795	111609
38776	43598
7767	8671
3445	3814
1467	1606
689	753
736	805
2.01 < |eta| < 2.37
155166	193722
243967	296414
327095	383662
379368	436219
243771	276187
139073	157111
52781	59744
10301	11564
4598	5062
1831	2012
879	978
884	979
