0 < |eta| < 0.6
376925	510918
723556	912653
1164317	1366047
1485226	1700079
1006054	1126740
618900	690355
268351	288486
57384	61171
25997	27454
11378	11867
5543	5874
5986	6348
0.6 < |eta| < 0.8
117948	160367
244799	306011
391071	463666
483256	545089
326101	360285
199677	218763
84924	90581
18225	19112
8041	8463
3366	3505
1757	1845
1843	1927
0.8 < |eta| < 1.15
208075	286965
393981	498506
647776	765279
794172	905483
512330	564346
312229	341960
131572	139641
28206	30266
13070	13656
5745	5948
2776	2859
3134	3254
1.15 < |eta| < 1.37
123371	171685
221575	278758
352590	419894
454859	513348
287377	318163
177559	193533
72189	77292
15596	16557
7281	7680
3171	3325
1692	1765
1664	1794
1.52 < |eta| < 1.81
144884	193992
247980	303864
360719	427019
446266	511714
318221	350812
200804	219153
78902	84918
16200	17321
7348	7713
3286	3407
1649	1700
1734	1796
1.81 < |eta| < 2.01
92736	120221
154475	187662
217765	256106
272810	305547
181049	202834
110895	121934
43308	47119
8779	9475
3843	4092
1650	1728
762	804
818	869
2.01 < |eta| < 2.37
164807	212741
269419	321789
357555	409194
400132	454378
263386	290022
156579	171309
58940	64544
11570	12644
5071	5431
2034	2162
959	1049
948	1044
