0 < |eta| < 0.6
342012	458122
665696	834862
1097598	1285106
1432711	1638617
958551	1072633
566502	631219
249375	267413
52689	55943
24213	25477
10595	11014
5218	5502
5627	5939
0.6 < |eta| < 0.8
105414	141954
225543	280777
369407	437356
465792	525056
310556	342869
182490	199750
78700	83761
16764	17515
7465	7819
3151	3281
1638	1717
1773	1847
0.8 < |eta| < 1.15
186012	253924
359765	452607
611126	720407
765605	872221
486780	535726
285756	312499
122101	129260
25972	27735
12180	12672
5382	5546
2615	2682
2935	3041
1.15 < |eta| < 1.37
109487	150528
199797	250202
330667	393287
438379	494621
272598	301657
162202	176514
66887	71416
14317	15125
6782	7109
2983	3117
1595	1653
1579	1692
1.52 < |eta| < 1.81
128984	169094
224061	271411
336457	396746
428931	490867
302708	333146
182870	199060
72712	77873
14871	15817
6838	7142
3068	3166
1539	1583
1630	1686
1.81 < |eta| < 2.01
83985	108379
141696	171508
203941	239534
262287	293555
172650	193227
101586	111609
40170	43598
8053	8671
3588	3814
1531	1606
713	753
764	805
2.01 < |eta| < 2.37
150915	193722
249065	296414
335708	383662
384438	436219
250979	276187
143785	157111
54616	59744
10627	11564
4743	5062
1901	2012
894	978
889	979
