0 < |eta| < 0.6
376882	510918
723520	912653
1164245	1366047
1485107	1700079
1005988	1126740
618841	690355
268329	288486
57384	61171
25999	27454
11378	11867
5543	5874
5986	6348
0.6 < |eta| < 0.8
117909	160367
244753	306011
390996	463666
483224	545089
326080	360285
199653	218763
84917	90581
18227	19112
8044	8463
3364	3505
1757	1845
1844	1927
0.8 < |eta| < 1.15
208017	286965
393960	498506
647726	765279
794023	905483
512269	564346
312178	341960
131559	139641
28204	30266
13071	13656
5745	5948
2776	2859
3134	3254
1.15 < |eta| < 1.37
123319	171685
221236	278758
352118	419894
454517	513348
287204	318163
177517	193533
72182	77292
15593	16557
7280	7680
3171	3325
1692	1765
1664	1794
1.52 < |eta| < 1.81
144822	193992
247929	303864
360667	427019
446227	511714
318214	350812
200793	219153
78890	84918
16200	17321
7346	7713
3285	3407
1649	1700
1734	1796
1.81 < |eta| < 2.01
92410	120221
154426	187662
217677	256106
272742	305547
181001	202834
110872	121934
43301	47119
8780	9475
3843	4092
1650	1728
766	804
818	869
2.01 < |eta| < 2.37
164732	212741
269396	321789
357540	409194
400115	454378
263375	290022
156577	171309
58938	64544
11570	12644
5070	5431
2034	2162
959	1049
948	1044
