0 < |eta| < 0.6
342047	458122
665763	834862
1097702	1285106
1432806	1638617
958637	1072633
566622	631219
249410	267413
52700	55943
24214	25477
10595	11014
5218	5502
5626	5939
0.6 < |eta| < 0.8
105434	141954
225570	280777
369477	437356
465854	525056
310597	342869
182525	199750
78712	83761
16767	17515
7469	7819
3151	3281
1637	1717
1774	1847
0.8 < |eta| < 1.15
186058	253924
359770	452607
611127	720407
765614	872221
486787	535726
285782	312499
122113	129260
25973	27735
12180	12672
5382	5546
2615	2682
2935	3041
1.15 < |eta| < 1.37
109513	150528
199807	250202
330676	393287
438407	494621
272619	301657
162203	176514
66887	71416
14317	15125
6783	7109
2982	3117
1595	1653
1579	1692
1.52 < |eta| < 1.81
128987	169094
224064	271411
336476	396746
428945	490867
302726	333146
182875	199060
72716	77873
14871	15817
6838	7142
3068	3166
1539	1583
1630	1686
1.81 < |eta| < 2.01
83982	108379
141709	171508
203976	239534
262309	293555
172660	193227
101603	111609
40170	43598
8056	8671
3589	3814
1532	1606
716	753
765	805
2.01 < |eta| < 2.37
150931	193722
249074	296414
335752	383662
384480	436219
250997	276187
143820	157111
54622	59744
10629	11564
4743	5062
1901	2012
894	978
889	979
