0 < |eta| < 0.6
400559	510918
740366	912653
1154485	1366047
1477028	1700079
1001940	1126740
616675	690355
262457	288486
56120	61171
25355	27454
11043	11867
5435	5874
5849	6348
0.6 < |eta| < 0.8
125578	160367
245809	306011
389048	463666
471040	545089
318122	360285
194930	218763
82342	90581
17602	19112
7813	8463
3267	3505
1712	1845
1763	1927
0.8 < |eta| < 1.15
204301	286965
381308	498506
620744	765279
751767	905483
480735	564346
297924	341960
123888	139641
26960	30266
12317	13656
5339	5948
2583	2859
2943	3254
1.15 < |eta| < 1.37
129552	171685
224700	278758
353573	419894
437675	513348
277387	318163
171869	193533
69231	77292
14876	16557
6975	7680
3079	3325
1594	1765
1654	1794
1.52 < |eta| < 1.81
143926	193992
236823	303864
352246	427019
433020	511714
308596	350812
198745	219153
77981	84918
15834	17321
7240	7713
3232	3407
1617	1700
1710	1796
1.81 < |eta| < 2.01
90494	120221
145654	187662
211339	256106
258349	305547
173935	202834
105641	121934
41820	47119
8471	9475
3694	4092
1583	1728
739	804
791	869
2.01 < |eta| < 2.37
169315	212741
263701	321789
348214	409194
394756	454378
255718	290022
151401	171309
56913	64544
11224	12644
4917	5431
1960	2162
941	1049
942	1044
