0 < |eta| < 0.6
400539	510918
740345	912653
1154480	1366047
1476973	1700079
1001921	1126740
616648	690355
262454	288486
56121	61171
25354	27454
11043	11867
5436	5874
5851	6348
0.6 < |eta| < 0.8
125555	160367
245785	306011
389008	463666
471022	545089
318100	360285
194918	218763
82342	90581
17602	19112
7816	8463
3267	3505
1712	1845
1763	1927
0.8 < |eta| < 1.15
204266	286965
381290	498506
620705	765279
751604	905483
480675	564346
297878	341960
123878	139641
26960	30266
12316	13656
5339	5948
2583	2859
2943	3254
1.15 < |eta| < 1.37
129516	171685
224584	278758
353455	419894
437509	513348
277324	318163
171848	193533
69220	77292
14872	16557
6974	7680
3080	3325
1594	1765
1654	1794
1.52 < |eta| < 1.81
143895	193992
236785	303864
352218	427019
432992	511714
308576	350812
198733	219153
77978	84918
15834	17321
7239	7713
3233	3407
1617	1700
1710	1796
1.81 < |eta| < 2.01
90345	120221
145580	187662
211232	256106
258283	305547
173896	202834
105609	121934
41810	47119
8468	9475
3695	4092
1581	1728
738	804
791	869
2.01 < |eta| < 2.37
169252	212741
263703	321789
348201	409194
394758	454378
255708	290022
151396	171309
56909	64544
11225	12644
4917	5431
1960	2162
941	1049
942	1044
