0 < |eta| < 0.6
364080	458122
681632	834862
1088724	1285106
1425074	1638617
954734	1072633
564551	631219
243999	267413
51540	55943
23622	25477
10290	11014
5108	5502
5494	5939
0.6 < |eta| < 0.8
112632	141954
226890	280777
367705	437356
454124	525056
302994	342869
178167	199750
76334	83761
16189	17515
7258	7819
3058	3281
1590	1717
1699	1847
0.8 < |eta| < 1.15
183552	253924
348780	452607
586032	720407
724808	872221
456723	535726
272625	312499
115024	129260
24834	27735
11471	12672
5000	5546
2438	2682
2757	3041
1.15 < |eta| < 1.37
115484	150528
203085	250202
332000	393287
421991	494621
263238	301657
157019	176514
64134	71416
13646	15125
6503	7109
2902	3117
1503	1653
1572	1692
1.52 < |eta| < 1.81
128713	169094
214642	271411
328730	396746
416302	490867
293620	333146
181025	199060
71886	77873
14530	15817
6736	7142
3022	3166
1512	1583
1607	1686
1.81 < |eta| < 2.01
82397	108379
133902	171508
197994	239534
248413	293555
165852	193227
96769	111609
38759	43598
7764	8671
3445	3814
1466	1606
688	753
736	805
2.01 < |eta| < 2.37
155120	193722
243909	296414
327039	383662
379286	436219
243729	276187
139043	157111
52770	59744
10300	11564
4597	5062
1831	2012
877	978
884	979
