0 < |eta| < 0.6
342086	458122
665798	834862
1097770	1285106
1432920	1638617
958700	1072633
566673	631219
249432	267413
52700	55943
24212	25477
10595	11014
5218	5502
5626	5939
0.6 < |eta| < 0.8
105470	141954
225613	280777
369549	437356
465886	525056
310617	342869
182544	199750
78719	83761
16765	17515
7466	7819
3153	3281
1637	1717
1773	1847
0.8 < |eta| < 1.15
186108	253924
359789	452607
611170	720407
765759	872221
486847	535726
285826	312499
122126	129260
25975	27735
12180	12672
5382	5546
2615	2682
2935	3041
1.15 < |eta| < 1.37
109556	150528
200115	250202
331131	393287
438736	494621
272780	301657
162239	176514
66894	71416
14319	15125
6784	7109
2982	3117
1595	1653
1579	1692
1.52 < |eta| < 1.81
129042	169094
224112	271411
336524	396746
428982	490867
302734	333146
182884	199060
72728	77873
14871	15817
6840	7142
3069	3166
1539	1583
1630	1686
1.81 < |eta| < 2.01
84278	108379
141754	171508
204060	239534
262376	293555
172707	193227
101625	111609
40177	43598
8055	8671
3589	3814
1532	1606
713	753
765	805
2.01 < |eta| < 2.37
150993	193722
249095	296414
335766	383662
384496	436219
251006	276187
143823	157111
54624	59744
10629	11564
4744	5062
1901	2012
894	978
889	979
