0 < |eta| < 0.6
0.004580171249026765
0.0027928811550056443
0.0012371328006814952
0.0005549496535507403
0.00041611591591228514
0.000647831472486704
0.0013913558126263936
0.001855231815041547
0.0017745335223101621
0.002398256272355792
0.0008764366813039937
0.0016467182936711344
0.6 < |eta| < 0.8
0.0040115170750664175
0.002400348012057907
0.0009591238524933043
0.00046438241505386557
0.00038215098082816645
0.0006825507595908942
0.001177567660176071
0.0016579067682243043
0.0014412946749718936
0.001810569676653273
0.0006500868662711046
0.00032793887846516157
0.8 < |eta| < 1.15
0.004213554967319455
0.0027241372632005323
0.0012346502847010443
0.0005837048546158963
0.00040067628757389784
0.0007431714443375537
0.0011120781606236418
0.0018377654149599465
0.001370834711733715
0.0017763832684932757
0.0013756585874684646
0.0016704688748351293
1.15 < |eta| < 1.37
0.005095439288748782
0.0027992146397441964
0.0013070373825831982
0.0006188239756012015
0.0006799782396854637
0.0007005039812363334
0.0012903175910909948
0.0015906355383519255
0.003269023733113996
0.0011570072007381915
0.002503662144436869
0.002536316619040302
1.52 < |eta| < 1.81
0.011957206526897246
0.008278011169596367
0.0029547810690967458
0.001240218595846776
0.0011343014518481187
0.002177893922180374
0.002415920625285728
0.002576008528042739
0.0024975715665233045
0.0036301535922552697
0.0024924560880886792
0.0019246040136640108
1.81 < |eta| < 2.01
0.0038506051848560263
0.0023145125546006895
0.0010611324214353512
0.0006365721010421765
0.0007062648623450407
0.0007609375126749196
0.0006247595718156251
0.0006201105222118919
0.0009559830866454622
0.0018287053352417093
0.004260929909784772
0.005006343059357765
2.01 < |eta| < 2.37
0.0034076201771363612
0.0019600614152351925
0.0009695915713977543
0.00045610683285302045
0.0004426279545796108
0.0006610644257702969
0.0005652188024886096
0.0007006490761958251
0.0023468994208416527
0.004215824570402593
0.002123082149125266
0.0009454997795327325
