0 < |eta| < 0.6
1361238	1984428
2075280	2973534
3506512	4766684
5213497	6829159
5443537	6655980
3602594	4314976
1537553	1776660
293718	336666
127144	142939
53293	59715
26717	29822
28452	32032
0.6 < |eta| < 0.8
366558	564584
574733	889582
1108014	1559357
1681966	2238972
1713560	2144110
1128951	1377361
483962	561060
94638	107439
40211	44729
16882	18678
8350	9170
9120	9739
0.8 < |eta| < 1.15
590059	999101
827388	1374778
1481020	2261082
2391482	3454673
2573338	3350226
1790698	2218712
752120	887704
147664	171123
63503	72983
26601	30242
13282	15011
14152	15845
1.15 < |eta| < 1.37
339817	534377
432078	675905
735682	1091239
1287021	1768569
1505950	1856867
1032705	1238056
426793	491828
80990	92155
35977	40144
15102	16851
7546	8311
7916	8826
1.52 < |eta| < 1.81
417667	677295
454841	780874
741466	1167695
1304211	1875827
1521124	1954005
1101887	1345303
457546	532044
84486	96824
36169	40408
15619	16905
7608	8300
7804	8489
1.81 < |eta| < 2.01
261647	443484
333836	577551
601791	914336
969062	1360571
932841	1230872
599552	756236
249525	301656
47253	55891
19672	22577
7919	9068
3709	4318
3573	4280
2.01 < |eta| < 2.37
492765	799771
642880	1064965
1085293	1592821
1544391	2088791
1460269	1836279
910837	1107277
366973	432983
67900	77620
26943	30599
10594	11824
4807	5380
4480	4945
