0 < |eta| < 0.6
347451	458122
669477	834862
1107624	1285106
1443553	1638617
968566	1072633
575859	631219
251590	267413
53115	55943
24553	25477
10652	11014
5281	5502
5689	5939
0.6 < |eta| < 0.8
107077	141954
226574	280777
370586	437356
466198	525056
313199	342869
184305	199750
79129	83761
16784	17515
7503	7819
3167	3281
1656	1717
1776	1847
0.8 < |eta| < 1.15
190814	253924
367167	452607
619681	720407
775924	872221
492660	535726
290908	312499
123288	129260
26285	27735
12290	12672
5423	5546
2628	2682
2959	3041
1.15 < |eta| < 1.37
111447	150528
201168	250202
341538	393287
443885	494621
275840	301657
163899	176514
67541	71416
14388	15125
6836	7109
3022	3117
1602	1653
1606	1692
1.52 < |eta| < 1.81
131876	169094
227203	271411
341707	396746
433835	490867
304641	333146
184798	199060
73377	77873
14984	15817
6888	7142
3075	3166
1543	1583
1647	1686
1.81 < |eta| < 2.01
85915	108379
143775	171508
207741	239534
265369	293555
176770	193227
103746	111609
40961	43598
8164	8671
3632	3814
1550	1606
719	753
775	805
2.01 < |eta| < 2.37
153002	193722
251289	296414
339007	383662
392182	436219
252426	276187
144738	157111
55254	59744
10748	11564
4784	5062
1906	2012
904	978
902	979
