0 < |eta| < 0.6
347457	458122
669492	834862
1107633	1285106
1443554	1638617
968557	1072633
575847	631219
251589	267413
53113	55943
24554	25477
10652	11014
5281	5502
5689	5939
0.6 < |eta| < 0.8
107083	141954
226588	280777
370590	437356
466192	525056
313200	342869
184306	199750
79128	83761
16784	17515
7503	7819
3167	3281
1656	1717
1776	1847
0.8 < |eta| < 1.15
190819	253924
367174	452607
619688	720407
775935	872221
492665	535726
290917	312499
123293	129260
26288	27735
12291	12672
5423	5546
2628	2682
2959	3041
1.15 < |eta| < 1.37
111454	150528
201172	250202
341543	393287
443891	494621
275851	301657
163906	176514
67545	71416
14389	15125
6836	7109
3025	3117
1602	1653
1606	1692
1.52 < |eta| < 1.81
131892	169094
227214	271411
341716	396746
433846	490867
304652	333146
184802	199060
73377	77873
14985	15817
6888	7142
3075	3166
1543	1583
1647	1686
1.81 < |eta| < 2.01
85921	108379
143796	171508
207766	239534
265372	293555
176773	193227
103746	111609
40958	43598
8164	8671
3632	3814
1550	1606
719	753
775	805
2.01 < |eta| < 2.37
153018	193722
251294	296414
339006	383662
392189	436219
252428	276187
144736	157111
55252	59744
10748	11564
4784	5062
1906	2012
904	978
902	979
