0 < |eta| < 0.6
367162	458122
685892	834862
1095254	1285106
1432249	1638617
959806	1072633
567376	631219
244784	267413
51652	55943
23698	25477
10302	11014
5115	5502
5506	5939
0.6 < |eta| < 0.8
113125	141954
228197	280777
369417	437356
455255	525056
303484	342869
179533	199750
76654	83761
16210	17515
7268	7819
3069	3281
1594	1717
1700	1847
0.8 < |eta| < 1.15
189973	253924
360315	452607
599333	720407
738078	872221
463617	535726
275615	312499
115984	129260
24989	27735
11484	12672
4986	5546
2425	2682
2742	3041
1.15 < |eta| < 1.37
121851	150528
212804	250202
340433	393287
435074	494621
268783	301657
159266	176514
64949	71416
13790	15125
6516	7109
2890	3117
1500	1653
1565	1692
1.52 < |eta| < 1.81
134615	169094
222184	271411
339300	396746
425344	490867
300566	333146
183408	199060
72487	77873
14597	15817
6755	7142
3015	3166
1511	1583
1608	1686
1.81 < |eta| < 2.01
83825	108379
136330	171508
199560	239534
251347	293555
167284	193227
97645	111609
38814	43598
7770	8671
3457	3814
1459	1606
687	753
733	805
2.01 < |eta| < 2.37
155616	193722
245456	296414
327908	383662
380008	436219
244663	276187
139318	157111
52914	59744
10321	11564
4600	5062
1836	2012
880	978
884	979
