0 < |eta| < 0.6
367136	458122
685844	834862
1095221	1285106
1432214	1638617
959800	1072633
567355	631219
244773	267413
51652	55943
23700	25477
10303	11014
5115	5502
5506	5939
0.6 < |eta| < 0.8
113109	141954
228182	280777
369386	437356
455241	525056
303484	342869
179528	199750
76652	83761
16209	17515
7269	7819
3072	3281
1596	1717
1700	1847
0.8 < |eta| < 1.15
189935	253924
360282	452607
599297	720407
737973	872221
463554	535726
275559	312499
115974	129260
24985	27735
11483	12672
4980	5546
2426	2682
2744	3041
1.15 < |eta| < 1.37
121837	150528
212709	250202
340346	393287
435100	494621
268814	301657
159258	176514
64940	71416
13786	15125
6512	7109
2889	3117
1500	1653
1566	1692
1.52 < |eta| < 1.81
134586	169094
222167	271411
339284	396746
425324	490867
300548	333146
183398	199060
72487	77873
14596	15817
6755	7142
3015	3166
1511	1583
1608	1686
1.81 < |eta| < 2.01
83723	108379
136247	171508
199491	239534
251299	293555
167256	193227
97624	111609
38795	43598
7771	8671
3457	3814
1459	1606
687	753
733	805
2.01 < |eta| < 2.37
155556	193722
245439	296414
327905	383662
379997	436219
244673	276187
139319	157111
52908	59744
10318	11564
4601	5062
1836	2012
880	978
884	979
