0 < |eta| < 0.6
382819	510918
727564	912653
1174756	1366047
1496251	1700079
1016425	1126740
629005	690355
270685	288486
57841	61171
26358	27454
11438	11867
5611	5874
6057	6348
0.6 < |eta| < 0.8
119739	160367
245834	306011
392177	463666
483585	545089
328829	360285
201612	218763
85376	90581
18246	19112
8082	8463
3380	3505
1777	1845
1847	1927
0.8 < |eta| < 1.15
213438	286965
402191	498506
656863	765279
804721	905483
518436	564346
317800	341960
132833	139641
28550	30266
13187	13656
5790	5948
2792	2859
3159	3254
1.15 < |eta| < 1.37
125582	171685
222780	278758
363735	419894
460198	513348
290626	318163
179390	193533
72898	77292
15678	16557
7338	7680
3214	3325
1699	1765
1694	1794
1.52 < |eta| < 1.81
148263	193992
251484	303864
366346	427019
451353	511714
320226	350812
202922	219153
79624	84918
16335	17321
7405	7713
3293	3407
1653	1700
1752	1796
1.81 < |eta| < 2.01
94573	120221
156707	187662
221707	256106
275935	305547
185330	202834
113232	121934
44160	47119
8899	9475
3887	4092
1669	1728
768	804
831	869
2.01 < |eta| < 2.37
167008	212741
271802	321789
361011	409194
408157	454378
264870	290022
157581	171309
59607	64544
11699	12644
5116	5431
2040	2162
969	1049
962	1044
