0 < |eta| < 0.6
403964	510918
744928	912653
1161282	1366047
1484307	1700079
1007172	1126740
619642	690355
263267	288486
56240	61171
25432	27454
11056	11867
5441	5874
5862	6348
0.6 < |eta| < 0.8
126077	160367
247158	306011
390756	463666
472141	545089
318578	360285
196350	218763
82669	90581
17621	19112
7827	8463
3280	3505
1715	1845
1764	1927
0.8 < |eta| < 1.15
211656	286965
394141	498506
634941	765279
765317	905483
487859	564346
301023	341960
124889	139641
27123	30266
12327	13656
5317	5948
2571	2859
2928	3254
1.15 < |eta| < 1.37
137007	171685
235470	278758
362384	419894
451089	513348
283187	318163
174275	193533
70081	77292
15022	16557
6983	7680
3066	3325
1590	1765
1647	1794
1.52 < |eta| < 1.81
150812	193992
245434	303864
363682	427019
442397	511714
315863	350812
201394	219153
78652	84918
15906	17321
7262	7713
3227	3407
1617	1700
1711	1796
1.81 < |eta| < 2.01
91815	120221
148168	187662
212824	256106
261265	305547
175353	202834
106511	121934
41826	47119
8475	9475
3707	4092
1575	1728
737	804
788	869
2.01 < |eta| < 2.37
169699	212741
265323	321789
349076	409194
395448	454378
256670	290022
151667	171309
57044	64544
11239	12644
4920	5431
1965	2162
942	1049
942	1044
