0 < |eta| < 0.6
382828	510918
727566	912653
1174766	1366047
1496262	1700079
1016432	1126740
629004	690355
270686	288486
57841	61171
26358	27454
11438	11867
5611	5874
6057	6348
0.6 < |eta| < 0.8
119741	160367
245831	306011
392177	463666
483586	545089
328833	360285
201612	218763
85376	90581
18246	19112
8082	8463
3380	3505
1777	1845
1847	1927
0.8 < |eta| < 1.15
213439	286965
402189	498506
656865	765279
804725	905483
518438	564346
317799	341960
132832	139641
28552	30266
13190	13656
5790	5948
2792	2859
3159	3254
1.15 < |eta| < 1.37
125582	171685
222775	278758
363732	419894
460199	513348
290625	318163
179393	193533
72902	77292
15678	16557
7338	7680
3214	3325
1700	1765
1694	1794
1.52 < |eta| < 1.81
148275	193992
251500	303864
366352	427019
451356	511714
320230	350812
202928	219153
79627	84918
16336	17321
7406	7713
3293	3407
1653	1700
1752	1796
1.81 < |eta| < 2.01
94575	120221
156710	187662
221707	256106
275938	305547
185327	202834
113231	121934
44159	47119
8900	9475
3887	4092
1669	1728
769	804
831	869
2.01 < |eta| < 2.37
167004	212741
271799	321789
360994	409194
408163	454378
264871	290022
157571	171309
59608	64544
11699	12644
5116	5431
2040	2162
969	1049
962	1044
