0 < |eta| < 0.6
403993	510918
744964	912653
1161298	1366047
1484357	1700079
1007200	1126740
619680	690355
263277	288486
56240	61171
25432	27454
11056	11867
5441	5874
5862	6348
0.6 < |eta| < 0.8
126112	160367
247193	306011
390804	463666
472164	545089
318587	360285
196360	218763
82670	90581
17623	19112
7827	8463
3280	3505
1715	1845
1764	1927
0.8 < |eta| < 1.15
211703	286965
394180	498506
634974	765279
765422	905483
487921	564346
301074	341960
124897	139641
27125	30266
12327	13656
5317	5948
2571	2859
2928	3254
1.15 < |eta| < 1.37
137049	171685
235590	278758
362472	419894
451071	513348
283156	318163
174278	193533
70086	77292
15023	16557
6986	7680
3066	3325
1590	1765
1647	1794
1.52 < |eta| < 1.81
150860	193992
245454	303864
363707	427019
442425	511714
315876	350812
201420	219153
78655	84918
15909	17321
7262	7713
3227	3407
1617	1700
1711	1796
1.81 < |eta| < 2.01
91932	120221
148234	187662
212881	256106
261319	305547
175388	202834
106532	121934
41849	47119
8475	9475
3711	4092
1575	1728
737	804
788	869
2.01 < |eta| < 2.37
169764	212741
265349	321789
349093	409194
395476	454378
256671	290022
151684	171309
57049	64544
11241	12644
4920	5431
1965	2162
942	1049
942	1044
