0 < |eta| < 0.6
347417	458122
669448	834862
1107609	1285106
1443534	1638617
968554	1072633
575857	631219
251590	267413
53115	55943
24553	25477
10652	11014
5281	5502
5689	5939
0.6 < |eta| < 0.8
107043	141954
226555	280777
370556	437356
466181	525056
313195	342869
184301	199750
79129	83761
16784	17515
7502	7819
3167	3281
1656	1717
1776	1847
0.8 < |eta| < 1.15
190783	253924
367158	452607
619658	720407
775917	872221
492659	535726
290908	312499
123286	129260
26287	27735
12290	12672
5423	5546
2628	2682
2959	3041
1.15 < |eta| < 1.37
111368	150528
201124	250202
341493	393287
443866	494621
275828	301657
163894	176514
67540	71416
14388	15125
6836	7109
3022	3117
1603	1653
1606	1692
1.52 < |eta| < 1.81
131850	169094
227185	271411
341685	396746
433821	490867
304628	333146
184790	199060
73376	77873
14985	15817
6889	7142
3075	3166
1543	1583
1647	1686
1.81 < |eta| < 2.01
85911	108379
143774	171508
207734	239534
265362	293555
176760	193227
103733	111609
40957	43598
8163	8671
3632	3814
1550	1606
719	753
775	805
2.01 < |eta| < 2.37
152954	193722
251270	296414
338979	383662
392173	436219
252421	276187
144724	157111
55254	59744
10748	11564
4784	5062
1906	2012
904	978
902	979
