0 < |eta| < 0.6
403986	510918
744955	912653
1161293	1366047
1484357	1700079
1007196	1126740
619679	690355
263277	288486
56240	61171
25432	27454
11056	11867
5441	5874
5862	6348
0.6 < |eta| < 0.8
126085	160367
247168	306011
390783	463666
472150	545089
318577	360285
196360	218763
82668	90581
17623	19112
7827	8463
3280	3505
1715	1845
1764	1927
0.8 < |eta| < 1.15
211688	286965
394165	498506
634958	765279
765412	905483
487912	564346
301073	341960
124897	139641
27125	30266
12327	13656
5317	5948
2571	2859
2928	3254
1.15 < |eta| < 1.37
137019	171685
235572	278758
362453	419894
451057	513348
283146	318163
174274	193533
70086	77292
15023	16557
6986	7680
3066	3325
1590	1765
1647	1794
1.52 < |eta| < 1.81
150830	193992
245437	303864
363695	427019
442393	511714
315860	350812
201399	219153
78650	84918
15907	17321
7262	7713
3226	3407
1617	1700
1711	1796
1.81 < |eta| < 2.01
91917	120221
148232	187662
212871	256106
261316	305547
175388	202834
106532	121934
41849	47119
8475	9475
3707	4092
1575	1728
737	804
788	869
2.01 < |eta| < 2.37
169744	212741
265330	321789
349085	409194
395457	454378
256666	290022
151668	171309
57045	64544
11241	12644
4920	5431
1965	2162
942	1049
942	1044
