0 < |eta| < 0.6
382777	510918
727534	912653
1174743	1366047
1496232	1700079
1016413	1126740
629002	690355
270686	288486
57841	61171
26358	27454
11438	11867
5611	5874
6057	6348
0.6 < |eta| < 0.8
119701	160367
245812	306011
392147	463666
483568	545089
328825	360285
201606	218763
85376	90581
18246	19112
8081	8463
3380	3505
1777	1845
1847	1927
0.8 < |eta| < 1.15
213404	286965
402174	498506
656839	765279
804713	905483
518435	564346
317795	341960
132832	139641
28552	30266
13190	13656
5790	5948
2792	2859
3159	3254
1.15 < |eta| < 1.37
125492	171685
222730	278758
363690	419894
460179	513348
290612	318163
179386	193533
72899	77292
15678	16557
7338	7680
3214	3325
1700	1765
1694	1794
1.52 < |eta| < 1.81
148236	193992
251466	303864
366325	427019
451333	511714
320210	350812
202917	219153
79623	84918
16336	17321
7406	7713
3293	3407
1653	1700
1752	1796
1.81 < |eta| < 2.01
94565	120221
156704	187662
221697	256106
275928	305547
185320	202834
113216	121934
44154	47119
8899	9475
3887	4092
1669	1728
768	804
831	869
2.01 < |eta| < 2.37
166958	212741
271781	321789
360978	409194
408150	454378
264865	290022
157565	171309
59607	64544
11699	12644
5116	5431
2040	2162
969	1049
962	1044
