0 < |eta| < 0.6
367144	458122
685839	834862
1095236	1285106
1432270	1638617
959828	1072633
567384	631219
244783	267413
51652	55943
23699	25477
10303	11014
5116	5502
5507	5939
0.6 < |eta| < 0.8
113111	141954
228193	280777
369407	437356
455242	525056
303484	342869
179535	199750
76655	83761
16211	17515
7271	7819
3069	3281
1596	1717
1700	1847
0.8 < |eta| < 1.15
189952	253924
360308	452607
599305	720407
738062	872221
463603	535726
275599	312499
115973	129260
24986	27735
11482	12672
4980	5546
2426	2682
2744	3041
1.15 < |eta| < 1.37
121841	150528
212788	250202
340406	393287
435066	494621
268782	301657
159253	176514
64943	71416
13783	15125
6515	7109
2890	3117
1500	1653
1566	1692
1.52 < |eta| < 1.81
134594	169094
222167	271411
339285	396746
425326	490867
300558	333146
183397	199060
72487	77873
14598	15817
6755	7142
3015	3166
1511	1583
1608	1686
1.81 < |eta| < 2.01
83818	108379
136281	171508
199498	239534
251348	293555
167287	193227
97643	111609
38816	43598
7771	8671
3456	3814
1459	1606
687	753
733	805
2.01 < |eta| < 2.37
155598	193722
245449	296414
327912	383662
380008	436219
244667	276187
139320	157111
52909	59744
10319	11564
4601	5062
1836	2012
880	978
884	979
