0 < |eta| < 0.6
367157	458122
685868	834862
1095231	1285106
1432263	1638617
959823	1072633
567388	631219
244783	267413
51652	55943
23700	25477
10303	11014
5115	5502
5506	5939
0.6 < |eta| < 0.8
113119	141954
228192	280777
369412	437356
455250	525056
303482	342869
179538	199750
76651	83761
16210	17515
7269	7819
3072	3281
1596	1717
1700	1847
0.8 < |eta| < 1.15
189967	253924
360304	452607
599318	720407
738064	872221
463605	535726
275605	312499
115981	129260
24987	27735
11483	12672
4980	5546
2426	2682
2744	3041
1.15 < |eta| < 1.37
121847	150528
212798	250202
340414	393287
435069	494621
268777	301657
159258	176514
64945	71416
13787	15125
6515	7109
2889	3117
1500	1653
1566	1692
1.52 < |eta| < 1.81
134602	169094
222169	271411
339295	396746
425320	490867
300545	333146
183402	199060
72485	77873
14597	15817
6755	7142
3014	3166
1511	1583
1608	1686
1.81 < |eta| < 2.01
83817	108379
136308	171508
199534	239534
251348	293555
167291	193227
97644	111609
38815	43598
7771	8671
3457	3814
1459	1606
687	753
733	805
2.01 < |eta| < 2.37
155598	193722
245446	296414
327914	383662
380006	436219
244669	276187
139319	157111
52909	59744
10320	11564
4601	5062
1836	2012
880	978
884	979
