0 < |eta| < 0.6
367160	458122
685882	834862
1095244	1285106
1432269	1638617
959826	1072633
567389	631219
244784	267413
51652	55943
23701	25477
10303	11014
5115	5502
5506	5939
0.6 < |eta| < 0.8
113130	141954
228195	280777
369416	437356
455251	525056
303488	342869
179539	199750
76652	83761
16210	17515
7269	7819
3072	3281
1596	1717
1700	1847
0.8 < |eta| < 1.15
189973	253924
360315	452607
599322	720407
738073	872221
463617	535726
275603	312499
115981	129260
24987	27735
11483	12672
4980	5546
2426	2682
2744	3041
1.15 < |eta| < 1.37
121846	150528
212793	250202
340424	393287
435071	494621
268781	301657
159261	176514
64945	71416
13787	15125
6515	7109
2889	3117
1500	1653
1566	1692
1.52 < |eta| < 1.81
134607	169094
222181	271411
339294	396746
425338	490867
300561	333146
183405	199060
72489	77873
14597	15817
6755	7142
3015	3166
1511	1583
1608	1686
1.81 < |eta| < 2.01
83827	108379
136309	171508
199539	239534
251351	293555
167291	193227
97644	111609
38814	43598
7771	8671
3457	3814
1459	1606
687	753
733	805
2.01 < |eta| < 2.37
155605	193722
245453	296414
327915	383662
380009	436219
244675	276187
139322	157111
52910	59744
10320	11564
4601	5062
1836	2012
880	978
884	979
