0 < |eta| < 0.6
404010	510918
744943	912653
1161297	1366047
1484386	1700079
1007212	1126740
619711	690355
263280	288486
56240	61171
25432	27454
11056	11867
5441	5874
5862	6348
0.6 < |eta| < 0.8
126103	160367
247194	306011
390803	463666
472151	545089
318586	360285
196359	218763
82669	90581
17623	19112
7827	8463
3280	3505
1715	1845
1764	1927
0.8 < |eta| < 1.15
211720	286965
394164	498506
634966	765279
765506	905483
487979	564346
301106	341960
124908	139641
27125	30266
12327	13656
5317	5948
2571	2859
2928	3254
1.15 < |eta| < 1.37
137023	171685
235648	278758
362580	419894
451117	513348
283190	318163
174282	193533
70089	77292
15024	16557
6983	7680
3066	3325
1590	1765
1647	1794
1.52 < |eta| < 1.81
150845	193992
245451	303864
363694	427019
442413	511714
315880	350812
201400	219153
78652	84918
15906	17321
7262	7713
3227	3407
1617	1700
1711	1796
1.81 < |eta| < 2.01
92018	120221
148229	187662
212869	256106
261302	305547
175377	202834
106536	121934
41836	47119
8475	9475
3707	4092
1575	1728
737	804
788	869
2.01 < |eta| < 2.37
169754	212741
265329	321789
349077	409194
395455	454378
256668	290022
151669	171309
57045	64544
11239	12644
4920	5431
1965	2162
942	1049
942	1044
