0 < |eta| < 0.6
347463	458122
669481	834862
1107631	1285106
1443558	1638617
968566	1072633
575861	631219
251589	267413
53115	55943
24553	25477
10652	11014
5281	5502
5689	5939
0.6 < |eta| < 0.8
107078	141954
226574	280777
370586	437356
466198	525056
313199	342869
184306	199750
79130	83761
16784	17515
7503	7819
3167	3281
1656	1717
1776	1847
0.8 < |eta| < 1.15
190814	253924
367176	452607
619682	720407
775926	872221
492660	535726
290913	312499
123288	129260
26287	27735
12289	12672
5423	5546
2628	2682
2959	3041
1.15 < |eta| < 1.37
111448	150528
201168	250202
341538	393287
443888	494621
275841	301657
163900	176514
67541	71416
14388	15125
6836	7109
3022	3117
1602	1653
1606	1692
1.52 < |eta| < 1.81
131879	169094
227204	271411
341707	396746
433839	490867
304646	333146
184798	199060
73377	77873
14984	15817
6888	7142
3075	3166
1543	1583
1647	1686
1.81 < |eta| < 2.01
85919	108379
143781	171508
207741	239534
265370	293555
176770	193227
103747	111609
40961	43598
8164	8671
3632	3814
1550	1606
719	753
775	805
2.01 < |eta| < 2.37
153004	193722
251289	296414
339007	383662
392185	436219
252427	276187
144739	157111
55256	59744
10748	11564
4784	5062
1906	2012
904	978
902	979
