0 < |eta| < 0.6
367810	490621
718718	887685
1133752	1334812
1447243	1681530
1009185	1153037
624039	712004
271477	298203
56625	63631
25695	28515
11305	12408
5467	6126
5911	6649
0.6 < |eta| < 0.8
114628	154467
241104	298036
385568	454674
482315	540794
326105	370033
205224	226085
84965	93583
18558	19976
7858	8826
3051	3671
1800	1973
1743	1987
0.8 < |eta| < 1.15
200647	275259
385989	481454
632037	744579
753106	901644
534755	588327
330295	358330
132132	146281
28269	31657
13309	14247
5716	6224
2829	2986
3129	3378
1.15 < |eta| < 1.37
120584	165529
213694	270730
345800	407744
453320	512022
301213	333219
188393	204194
75318	81415
16176	17397
7371	7949
3270	3455
1753	1851
1728	1888
1.52 < |eta| < 1.81
143861	191317
243606	301050
357528	422222
442668	505765
323827	356686
204434	225785
81742	87993
16649	18082
7609	8051
3398	3603
1689	1787
1778	1871
1.81 < |eta| < 2.01
89206	117709
154109	184868
217742	253033
268955	303553
185889	209401
113691	127089
43693	49128
9044	9944
3982	4299
1636	1781
752	849
833	910
2.01 < |eta| < 2.37
157626	207909
250193	316541
346195	404254
394226	452485
264355	302563
158977	180171
60262	67921
11754	13255
4900	5739
2026	2294
956	1117
930	1102
