0 < |eta| < 0.6
385797	490621
722611	887685
1138606	1334812
1470219	1681530
1024172	1153037
633861	712004
269218	298203
57597	63631
25905	28515
11437	12408
5553	6126
6052	6649
0.6 < |eta| < 0.8
121206	154467
239291	298036
378748	454674
465972	540794
326907	370033
200099	226085
84326	93583
18159	19976
8087	8826
3329	3671
1799	1973
1816	1987
0.8 < |eta| < 1.15
200775	275259
377090	481454
595696	744579
753925	901644
499027	588327
313981	358330
129809	146281
28031	31657
12706	14247
5564	6224
2655	2986
3009	3378
1.15 < |eta| < 1.37
130335	165529
225440	270730
349940	407744
444993	512022
293913	333219
181955	204194
73445	81415
15672	17397
7230	7949
3185	3455
1678	1851
1720	1888
1.52 < |eta| < 1.81
143195	191317
235959	301050
356256	422222
432247	505765
319830	356686
207642	225785
81484	87993
16393	18082
7461	8051
3387	3603
1688	1787
1774	1871
1.81 < |eta| < 2.01
88074	117709
145828	184868
211118	253033
257180	303553
180796	209401
109398	127089
43293	49128
8777	9944
3845	4299
1623	1781
771	849
819	910
2.01 < |eta| < 2.37
161525	207909
256310	316541
341539	404254
389456	452485
266411	302563
155711	180171
59395	67921
11611	13255
5147	5739
2067	2294
998	1117
983	1102
