0 < |eta| < 0.6
315641.0			390073.0
608803.0			738255.0
1009254.0			1177250.0
1365189.0			1557896.0
925256.0			1039823.0
524051.0			586918.0
230472.0			253835.0
47995.0			52575.0
22305.0			24365.0
9871.0			10622.0
4883.0			5362.0
5288.0			5765.0
0.6 < |eta| < 0.8
96366.0			119261.0
202911.0			249528.0
337346.0			403254.0
431884.0			500262.0
295197.0			333557.0
165025.0			186027.0
71884.0			79359.0
15163.0			16558.0
6927.0			7492.0
2887.0			3181.0
1559.0			1707.0
1652.0			1797.0
0.8 < |eta| < 1.15
160337.0			212821.0
313414.0			394356.0
529706.0			658347.0
699651.0			834948.0
449143.0			528521.0
259747.0			295456.0
110829.0			124195.0
23515.0			26315.0
10912.0			12155.0
4832.0			5358.0
2341.0			2598.0
2613.0			2922.0
1.15 < |eta| < 1.37
102261.0			125753.0
183176.0			216990.0
307944.0			356882.0
413373.0			474564.0
263757.0			298295.0
149995.0			167716.0
62337.0			68795.0
13094.0			14411.0
6242.0			6767.0
2819.0			3033.0
1490.0			1619.0
1550.0			1666.0
1.52 < |eta| < 1.81
112433.0			140823.0
191827.0			236496.0
309030.0			362842.0
398485.0			464119.0
288086.0			319900.0
169396.0			183155.0
68280.0			73063.0
13627.0			14890.0
6417.0			6835.0
2939.0			3097.0
1468.0			1541.0
1554.0			1639.0
1.81 < |eta| < 2.01
72728.0			94607.0
122684.0			153576.0
185100.0			220825.0
237454.0			279561.0
163792.0			189207.0
90710.0			105147.0
36879.0			41694.0
7335.0			8280.0
3333.0			3723.0
1379.0			1517.0
653.0			723.0
713.0			790.0
2.01 < |eta| < 2.37
135055.0			171091.0
218536.0			267283.0
300761.0			354554.0
358516.0			415825.0
241001.0			273219.0
129915.0			149829.0
50463.0			57539.0
9693.0			11013.0
4451.0			4945.0
1791.0			1962.0
858.0			961.0
869.0			972.0
