0 < |eta| < 0.6
1.18934e+08	1.44461e+08	1.97868e+11	5.00447e+10
6.5219e+07	7.75386e+07	1.06465e+11	2.23914e+10
3.86185e+07	4.44511e+07	1.35565e+10	4.22282e+09
2.33064e+07	2.61017e+07	3.39099e+09	5.26076e+08
1.55879e+07	1.71462e+07	2.35086e+09	2.88332e+08
1.77054e+07	1.93893e+07	1.62422e+09	1.03837e+08
1.40928e+07	1.52029e+07	1.7334e+09	5.66528e+07
4.64834e+06	4.95515e+06	1.00181e+08	7.62492e+06
2.24086e+06	2.37166e+06	4.78506e+07	2.85648e+06
911964	963606	1.44301e+07	837601
423166	447031	822336	48139.9
416465	440545	810766	47469.5
0.6 < |eta| < 0.8
4.06977e+07	5.01817e+07	6.90107e+10	1.97725e+10
2.22412e+07	2.68884e+07	3.63115e+10	8.97766e+09
1.29397e+07	1.50265e+07	4.52937e+09	1.05593e+09
8.21587e+06	9.32142e+06	1.81508e+09	1.75436e+08
5.4917e+06	6.10984e+06	8.1089e+08	9.19184e+07
6.14011e+06	6.76145e+06	4.07751e+08	3.82777e+07
4.77723e+06	5.1396e+06	1.84465e+08	1.60983e+07
1.61061e+06	1.71581e+06	3.47644e+07	2.31162e+06
758356	799554	1.60815e+07	880947
310848	326511	4.91527e+06	250238
145704	152877	282920	14037.7
144173	151126	280611	13630.7
0.8 < |eta| < 1.15
5.74706e+07	7.51347e+07	9.6617e+10	3.47081e+10
3.21346e+07	3.96021e+07	5.11023e+10	1.29682e+10
1.90532e+07	2.25131e+07	6.37095e+09	1.79004e+09
1.19306e+07	1.38022e+07	1.90296e+09	3.55708e+08
7.99004e+06	9.0789e+06	1.7246e+09	3.83262e+08
8.88668e+06	9.90221e+06	4.9925e+08	1.16789e+08
6.88809e+06	7.5387e+06	3.24317e+08	1.45102e+08
2.3186e+06	2.5068e+06	4.94697e+07	1.34444e+07
1.09544e+06	1.17154e+06	2.32131e+07	1.6429e+06
447192	476100	7.00529e+06	437748
211229	225141	409079	27470.2
208303	221951	406563	26456.2
1.15 < |eta| < 1.37
3.36966e+07	4.10867e+07	5.69786e+10	1.45919e+10
1.84467e+07	2.15509e+07	2.94092e+10	5.80293e+09
1.0822e+07	1.22947e+07	4.06678e+09	6.16949e+08
6.65337e+06	7.47304e+06	1.09869e+09	1.36462e+08
4.35435e+06	4.82465e+06	6.32835e+08	1.44277e+08
4.87748e+06	5.32735e+06	2.81597e+08	1.0949e+08
3.73714e+06	4.04453e+06	1.43756e+08	1.48416e+07
1.27466e+06	1.36834e+06	2.74204e+07	2.10155e+06
602640	641492	1.2856e+07	837595
246083	261145	3.8825e+06	229530
114797	121962	223473	13865.5
112552	119634	218787	14108
1.52 < |eta| < 1.81
3.41445e+07	4.32199e+07	5.8905e+10	1.8434e+10
1.83364e+07	2.24614e+07	2.81454e+10	7.3458e+09
1.08331e+07	1.26526e+07	4.33999e+09	1.08867e+09
6.89915e+06	7.99754e+06	1.14351e+09	9.53593e+08
4.45828e+06	5.00756e+06	6.27713e+08	8.24186e+07
5.11818e+06	5.61945e+06	2.98712e+08	3.42392e+07
4.11762e+06	4.44457e+06	1.61063e+08	1.35546e+07
1.38399e+06	1.48849e+06	2.99468e+07	2.30286e+06
668159	708935	1.44022e+07	867559
276099	291333	4.42577e+06	240320
126958	133487	249574	13916.7
123281	129312	289648	11889.1
1.81 < |eta| < 2.01
2.37982e+07	3.04497e+07	4.02864e+10	1.21624e+10
1.319e+07	1.62109e+07	2.13583e+10	4.93546e+09
7.89456e+06	9.33297e+06	2.26326e+09	7.37459e+08
4.81038e+06	5.56252e+06	7.6295e+08	1.13623e+08
3.24211e+06	3.71997e+06	4.6696e+08	7.15728e+07
3.68507e+06	4.17595e+06	1.96375e+08	2.82105e+07
2.89129e+06	3.20297e+06	2.60581e+08	1.47161e+07
1.00406e+06	1.1005e+06	2.1809e+07	2.1569e+06
475414	517094	1.00455e+07	899109
196420	211743	3.00877e+06	245821
91485.3	98403.6	179018	13704.1
87020	93635.4	170873	12995.4
2.01 < |eta| < 2.37
4.82696e+07	5.98137e+07	8.0445e+10	2.08353e+10
2.65242e+07	3.21267e+07	4.34209e+10	9.91891e+09
1.55602e+07	1.82103e+07	4.47069e+09	1.28122e+09
9.55235e+06	1.09824e+07	1.38094e+09	3.50671e+08
6.42343e+06	7.274e+06	9.6594e+08	2.63553e+08
7.28815e+06	8.18025e+06	5.20785e+08	5.33098e+07
5.56489e+06	6.21981e+06	2.09023e+08	1.13172e+08
1.93745e+06	2.13356e+06	4.17617e+07	4.34611e+06
901169	984087	1.90285e+07	1.83109e+06
365361	397542	5.69347e+06	1.41391e+06
166083	179338	324550	26128.4
150923	162963	292751	24059.9
