0 < |eta| < 0.6
436874.643	578561.3160000001	 425080.59800000006		142853.757
799643.0599999998	986486.91	 777256.27		188077.421
1202233.6300000001	1418853.8	 1171064.41		218103.263
1516474.3699999999	1765096.82	 1476180.9599999997		250207.63599999997
1045008.8499999997	1201991.2999999998	 1019398.55		158484.676
668305.0700000001	766455.11	 656369.3999999999		99341.55800000002
315895.1340000001	347667.477	 310455.272		32230.600999999995
69038.069	77426.64599999998	 68115.704		8500.8682
31013.2787	34468.8447	 30495.021799999995		3495.1026070000003
13061.318	14456.8397	 12752.557400000002		1420.17205
6517.6119	7372.4976	 6373.253160000001		878.6123719999998
6968.554190000001	7904.056350000001	 6850.318		940.498206
0.6 < |eta| < 0.8
128813.32499999997	170451.072	 125806.51100000001		42015.53769999999
261534.418	319311.46200000006	 255229.95200000005		58279.372
407209.1479999999	476586.72500000003	 397212.793		69920.84699999998
504708.47099999996	564303.6259999999	 492794.46100000007		59771.96370000001
338372.19299999997	386087.15499999997	 329895.20900000003		47861.3553
223386.42799999996	245702.259	 219377.213		22617.760800000004
100588.29499999998	110398.84499999999	 98965.436		9716.2841
23139.9522	24719.2837	 22749.217500000002		1599.35628
9811.191699999998	10918.778599999998	 9751.1483		1149.609783
3919.6335400000003	4645.622199999999	 3908.51753		716.695454
2030.6635699999995	2230.50727	 1994.2866099999997		196.43079000000003
2145.6027500000005	2420.4129500000004	 2105.6506600000002		298.70682500000004
0.8 < |eta| < 1.15
222291.67799999999	299758.40400000004	 217506.20599999995		77236.63
414017.63899999997	509182.28400000004	 404461.6819999999		95104.33399999999
664271.8200000001	774219.8900000001	 648862.4600000002		109682.12800000001
778522.26	937095.41	 758594.5700000002		156882.79400000002
563216.7149999999	615526.5299999999	 550445.0040000001		52496.3121
363039.96400000004	391998.41899999994	 357001.66000000003		29050.5224
157875.996	174013.87300000002	 155322.775		16058.026500000002
35639.6651	39567.7204	 35153.47		3956.6221600000003
16601.8107	17667.098199999997	 16384.265700000004		1036.614731
7087.5106	7616.308399999999	 6990.114570000002		521.3969599999999
3435.58111	3623.13821	 3404.4909800000005		169.985235999
3769.16098	4005.732389999999	 3671.7801799999997		243.55902004632523
1.15 < |eta| < 1.37
131072.416	178550.29399999997	 127606.91200000001		47899.002600000014
226125.734	285888.71900000004	 220868.28400000004		60245.782300000006
359526.39300000004	423780.9369999999	 350823.229		64508.201
475487.57699999993	535847.5790000001	 464417.56200000003		60443.53600000001
320256.56100000005	354187.394	 313448.494		33995.970199999996
206985.717	223542.78100000002	 203102.46699999995		16597.108500000002
92360.217	99115.276	 90682.243		6716.694500000001
20674.151199999997	21980.735800000002	 20341.643799999998		1305.885798
9556.9114	10152.4	 9447.8056		590.3694919999999
4014.5124999999994	4238.896129999999	 3965.6450199999995		223.82622020000002
2102.7948699999997	2207.53347	 2104.69133		89.996852
2073.48431	2216.3644099999997	 2016.3263099999997		137.915267
1.52 < |eta| < 1.81
157667.652	207147.89700000003	 153564.46		49261.100900000005
259309.546	319771.0460000001	 252892.281		60187.275
371752.71900000004	442576.0459999999	 362705.60400000005		70389.55999999998
466980.8289999999	540510.831	 454691.816		72936.38200000001
327984.3720000001	370053.34599999996	 319924.859		42041.142700000004
210181.56699999995	238571.493	 222685.013		28318.895599999996
95686.52400000002	104244.65400000001	 93474.545		8553.6713
21059.6213	22934.783099999997	 20682.547400000003		1860.5904419999995
9657.940270000001	10255.18827	 9499.222360000002		609.097155953
4092.8223700000003	4322.39623	 3919.5404599999993		245.44248100000002
2130.6722599999994	2252.7629600000005	 2096.58455		131.392427
2145.5832309999996	2265.3510599999995	 2058.6662199999996		115.122876
1.81 < |eta| < 2.01
102897.65099999998	131885.84699999998	 100741.12599999997		28867.779200000004
171639.61000000004	202156.264	 167011.02400000003		30446.999300000003
234979.919	269828.24600000004	 229028.25500000003		34674.9805
288150.12299999996	321623.291	 280565.092		33227.780900000005
187347.29499999998	209709.87699999998	 182509.95600000003		22371.460200000005
115585.58399999997	128811.768	 113147.281		13138.044600000001
51541.61369999999	57792.54799999999	 50444.2406		6266.25637
11682.072499999998	12870.987700000001	 11356.148799999997		1200.3616229999998
5446.97774	5833.349020000001	 5371.715039999999		376.90445600000004
2145.4509	2335.0464999999995	 2108.239192		177.45310999999998
1073.380825	1206.777945	 1043.343588		128.38973599999997
1106.24156	1195.0535599999998	 1105.8338489999999		84.26898
2.01 < |eta| < 2.37
174524.33200000002	226352.56100000002	 169620.607		51285.242699999995
267694.1969999999	338503.8700000001	 260186.28		69974.086
364645.78699999995	426443.573	 355694.456		61545.570999999996
414968.14900000003	479930.28200000006	 403589.205		64415.3023
270328.59300000005	312879.524	 262864.475		42120.50290000001
164266.84399999998	189617.05	 159600.79799999998		25059.4439
74417.642	83935.694	 72773.57100000001		9438.0018
16230.603200000003	18216.6064	 15771.7059		1936.4467
7071.972000000001	8100.868199999999	 6952.7944		989.9320190000001
2914.05838	3283.29643	 2866.9102300000004		353.272145
1316.30324	1495.90374	 1300.6241459999999		181.90514000000002
1342.8053700000003	1523.55213	 1309.6155100000003		183.03715