0 < |eta| < 0.6
395402	490621
737489	887685
1149833	1334812
1482782	1681530
1035256	1153037
640182	712004
271739	298203
58326	63631
26271	28515
11531	12408
5649	6126
6089	6649
0.6 < |eta| < 0.8
122383	154467
242361	298036
383314	454674
468907	540794
327570	370033
201543	226085
85091	93583
18398	19976
8173	8826
3400	3671
1836	1973
1824	1987
0.8 < |eta| < 1.15
201879	275259
377785	481454
614865	744579
759289	901644
507860	588327
315132	358330
130722	146281
28416	31657
12861	14247
5586	6224
2677	2986
3049	3378
1.15 < |eta| < 1.37
132060	165529
227864	270730
351428	407744
448360	512022
296889	333219
184010	204194
73757	81415
15792	17397
7254	7949
3197	3455
1671	1851
1726	1888
1.52 < |eta| < 1.81
147706	191317
242151	301050
357427	422222
437918	505765
320704	356686
208315	225785
81768	87993
16662	18082
7583	8051
3417	3603
1695	1787
1782	1871
1.81 < |eta| < 2.01
88879	117709
144064	184868
208877	253033
256697	303553
180173	209401
109890	127089
43535	49128
8896	9944
3860	4299
1627	1781
781	849
822	910
2.01 < |eta| < 2.37
164760	207909
259113	316541
343372	404254
392735	452485
267004	302563
159460	180171
60014	67921
11797	13255
5167	5739
2075	2294
996	1117
992	1102
