0 < |eta| < 0.6
397705	490621
742099	887685
1155989	1334812
1489167	1681530
1038545	1153037
641869	712004
272100	298203
58334	63631
26265	28515
11527	12408
5641	6126
6081	6649
0.6 < |eta| < 0.8
123376	154467
244260	298036
385702	454674
471161	540794
328725	370033
202243	226085
85185	93583
18413	19976
8170	8826
3396	3671
1835	1973
1823	1987
0.8 < |eta| < 1.15
204494	275259
381243	481454
619380	744579
763023	901644
509921	588327
315776	358330
130828	146281
28390	31657
12837	14247
5574	6224
2666	2986
3040	3378
1.15 < |eta| < 1.37
132966	165529
228976	270730
352818	407744
449770	512022
297518	333219
184244	204194
73824	81415
15797	17397
7250	7949
3191	3455
1670	1851
1725	1888
1.52 < |eta| < 1.81
148740	191317
243655	301050
359294	422222
439439	505765
321389	356686
208677	225785
81855	87993
16663	18082
7583	8051
3415	3603
1694	1787
1781	1871
1.81 < |eta| < 2.01
89821	117709
145199	184868
210342	253033
257936	303553
181008	209401
110341	127089
43596	49128
8904	9944
3858	4299
1625	1781
778	849
816	910
2.01 < |eta| < 2.37
165303	207909
259593	316541
343516	404254
392430	452485
266597	302563
159136	180171
59837	67921
11768	13255
5163	5739
2070	2294
994	1117
990	1102
