0 < |eta| < 0.6
323392.0			390073.0
621279.0			738255.0
1019187.0			1177250.0
1376844.0			1557896.0
935252.0			1039823.0
529146.0			586918.0
232605.0			253835.0
48614.0			52575.0
22619.0			24365.0
9951.0			10622.0
4967.0			5362.0
5319.0			5765.0
0.6 < |eta| < 0.8
97283.0			119261.0
205519.0			249528.0
341448.0			403254.0
434611.0			500262.0
295824.0			333557.0
166189.0			186027.0
72515.0			79359.0
15360.0			16558.0
7001.0			7492.0
2950.0			3181.0
1586.0			1707.0
1658.0			1797.0
0.8 < |eta| < 1.15
161225.0			212821.0
313935.0			394356.0
546487.0			658347.0
704647.0			834948.0
457044.0			528521.0
260692.0			295456.0
111568.0			124195.0
23840.0			26315.0
11039.0			12155.0
4856.0			5358.0
2359.0			2598.0
2651.0			2922.0
1.15 < |eta| < 1.37
103498.0			125753.0
185078.0			216990.0
309212.0			356882.0
416460.0			474564.0
266437.0			298295.0
151690.0			167716.0
62599.0			68795.0
13190.0			14411.0
6260.0			6767.0
2831.0			3033.0
1483.0			1619.0
1554.0			1666.0
1.52 < |eta| < 1.81
115652.0			140823.0
196463.0			236496.0
310031.0			362842.0
403678.0			464119.0
288844.0			319900.0
169935.0			183155.0
68500.0			73063.0
13852.0			14890.0
6501.0			6835.0
2965.0			3097.0
1473.0			1541.0
1562.0			1639.0
1.81 < |eta| < 2.01
73383.0			94607.0
121284.0			153576.0
183145.0			220825.0
237035.0			279561.0
163227.0			189207.0
91110.0			105147.0
37085.0			41694.0
7430.0			8280.0
3346.0			3723.0
1381.0			1517.0
659.0			723.0
716.0			790.0
2.01 < |eta| < 2.37
137694.0			171091.0
220881.0			267283.0
302360.0			354554.0
361475.0			415825.0
241542.0			273219.0
133006.0			149829.0
51006.0			57539.0
9853.0			11013.0
4469.0			4945.0
1799.0			1962.0
858.0			961.0
878.0			972.0
