0 < |eta| < 0.6
0.01045061676863357
0.005075459405647131
0.002129161005420821
0.0009530375502181387
0.000813085971725136
0.001370377212147167
0.0027168662131744625
0.004164841833303234
0.0037778406626651773
0.0029684251783936855
0.0035879354250846207
0.0032070218122364214
0.6 < |eta| < 0.8
0.009393328394094791
0.004171331683904267
0.0015387505525034095
0.0008286278206615094
0.0008454917634163062
0.0009954638786148218
0.0023346763995570896
0.004363605908420665
0.0038385185730981375
0.0010293531738450046
0.0005508010493874282
0.0018835715151279686
0.8 < |eta| < 1.15
0.010215425664725553
0.00500428579020562
0.0018710656956129057
0.0009453641440233529
0.0008111927884600911
0.0015695958254623443
0.0023037004398924754
0.0039621072024143
0.0035162313813218438
0.00509662539643807
0.004088719336672986
0.0015846941103614398
1.15 < |eta| < 1.37
0.011684087983997227
0.005232550331954466
0.0022922122349708918
0.0009814316959531055
0.0010628245694990213
0.001438879220878042
0.002335144926037369
0.004204368882087195
0.006387625411249154
0.00138306007529998
0.005964830462465653
0.007017438376588636
1.52 < |eta| < 1.81
0.024321130019129056
0.013005377558010012
0.004095889901661542
0.0019411624323297794
0.0018290443333280892
0.0029399625797030815
0.004814346808946324
0.004306847407903103
0.005882836846057837
0.004963590185976807
0.0002452983826686239
0.0009536076650170644
1.81 < |eta| < 2.01
0.007785672397377041
0.003970781641753907
0.0016473633217473083
0.0010008571987011328
0.0014144189460221224
0.0008531729132963406
0.002241401543870536
0.002353747036344278
0.001896275974350159
0.00018668552443645847
0.0015573363740986057
0.004839910647803425
2.01 < |eta| < 2.37
0.006106475856041627
0.003670668976079927
0.0016283909548174824
0.0007238500708677265
0.0005716333903014181
0.0012172691413665504
0.0013376755915400773
0.0032161071431665578
0.0020788387727375124
0.004800801698435664
0.00039660323351820015
0.0022332146783019535
