0 < |eta| < 0.6
0.012887370200524217
0.005869170243867905
0.002293335571193489
0.0010272764669171375
0.0008320200266687117
0.0013375945333949923
0.002759218053948409
0.004397716685412445
0.0037936895170616047
0.004045896272272809
0.002238750144158974
0.003674138436711716
0.6 < |eta| < 0.8
0.013217742581208891
0.0056809675087059475
0.0019499900147141869
0.0008806966851025999
0.0008580593933004144
0.0010487379600997437
0.0024361226873022
0.003632281589115882
0.004570058370714891
0.0006446074207756558
0.0007758972007845255
0.0024585843683564423
0.8 < |eta| < 1.15
0.013617903034388923
0.00626404023022642
0.0022825770307315363
0.0009475460629967403
0.0008075019455083821
0.0015847807505493527
0.002538116511014765
0.004546502226847604
0.00295147977988397
0.0047369200988856
0.006143694400144617
0.0024933998239953237
1.15 < |eta| < 1.37
0.014332110424977285
0.006254892853868266
0.0024223365187100443
0.0009849826023968777
0.0011751216831287215
0.0018078755008189562
0.002166191839020448
0.004118628745619191
0.006757386679749455
0.004299397950127792
0.007063811759847494
0.009869338844147646
1.52 < |eta| < 1.81
0.028345263906141782
0.014768193875042135
0.0042561471185113
0.002044111106265789
0.0020024101900483204
0.002868382572493444
0.004529961213330158
0.004836885838459426
0.005009995006182599
0.0048407944134669645
0.003949732940647932
0.0003135815216351867
1.81 < |eta| < 2.01
0.011413789512490058
0.005709416807997747
0.0020686725477138124
0.0011668512062171787
0.0011920565207665934
0.0010022949954789917
0.0017861282932332134
0.0014913709372998962
0.0004578464822061479
0.0017185461874777985
0.004550589676179606
0.0016232315711094403
2.01 < |eta| < 2.37
0.006768122640655627
0.004238440372357766
0.0018076353820628555
0.000700660534726949
0.0008334018888661587
0.0014580598852388382
0.0015560637755058782
0.0025486235149130287
0.0018317554499721611
0.006677147762372271
0.0006159368399335508
0.0016528368076638156
