0 < |eta| < 0.6
656323.68	833777.2300000001	 806855.45		224285.338
1207923.18	1490674.7200000002	 1490093.75		357873.92
1784156.79	2081617.92	 2204966.45		376687.07899999997
2204005.5400000005	2559872.53	 2717844.4000000004		451068.034
1564671.8399999999	1769846.4	 1937908.38		261277.72900000005
1060430.5499999996	1193238.6799999997	 1318979.4799999997		169365.474
523376.21199999994	586567.42	 654174.1699999998		80864.299
112750.07199999999	127265.93600000002	 141302.37699999998		18356.1229
45748.26449999999	50471.25280000002	 56522.84189999999		6015.026750000001
18656.7496	20487.0707	 23233.680099999998		2303.96426
8894.399799999997	10084.397500000001	 10996.660000000002		1542.3541800000003
9313.9223	10393.961299999999	 11426.5059		1352.227698588
0.6 < |eta| < 0.8
186581.96500000003	232070.18399999998	 229770.835		57177.9663
397731.459	470180.12	 490493.76099999994		91865.07199999999
611660.7499999999	703747.8499999999	 758092.07		116509.44600000001
733287.1799999997	825625.7700000001	 907565.1299999999		116727.31599999999
523354.7729999999	572416.11	 648692.2499999999		62235.7805
354308.97399999993	384984.1810000001	 441261.27199999994		39110.884
165881.23500000004	187925.96600000001	 207139.457		28116.0628
38204.2123	40929.181099999994	 47583.8872		3398.0077789999996
14370.7413	15905.398600000002	 17922.329		1894.0165299999999
6150.207959999999	6552.43814	 7808.28853		491.03649189999993
2992.65551	3175.6039100000003	 3641.8720800000006		251.96475800000002
2954.9861	3211.44549	 3716.15819		326.9137999999999
0.8 < |eta| < 1.15
333717.7530000001	412213.497	 412034.5999999999		99508.86099999999
628588.4199999999	743608.4000000001	 779541.31		144402.49800000002
1010473.68	1143348.65	 1250925.68		167386.44299999997
1254229.78	1392317.53	 1551964.92		172056.75299999997
858851.0399999999	930097.8300000001	 1065644.21		89211.902
579340.834	627104.36	 721635.6000000001		60057.0541
282471.62000000005	301019.297	 354203.74899999995		23389.042000000005
60660.0991	65507.92149999999	 75647.80399999999		6010.836020000001
24964.7377	26654.973700000002	 31229.708000000002		2229.3213536
10184.601019999998	10734.84577	 12695.134089999998		697.1010190000001
4624.43861	4923.19118	 5623.06941		393.4455897
4992.65482	5407.36634	 6218.481089999998		502.03645099999994
1.15 < |eta| < 1.37
199315.935	250682.536	 246478.38599999994		64743.71500000002
360122.34699999995	421493.918	 445469.12399999995		77422.38500000001
561889.253	627135.26	 694963.3899999999		82466.744
727783.5299999999	806200.5	 901269.9300000002		99084.85300000002
497864.73399999994	541612.2450000001	 616158.999		54921.3671
332122.39400000003	362852.938	 413230.985		39120.2675
160916.419	174571.87900000004	 201481.34800000003		17400.4502
33861.41339999999	36770.10970000001	 41931.9791		3742.42693
14343.968900000002	15363.7394	 17844.1345		1292.24997
5768.95449	6069.586990000001	 7208.78179		359.87675300000006
2878.8120400000003	3047.6077499999997	 3594.52274		202.220854
2808.42298	3036.23423	 3400.47093		283.048873
1.52 < |eta| < 1.81
226694.047	288637.12700000004	 280470.19700000004		77353.04220000001
387203.78299999994	476278.5420000001	 478638.772		111843.91399999999
567432.71	658863.2899999999	 700302.38		114315.94699999999
721204.7	823093.9400000001	 890720.29		127380.77399999999
519351.24100000004	579134.907	 643012.85		75462.52200000001
351459.627	390643.4919999999	 437172.31299999997		49545.64730000001
167112.176	183908.18699999998	 208030.413		21049.9006
35937.4152	39221.7497	 44773.228899999995		4200.308680000001
14585.925600000002	15659.4998	 17913.177099999997		1327.8095419999997
5943.61255	6367.900689999999	 7415.96349		480.411125
2972.9404	3193.0345999999995	 3711.9055500000004		254.6453669
2940.8201	3180.75322	 3546.7317599999997		299.52556300000003
1.81 < |eta| < 2.01
148808.377	188975.70999999996	 183861.85900000003		50279.520399999994
255486.06200000006	303771.39200000005	 315008.00200000004		60617.352100000004
347390.27800000005	397142.63300000003	 428069.7150000001		63097.99680000001
439825.066	488898.6760000001	 542281.72		61938.80630000001
297336.308	328558.89499999996	 366482.76999999996		38954.176699999996
193741.11699999997	212316.76400000005	 241223.632		24052.869300000006
92644.10800000002	102272.79999999999	 115932.35		12227.85434
20078.068	22250.0235	 24949.884700000002		2836.3026740000005
7998.86004	8904.28069	 9946.549490000001		1099.7143207
3165.5017299999995	3486.20882	 3920.7385999999988		399.361310588
1617.1213899999998	1763.04466	 2003.120452		182.71843700000002
1458.450772	1662.524303	 1829.7357410000002		265.456887
2.01 < |eta| < 2.37
257248.61	323088.49100000004	 315960.19299999997		82080.06599999999
411292.75099999993	510320.836	 507005.5459999999		123140.56600000002
543030.866	639906.1199999999	 671131.9700000001		121387.84999999999
636147.4999999999	744038.88	 782891.71		134523.721
441801.013	497335.49700000003	 545740.917		69217.091
274197.08900000004	314894.18999999994	 340111.307		51097.528099999996
131443.20200000002	148079.827	 163173.95899999997		20710.7307
27700.3954	31084.485300000004	 34366.1824		4119.2107399999995
11085.044900000003	12498.492599999998	 13525.13688		1770.0363869999996
4315.61557	4915.6935300000005	 5321.551300000001		779.055186
1867.4607200000005	2157.70771	 2290.6379100000004		357.30513590000004
1851.877778	2141.8418319999996	 2267.3476050000004		355.1557620000001