0 < |eta| < 0.6
359466	440347
680376	812970
1085555	1256031
1430263	1619713
984503	1096430
584200	649461
251898	276019
53372	58103
24385	26440
10725	11515
5292	5744
5684	6207
0.6 < |eta| < 0.8
110039	136864
224579	273782
363066	428964
452131	520528
311682	351795
183669	206056
78672	86471
16861	18267
7575	8159
3166	3426
1706	1840
1738	1892
0.8 < |eta| < 1.15
182189	244040
346506	437905
581764	701463
731981	868296
482882	558424
287573	326893
121014	135238
26072	28986
11917	13201
5209	5791
2506	2792
2843	3150
1.15 < |eta| < 1.37
118065	145641
206870	243860
330620	382313
432545	493293
281549	315757
167721	185955
68087	75105
14455	15904
6740	7358
3003	3244
1576	1735
1637	1777
1.52 < |eta| < 1.81
131838	166070
219705	268773
333708	392532
420706	484942
304403	338293
189023	204470
75076	80528
15229	16486
7038	7443
3189	3350
1582	1664
1671	1755
1.81 < |eta| < 2.01
81371	106158
132676	169222
196266	236929
246738	291557
171748	199304
100337	116118
40190	45411
8139	9112
3587	4011
1498	1649
715	786
766	850
2.01 < |eta| < 2.37
151242	189500
239781	291912
322206	379404
376207	434155
253665	287891
145726	165000
55265	62730
10785	12134
4803	5342
1927	2128
924	1039
932	1037
