0 < |eta| < 0.6
362082	440347
683577	812970
1090656	1256031
1437439	1619713
990359	1096430
587467	649461
253043	276019
53630	58103
24510	26440
10753	11515
5319	5744
5718	6207
0.6 < |eta| < 0.8
110505	136864
225228	273782
364187	428964
453808	520528
313072	351795
185048	206056
79141	86471
16908	18267
7600	8159
3179	3426
1712	1840
1744	1892
0.8 < |eta| < 1.15
183503	244040
348902	437905
584612	701463
736579	868296
484355	558424
289191	326893
121484	135238
26172	28986
11979	13201
5232	5791
2520	2792
2850	3150
1.15 < |eta| < 1.37
118271	145641
207112	243860
331628	382313
433920	493293
282726	315757
168331	185955
68407	75105
14537	15904
6781	7358
3019	3244
1581	1735
1643	1777
1.52 < |eta| < 1.81
132669	166070
220356	268773
336065	392532
422804	484942
306281	338293
189674	204470
75340	80528
15303	16486
7054	7443
3194	3350
1586	1664
1675	1755
1.81 < |eta| < 2.01
81814	106158
134054	169222
197365	236929
248575	291557
172739	199304
101339	116118
40550	45411
8206	9112
3641	4011
1521	1649
720	786
770	850
2.01 < |eta| < 2.37
151824	189500
240974	291912
324281	379404
378263	434155
254856	287891
146712	165000
55683	62730
10851	12134
4832	5342
1943	2128
928	1039
936	1037
