0 < |eta| < 0.6
323416.0			390073.0
622150.0			738255.0
1020189.0			1177250.0
1377246.0			1557896.0
934519.0			1039823.0
528734.0			586918.0
232358.0			253835.0
48525.0			52575.0
22563.0			24365.0
9936.0			10622.0
4953.0			5362.0
5301.0			5765.0
0.6 < |eta| < 0.8
97446.0			119261.0
206092.0			249528.0
342076.0			403254.0
434957.0			500262.0
295802.0			333557.0
166016.0			186027.0
72400.0			79359.0
15342.0			16558.0
6991.0			7492.0
2941.0			3181.0
1581.0			1707.0
1656.0			1797.0
0.8 < |eta| < 1.15
161746.0			212821.0
314505.0			394356.0
547492.0			658347.0
704670.0			834948.0
457444.0			528521.0
260385.0			295456.0
111450.0			124195.0
23794.0			26315.0
11012.0			12155.0
4844.0			5358.0
2348.0			2598.0
2644.0			2922.0
1.15 < |eta| < 1.37
103743.0			125753.0
185421.0			216990.0
309501.0			356882.0
416595.0			474564.0
266321.0			298295.0
151572.0			167716.0
62512.0			68795.0
13159.0			14411.0
6244.0			6767.0
2821.0			3033.0
1482.0			1619.0
1551.0			1666.0
1.52 < |eta| < 1.81
115777.0			140823.0
196793.0			236496.0
310005.0			362842.0
403591.0			464119.0
288496.0			319900.0
169841.0			183155.0
68447.0			73063.0
13827.0			14890.0
6498.0			6835.0
2963.0			3097.0
1472.0			1541.0
1561.0			1639.0
1.81 < |eta| < 2.01
73586.0			94607.0
121285.0			153576.0
183383.0			220825.0
236914.0			279561.0
163273.0			189207.0
90977.0			105147.0
36976.0			41694.0
7408.0			8280.0
3330.0			3723.0
1375.0			1517.0
655.0			723.0
713.0			790.0
2.01 < |eta| < 2.37
137696.0			171091.0
220679.0			267283.0
301763.0			354554.0
360615.0			415825.0
240971.0			273219.0
132555.0			149829.0
50779.0			57539.0
9816.0			11013.0
4455.0			4945.0
1789.0			1962.0
855.0			961.0
875.0			972.0
