0 < |eta| < 0.6
0.005070845713494476
0.003489309249514072
0.003571034189849387
0.0029745246152501625
0.0032409361977954187
0.0026170606456097367
0.00259223511336093
0.0008749405611032657
0.0015596142006977232
0.005836942195443395
0.0044759418127562345
0.003469210754553309
0.6 < |eta| < 0.8
0.00477943334367481
0.00512166971241701
0.0035957485852589066
0.003342248661701408
0.0036755337168759006
0.0014191488332337965
0.003729885709245151
0.0014494504167168465
0.001868659903897285
0.007544797233574263
0.0035149384885764245
0.0033388981636059967
0.8 < |eta| < 1.15
0.006108419751810201
0.004777409244439035
0.003706252174005442
0.0031666642713077398
0.0022704868869920514
0.0021796815769523636
0.003269052699383934
0.002432072962188725
0.005100781571369728
0.0026129152668905586
0.01000769822940728
0.004791238877481341
1.15 < |eta| < 1.37
0.004898491487280721
0.0022397345499791665
0.003199937234155792
0.0030596505423925446
0.0017767646122128777
0.002122635884471258
0.0006395813649247017
0.001387828741933106
0.0050243830353184915
0.0
0.013588634959851742
0.0036014405762303525
1.52 < |eta| < 1.81
0.0007527179509028148
0.002283336716054407
0.0027009001163040836
0.0032491667007814584
0.0025445451703656197
0.0017034751986022556
0.0003011100009580048
0.003760913364674323
0.0026335040234088947
0.006457862447529772
0.006489292667099189
0.0036607687614398365
1.81 < |eta| < 2.01
0.004777659158413217
0.039029535864978815
0.04006792709158846
0.005608793787402311
0.004809547215483656
0.0025868545940446186
0.004796853264258605
0.011352657004831013
0.0037604082728981414
0.007910349373764003
0.0055325034578146415
0.0025316455696202667
2.01 < |eta| < 2.37
0.00637087865521857
0.0043998308908534955
0.0028260857302413456
0.0037467684723140326
0.0028841332410995957
0.004298233319317335
0.0059785536766368
0.00435848542631434
0.004853387259858399
0.013251783893985625
0.008324661810613865
0.004115226337448652
