0 < |eta| < 0.6
2.7436e+08	3.339e+08	1.53018e+12	3.90465e+11
1.42301e+08	1.69727e+08	5.77088e+11	1.04376e+11
8.04661e+07	9.2785e+07	7.2346e+10	1.55499e+10
4.68949e+07	5.27838e+07	1.94896e+10	2.78415e+09
3.03629e+07	3.35202e+07	1.0754e+10	1.11915e+09
3.32424e+07	3.66017e+07	4.8445e+09	7.17078e+08
2.51302e+07	2.72515e+07	2.25999e+09	2.47956e+08
7.85716e+06	8.41727e+06	3.47705e+08	3.19974e+07
3.63551e+06	3.8658e+06	1.20291e+08	1.16753e+07
1.42244e+06	1.5081e+06	3.06224e+07	2.03085e+06
639402	679273	3.95409e+06	304073
607963	646218	2.26955e+06	170070
0.6 < |eta| < 0.8
9.35659e+07	1.15429e+08	5.04769e+11	1.25178e+11
4.85302e+07	5.86485e+07	1.84943e+11	4.01849e+10
2.70001e+07	3.14414e+07	2.61752e+10	4.80873e+09
1.65802e+07	1.88782e+07	7.26373e+09	1.16809e+09
1.06706e+07	1.19439e+07	3.8285e+09	4.50017e+08
1.15411e+07	1.27728e+07	1.81655e+09	2.32326e+08
8.54424e+06	9.24377e+06	7.28621e+08	7.55378e+07
2.72496e+06	2.91256e+06	1.22129e+08	9.12987e+06
1.23278e+06	1.30567e+06	4.05212e+07	2.47632e+06
493003	519715	1.0808e+07	580921
221755	233249	1.37463e+06	80741.5
210793	222314	774516	58463.8
0.8 < |eta| < 1.15
1.34853e+08	1.76326e+08	7.67223e+11	2.48683e+11
7.05824e+07	8.72699e+07	2.76155e+11	6.2828e+10
3.99313e+07	4.73804e+07	3.39879e+10	7.74896e+09
2.41075e+07	2.80579e+07	1.10548e+10	1.966e+09
1.56678e+07	1.78606e+07	5.67818e+09	1.36641e+09
1.68125e+07	1.884e+07	2.60942e+09	3.91608e+08
1.23669e+07	1.35724e+07	1.05513e+09	1.20888e+08
3.9557e+06	4.29233e+06	1.83451e+08	1.85665e+07
1.78894e+06	1.9202e+06	5.81164e+07	4.69235e+06
701305	749489	1.58688e+07	993618
322966	345798	2.19198e+06	175819
307813	329440	1.16216e+06	87106.1
1.15 < |eta| < 1.37
7.95227e+07	9.65413e+07	4.79747e+11	9.84177e+10
4.12315e+07	4.78626e+07	1.60285e+11	2.17622e+10
2.26773e+07	2.58339e+07	1.97742e+10	3.24999e+09
1.35673e+07	1.52438e+07	6.32337e+09	7.63182e+08
8.63489e+06	9.59892e+06	3.17919e+09	3.71884e+08
9.24532e+06	1.01395e+07	1.34677e+09	1.67438e+08
6.77278e+06	7.36278e+06	5.89202e+08	6.21296e+07
2.16458e+06	2.33708e+06	9.61841e+07	9.40991e+06
989882	1.05761e+06	3.45232e+07	2.37282e+06
388413	414728	8.44856e+06	848212
176008	188524	1.03112e+06	305097
166223	177523	654270	50953.8
1.52 < |eta| < 1.81
8.05064e+07	1.02009e+08	4.59616e+11	1.25087e+11
4.00784e+07	4.93322e+07	1.45644e+11	3.5855e+10
2.28375e+07	2.68428e+07	2.20037e+10	6.0143e+09
1.39936e+07	1.62484e+07	6.5206e+09	1.45784e+09
8.72397e+06	9.87908e+06	2.90233e+09	5.60226e+08
9.79005e+06	1.08124e+07	1.6001e+09	2.15684e+08
7.43113e+06	8.05987e+06	6.36096e+08	5.95185e+07
2.3784e+06	2.57428e+06	1.08575e+08	1.13473e+07
1.09342e+06	1.1657e+06	3.56259e+07	2.7182e+06
434485	460401	9.57887e+06	559691
195575	207087	1.14299e+06	151273
183186	193126	654214	47954.4
1.81 < |eta| < 2.01
5.54317e+07	7.09815e+07	3.10389e+11	9.386e+10
2.8978e+07	3.58753e+07	1.07107e+11	2.67278e+10
1.66107e+07	1.96833e+07	1.40329e+10	2.77977e+09
9.76457e+06	1.13296e+07	4.61186e+09	7.15686e+08
6.35783e+06	7.33725e+06	2.12828e+09	4.16349e+08
7.00867e+06	7.99698e+06	9.92616e+08	2.04072e+08
5.1567e+06	5.75882e+06	4.15842e+08	6.44179e+07
1.72846e+06	1.90977e+06	8.49092e+07	1.03341e+07
779228	852717	2.57334e+07	2.80702e+06
309535	336719	6.43667e+06	682671
140565	152531	774703	80935.4
130282	140971	491182	44455.8
2.01 < |eta| < 2.37
1.12934e+08	1.3972e+08	6.23733e+11	1.40916e+11
5.95235e+07	7.23547e+07	2.58305e+11	5.27894e+10
3.25561e+07	3.82874e+07	2.58849e+10	6.17155e+09
1.93491e+07	2.23631e+07	7.73187e+09	1.6357e+09
1.2576e+07	1.42901e+07	4.26403e+09	6.75051e+08
1.38236e+07	1.56422e+07	2.02368e+09	3.46816e+08
9.98608e+06	1.12195e+07	8.31132e+08	1.1708e+08
3.31547e+06	3.66548e+06	1.4958e+08	1.79314e+07
1.47707e+06	1.62143e+06	4.78721e+07	4.90737e+06
578234	633142	1.25274e+07	1.31309e+06
255906	278408	1.50473e+06	185412
226931	246670	866548	81020
