0.00<|#eta|<0.60
343848.0		413109.0		343848.0		69261.0
649112.0		766305.0		649112.0		117193.0
1047990.0		1205480.0		1047990.0		157487.0
1389750.0		1582460.0		1389750.0		192710.0
947734.0		1055180.0		947734.0		107442.0
545726.0		592638.0		545726.0		46912.0
241456.0		254812.0		241456.0		13356.0
51165.0		52638.0		51165.0		1473.0
23626.0		24393.0		23626.0		767.0
10367.0		10622.0		10367.0		255.0
5229.0		5357.0		5229.0		128.0
5510.0		5770.0		5510.0		260.0
0.60<|#eta|<0.80
102192.0		124486.0		102192.0		22294.0
211862.0		255996.0		211862.0		44134.0
359009.0		409638.0		359009.0		50629.0
441819.0		505608.0		441819.0		63789.0
309823.0		337397.0		309823.0		27574.0
172256.0		187491.0		172256.0		15235.0
75818.0		79655.0		75818.0		3837.0
15962.0		16589.0		15962.0		627.0
7359.0		7493.0		7359.0		134.0
3041.0		3177.0		3041.0		136.0
1653.0		1696.0		1653.0		43.0
1712.0		1805.0		1712.0		93.0
0.80<|#eta|<1.15
176063.0		216726.0		176063.0		40663.0
330594.0		397139.0		330594.0		66545.0
568724.0		658748.0		568724.0		90024.0
743588.0		835279.0		743588.0		91691.0
475938.0		531503.0		475938.0		55565.0
272613.0		296729.0		272613.0		24116.0
116735.0		124301.0		116735.0		7566.0
25365.0		26414.0		25365.0		1049.0
11970.0		12159.0		11970.0		189.0
5316.0		5385.0		5316.0		69.0
2558.0		2605.0		2558.0		47.0
2876.0		2950.0		2876.0		74.0
1.15<|#eta|<1.37
96130.0		125895.0		96130.0		29765.0
169864.0		215988.0		169864.0		46124.0
296552.0		353321.0		296552.0		56769.0
395030.0		470819.0		395030.0		75789.0
262478.0		297354.0		262478.0		34876.0
150966.0		167375.0		150966.0		16409.0
64186.0		68548.0		64186.0		4362.0
13688.0		14362.0		13688.0		674.0
6648.0		6789.0		6648.0		141.0
2952.0		3039.0		2952.0		87.0
1581.0		1615.0		1581.0		34.0
1583.0		1665.0		1583.0		82.0
1.52<|#eta|<1.81
118468.0		143951.0		118468.0		25483.0
197727.0		239433.0		197727.0		41706.0
308058.0		364819.0		308058.0		56761.0
398248.0		464536.0		398248.0		66288.0
287348.0		320284.0		287348.0		32936.0
168469.0		183135.0		168469.0		14666.0
66981.0		72997.0		66981.0		6016.0
13926.0		14878.0		13926.0		952.0
6566.0		6830.0		6566.0		264.0
3023.0		3108.0		3023.0		85.0
1489.0		1525.0		1489.0		36.0
1583.0		1642.0		1583.0		59.0
1.81<|#eta|<2.01
88597.0		96191.0		88597.0		7594.0
139229.0		154677.0		139229.0		15448.0
202890.0		221049.0		202890.0		18159.0
254990.0		279129.0		254990.0		24139.0
176756.0		189350.0		176756.0		12594.0
99121.0		105134.0		99121.0		6013.0
39305.0		41669.0		39305.0		2364.0
7825.0		8300.0		7825.0		475.0
3541.0		3708.0		3541.0		167.0
1462.0		1516.0		1462.0		54.0
696.0		723.0		696.0		27.0
770.0		797.0		770.0		27.0
2.01<|#eta|<2.37
155472.0		171938.0		155472.0		16466.0
244093.0		266840.0		244093.0		22747.0
323662.0		352631.0		323662.0		28969.0
378231.0		412847.0		378231.0		34616.0
251439.0		272757.0		251439.0		21318.0
135875.0		149605.0		135875.0		13730.0
53179.0		57403.0		53179.0		4224.0
10161.0		10987.0		10161.0		826.0
4704.0		4956.0		4704.0		252.0
1906.0		1956.0		1906.0		50.0
910.0		967.0		910.0		57.0
940.0		974.0		940.0		34.0
