0.00<|#eta|<0.60
339744.0		413109.0		339744.0		73365.0
651550.0		766305.0		651550.0		114755.0
1046940.0		1205480.0		1046940.0		158542.0
1387120.0		1582460.0		1387120.0		195341.0
955940.0		1055180.0		955940.0		99234.0
544974.0		592638.0		544974.0		47664.0
240790.0		254812.0		240790.0		14022.0
51031.0		52638.0		51031.0		1607.0
23787.0		24393.0		23787.0		606.0
10349.0		10622.0		10349.0		273.0
5213.0		5357.0		5213.0		144.0
5507.0		5770.0		5507.0		263.0
0.60<|#eta|<0.80
101712.0		124486.0		101712.0		22774.0
211621.0		255996.0		211621.0		44375.0
351963.0		409638.0		351963.0		57675.0
442563.0		505608.0		442563.0		63045.0
308601.0		337397.0		308601.0		28796.0
172458.0		187491.0		172458.0		15033.0
75652.0		79655.0		75652.0		4003.0
15934.0		16589.0		15934.0		655.0
7359.0		7493.0		7359.0		134.0
3083.0		3177.0		3083.0		94.0
1664.0		1696.0		1664.0		32.0
1738.0		1805.0		1738.0		67.0
0.80<|#eta|<1.15
177641.0		216726.0		177641.0		39085.0
334153.0		397139.0		334153.0		62986.0
566553.0		658748.0		566553.0		92195.0
743368.0		835279.0		743368.0		91911.0
478416.0		531503.0		478416.0		53087.0
270682.0		296729.0		270682.0		26047.0
116063.0		124301.0		116063.0		8238.0
25358.0		26414.0		25358.0		1056.0
11980.0		12159.0		11980.0		179.0
5297.0		5385.0		5297.0		88.0
2562.0		2605.0		2562.0		43.0
2875.0		2950.0		2875.0		75.0
1.15<|#eta|<1.37
96027.0		125895.0		96027.0		29868.0
172254.0		215988.0		172254.0		43734.0
296038.0		353321.0		296038.0		57283.0
395511.0		470819.0		395511.0		75308.0
261881.0		297354.0		261881.0		35473.0
150423.0		167375.0		150423.0		16952.0
64114.0		68548.0		64114.0		4434.0
13622.0		14362.0		13622.0		740.0
6630.0		6789.0		6630.0		159.0
2953.0		3039.0		2953.0		86.0
1573.0		1615.0		1573.0		42.0
1587.0		1665.0		1587.0		78.0
1.52<|#eta|<1.81
118062.0		143951.0		118062.0		25889.0
197082.0		239433.0		197082.0		42351.0
305650.0		364819.0		305650.0		59169.0
396845.0		464536.0		396845.0		67691.0
289844.0		320284.0		289844.0		30440.0
168177.0		183135.0		168177.0		14958.0
67260.0		72997.0		67260.0		5737.0
13898.0		14878.0		13898.0		980.0
6590.0		6830.0		6590.0		240.0
3030.0		3108.0		3030.0		78.0
1485.0		1525.0		1485.0		40.0
1588.0		1642.0		1588.0		54.0
1.81<|#eta|<2.01
88139.0		96191.0		88139.0		8052.0
139391.0		154677.0		139391.0		15286.0
202725.0		221049.0		202725.0		18324.0
252298.0		279129.0		252298.0		26831.0
177784.0		189350.0		177784.0		11566.0
99228.0		105134.0		99228.0		5906.0
39365.0		41669.0		39365.0		2304.0
7808.0		8300.0		7808.0		492.0
3551.0		3708.0		3551.0		157.0
1477.0		1516.0		1477.0		39.0
692.0		723.0		692.0		31.0
755.0		797.0		755.0		42.0
2.01<|#eta|<2.37
156261.0		171938.0		156261.0		15677.0
244548.0		266840.0		244548.0		22292.0
323528.0		352631.0		323528.0		29103.0
378082.0		412847.0		378082.0		34765.0
251315.0		272757.0		251315.0		21442.0
135635.0		149605.0		135635.0		13970.0
53210.0		57403.0		53210.0		4193.0
10160.0		10987.0		10160.0		827.0
4726.0		4956.0		4726.0		230.0
1916.0		1956.0		1916.0		40.0
902.0		967.0		902.0		65.0
928.0		974.0		928.0		46.0
