0.00<|#eta|<0.60
338523.0		413109.0		338523.0		74586.0
645495.0		766305.0		645495.0		120810.0
1044160.0		1205480.0		1044160.0		161326.0
1394040.0		1582460.0		1394040.0		188414.0
956570.0		1055180.0		956570.0		98605.0
547363.0		592638.0		547363.0		45275.0
241331.0		254812.0		241331.0		13481.0
51035.0		52638.0		51035.0		1603.0
23664.0		24393.0		23664.0		729.0
10317.0		10622.0		10317.0		305.0
5225.0		5357.0		5225.0		132.0
5507.0		5770.0		5507.0		263.0
0.60<|#eta|<0.80
101549.0		124486.0		101549.0		22937.0
212884.0		255996.0		212884.0		43112.0
352747.0		409638.0		352747.0		56891.0
438287.0		505608.0		438287.0		67321.0
309395.0		337397.0		309395.0		28002.0
172012.0		187491.0		172012.0		15479.0
76074.0		79655.0		76074.0		3581.0
15988.0		16589.0		15988.0		601.0
7367.0		7493.0		7367.0		126.0
3067.0		3177.0		3067.0		110.0
1663.0		1696.0		1663.0		33.0
1742.0		1805.0		1742.0		63.0
0.80<|#eta|<1.15
178202.0		216726.0		178202.0		38524.0
331291.0		397139.0		331291.0		65848.0
561151.0		658748.0		561151.0		97597.0
740359.0		835279.0		740359.0		94920.0
477097.0		531503.0		477097.0		54406.0
273499.0		296729.0		273499.0		23230.0
116785.0		124301.0		116785.0		7516.0
25346.0		26414.0		25346.0		1068.0
11935.0		12159.0		11935.0		224.0
5315.0		5385.0		5315.0		70.0
2554.0		2605.0		2554.0		51.0
2879.0		2950.0		2879.0		71.0
1.15<|#eta|<1.37
95953.0		125895.0		95953.0		29942.0
168533.0		215988.0		168533.0		47455.0
298744.0		353321.0		298744.0		54577.0
396835.0		470819.0		396835.0		73984.0
264743.0		297354.0		264743.0		32611.0
151707.0		167375.0		151707.0		15668.0
64360.0		68548.0		64360.0		4188.0
13710.0		14362.0		13710.0		652.0
6576.0		6789.0		6576.0		213.0
2956.0		3039.0		2956.0		83.0
1565.0		1615.0		1565.0		50.0
1583.0		1665.0		1583.0		82.0
1.52<|#eta|<1.81
118148.0		143951.0		118148.0		25803.0
196240.0		239433.0		196240.0		43193.0
306225.0		364819.0		306225.0		58594.0
396892.0		464536.0		396892.0		67644.0
288246.0		320284.0		288246.0		32038.0
168472.0		183135.0		168472.0		14663.0
67435.0		72997.0		67435.0		5562.0
13939.0		14878.0		13939.0		939.0
6625.0		6830.0		6625.0		205.0
3032.0		3108.0		3032.0		76.0
1480.0		1525.0		1480.0		45.0
1583.0		1642.0		1583.0		59.0
1.81<|#eta|<2.01
89134.0		96191.0		89134.0		7057.0
140136.0		154677.0		140136.0		14541.0
203069.0		221049.0		203069.0		17980.0
254098.0		279129.0		254098.0		25031.0
177593.0		189350.0		177593.0		11757.0
98700.0		105134.0		98700.0		6434.0
39233.0		41669.0		39233.0		2436.0
7801.0		8300.0		7801.0		499.0
3591.0		3708.0		3591.0		117.0
1485.0		1516.0		1485.0		31.0
692.0		723.0		692.0		31.0
745.0		797.0		745.0		52.0
2.01<|#eta|<2.37
156008.0		171938.0		156008.0		15930.0
243257.0		266840.0		243257.0		23583.0
320818.0		352631.0		320818.0		31813.0
379368.0		412847.0		379368.0		33479.0
251264.0		272757.0		251264.0		21493.0
136405.0		149605.0		136405.0		13200.0
53115.0		57403.0		53115.0		4288.0
10118.0		10987.0		10118.0		869.0
4740.0		4956.0		4740.0		216.0
1909.0		1956.0		1909.0		47.0
916.0		967.0		916.0		51.0
926.0		974.0		926.0		48.0
