0.00<|#eta|<0.60
338746.0		413109.0		338746.0		74363.0
644132.0		766305.0		644132.0		122173.0
1053280.0		1205480.0		1053280.0		152200.0
1395880.0		1582460.0		1395880.0		186576.0
949980.0		1055180.0		949980.0		105201.0
546482.0		592638.0		546482.0		46156.0
240987.0		254812.0		240987.0		13825.0
51117.0		52638.0		51117.0		1521.0
23695.0		24393.0		23695.0		698.0
10345.0		10622.0		10345.0		277.0
5229.0		5357.0		5229.0		128.0
5518.0		5770.0		5518.0		252.0
0.60<|#eta|<0.80
100130.0		124486.0		100130.0		24356.0
215586.0		255996.0		215586.0		40410.0
355417.0		409638.0		355417.0		54221.0
439624.0		505608.0		439624.0		65984.0
307114.0		337397.0		307114.0		30283.0
174114.0		187491.0		174114.0		13377.0
75760.0		79655.0		75760.0		3895.0
15963.0		16589.0		15963.0		626.0
7336.0		7493.0		7336.0		157.0
3057.0		3177.0		3057.0		120.0
1645.0		1696.0		1645.0		51.0
1747.0		1805.0		1747.0		58.0
0.80<|#eta|<1.15
178857.0		216726.0		178857.0		37869.0
329545.0		397139.0		329545.0		67594.0
574510.0		658748.0		574510.0		84238.0
741329.0		835279.0		741329.0		93950.0
481566.0		531503.0		481566.0		49937.0
271619.0		296729.0		271619.0		25110.0
116241.0		124301.0		116241.0		8060.0
25375.0		26414.0		25375.0		1039.0
11950.0		12159.0		11950.0		209.0
5293.0		5385.0		5293.0		92.0
2561.0		2605.0		2561.0		44.0
2882.0		2950.0		2882.0		68.0
1.15<|#eta|<1.37
95562.0		125895.0		95562.0		30333.0
167029.0		215988.0		167029.0		48959.0
294968.0		353321.0		294968.0		58353.0
397824.0		470819.0		397824.0		72995.0
263642.0		297354.0		263642.0		33712.0
151193.0		167375.0		151193.0		16182.0
64397.0		68548.0		64397.0		4151.0
13699.0		14362.0		13699.0		663.0
6600.0		6789.0		6600.0		189.0
2944.0		3039.0		2944.0		95.0
1573.0		1615.0		1573.0		42.0
1593.0		1665.0		1593.0		72.0
1.52<|#eta|<1.81
118417.0		143951.0		118417.0		25534.0
197333.0		239433.0		197333.0		42100.0
309230.0		364819.0		309230.0		55589.0
395238.0		464536.0		395238.0		69298.0
288889.0		320284.0		288889.0		31395.0
167956.0		183135.0		167956.0		15179.0
67209.0		72997.0		67209.0		5788.0
13847.0		14878.0		13847.0		1031.0
6610.0		6830.0		6610.0		220.0
3021.0		3108.0		3021.0		87.0
1479.0		1525.0		1479.0		46.0
1594.0		1642.0		1594.0		48.0
1.81<|#eta|<2.01
89361.0		96191.0		89361.0		6830.0
139665.0		154677.0		139665.0		15012.0
200933.0		221049.0		200933.0		20116.0
252967.0		279129.0		252967.0		26162.0
177360.0		189350.0		177360.0		11990.0
98966.0		105134.0		98966.0		6168.0
39343.0		41669.0		39343.0		2326.0
7805.0		8300.0		7805.0		495.0
3605.0		3708.0		3605.0		103.0
1463.0		1516.0		1463.0		53.0
703.0		723.0		703.0		20.0
757.0		797.0		757.0		40.0
2.01<|#eta|<2.37
155882.0		171938.0		155882.0		16056.0
245025.0		266840.0		245025.0		21815.0
322392.0		352631.0		322392.0		30239.0
377197.0		412847.0		377197.0		35650.0
252344.0		272757.0		252344.0		20413.0
135726.0		149605.0		135726.0		13879.0
53193.0		57403.0		53193.0		4210.0
10230.0		10987.0		10230.0		757.0
4712.0		4956.0		4712.0		244.0
1913.0		1956.0		1913.0		43.0
909.0		967.0		909.0		58.0
925.0		974.0		925.0		49.0
