0.00<|#eta|<0.60
341981.0		413109.0		341981.0		71128.0
645721.0		766305.0		645721.0		120584.0
1042560.0		1205480.0		1042560.0		162930.0
1387770.0		1582460.0		1387770.0		194682.0
952360.0		1055180.0		952360.0		102815.0
545034.0		592638.0		545034.0		47604.0
240873.0		254812.0		240873.0		13939.0
51102.0		52638.0		51102.0		1536.0
23718.0		24393.0		23718.0		675.0
10346.0		10622.0		10346.0		276.0
5239.0		5357.0		5239.0		118.0
5539.0		5770.0		5539.0		231.0
0.60<|#eta|<0.80
99820.0		124486.0		99820.0		24666.0
214817.0		255996.0		214817.0		41179.0
355074.0		409638.0		355074.0		54564.0
441396.0		505608.0		441396.0		64212.0
309736.0		337397.0		309736.0		27661.0
172334.0		187491.0		172334.0		15157.0
76108.0		79655.0		76108.0		3547.0
15960.0		16589.0		15960.0		629.0
7367.0		7493.0		7367.0		126.0
3025.0		3177.0		3025.0		152.0
1654.0		1696.0		1654.0		42.0
1735.0		1805.0		1735.0		70.0
0.80<|#eta|<1.15
176466.0		216726.0		176466.0		40260.0
333465.0		397139.0		333465.0		63674.0
563626.0		658748.0		563626.0		95122.0
740583.0		835279.0		740583.0		94696.0
478700.0		531503.0		478700.0		52803.0
273184.0		296729.0		273184.0		23545.0
116533.0		124301.0		116533.0		7768.0
25362.0		26414.0		25362.0		1052.0
11929.0		12159.0		11929.0		230.0
5330.0		5385.0		5330.0		55.0
2559.0		2605.0		2559.0		46.0
2878.0		2950.0		2878.0		72.0
1.15<|#eta|<1.37
96835.0		125895.0		96835.0		29060.0
172295.0		215988.0		172295.0		43693.0
296512.0		353321.0		296512.0		56809.0
398205.0		470819.0		398205.0		72614.0
263919.0		297354.0		263919.0		33435.0
150633.0		167375.0		150633.0		16742.0
64474.0		68548.0		64474.0		4074.0
13626.0		14362.0		13626.0		736.0
6606.0		6789.0		6606.0		183.0
2964.0		3039.0		2964.0		75.0
1567.0		1615.0		1567.0		48.0
1588.0		1665.0		1588.0		77.0
1.52<|#eta|<1.81
117818.0		143951.0		117818.0		26133.0
198005.0		239433.0		198005.0		41428.0
304989.0		364819.0		304989.0		59830.0
398277.0		464536.0		398277.0		66259.0
287819.0		320284.0		287819.0		32465.0
168347.0		183135.0		168347.0		14788.0
67238.0		72997.0		67238.0		5759.0
13832.0		14878.0		13832.0		1046.0
6596.0		6830.0		6596.0		234.0
3031.0		3108.0		3031.0		77.0
1475.0		1525.0		1475.0		50.0
1584.0		1642.0		1584.0		58.0
1.81<|#eta|<2.01
89292.0		96191.0		89292.0		6899.0
139853.0		154677.0		139853.0		14824.0
203919.0		221049.0		203919.0		17130.0
254357.0		279129.0		254357.0		24772.0
178034.0		189350.0		178034.0		11316.0
99346.0		105134.0		99346.0		5788.0
39308.0		41669.0		39308.0		2361.0
7774.0		8300.0		7774.0		526.0
3554.0		3708.0		3554.0		154.0
1461.0		1516.0		1461.0		55.0
695.0		723.0		695.0		28.0
759.0		797.0		759.0		38.0
2.01<|#eta|<2.37
156000.0		171938.0		156000.0		15938.0
244524.0		266840.0		244524.0		22316.0
322874.0		352631.0		322874.0		29757.0
379051.0		412847.0		379051.0		33796.0
250748.0		272757.0		250748.0		22009.0
135961.0		149605.0		135961.0		13644.0
53364.0		57403.0		53364.0		4039.0
10209.0		10987.0		10209.0		778.0
4733.0		4956.0		4733.0		223.0
1901.0		1956.0		1901.0		55.0
911.0		967.0		911.0		56.0
924.0		974.0		924.0		50.0
