0.00<|#eta|<0.60
340901.0		413109.0		340901.0		72208.0
645153.0		766305.0		645153.0		121152.0
1052980.0		1205480.0		1052980.0		152501.0
1397380.0		1582460.0		1397380.0		185063.0
955310.0		1055180.0		955310.0		99877.0
548823.0		592638.0		548823.0		43815.0
239984.0		254812.0		239984.0		14828.0
50823.0		52638.0		50823.0		1815.0
23679.0		24393.0		23679.0		714.0
10365.0		10622.0		10365.0		257.0
5222.0		5357.0		5222.0		135.0
5494.0		5770.0		5494.0		276.0
0.60<|#eta|<0.80
99568.0		124486.0		99568.0		24918.0
213970.0		255996.0		213970.0		42026.0
355899.0		409638.0		355899.0		53739.0
442339.0		505608.0		442339.0		63269.0
308176.0		337397.0		308176.0		29221.0
172126.0		187491.0		172126.0		15365.0
75378.0		79655.0		75378.0		4277.0
15896.0		16589.0		15896.0		693.0
7366.0		7493.0		7366.0		127.0
3055.0		3177.0		3055.0		122.0
1668.0		1696.0		1668.0		28.0
1737.0		1805.0		1737.0		68.0
0.80<|#eta|<1.15
176751.0		216726.0		176751.0		39975.0
329535.0		397139.0		329535.0		67604.0
567323.0		658748.0		567323.0		91425.0
741114.0		835279.0		741114.0		94165.0
480291.0		531503.0		480291.0		51212.0
270910.0		296729.0		270910.0		25819.0
116463.0		124301.0		116463.0		7838.0
25376.0		26414.0		25376.0		1038.0
11952.0		12159.0		11952.0		207.0
5325.0		5385.0		5325.0		60.0
2543.0		2605.0		2543.0		62.0
2874.0		2950.0		2874.0		76.0
1.15<|#eta|<1.37
96761.0		125895.0		96761.0		29134.0
171131.0		215988.0		171131.0		44857.0
293326.0		353321.0		293326.0		59995.0
397007.0		470819.0		397007.0		73812.0
261839.0		297354.0		261839.0		35515.0
150670.0		167375.0		150670.0		16705.0
64598.0		68548.0		64598.0		3950.0
13768.0		14362.0		13768.0		594.0
6583.0		6789.0		6583.0		206.0
2952.0		3039.0		2952.0		87.0
1572.0		1615.0		1572.0		43.0
1580.0		1665.0		1580.0		85.0
1.52<|#eta|<1.81
118376.0		143951.0		118376.0		25575.0
198341.0		239433.0		198341.0		41092.0
305481.0		364819.0		305481.0		59338.0
392885.0		464536.0		392885.0		71651.0
288596.0		320284.0		288596.0		31688.0
168149.0		183135.0		168149.0		14986.0
67171.0		72997.0		67171.0		5826.0
13898.0		14878.0		13898.0		980.0
6600.0		6830.0		6600.0		230.0
3010.0		3108.0		3010.0		98.0
1464.0		1525.0		1464.0		61.0
1592.0		1642.0		1592.0		50.0
1.81<|#eta|<2.01
88731.0		96191.0		88731.0		7460.0
139417.0		154677.0		139417.0		15260.0
203764.0		221049.0		203764.0		17285.0
253412.0		279129.0		253412.0		25717.0
178344.0		189350.0		178344.0		11006.0
99184.0		105134.0		99184.0		5950.0
39254.0		41669.0		39254.0		2415.0
7755.0		8300.0		7755.0		545.0
3567.0		3708.0		3567.0		141.0
1482.0		1516.0		1482.0		34.0
701.0		723.0		701.0		22.0
751.0		797.0		751.0		46.0
2.01<|#eta|<2.37
155925.0		171938.0		155925.0		16013.0
244888.0		266840.0		244888.0		21952.0
324062.0		352631.0		324062.0		28569.0
378612.0		412847.0		378612.0		34235.0
251562.0		272757.0		251562.0		21195.0
136328.0		149605.0		136328.0		13277.0
53416.0		57403.0		53416.0		3987.0
10168.0		10987.0		10168.0		819.0
4745.0		4956.0		4745.0		211.0
1925.0		1956.0		1925.0		31.0
906.0		967.0		906.0		61.0
923.0		974.0		923.0		51.0
