0.00<|#eta|<0.60
341958.0		413109.0		341958.0		71151.0
646893.0		766305.0		646893.0		119412.0
1048670.0		1205480.0		1048670.0		156798.0
1397520.0		1582460.0		1397520.0		184933.0
948160.0		1055180.0		948160.0		107019.0
547842.0		592638.0		547842.0		44796.0
241409.0		254812.0		241409.0		13403.0
51118.0		52638.0		51118.0		1520.0
23608.0		24393.0		23608.0		785.0
10368.0		10622.0		10368.0		254.0
5213.0		5357.0		5213.0		144.0
5468.0		5770.0		5468.0		302.0
0.60<|#eta|<0.80
100260.0		124486.0		100260.0		24226.0
216085.0		255996.0		216085.0		39911.0
352173.0		409638.0		352173.0		57465.0
440080.0		505608.0		440080.0		65528.0
308177.0		337397.0		308177.0		29220.0
172474.0		187491.0		172474.0		15017.0
75623.0		79655.0		75623.0		4032.0
15867.0		16589.0		15867.0		722.0
7361.0		7493.0		7361.0		132.0
3087.0		3177.0		3087.0		90.0
1656.0		1696.0		1656.0		40.0
1741.0		1805.0		1741.0		64.0
0.80<|#eta|<1.15
175706.0		216726.0		175706.0		41020.0
329445.0		397139.0		329445.0		67694.0
567265.0		658748.0		567265.0		91483.0
737702.0		835279.0		737702.0		97577.0
480384.0		531503.0		480384.0		51119.0
271486.0		296729.0		271486.0		25243.0
116340.0		124301.0		116340.0		7961.0
25300.0		26414.0		25300.0		1114.0
11996.0		12159.0		11996.0		163.0
5279.0		5385.0		5279.0		106.0
2553.0		2605.0		2553.0		52.0
2872.0		2950.0		2872.0		78.0
1.15<|#eta|<1.37
96495.0		125895.0		96495.0		29400.0
170642.0		215988.0		170642.0		45346.0
296263.0		353321.0		296263.0		57058.0
398886.0		470819.0		398886.0		71933.0
263505.0		297354.0		263505.0		33849.0
150692.0		167375.0		150692.0		16683.0
64066.0		68548.0		64066.0		4482.0
13611.0		14362.0		13611.0		751.0
6627.0		6789.0		6627.0		162.0
2947.0		3039.0		2947.0		92.0
1587.0		1615.0		1587.0		28.0
1592.0		1665.0		1592.0		73.0
1.52<|#eta|<1.81
118559.0		143951.0		118559.0		25392.0
197516.0		239433.0		197516.0		41917.0
304707.0		364819.0		304707.0		60112.0
393622.0		464536.0		393622.0		70914.0
289083.0		320284.0		289083.0		31201.0
168410.0		183135.0		168410.0		14725.0
67281.0		72997.0		67281.0		5716.0
13867.0		14878.0		13867.0		1011.0
6562.0		6830.0		6562.0		268.0
3032.0		3108.0		3032.0		76.0
1478.0		1525.0		1478.0		47.0
1600.0		1642.0		1600.0		42.0
1.81<|#eta|<2.01
89601.0		96191.0		89601.0		6590.0
140268.0		154677.0		140268.0		14409.0
201926.0		221049.0		201926.0		19123.0
253442.0		279129.0		253442.0		25687.0
177269.0		189350.0		177269.0		12081.0
98765.0		105134.0		98765.0		6369.0
39174.0		41669.0		39174.0		2495.0
7828.0		8300.0		7828.0		472.0
3549.0		3708.0		3549.0		159.0
1475.0		1516.0		1475.0		41.0
691.0		723.0		691.0		32.0
761.0		797.0		761.0		36.0
2.01<|#eta|<2.37
155716.0		171938.0		155716.0		16222.0
242991.0		266840.0		242991.0		23849.0
323378.0		352631.0		323378.0		29253.0
378198.0		412847.0		378198.0		34649.0
251637.0		272757.0		251637.0		21120.0
136297.0		149605.0		136297.0		13308.0
53239.0		57403.0		53239.0		4164.0
10162.0		10987.0		10162.0		825.0
4720.0		4956.0		4720.0		236.0
1894.0		1956.0		1894.0		62.0
907.0		967.0		907.0		60.0
946.0		974.0		946.0		28.0
