0.00<|#eta|<0.60
341757.0		413109.0		341757.0		71352.0
648826.0		766305.0		648826.0		117479.0
1055930.0		1205480.0		1055930.0		149546.0
1392190.0		1582460.0		1392190.0		190266.0
952140.0		1055180.0		952140.0		103031.0
549181.0		592638.0		549181.0		43457.0
241155.0		254812.0		241155.0		13657.0
51033.0		52638.0		51033.0		1605.0
23711.0		24393.0		23711.0		682.0
10344.0		10622.0		10344.0		278.0
5208.0		5357.0		5208.0		149.0
5488.0		5770.0		5488.0		282.0
0.60<|#eta|<0.80
98964.0		124486.0		98964.0		25522.0
217669.0		255996.0		217669.0		38327.0
354153.0		409638.0		354153.0		55485.0
439222.0		505608.0		439222.0		66386.0
309039.0		337397.0		309039.0		28358.0
172481.0		187491.0		172481.0		15010.0
75946.0		79655.0		75946.0		3709.0
15935.0		16589.0		15935.0		654.0
7338.0		7493.0		7338.0		155.0
3068.0		3177.0		3068.0		109.0
1645.0		1696.0		1645.0		51.0
1746.0		1805.0		1746.0		59.0
0.80<|#eta|<1.15
177286.0		216726.0		177286.0		39440.0
333398.0		397139.0		333398.0		63741.0
564574.0		658748.0		564574.0		94174.0
737221.0		835279.0		737221.0		98058.0
478827.0		531503.0		478827.0		52676.0
273166.0		296729.0		273166.0		23563.0
116723.0		124301.0		116723.0		7578.0
25283.0		26414.0		25283.0		1131.0
11928.0		12159.0		11928.0		231.0
5301.0		5385.0		5301.0		84.0
2560.0		2605.0		2560.0		45.0
2879.0		2950.0		2879.0		71.0
1.15<|#eta|<1.37
97604.0		125895.0		97604.0		28291.0
170641.0		215988.0		170641.0		45347.0
295506.0		353321.0		295506.0		57815.0
398142.0		470819.0		398142.0		72677.0
262890.0		297354.0		262890.0		34464.0
150464.0		167375.0		150464.0		16911.0
64466.0		68548.0		64466.0		4082.0
13714.0		14362.0		13714.0		648.0
6591.0		6789.0		6591.0		198.0
2930.0		3039.0		2930.0		109.0
1554.0		1615.0		1554.0		61.0
1596.0		1665.0		1596.0		69.0
1.52<|#eta|<1.81
118408.0		143951.0		118408.0		25543.0
197109.0		239433.0		197109.0		42324.0
305667.0		364819.0		305667.0		59152.0
393337.0		464536.0		393337.0		71199.0
288097.0		320284.0		288097.0		32187.0
168477.0		183135.0		168477.0		14658.0
67352.0		72997.0		67352.0		5645.0
13967.0		14878.0		13967.0		911.0
6606.0		6830.0		6606.0		224.0
3016.0		3108.0		3016.0		92.0
1479.0		1525.0		1479.0		46.0
1585.0		1642.0		1585.0		57.0
1.81<|#eta|<2.01
89182.0		96191.0		89182.0		7009.0
138669.0		154677.0		138669.0		16008.0
204119.0		221049.0		204119.0		16930.0
253664.0		279129.0		253664.0		25465.0
177258.0		189350.0		177258.0		12092.0
99005.0		105134.0		99005.0		6129.0
39180.0		41669.0		39180.0		2489.0
7805.0		8300.0		7805.0		495.0
3568.0		3708.0		3568.0		140.0
1454.0		1516.0		1454.0		62.0
698.0		723.0		698.0		25.0
750.0		797.0		750.0		47.0
2.01<|#eta|<2.37
155137.0		171938.0		155137.0		16801.0
244106.0		266840.0		244106.0		22734.0
321986.0		352631.0		321986.0		30645.0
378308.0		412847.0		378308.0		34539.0
251360.0		272757.0		251360.0		21397.0
135594.0		149605.0		135594.0		14011.0
53270.0		57403.0		53270.0		4133.0
10158.0		10987.0		10158.0		829.0
4734.0		4956.0		4734.0		222.0
1899.0		1956.0		1899.0		57.0
908.0		967.0		908.0		59.0
930.0		974.0		930.0		44.0
