0.00<|#eta|<0.60
341726.0		413109.0		341726.0		71383.0
648432.0		766305.0		648432.0		117873.0
1047670.0		1205480.0		1047670.0		157806.0
1400520.0		1582460.0		1400520.0		181945.0
956640.0		1055180.0		956640.0		98532.0
550413.0		592638.0		550413.0		42225.0
240993.0		254812.0		240993.0		13819.0
51202.0		52638.0		51202.0		1436.0
23751.0		24393.0		23751.0		642.0
10330.0		10622.0		10330.0		292.0
5231.0		5357.0		5231.0		126.0
5440.0		5770.0		5440.0		330.0
0.60<|#eta|<0.80
97296.0		124486.0		97296.0		27190.0
207788.0		255996.0		207788.0		48208.0
358928.0		409638.0		358928.0		50710.0
439451.0		505608.0		439451.0		66157.0
310043.0		337397.0		310043.0		27354.0
172227.0		187491.0		172227.0		15264.0
75631.0		79655.0		75631.0		4024.0
15933.0		16589.0		15933.0		656.0
7334.0		7493.0		7334.0		159.0
3095.0		3177.0		3095.0		82.0
1661.0		1696.0		1661.0		35.0
1744.0		1805.0		1744.0		61.0
0.80<|#eta|<1.15
177993.0		216726.0		177993.0		38733.0
333164.0		397139.0		333164.0		63975.0
558537.0		658748.0		558537.0		100211.0
740103.0		835279.0		740103.0		95176.0
480279.0		531503.0		480279.0		51224.0
272371.0		296729.0		272371.0		24358.0
116387.0		124301.0		116387.0		7914.0
25301.0		26414.0		25301.0		1113.0
12008.0		12159.0		12008.0		151.0
5274.0		5385.0		5274.0		111.0
2568.0		2605.0		2568.0		37.0
2869.0		2950.0		2869.0		81.0
1.15<|#eta|<1.37
97919.0		125895.0		97919.0		27976.0
171520.0		215988.0		171520.0		44468.0
301724.0		353321.0		301724.0		51597.0
397200.0		470819.0		397200.0		73619.0
262080.0		297354.0		262080.0		35274.0
150339.0		167375.0		150339.0		17036.0
64344.0		68548.0		64344.0		4204.0
13682.0		14362.0		13682.0		680.0
6629.0		6789.0		6629.0		160.0
2952.0		3039.0		2952.0		87.0
1567.0		1615.0		1567.0		48.0
1588.0		1665.0		1588.0		77.0
1.52<|#eta|<1.81
118748.0		143951.0		118748.0		25203.0
196327.0		239433.0		196327.0		43106.0
307343.0		364819.0		307343.0		57476.0
394964.0		464536.0		394964.0		69572.0
288267.0		320284.0		288267.0		32017.0
168368.0		183135.0		168368.0		14767.0
67380.0		72997.0		67380.0		5617.0
13958.0		14878.0		13958.0		920.0
6580.0		6830.0		6580.0		250.0
3023.0		3108.0		3023.0		85.0
1473.0		1525.0		1473.0		52.0
1601.0		1642.0		1601.0		41.0
1.81<|#eta|<2.01
89322.0		96191.0		89322.0		6869.0
139315.0		154677.0		139315.0		15362.0
203866.0		221049.0		203866.0		17183.0
254415.0		279129.0		254415.0		24714.0
178176.0		189350.0		178176.0		11174.0
98827.0		105134.0		98827.0		6307.0
39257.0		41669.0		39257.0		2412.0
7820.0		8300.0		7820.0		480.0
3539.0		3708.0		3539.0		169.0
1463.0		1516.0		1463.0		53.0
690.0		723.0		690.0		33.0
753.0		797.0		753.0		44.0
2.01<|#eta|<2.37
155932.0		171938.0		155932.0		16006.0
243883.0		266840.0		243883.0		22957.0
324270.0		352631.0		324270.0		28361.0
379129.0		412847.0		379129.0		33718.0
251747.0		272757.0		251747.0		21010.0
135982.0		149605.0		135982.0		13623.0
53256.0		57403.0		53256.0		4147.0
10160.0		10987.0		10160.0		827.0
4727.0		4956.0		4727.0		229.0
1899.0		1956.0		1899.0		57.0
903.0		967.0		903.0		64.0
932.0		974.0		932.0		42.0
