0.00<|#eta|<0.60
338093.0		413109.0		338093.0		75016.0
650387.0		766305.0		650387.0		115918.0
1043510.0		1205480.0		1043510.0		161971.0
1398090.0		1582460.0		1398090.0		184371.0
953590.0		1055180.0		953590.0		101580.0
546339.0		592638.0		546339.0		46299.0
240071.0		254812.0		240071.0		14741.0
51181.0		52638.0		51181.0		1457.0
23688.0		24393.0		23688.0		705.0
10358.0		10622.0		10358.0		264.0
5210.0		5357.0		5210.0		147.0
5465.0		5770.0		5465.0		305.0
0.60<|#eta|<0.80
99507.0		124486.0		99507.0		24979.0
215624.0		255996.0		215624.0		40372.0
351633.0		409638.0		351633.0		58005.0
435467.0		505608.0		435467.0		70141.0
308836.0		337397.0		308836.0		28561.0
173356.0		187491.0		173356.0		14135.0
75498.0		79655.0		75498.0		4157.0
15816.0		16589.0		15816.0		773.0
7347.0		7493.0		7347.0		146.0
3089.0		3177.0		3089.0		88.0
1642.0		1696.0		1642.0		54.0
1742.0		1805.0		1742.0		63.0
0.80<|#eta|<1.15
179533.0		216726.0		179533.0		37193.0
333427.0		397139.0		333427.0		63712.0
568370.0		658748.0		568370.0		90378.0
738585.0		835279.0		738585.0		96694.0
471293.0		531503.0		471293.0		60210.0
271373.0		296729.0		271373.0		25356.0
116893.0		124301.0		116893.0		7408.0
25387.0		26414.0		25387.0		1027.0
11943.0		12159.0		11943.0		216.0
5285.0		5385.0		5285.0		100.0
2542.0		2605.0		2542.0		63.0
2882.0		2950.0		2882.0		68.0
1.15<|#eta|<1.37
95469.0		125895.0		95469.0		30426.0
172305.0		215988.0		172305.0		43683.0
294521.0		353321.0		294521.0		58800.0
395268.0		470819.0		395268.0		75551.0
261356.0		297354.0		261356.0		35998.0
150733.0		167375.0		150733.0		16642.0
64410.0		68548.0		64410.0		4138.0
13737.0		14362.0		13737.0		625.0
6593.0		6789.0		6593.0		196.0
2930.0		3039.0		2930.0		109.0
1577.0		1615.0		1577.0		38.0
1598.0		1665.0		1598.0		67.0
1.52<|#eta|<1.81
118553.0		143951.0		118553.0		25398.0
198213.0		239433.0		198213.0		41220.0
308472.0		364819.0		308472.0		56347.0
395374.0		464536.0		395374.0		69162.0
288179.0		320284.0		288179.0		32105.0
169006.0		183135.0		169006.0		14129.0
67348.0		72997.0		67348.0		5649.0
13885.0		14878.0		13885.0		993.0
6601.0		6830.0		6601.0		229.0
3053.0		3108.0		3053.0		55.0
1472.0		1525.0		1472.0		53.0
1580.0		1642.0		1580.0		62.0
1.81<|#eta|<2.01
89274.0		96191.0		89274.0		6917.0
139811.0		154677.0		139811.0		14866.0
202467.0		221049.0		202467.0		18582.0
254025.0		279129.0		254025.0		25104.0
177385.0		189350.0		177385.0		11965.0
99204.0		105134.0		99204.0		5930.0
39267.0		41669.0		39267.0		2402.0
7839.0		8300.0		7839.0		461.0
3565.0		3708.0		3565.0		143.0
1477.0		1516.0		1477.0		39.0
699.0		723.0		699.0		24.0
751.0		797.0		751.0		46.0
2.01<|#eta|<2.37
156025.0		171938.0		156025.0		15913.0
243749.0		266840.0		243749.0		23091.0
322604.0		352631.0		322604.0		30027.0
378417.0		412847.0		378417.0		34430.0
250520.0		272757.0		250520.0		22237.0
135410.0		149605.0		135410.0		14195.0
53328.0		57403.0		53328.0		4075.0
10177.0		10987.0		10177.0		810.0
4725.0		4956.0		4725.0		231.0
1903.0		1956.0		1903.0		53.0
909.0		967.0		909.0		58.0
937.0		974.0		937.0		37.0
