0.00<|#eta|<0.60
341404.0		413109.0		341404.0		71705.0
653484.0		766305.0		653484.0		112821.0
1049450.0		1205480.0		1049450.0		156041.0
1395730.0		1582460.0		1395730.0		186721.0
953830.0		1055180.0		953830.0		101340.0
547185.0		592638.0		547185.0		45453.0
241788.0		254812.0		241788.0		13024.0
50922.0		52638.0		50922.0		1716.0
23761.0		24393.0		23761.0		632.0
10344.0		10622.0		10344.0		278.0
5190.0		5357.0		5190.0		167.0
5462.0		5770.0		5462.0		308.0
0.60<|#eta|<0.80
99800.0		124486.0		99800.0		24686.0
214273.0		255996.0		214273.0		41723.0
354476.0		409638.0		354476.0		55162.0
436606.0		505608.0		436606.0		69002.0
307453.0		337397.0		307453.0		29944.0
172881.0		187491.0		172881.0		14610.0
75971.0		79655.0		75971.0		3684.0
15944.0		16589.0		15944.0		645.0
7330.0		7493.0		7330.0		163.0
3105.0		3177.0		3105.0		72.0
1640.0		1696.0		1640.0		56.0
1744.0		1805.0		1744.0		61.0
0.80<|#eta|<1.15
179241.0		216726.0		179241.0		37485.0
331764.0		397139.0		331764.0		65375.0
560033.0		658748.0		560033.0		98715.0
741179.0		835279.0		741179.0		94100.0
478271.0		531503.0		478271.0		53232.0
272558.0		296729.0		272558.0		24171.0
116812.0		124301.0		116812.0		7489.0
25191.0		26414.0		25191.0		1223.0
11970.0		12159.0		11970.0		189.0
5307.0		5385.0		5307.0		78.0
2565.0		2605.0		2565.0		40.0
2887.0		2950.0		2887.0		63.0
1.15<|#eta|<1.37
96956.0		125895.0		96956.0		28939.0
168662.0		215988.0		168662.0		47326.0
295614.0		353321.0		295614.0		57707.0
398216.0		470819.0		398216.0		72603.0
263233.0		297354.0		263233.0		34121.0
150906.0		167375.0		150906.0		16469.0
64431.0		68548.0		64431.0		4117.0
13619.0		14362.0		13619.0		743.0
6589.0		6789.0		6589.0		200.0
2933.0		3039.0		2933.0		106.0
1568.0		1615.0		1568.0		47.0
1613.0		1665.0		1613.0		52.0
1.52<|#eta|<1.81
118583.0		143951.0		118583.0		25368.0
196872.0		239433.0		196872.0		42561.0
305629.0		364819.0		305629.0		59190.0
393210.0		464536.0		393210.0		71326.0
288672.0		320284.0		288672.0		31612.0
168198.0		183135.0		168198.0		14937.0
67074.0		72997.0		67074.0		5923.0
13972.0		14878.0		13972.0		906.0
6582.0		6830.0		6582.0		248.0
3031.0		3108.0		3031.0		77.0
1473.0		1525.0		1473.0		52.0
1587.0		1642.0		1587.0		55.0
1.81<|#eta|<2.01
89010.0		96191.0		89010.0		7181.0
139898.0		154677.0		139898.0		14779.0
203573.0		221049.0		203573.0		17476.0
252561.0		279129.0		252561.0		26568.0
177666.0		189350.0		177666.0		11684.0
98588.0		105134.0		98588.0		6546.0
39379.0		41669.0		39379.0		2290.0
7809.0		8300.0		7809.0		491.0
3542.0		3708.0		3542.0		166.0
1485.0		1516.0		1485.0		31.0
692.0		723.0		692.0		31.0
770.0		797.0		770.0		27.0
2.01<|#eta|<2.37
156173.0		171938.0		156173.0		15765.0
244354.0		266840.0		244354.0		22486.0
324061.0		352631.0		324061.0		28570.0
378251.0		412847.0		378251.0		34596.0
251176.0		272757.0		251176.0		21581.0
135633.0		149605.0		135633.0		13972.0
53336.0		57403.0		53336.0		4067.0
10169.0		10987.0		10169.0		818.0
4722.0		4956.0		4722.0		234.0
1909.0		1956.0		1909.0		47.0
899.0		967.0		899.0		68.0
930.0		974.0		930.0		44.0
