0.00<|#eta|<0.60
340903.0		413109.0		340903.0		72206.0
635295.0		766305.0		635295.0		131010.0
1055140.0		1205480.0		1055140.0		150339.0
1398690.0		1582460.0		1398690.0		183766.0
953280.0		1055180.0		953280.0		101885.0
547794.0		592638.0		547794.0		44844.0
240213.0		254812.0		240213.0		14599.0
50971.0		52638.0		50971.0		1667.0
23622.0		24393.0		23622.0		771.0
10298.0		10622.0		10298.0		324.0
5223.0		5357.0		5223.0		134.0
5501.0		5770.0		5501.0		269.0
0.60<|#eta|<0.80
101529.0		124486.0		101529.0		22957.0
214836.0		255996.0		214836.0		41160.0
353716.0		409638.0		353716.0		55922.0
435269.0		505608.0		435269.0		70339.0
309273.0		337397.0		309273.0		28124.0
172674.0		187491.0		172674.0		14817.0
75340.0		79655.0		75340.0		4315.0
15914.0		16589.0		15914.0		675.0
7326.0		7493.0		7326.0		167.0
3034.0		3177.0		3034.0		143.0
1637.0		1696.0		1637.0		59.0
1744.0		1805.0		1744.0		61.0
0.80<|#eta|<1.15
177369.0		216726.0		177369.0		39357.0
328967.0		397139.0		328967.0		68172.0
562295.0		658748.0		562295.0		96453.0
739529.0		835279.0		739529.0		95750.0
475253.0		531503.0		475253.0		56250.0
271692.0		296729.0		271692.0		25037.0
116908.0		124301.0		116908.0		7393.0
25356.0		26414.0		25356.0		1058.0
11915.0		12159.0		11915.0		244.0
5300.0		5385.0		5300.0		85.0
2557.0		2605.0		2557.0		48.0
2884.0		2950.0		2884.0		66.0
1.15<|#eta|<1.37
97545.0		125895.0		97545.0		28350.0
168355.0		215988.0		168355.0		47633.0
293910.0		353321.0		293910.0		59411.0
395424.0		470819.0		395424.0		75395.0
262796.0		297354.0		262796.0		34558.0
151207.0		167375.0		151207.0		16168.0
64535.0		68548.0		64535.0		4013.0
13657.0		14362.0		13657.0		705.0
6608.0		6789.0		6608.0		181.0
2966.0		3039.0		2966.0		73.0
1586.0		1615.0		1586.0		29.0
1618.0		1665.0		1618.0		47.0
1.52<|#eta|<1.81
119409.0		143951.0		119409.0		24542.0
198806.0		239433.0		198806.0		40627.0
307506.0		364819.0		307506.0		57313.0
394341.0		464536.0		394341.0		70195.0
288129.0		320284.0		288129.0		32155.0
168455.0		183135.0		168455.0		14680.0
67151.0		72997.0		67151.0		5846.0
13961.0		14878.0		13961.0		917.0
6598.0		6830.0		6598.0		232.0
3027.0		3108.0		3027.0		81.0
1470.0		1525.0		1470.0		55.0
1589.0		1642.0		1589.0		53.0
1.81<|#eta|<2.01
88349.0		96191.0		88349.0		7842.0
138301.0		154677.0		138301.0		16376.0
203326.0		221049.0		203326.0		17723.0
254355.0		279129.0		254355.0		24774.0
177683.0		189350.0		177683.0		11667.0
98640.0		105134.0		98640.0		6494.0
39205.0		41669.0		39205.0		2464.0
7814.0		8300.0		7814.0		486.0
3591.0		3708.0		3591.0		117.0
1469.0		1516.0		1469.0		47.0
695.0		723.0		695.0		28.0
769.0		797.0		769.0		28.0
2.01<|#eta|<2.37
156157.0		171938.0		156157.0		15781.0
244873.0		266840.0		244873.0		21967.0
324303.0		352631.0		324303.0		28328.0
378483.0		412847.0		378483.0		34364.0
252330.0		272757.0		252330.0		20427.0
136175.0		149605.0		136175.0		13430.0
53178.0		57403.0		53178.0		4225.0
10186.0		10987.0		10186.0		801.0
4710.0		4956.0		4710.0		246.0
1916.0		1956.0		1916.0		40.0
918.0		967.0		918.0		49.0
940.0		974.0		940.0		34.0
