0.00<|#eta|<0.60
338456.0		413109.0		338456.0		74653.0
646931.0		766305.0		646931.0		119374.0
1052580.0		1205480.0		1052580.0		152891.0
1386940.0		1582460.0		1386940.0		195513.0
953140.0		1055180.0		953140.0		102043.0
548032.0		592638.0		548032.0		44606.0
239026.0		254812.0		239026.0		15786.0
50994.0		52638.0		50994.0		1644.0
23610.0		24393.0		23610.0		783.0
10308.0		10622.0		10308.0		314.0
5219.0		5357.0		5219.0		138.0
5510.0		5770.0		5510.0		260.0
0.60<|#eta|<0.80
100521.0		124486.0		100521.0		23965.0
214912.0		255996.0		214912.0		41084.0
353449.0		409638.0		353449.0		56189.0
443828.0		505608.0		443828.0		61780.0
308345.0		337397.0		308345.0		29052.0
173235.0		187491.0		173235.0		14256.0
75089.0		79655.0		75089.0		4566.0
16002.0		16589.0		16002.0		587.0
7371.0		7493.0		7371.0		122.0
3077.0		3177.0		3077.0		100.0
1653.0		1696.0		1653.0		43.0
1755.0		1805.0		1755.0		50.0
0.80<|#eta|<1.15
181353.0		216726.0		181353.0		35373.0
326503.0		397139.0		326503.0		70636.0
567922.0		658748.0		567922.0		90826.0
740256.0		835279.0		740256.0		95023.0
478375.0		531503.0		478375.0		53128.0
272793.0		296729.0		272793.0		23936.0
116435.0		124301.0		116435.0		7866.0
25412.0		26414.0		25412.0		1002.0
11938.0		12159.0		11938.0		221.0
5317.0		5385.0		5317.0		68.0
2556.0		2605.0		2556.0		49.0
2883.0		2950.0		2883.0		67.0
1.15<|#eta|<1.37
97794.0		125895.0		97794.0		28101.0
170703.0		215988.0		170703.0		45285.0
293783.0		353321.0		293783.0		59538.0
398203.0		470819.0		398203.0		72616.0
261825.0		297354.0		261825.0		35529.0
151285.0		167375.0		151285.0		16090.0
64115.0		68548.0		64115.0		4433.0
13698.0		14362.0		13698.0		664.0
6586.0		6789.0		6586.0		203.0
2965.0		3039.0		2965.0		74.0
1572.0		1615.0		1572.0		43.0
1584.0		1665.0		1584.0		81.0
1.52<|#eta|<1.81
117839.0		143951.0		117839.0		26112.0
198913.0		239433.0		198913.0		40520.0
307205.0		364819.0		307205.0		57614.0
397050.0		464536.0		397050.0		67486.0
286085.0		320284.0		286085.0		34199.0
169032.0		183135.0		169032.0		14103.0
67448.0		72997.0		67448.0		5549.0
13931.0		14878.0		13931.0		947.0
6607.0		6830.0		6607.0		223.0
3020.0		3108.0		3020.0		88.0
1480.0		1525.0		1480.0		45.0
1589.0		1642.0		1589.0		53.0
1.81<|#eta|<2.01
88809.0		96191.0		88809.0		7382.0
138571.0		154677.0		138571.0		16106.0
200730.0		221049.0		200730.0		20319.0
254394.0		279129.0		254394.0		24735.0
178132.0		189350.0		178132.0		11218.0
99038.0		105134.0		99038.0		6096.0
39250.0		41669.0		39250.0		2419.0
7847.0		8300.0		7847.0		453.0
3536.0		3708.0		3536.0		172.0
1473.0		1516.0		1473.0		43.0
692.0		723.0		692.0		31.0
751.0		797.0		751.0		46.0
2.01<|#eta|<2.37
156164.0		171938.0		156164.0		15774.0
243936.0		266840.0		243936.0		22904.0
323994.0		352631.0		323994.0		28637.0
378357.0		412847.0		378357.0		34490.0
251442.0		272757.0		251442.0		21315.0
135594.0		149605.0		135594.0		14011.0
53165.0		57403.0		53165.0		4238.0
10140.0		10987.0		10140.0		847.0
4714.0		4956.0		4714.0		242.0
1899.0		1956.0		1899.0		57.0
911.0		967.0		911.0		56.0
934.0		974.0		934.0		40.0
