0.00<|#eta|<0.60
340650.0		413109.0		340650.0		72459.0
647665.0		766305.0		647665.0		118640.0
1049610.0		1205480.0		1049610.0		155866.0
1408220.0		1582460.0		1408220.0		174242.0
955280.0		1055180.0		955280.0		99884.0
546327.0		592638.0		546327.0		46311.0
240221.0		254812.0		240221.0		14591.0
51032.0		52638.0		51032.0		1606.0
23613.0		24393.0		23613.0		780.0
10389.0		10622.0		10389.0		233.0
5229.0		5357.0		5229.0		128.0
5465.0		5770.0		5465.0		305.0
0.60<|#eta|<0.80
99569.0		124486.0		99569.0		24917.0
209067.0		255996.0		209067.0		46929.0
356275.0		409638.0		356275.0		53363.0
442665.0		505608.0		442665.0		62943.0
309034.0		337397.0		309034.0		28363.0
171980.0		187491.0		171980.0		15511.0
75954.0		79655.0		75954.0		3701.0
15936.0		16589.0		15936.0		653.0
7338.0		7493.0		7338.0		155.0
3096.0		3177.0		3096.0		81.0
1662.0		1696.0		1662.0		34.0
1743.0		1805.0		1743.0		62.0
0.80<|#eta|<1.15
179514.0		216726.0		179514.0		37212.0
331236.0		397139.0		331236.0		65903.0
570243.0		658748.0		570243.0		88505.0
739696.0		835279.0		739696.0		95583.0
479978.0		531503.0		479978.0		51525.0
270987.0		296729.0		270987.0		25742.0
116544.0		124301.0		116544.0		7757.0
25334.0		26414.0		25334.0		1080.0
11927.0		12159.0		11927.0		232.0
5297.0		5385.0		5297.0		88.0
2541.0		2605.0		2541.0		64.0
2868.0		2950.0		2868.0		82.0
1.15<|#eta|<1.37
96974.0		125895.0		96974.0		28921.0
168765.0		215988.0		168765.0		47223.0
294994.0		353321.0		294994.0		58327.0
395935.0		470819.0		395935.0		74884.0
260029.0		297354.0		260029.0		37325.0
150424.0		167375.0		150424.0		16951.0
64453.0		68548.0		64453.0		4095.0
13720.0		14362.0		13720.0		642.0
6598.0		6789.0		6598.0		191.0
2948.0		3039.0		2948.0		91.0
1580.0		1615.0		1580.0		35.0
1606.0		1665.0		1606.0		59.0
1.52<|#eta|<1.81
119845.0		143951.0		119845.0		24106.0
196937.0		239433.0		196937.0		42496.0
305644.0		364819.0		305644.0		59175.0
394687.0		464536.0		394687.0		69849.0
288131.0		320284.0		288131.0		32153.0
168540.0		183135.0		168540.0		14595.0
67299.0		72997.0		67299.0		5698.0
13865.0		14878.0		13865.0		1013.0
6600.0		6830.0		6600.0		230.0
3026.0		3108.0		3026.0		82.0
1482.0		1525.0		1482.0		43.0
1600.0		1642.0		1600.0		42.0
1.81<|#eta|<2.01
89268.0		96191.0		89268.0		6923.0
139651.0		154677.0		139651.0		15026.0
202928.0		221049.0		202928.0		18121.0
253306.0		279129.0		253306.0		25823.0
178518.0		189350.0		178518.0		10832.0
99307.0		105134.0		99307.0		5827.0
39262.0		41669.0		39262.0		2407.0
7791.0		8300.0		7791.0		509.0
3576.0		3708.0		3576.0		132.0
1478.0		1516.0		1478.0		38.0
693.0		723.0		693.0		30.0
759.0		797.0		759.0		38.0
2.01<|#eta|<2.37
155257.0		171938.0		155257.0		16681.0
244581.0		266840.0		244581.0		22259.0
324464.0		352631.0		324464.0		28167.0
379104.0		412847.0		379104.0		33743.0
252193.0		272757.0		252193.0		20564.0
135748.0		149605.0		135748.0		13857.0
53336.0		57403.0		53336.0		4067.0
10127.0		10987.0		10127.0		860.0
4737.0		4956.0		4737.0		219.0
1907.0		1956.0		1907.0		49.0
910.0		967.0		910.0		57.0
930.0		974.0		930.0		44.0
