0.00<|#eta|<0.60
336334.0		413109.0		336334.0		76775.0
646837.0		766305.0		646837.0		119468.0
1042760.0		1205480.0		1042760.0		162713.0
1402380.0		1582460.0		1402380.0		180062.0
952580.0		1055180.0		952580.0		102591.0
546926.0		592638.0		546926.0		45712.0
241463.0		254812.0		241463.0		13349.0
50959.0		52638.0		50959.0		1679.0
23627.0		24393.0		23627.0		766.0
10298.0		10622.0		10298.0		324.0
5209.0		5357.0		5209.0		148.0
5498.0		5770.0		5498.0		272.0
0.60<|#eta|<0.80
98423.0		124486.0		98423.0		26063.0
207178.0		255996.0		207178.0		48818.0
349863.0		409638.0		349863.0		59775.0
436033.0		505608.0		436033.0		69575.0
309585.0		337397.0		309585.0		27812.0
171087.0		187491.0		171087.0		16404.0
75403.0		79655.0		75403.0		4252.0
15876.0		16589.0		15876.0		713.0
7341.0		7493.0		7341.0		152.0
3048.0		3177.0		3048.0		129.0
1659.0		1696.0		1659.0		37.0
1737.0		1805.0		1737.0		68.0
0.80<|#eta|<1.15
175292.0		216726.0		175292.0		41434.0
324517.0		397139.0		324517.0		72622.0
569483.0		658748.0		569483.0		89265.0
737310.0		835279.0		737310.0		97969.0
472813.0		531503.0		472813.0		58690.0
271646.0		296729.0		271646.0		25083.0
116588.0		124301.0		116588.0		7713.0
25191.0		26414.0		25191.0		1223.0
11955.0		12159.0		11955.0		204.0
5296.0		5385.0		5296.0		89.0
2566.0		2605.0		2566.0		39.0
2871.0		2950.0		2871.0		79.0
1.15<|#eta|<1.37
97024.0		125895.0		97024.0		28871.0
169908.0		215988.0		169908.0		46080.0
295083.0		353321.0		295083.0		58238.0
395125.0		470819.0		395125.0		75694.0
263335.0		297354.0		263335.0		34019.0
150900.0		167375.0		150900.0		16475.0
64488.0		68548.0		64488.0		4060.0
13689.0		14362.0		13689.0		673.0
6577.0		6789.0		6577.0		212.0
2957.0		3039.0		2957.0		82.0
1574.0		1615.0		1574.0		41.0
1590.0		1665.0		1590.0		75.0
1.52<|#eta|<1.81
118873.0		143951.0		118873.0		25078.0
197289.0		239433.0		197289.0		42144.0
307631.0		364819.0		307631.0		57188.0
396505.0		464536.0		396505.0		68031.0
287974.0		320284.0		287974.0		32310.0
168453.0		183135.0		168453.0		14682.0
67102.0		72997.0		67102.0		5895.0
13991.0		14878.0		13991.0		887.0
6607.0		6830.0		6607.0		223.0
3025.0		3108.0		3025.0		83.0
1478.0		1525.0		1478.0		47.0
1585.0		1642.0		1585.0		57.0
1.81<|#eta|<2.01
88848.0		96191.0		88848.0		7343.0
139605.0		154677.0		139605.0		15072.0
201358.0		221049.0		201358.0		19691.0
252757.0		279129.0		252757.0		26372.0
178263.0		189350.0		178263.0		11087.0
99249.0		105134.0		99249.0		5885.0
39300.0		41669.0		39300.0		2369.0
7810.0		8300.0		7810.0		490.0
3568.0		3708.0		3568.0		140.0
1468.0		1516.0		1468.0		48.0
702.0		723.0		702.0		21.0
758.0		797.0		758.0		39.0
2.01<|#eta|<2.37
155886.0		171938.0		155886.0		16052.0
242249.0		266840.0		242249.0		24591.0
322451.0		352631.0		322451.0		30180.0
378800.0		412847.0		378800.0		34047.0
252234.0		272757.0		252234.0		20523.0
135415.0		149605.0		135415.0		14190.0
53076.0		57403.0		53076.0		4327.0
10099.0		10987.0		10099.0		888.0
4726.0		4956.0		4726.0		230.0
1900.0		1956.0		1900.0		56.0
907.0		967.0		907.0		60.0
920.0		974.0		920.0		54.0
