0.00<|#eta|<0.60
344292.0		413109.0		344292.0		68817.0
648683.0		766305.0		648683.0		117622.0
1048540.0		1205480.0		1048540.0		156942.0
1391900.0		1582460.0		1391900.0		190551.0
949440.0		1055180.0		949440.0		105737.0
548752.0		592638.0		548752.0		43886.0
240951.0		254812.0		240951.0		13861.0
51135.0		52638.0		51135.0		1503.0
23655.0		24393.0		23655.0		738.0
10387.0		10622.0		10387.0		235.0
5198.0		5357.0		5198.0		159.0
5478.0		5770.0		5478.0		292.0
0.60<|#eta|<0.80
101071.0		124486.0		101071.0		23415.0
213913.0		255996.0		213913.0		42083.0
355236.0		409638.0		355236.0		54402.0
441859.0		505608.0		441859.0		63749.0
310062.0		337397.0		310062.0		27335.0
171958.0		187491.0		171958.0		15533.0
75400.0		79655.0		75400.0		4255.0
15910.0		16589.0		15910.0		679.0
7368.0		7493.0		7368.0		125.0
3095.0		3177.0		3095.0		82.0
1655.0		1696.0		1655.0		41.0
1707.0		1805.0		1707.0		98.0
0.80<|#eta|<1.15
178667.0		216726.0		178667.0		38059.0
335603.0		397139.0		335603.0		61536.0
573680.0		658748.0		573680.0		85068.0
743531.0		835279.0		743531.0		91748.0
477966.0		531503.0		477966.0		53537.0
272384.0		296729.0		272384.0		24345.0
116948.0		124301.0		116948.0		7353.0
25265.0		26414.0		25265.0		1149.0
11891.0		12159.0		11891.0		268.0
5302.0		5385.0		5302.0		83.0
2555.0		2605.0		2555.0		50.0
2874.0		2950.0		2874.0		76.0
1.15<|#eta|<1.37
96322.0		125895.0		96322.0		29573.0
170784.0		215988.0		170784.0		45204.0
295244.0		353321.0		295244.0		58077.0
400061.0		470819.0		400061.0		70758.0
263937.0		297354.0		263937.0		33417.0
151590.0		167375.0		151590.0		15785.0
64472.0		68548.0		64472.0		4076.0
13722.0		14362.0		13722.0		640.0
6568.0		6789.0		6568.0		221.0
2962.0		3039.0		2962.0		77.0
1578.0		1615.0		1578.0		37.0
1581.0		1665.0		1581.0		84.0
1.52<|#eta|<1.81
118355.0		143951.0		118355.0		25596.0
196788.0		239433.0		196788.0		42645.0
308319.0		364819.0		308319.0		56500.0
399516.0		464536.0		399516.0		65020.0
287563.0		320284.0		287563.0		32721.0
167783.0		183135.0		167783.0		15352.0
67229.0		72997.0		67229.0		5768.0
13821.0		14878.0		13821.0		1057.0
6567.0		6830.0		6567.0		263.0
3022.0		3108.0		3022.0		86.0
1478.0		1525.0		1478.0		47.0
1585.0		1642.0		1585.0		57.0
1.81<|#eta|<2.01
89024.0		96191.0		89024.0		7167.0
140543.0		154677.0		140543.0		14134.0
203345.0		221049.0		203345.0		17704.0
252811.0		279129.0		252811.0		26318.0
178142.0		189350.0		178142.0		11208.0
98975.0		105134.0		98975.0		6159.0
39297.0		41669.0		39297.0		2372.0
7802.0		8300.0		7802.0		498.0
3537.0		3708.0		3537.0		171.0
1470.0		1516.0		1470.0		46.0
695.0		723.0		695.0		28.0
770.0		797.0		770.0		27.0
2.01<|#eta|<2.37
156514.0		171938.0		156514.0		15424.0
245234.0		266840.0		245234.0		21606.0
324175.0		352631.0		324175.0		28456.0
378172.0		412847.0		378172.0		34675.0
251501.0		272757.0		251501.0		21256.0
136147.0		149605.0		136147.0		13458.0
53272.0		57403.0		53272.0		4131.0
10213.0		10987.0		10213.0		774.0
4707.0		4956.0		4707.0		249.0
1921.0		1956.0		1921.0		35.0
918.0		967.0		918.0		49.0
925.0		974.0		925.0		49.0
