0.00<|#eta|<0.60
343430.0		413109.0		343430.0		69679.0
649288.0		766305.0		649288.0		117017.0
1050030.0		1205480.0		1050030.0		155443.0
1394330.0		1582460.0		1394330.0		188119.0
953110.0		1055180.0		953110.0		102070.0
548342.0		592638.0		548342.0		44296.0
241676.0		254812.0		241676.0		13136.0
51095.0		52638.0		51095.0		1543.0
23635.0		24393.0		23635.0		758.0
10370.0		10622.0		10370.0		252.0
5233.0		5357.0		5233.0		124.0
5484.0		5770.0		5484.0		286.0
0.60<|#eta|<0.80
99431.0		124486.0		99431.0		25055.0
214979.0		255996.0		214979.0		41017.0
355641.0		409638.0		355641.0		53997.0
438063.0		505608.0		438063.0		67545.0
309774.0		337397.0		309774.0		27623.0
172003.0		187491.0		172003.0		15488.0
75745.0		79655.0		75745.0		3910.0
15893.0		16589.0		15893.0		696.0
7360.0		7493.0		7360.0		133.0
3078.0		3177.0		3078.0		99.0
1660.0		1696.0		1660.0		36.0
1750.0		1805.0		1750.0		55.0
0.80<|#eta|<1.15
176705.0		216726.0		176705.0		40021.0
330411.0		397139.0		330411.0		66728.0
568910.0		658748.0		568910.0		89838.0
737058.0		835279.0		737058.0		98221.0
476188.0		531503.0		476188.0		55315.0
270842.0		296729.0		270842.0		25887.0
116726.0		124301.0		116726.0		7575.0
25362.0		26414.0		25362.0		1052.0
11909.0		12159.0		11909.0		250.0
5308.0		5385.0		5308.0		77.0
2552.0		2605.0		2552.0		53.0
2874.0		2950.0		2874.0		76.0
1.15<|#eta|<1.37
96745.0		125895.0		96745.0		29150.0
168982.0		215988.0		168982.0		47006.0
296543.0		353321.0		296543.0		56778.0
394024.0		470819.0		394024.0		76795.0
264282.0		297354.0		264282.0		33072.0
151029.0		167375.0		151029.0		16346.0
64588.0		68548.0		64588.0		3960.0
13667.0		14362.0		13667.0		695.0
6622.0		6789.0		6622.0		167.0
2949.0		3039.0		2949.0		90.0
1584.0		1615.0		1584.0		31.0
1593.0		1665.0		1593.0		72.0
1.52<|#eta|<1.81
119293.0		143951.0		119293.0		24658.0
195667.0		239433.0		195667.0		43766.0
305521.0		364819.0		305521.0		59298.0
398415.0		464536.0		398415.0		66121.0
287665.0		320284.0		287665.0		32619.0
168080.0		183135.0		168080.0		15055.0
67189.0		72997.0		67189.0		5808.0
13909.0		14878.0		13909.0		969.0
6636.0		6830.0		6636.0		194.0
3017.0		3108.0		3017.0		91.0
1480.0		1525.0		1480.0		45.0
1593.0		1642.0		1593.0		49.0
1.81<|#eta|<2.01
89542.0		96191.0		89542.0		6649.0
139327.0		154677.0		139327.0		15350.0
202348.0		221049.0		202348.0		18701.0
252841.0		279129.0		252841.0		26288.0
177980.0		189350.0		177980.0		11370.0
99141.0		105134.0		99141.0		5993.0
39263.0		41669.0		39263.0		2406.0
7831.0		8300.0		7831.0		469.0
3581.0		3708.0		3581.0		127.0
1494.0		1516.0		1494.0		22.0
687.0		723.0		687.0		36.0
756.0		797.0		756.0		41.0
2.01<|#eta|<2.37
155901.0		171938.0		155901.0		16037.0
244122.0		266840.0		244122.0		22718.0
323194.0		352631.0		323194.0		29437.0
378621.0		412847.0		378621.0		34226.0
252318.0		272757.0		252318.0		20439.0
135924.0		149605.0		135924.0		13681.0
53236.0		57403.0		53236.0		4167.0
10205.0		10987.0		10205.0		782.0
4725.0		4956.0		4725.0		231.0
1905.0		1956.0		1905.0		51.0
904.0		967.0		904.0		63.0
915.0		974.0		915.0		59.0
