0.00<|#eta|<0.60
339377.0		413109.0		339377.0		73732.0
647200.0		766305.0		647200.0		119105.0
1050290.0		1205480.0		1050290.0		155186.0
1401810.0		1582460.0		1401810.0		180631.0
953490.0		1055180.0		953490.0		101685.0
546174.0		592638.0		546174.0		46464.0
241157.0		254812.0		241157.0		13655.0
51239.0		52638.0		51239.0		1399.0
23745.0		24393.0		23745.0		648.0
10356.0		10622.0		10356.0		266.0
5228.0		5357.0		5228.0		129.0
5468.0		5770.0		5468.0		302.0
0.60<|#eta|<0.80
98174.0		124486.0		98174.0		26312.0
211321.0		255996.0		211321.0		44675.0
352352.0		409638.0		352352.0		57286.0
437559.0		505608.0		437559.0		68049.0
307213.0		337397.0		307213.0		30184.0
172827.0		187491.0		172827.0		14664.0
75968.0		79655.0		75968.0		3687.0
15946.0		16589.0		15946.0		643.0
7347.0		7493.0		7347.0		146.0
3072.0		3177.0		3072.0		105.0
1653.0		1696.0		1653.0		43.0
1746.0		1805.0		1746.0		59.0
0.80<|#eta|<1.15
180457.0		216726.0		180457.0		36269.0
328664.0		397139.0		328664.0		68475.0
566067.0		658748.0		566067.0		92681.0
740650.0		835279.0		740650.0		94629.0
473908.0		531503.0		473908.0		57595.0
271421.0		296729.0		271421.0		25308.0
116566.0		124301.0		116566.0		7735.0
25304.0		26414.0		25304.0		1110.0
11937.0		12159.0		11937.0		222.0
5309.0		5385.0		5309.0		76.0
2558.0		2605.0		2558.0		47.0
2891.0		2950.0		2891.0		59.0
1.15<|#eta|<1.37
95933.0		125895.0		95933.0		29962.0
170465.0		215988.0		170465.0		45523.0
296274.0		353321.0		296274.0		57047.0
395335.0		470819.0		395335.0		75484.0
263176.0		297354.0		263176.0		34178.0
149434.0		167375.0		149434.0		17941.0
64468.0		68548.0		64468.0		4080.0
13614.0		14362.0		13614.0		748.0
6631.0		6789.0		6631.0		158.0
2947.0		3039.0		2947.0		92.0
1570.0		1615.0		1570.0		45.0
1589.0		1665.0		1589.0		76.0
1.52<|#eta|<1.81
119319.0		143951.0		119319.0		24632.0
195710.0		239433.0		195710.0		43723.0
306116.0		364819.0		306116.0		58703.0
395295.0		464536.0		395295.0		69241.0
288101.0		320284.0		288101.0		32183.0
168242.0		183135.0		168242.0		14893.0
67285.0		72997.0		67285.0		5712.0
13960.0		14878.0		13960.0		918.0
6582.0		6830.0		6582.0		248.0
3041.0		3108.0		3041.0		67.0
1479.0		1525.0		1479.0		46.0
1593.0		1642.0		1593.0		49.0
1.81<|#eta|<2.01
89062.0		96191.0		89062.0		7129.0
140103.0		154677.0		140103.0		14574.0
204070.0		221049.0		204070.0		16979.0
253927.0		279129.0		253927.0		25202.0
177491.0		189350.0		177491.0		11859.0
99542.0		105134.0		99542.0		5592.0
39410.0		41669.0		39410.0		2259.0
7816.0		8300.0		7816.0		484.0
3567.0		3708.0		3567.0		141.0
1474.0		1516.0		1474.0		42.0
699.0		723.0		699.0		24.0
751.0		797.0		751.0		46.0
2.01<|#eta|<2.37
156364.0		171938.0		156364.0		15574.0
244377.0		266840.0		244377.0		22463.0
324783.0		352631.0		324783.0		27848.0
377726.0		412847.0		377726.0		35121.0
251391.0		272757.0		251391.0		21366.0
136167.0		149605.0		136167.0		13438.0
53318.0		57403.0		53318.0		4085.0
10175.0		10987.0		10175.0		812.0
4737.0		4956.0		4737.0		219.0
1902.0		1956.0		1902.0		54.0
907.0		967.0		907.0		60.0
928.0		974.0		928.0		46.0
