0.00<|#eta|<0.60
341926.0		413109.0		341926.0		71183.0
649681.0		766305.0		649681.0		116624.0
1057060.0		1205480.0		1057060.0		148415.0
1401310.0		1582460.0		1401310.0		181135.0
957550.0		1055180.0		957550.0		97624.0
546296.0		592638.0		546296.0		46342.0
241074.0		254812.0		241074.0		13738.0
50832.0		52638.0		50832.0		1806.0
23730.0		24393.0		23730.0		663.0
10364.0		10622.0		10364.0		258.0
5225.0		5357.0		5225.0		132.0
5500.0		5770.0		5500.0		270.0
0.60<|#eta|<0.80
99100.0		124486.0		99100.0		25386.0
210967.0		255996.0		210967.0		45029.0
356351.0		409638.0		356351.0		53287.0
442409.0		505608.0		442409.0		63199.0
307758.0		337397.0		307758.0		29639.0
173007.0		187491.0		173007.0		14484.0
75292.0		79655.0		75292.0		4363.0
15804.0		16589.0		15804.0		785.0
7352.0		7493.0		7352.0		141.0
3106.0		3177.0		3106.0		71.0
1666.0		1696.0		1666.0		30.0
1744.0		1805.0		1744.0		61.0
0.80<|#eta|<1.15
179306.0		216726.0		179306.0		37420.0
329453.0		397139.0		329453.0		67686.0
566156.0		658748.0		566156.0		92592.0
741654.0		835279.0		741654.0		93625.0
476794.0		531503.0		476794.0		54709.0
272117.0		296729.0		272117.0		24612.0
116483.0		124301.0		116483.0		7818.0
25240.0		26414.0		25240.0		1174.0
11924.0		12159.0		11924.0		235.0
5310.0		5385.0		5310.0		75.0
2562.0		2605.0		2562.0		43.0
2864.0		2950.0		2864.0		86.0
1.15<|#eta|<1.37
96662.0		125895.0		96662.0		29233.0
170558.0		215988.0		170558.0		45430.0
296873.0		353321.0		296873.0		56448.0
399235.0		470819.0		399235.0		71584.0
264019.0		297354.0		264019.0		33335.0
151234.0		167375.0		151234.0		16141.0
64549.0		68548.0		64549.0		3999.0
13636.0		14362.0		13636.0		726.0
6579.0		6789.0		6579.0		210.0
2973.0		3039.0		2973.0		66.0
1573.0		1615.0		1573.0		42.0
1571.0		1665.0		1571.0		94.0
1.52<|#eta|<1.81
118336.0		143951.0		118336.0		25615.0
198967.0		239433.0		198967.0		40466.0
307403.0		364819.0		307403.0		57416.0
396984.0		464536.0		396984.0		67552.0
287478.0		320284.0		287478.0		32806.0
168224.0		183135.0		168224.0		14911.0
67538.0		72997.0		67538.0		5459.0
13862.0		14878.0		13862.0		1016.0
6592.0		6830.0		6592.0		238.0
3027.0		3108.0		3027.0		81.0
1481.0		1525.0		1481.0		44.0
1600.0		1642.0		1600.0		42.0
1.81<|#eta|<2.01
89145.0		96191.0		89145.0		7046.0
139472.0		154677.0		139472.0		15205.0
201284.0		221049.0		201284.0		19765.0
252750.0		279129.0		252750.0		26379.0
176461.0		189350.0		176461.0		12889.0
98721.0		105134.0		98721.0		6413.0
39320.0		41669.0		39320.0		2349.0
7796.0		8300.0		7796.0		504.0
3569.0		3708.0		3569.0		139.0
1475.0		1516.0		1475.0		41.0
695.0		723.0		695.0		28.0
756.0		797.0		756.0		41.0
2.01<|#eta|<2.37
155605.0		171938.0		155605.0		16333.0
242853.0		266840.0		242853.0		23987.0
323991.0		352631.0		323991.0		28640.0
378335.0		412847.0		378335.0		34512.0
252062.0		272757.0		252062.0		20695.0
136266.0		149605.0		136266.0		13339.0
53052.0		57403.0		53052.0		4351.0
10193.0		10987.0		10193.0		794.0
4723.0		4956.0		4723.0		233.0
1906.0		1956.0		1906.0		50.0
908.0		967.0		908.0		59.0
929.0		974.0		929.0		45.0
