0.00<|#eta|<0.60
336297.0		413109.0		336297.0		76812.0
647919.0		766305.0		647919.0		118386.0
1056430.0		1205480.0		1056430.0		149047.0
1388140.0		1582460.0		1388140.0		194325.0
951540.0		1055180.0		951540.0		103637.0
547812.0		592638.0		547812.0		44826.0
240966.0		254812.0		240966.0		13846.0
51079.0		52638.0		51079.0		1559.0
23670.0		24393.0		23670.0		723.0
10369.0		10622.0		10369.0		253.0
5229.0		5357.0		5229.0		128.0
5460.0		5770.0		5460.0		310.0
0.60<|#eta|<0.80
99279.0		124486.0		99279.0		25207.0
214200.0		255996.0		214200.0		41796.0
351835.0		409638.0		351835.0		57803.0
440231.0		505608.0		440231.0		65377.0
306729.0		337397.0		306729.0		30668.0
172387.0		187491.0		172387.0		15104.0
75602.0		79655.0		75602.0		4053.0
15905.0		16589.0		15905.0		684.0
7356.0		7493.0		7356.0		137.0
3061.0		3177.0		3061.0		116.0
1661.0		1696.0		1661.0		35.0
1746.0		1805.0		1746.0		59.0
0.80<|#eta|<1.15
180072.0		216726.0		180072.0		36654.0
330669.0		397139.0		330669.0		66470.0
566202.0		658748.0		566202.0		92546.0
743958.0		835279.0		743958.0		91321.0
478603.0		531503.0		478603.0		52900.0
272458.0		296729.0		272458.0		24271.0
116366.0		124301.0		116366.0		7935.0
25251.0		26414.0		25251.0		1163.0
11916.0		12159.0		11916.0		243.0
5292.0		5385.0		5292.0		93.0
2544.0		2605.0		2544.0		61.0
2893.0		2950.0		2893.0		57.0
1.15<|#eta|<1.37
96801.0		125895.0		96801.0		29094.0
171302.0		215988.0		171302.0		44686.0
296623.0		353321.0		296623.0		56698.0
395093.0		470819.0		395093.0		75726.0
263340.0		297354.0		263340.0		34014.0
151759.0		167375.0		151759.0		15616.0
64462.0		68548.0		64462.0		4086.0
13618.0		14362.0		13618.0		744.0
6600.0		6789.0		6600.0		189.0
2969.0		3039.0		2969.0		70.0
1573.0		1615.0		1573.0		42.0
1590.0		1665.0		1590.0		75.0
1.52<|#eta|<1.81
119471.0		143951.0		119471.0		24480.0
197591.0		239433.0		197591.0		41842.0
304660.0		364819.0		304660.0		60159.0
398928.0		464536.0		398928.0		65608.0
286689.0		320284.0		286689.0		33595.0
168840.0		183135.0		168840.0		14295.0
67092.0		72997.0		67092.0		5905.0
13958.0		14878.0		13958.0		920.0
6587.0		6830.0		6587.0		243.0
3041.0		3108.0		3041.0		67.0
1469.0		1525.0		1469.0		56.0
1596.0		1642.0		1596.0		46.0
1.81<|#eta|<2.01
88653.0		96191.0		88653.0		7538.0
139474.0		154677.0		139474.0		15203.0
204152.0		221049.0		204152.0		16897.0
253708.0		279129.0		253708.0		25421.0
177872.0		189350.0		177872.0		11478.0
98920.0		105134.0		98920.0		6214.0
39329.0		41669.0		39329.0		2340.0
7807.0		8300.0		7807.0		493.0
3600.0		3708.0		3600.0		108.0
1482.0		1516.0		1482.0		34.0
691.0		723.0		691.0		32.0
756.0		797.0		756.0		41.0
2.01<|#eta|<2.37
155956.0		171938.0		155956.0		15982.0
244972.0		266840.0		244972.0		21868.0
322865.0		352631.0		322865.0		29766.0
378384.0		412847.0		378384.0		34463.0
252634.0		272757.0		252634.0		20123.0
135982.0		149605.0		135982.0		13623.0
53332.0		57403.0		53332.0		4071.0
10147.0		10987.0		10147.0		840.0
4715.0		4956.0		4715.0		241.0
1896.0		1956.0		1896.0		60.0
900.0		967.0		900.0		67.0
946.0		974.0		946.0		28.0
