0.00<|#eta|<0.60
341170.0		413109.0		341170.0		71939.0
652049.0		766305.0		652049.0		114256.0
1051480.0		1205480.0		1051480.0		154013.0
1390860.0		1582460.0		1390860.0		191589.0
953110.0		1055180.0		953110.0		102069.0
547249.0		592638.0		547249.0		45389.0
239331.0		254812.0		239331.0		15481.0
51055.0		52638.0		51055.0		1583.0
23597.0		24393.0		23597.0		796.0
10361.0		10622.0		10361.0		261.0
5237.0		5357.0		5237.0		120.0
5438.0		5770.0		5438.0		332.0
0.60<|#eta|<0.80
98815.0		124486.0		98815.0		25671.0
214202.0		255996.0		214202.0		41794.0
355129.0		409638.0		355129.0		54509.0
438221.0		505608.0		438221.0		67387.0
309760.0		337397.0		309760.0		27637.0
171991.0		187491.0		171991.0		15500.0
75801.0		79655.0		75801.0		3854.0
16003.0		16589.0		16003.0		586.0
7331.0		7493.0		7331.0		162.0
3107.0		3177.0		3107.0		70.0
1665.0		1696.0		1665.0		31.0
1745.0		1805.0		1745.0		60.0
0.80<|#eta|<1.15
178713.0		216726.0		178713.0		38013.0
329582.0		397139.0		329582.0		67557.0
567649.0		658748.0		567649.0		91099.0
742281.0		835279.0		742281.0		92998.0
476678.0		531503.0		476678.0		54825.0
271737.0		296729.0		271737.0		24992.0
116645.0		124301.0		116645.0		7656.0
25333.0		26414.0		25333.0		1081.0
11985.0		12159.0		11985.0		174.0
5301.0		5385.0		5301.0		84.0
2566.0		2605.0		2566.0		39.0
2879.0		2950.0		2879.0		71.0
1.15<|#eta|<1.37
95559.0		125895.0		95559.0		30336.0
169487.0		215988.0		169487.0		46501.0
298244.0		353321.0		298244.0		55077.0
399222.0		470819.0		399222.0		71597.0
263883.0		297354.0		263883.0		33471.0
151311.0		167375.0		151311.0		16064.0
64494.0		68548.0		64494.0		4054.0
13661.0		14362.0		13661.0		701.0
6593.0		6789.0		6593.0		196.0
2938.0		3039.0		2938.0		101.0
1574.0		1615.0		1574.0		41.0
1597.0		1665.0		1597.0		68.0
1.52<|#eta|<1.81
118872.0		143951.0		118872.0		25079.0
198962.0		239433.0		198962.0		40471.0
307690.0		364819.0		307690.0		57129.0
394561.0		464536.0		394561.0		69975.0
291225.0		320284.0		291225.0		29059.0
168032.0		183135.0		168032.0		15103.0
67247.0		72997.0		67247.0		5750.0
13886.0		14878.0		13886.0		992.0
6609.0		6830.0		6609.0		221.0
3014.0		3108.0		3014.0		94.0
1474.0		1525.0		1474.0		51.0
1603.0		1642.0		1603.0		39.0
1.81<|#eta|<2.01
89491.0		96191.0		89491.0		6700.0
138940.0		154677.0		138940.0		15737.0
202845.0		221049.0		202845.0		18204.0
253359.0		279129.0		253359.0		25770.0
177568.0		189350.0		177568.0		11782.0
98685.0		105134.0		98685.0		6449.0
39238.0		41669.0		39238.0		2431.0
7801.0		8300.0		7801.0		499.0
3577.0		3708.0		3577.0		131.0
1457.0		1516.0		1457.0		59.0
695.0		723.0		695.0		28.0
773.0		797.0		773.0		24.0
2.01<|#eta|<2.37
156138.0		171938.0		156138.0		15800.0
245773.0		266840.0		245773.0		21067.0
323462.0		352631.0		323462.0		29169.0
378538.0		412847.0		378538.0		34309.0
251602.0		272757.0		251602.0		21155.0
135920.0		149605.0		135920.0		13685.0
53221.0		57403.0		53221.0		4182.0
10187.0		10987.0		10187.0		800.0
4706.0		4956.0		4706.0		250.0
1915.0		1956.0		1915.0		41.0
902.0		967.0		902.0		65.0
911.0		974.0		911.0		63.0
