0.00<|#eta|<0.60
343681.0		413109.0		343681.0		69428.0
639625.0		766305.0		639625.0		126680.0
1041480.0		1205480.0		1041480.0		164012.0
1395050.0		1582460.0		1395050.0		187403.0
951410.0		1055180.0		951410.0		103766.0
548166.0		592638.0		548166.0		44472.0
241832.0		254812.0		241832.0		12980.0
51075.0		52638.0		51075.0		1563.0
23596.0		24393.0		23596.0		797.0
10311.0		10622.0		10311.0		311.0
5227.0		5357.0		5227.0		130.0
5436.0		5770.0		5436.0		334.0
0.60<|#eta|<0.80
98168.0		124486.0		98168.0		26318.0
214401.0		255996.0		214401.0		41595.0
352797.0		409638.0		352797.0		56841.0
446195.0		505608.0		446195.0		59413.0
306595.0		337397.0		306595.0		30802.0
172812.0		187491.0		172812.0		14679.0
75630.0		79655.0		75630.0		4025.0
15940.0		16589.0		15940.0		649.0
7362.0		7493.0		7362.0		131.0
3077.0		3177.0		3077.0		100.0
1666.0		1696.0		1666.0		30.0
1746.0		1805.0		1746.0		59.0
0.80<|#eta|<1.15
176718.0		216726.0		176718.0		40008.0
330600.0		397139.0		330600.0		66539.0
565812.0		658748.0		565812.0		92936.0
740558.0		835279.0		740558.0		94721.0
478946.0		531503.0		478946.0		52557.0
273346.0		296729.0		273346.0		23383.0
115725.0		124301.0		115725.0		8576.0
25173.0		26414.0		25173.0		1241.0
11904.0		12159.0		11904.0		255.0
5323.0		5385.0		5323.0		62.0
2562.0		2605.0		2562.0		43.0
2885.0		2950.0		2885.0		65.0
1.15<|#eta|<1.37
96704.0		125895.0		96704.0		29191.0
173663.0		215988.0		173663.0		42325.0
297383.0		353321.0		297383.0		55938.0
398198.0		470819.0		398198.0		72621.0
261390.0		297354.0		261390.0		35964.0
152121.0		167375.0		152121.0		15254.0
64327.0		68548.0		64327.0		4221.0
13699.0		14362.0		13699.0		663.0
6599.0		6789.0		6599.0		190.0
2946.0		3039.0		2946.0		93.0
1569.0		1615.0		1569.0		46.0
1601.0		1665.0		1601.0		64.0
1.52<|#eta|<1.81
119481.0		143951.0		119481.0		24470.0
197059.0		239433.0		197059.0		42374.0
306297.0		364819.0		306297.0		58522.0
396110.0		464536.0		396110.0		68426.0
288547.0		320284.0		288547.0		31737.0
168793.0		183135.0		168793.0		14342.0
67383.0		72997.0		67383.0		5614.0
13953.0		14878.0		13953.0		925.0
6602.0		6830.0		6602.0		228.0
3040.0		3108.0		3040.0		68.0
1466.0		1525.0		1466.0		59.0
1588.0		1642.0		1588.0		54.0
1.81<|#eta|<2.01
88612.0		96191.0		88612.0		7579.0
138212.0		154677.0		138212.0		16465.0
203085.0		221049.0		203085.0		17964.0
253963.0		279129.0		253963.0		25166.0
177285.0		189350.0		177285.0		12065.0
98677.0		105134.0		98677.0		6457.0
39217.0		41669.0		39217.0		2452.0
7764.0		8300.0		7764.0		536.0
3558.0		3708.0		3558.0		150.0
1475.0		1516.0		1475.0		41.0
689.0		723.0		689.0		34.0
755.0		797.0		755.0		42.0
2.01<|#eta|<2.37
155873.0		171938.0		155873.0		16065.0
244829.0		266840.0		244829.0		22011.0
323435.0		352631.0		323435.0		29196.0
378158.0		412847.0		378158.0		34689.0
252403.0		272757.0		252403.0		20354.0
135920.0		149605.0		135920.0		13685.0
53321.0		57403.0		53321.0		4082.0
10150.0		10987.0		10150.0		837.0
4731.0		4956.0		4731.0		225.0
1915.0		1956.0		1915.0		41.0
907.0		967.0		907.0		60.0
925.0		974.0		925.0		49.0
