0.00<|#eta|<0.60
339975.0		413109.0		339975.0		73134.0
641630.0		766305.0		641630.0		124675.0
1050880.0		1205480.0		1050880.0		154590.0
1397390.0		1582460.0		1397390.0		185060.0
954030.0		1055180.0		954030.0		101143.0
547934.0		592638.0		547934.0		44704.0
241963.0		254812.0		241963.0		12849.0
51255.0		52638.0		51255.0		1383.0
23497.0		24393.0		23497.0		896.0
10378.0		10622.0		10378.0		244.0
5239.0		5357.0		5239.0		118.0
5482.0		5770.0		5482.0		288.0
0.60<|#eta|<0.80
101110.0		124486.0		101110.0		23376.0
215877.0		255996.0		215877.0		40119.0
355471.0		409638.0		355471.0		54167.0
439481.0		505608.0		439481.0		66127.0
307248.0		337397.0		307248.0		30149.0
172848.0		187491.0		172848.0		14643.0
75693.0		79655.0		75693.0		3962.0
15968.0		16589.0		15968.0		621.0
7360.0		7493.0		7360.0		133.0
3091.0		3177.0		3091.0		86.0
1662.0		1696.0		1662.0		34.0
1736.0		1805.0		1736.0		69.0
0.80<|#eta|<1.15
179931.0		216726.0		179931.0		36795.0
329819.0		397139.0		329819.0		67320.0
569157.0		658748.0		569157.0		89591.0
738080.0		835279.0		738080.0		97199.0
479144.0		531503.0		479144.0		52359.0
271754.0		296729.0		271754.0		24975.0
116497.0		124301.0		116497.0		7804.0
25267.0		26414.0		25267.0		1147.0
11996.0		12159.0		11996.0		163.0
5293.0		5385.0		5293.0		92.0
2564.0		2605.0		2564.0		41.0
2883.0		2950.0		2883.0		67.0
1.15<|#eta|<1.37
95591.0		125895.0		95591.0		30304.0
168756.0		215988.0		168756.0		47232.0
295726.0		353321.0		295726.0		57595.0
395819.0		470819.0		395819.0		75000.0
264465.0		297354.0		264465.0		32889.0
151129.0		167375.0		151129.0		16246.0
64445.0		68548.0		64445.0		4103.0
13640.0		14362.0		13640.0		722.0
6573.0		6789.0		6573.0		216.0
2950.0		3039.0		2950.0		89.0
1571.0		1615.0		1571.0		44.0
1590.0		1665.0		1590.0		75.0
1.52<|#eta|<1.81
118614.0		143951.0		118614.0		25337.0
195110.0		239433.0		195110.0		44323.0
307925.0		364819.0		307925.0		56894.0
394243.0		464536.0		394243.0		70293.0
285858.0		320284.0		285858.0		34426.0
167573.0		183135.0		167573.0		15562.0
67383.0		72997.0		67383.0		5614.0
13955.0		14878.0		13955.0		923.0
6606.0		6830.0		6606.0		224.0
3023.0		3108.0		3023.0		85.0
1480.0		1525.0		1480.0		45.0
1605.0		1642.0		1605.0		37.0
1.81<|#eta|<2.01
88346.0		96191.0		88346.0		7845.0
139582.0		154677.0		139582.0		15095.0
203698.0		221049.0		203698.0		17351.0
254251.0		279129.0		254251.0		24878.0
178343.0		189350.0		178343.0		11007.0
99189.0		105134.0		99189.0		5945.0
39290.0		41669.0		39290.0		2379.0
7760.0		8300.0		7760.0		540.0
3510.0		3708.0		3510.0		198.0
1475.0		1516.0		1475.0		41.0
699.0		723.0		699.0		24.0
750.0		797.0		750.0		47.0
2.01<|#eta|<2.37
156145.0		171938.0		156145.0		15793.0
243713.0		266840.0		243713.0		23127.0
323551.0		352631.0		323551.0		29080.0
377806.0		412847.0		377806.0		35041.0
251598.0		272757.0		251598.0		21159.0
135565.0		149605.0		135565.0		14040.0
53171.0		57403.0		53171.0		4232.0
10142.0		10987.0		10142.0		845.0
4722.0		4956.0		4722.0		234.0
1899.0		1956.0		1899.0		57.0
906.0		967.0		906.0		61.0
929.0		974.0		929.0		45.0
