0.00<|#eta|<0.60
339756.0		413109.0		339756.0		73353.0
649195.0		766305.0		649195.0		117110.0
1050990.0		1205480.0		1050990.0		154492.0
1395090.0		1582460.0		1395090.0		187363.0
952930.0		1055180.0		952930.0		102251.0
545339.0		592638.0		545339.0		47299.0
239626.0		254812.0		239626.0		15186.0
51075.0		52638.0		51075.0		1563.0
23773.0		24393.0		23773.0		620.0
10402.0		10622.0		10402.0		220.0
5219.0		5357.0		5219.0		138.0
5471.0		5770.0		5471.0		299.0
0.60<|#eta|<0.80
101310.0		124486.0		101310.0		23176.0
214529.0		255996.0		214529.0		41467.0
352212.0		409638.0		352212.0		57426.0
435259.0		505608.0		435259.0		70349.0
308344.0		337397.0		308344.0		29053.0
171400.0		187491.0		171400.0		16091.0
75496.0		79655.0		75496.0		4159.0
15881.0		16589.0		15881.0		708.0
7356.0		7493.0		7356.0		137.0
3076.0		3177.0		3076.0		101.0
1646.0		1696.0		1646.0		50.0
1750.0		1805.0		1750.0		55.0
0.80<|#eta|<1.15
177090.0		216726.0		177090.0		39636.0
330577.0		397139.0		330577.0		66562.0
576680.0		658748.0		576680.0		82068.0
735592.0		835279.0		735592.0		99687.0
477880.0		531503.0		477880.0		53623.0
271766.0		296729.0		271766.0		24963.0
116647.0		124301.0		116647.0		7654.0
25305.0		26414.0		25305.0		1109.0
11961.0		12159.0		11961.0		198.0
5295.0		5385.0		5295.0		90.0
2557.0		2605.0		2557.0		48.0
2885.0		2950.0		2885.0		65.0
1.15<|#eta|<1.37
95507.0		125895.0		95507.0		30388.0
166448.0		215988.0		166448.0		49540.0
295484.0		353321.0		295484.0		57837.0
399311.0		470819.0		399311.0		71508.0
262553.0		297354.0		262553.0		34801.0
151200.0		167375.0		151200.0		16175.0
64170.0		68548.0		64170.0		4378.0
13654.0		14362.0		13654.0		708.0
6612.0		6789.0		6612.0		177.0
2934.0		3039.0		2934.0		105.0
1578.0		1615.0		1578.0		37.0
1590.0		1665.0		1590.0		75.0
1.52<|#eta|<1.81
117078.0		143951.0		117078.0		26873.0
196441.0		239433.0		196441.0		42992.0
309138.0		364819.0		309138.0		55681.0
397137.0		464536.0		397137.0		67399.0
287473.0		320284.0		287473.0		32811.0
167964.0		183135.0		167964.0		15171.0
67323.0		72997.0		67323.0		5674.0
13964.0		14878.0		13964.0		914.0
6609.0		6830.0		6609.0		221.0
3025.0		3108.0		3025.0		83.0
1473.0		1525.0		1473.0		52.0
1595.0		1642.0		1595.0		47.0
1.81<|#eta|<2.01
88876.0		96191.0		88876.0		7315.0
140070.0		154677.0		140070.0		14607.0
202339.0		221049.0		202339.0		18710.0
254600.0		279129.0		254600.0		24529.0
178332.0		189350.0		178332.0		11018.0
99108.0		105134.0		99108.0		6026.0
39394.0		41669.0		39394.0		2275.0
7765.0		8300.0		7765.0		535.0
3590.0		3708.0		3590.0		118.0
1472.0		1516.0		1472.0		44.0
699.0		723.0		699.0		24.0
763.0		797.0		763.0		34.0
2.01<|#eta|<2.37
156254.0		171938.0		156254.0		15684.0
243699.0		266840.0		243699.0		23141.0
322562.0		352631.0		322562.0		30069.0
378501.0		412847.0		378501.0		34346.0
251224.0		272757.0		251224.0		21533.0
135926.0		149605.0		135926.0		13679.0
53198.0		57403.0		53198.0		4205.0
10139.0		10987.0		10139.0		848.0
4715.0		4956.0		4715.0		241.0
1909.0		1956.0		1909.0		47.0
914.0		967.0		914.0		53.0
934.0		974.0		934.0		40.0
