0.00<|#eta|<0.60
341950.0		413109.0		341950.0		71159.0
650494.0		766305.0		650494.0		115811.0
1054700.0		1205480.0		1054700.0		150780.0
1392440.0		1582460.0		1392440.0		190011.0
950410.0		1055180.0		950410.0		104771.0
547447.0		592638.0		547447.0		45191.0
241184.0		254812.0		241184.0		13628.0
51235.0		52638.0		51235.0		1403.0
23676.0		24393.0		23676.0		717.0
10395.0		10622.0		10395.0		227.0
5245.0		5357.0		5245.0		112.0
5494.0		5770.0		5494.0		276.0
0.60<|#eta|<0.80
98951.0		124486.0		98951.0		25535.0
212017.0		255996.0		212017.0		43979.0
355178.0		409638.0		355178.0		54460.0
440228.0		505608.0		440228.0		65380.0
307646.0		337397.0		307646.0		29751.0
173065.0		187491.0		173065.0		14426.0
75857.0		79655.0		75857.0		3798.0
15973.0		16589.0		15973.0		616.0
7370.0		7493.0		7370.0		123.0
3071.0		3177.0		3071.0		106.0
1660.0		1696.0		1660.0		36.0
1748.0		1805.0		1748.0		57.0
0.80<|#eta|<1.15
180172.0		216726.0		180172.0		36554.0
332465.0		397139.0		332465.0		64674.0
570668.0		658748.0		570668.0		88080.0
741796.0		835279.0		741796.0		93483.0
479950.0		531503.0		479950.0		51553.0
271378.0		296729.0		271378.0		25351.0
116887.0		124301.0		116887.0		7414.0
25227.0		26414.0		25227.0		1187.0
11981.0		12159.0		11981.0		178.0
5297.0		5385.0		5297.0		88.0
2533.0		2605.0		2533.0		72.0
2877.0		2950.0		2877.0		73.0
1.15<|#eta|<1.37
96081.0		125895.0		96081.0		29814.0
170584.0		215988.0		170584.0		45404.0
297720.0		353321.0		297720.0		55601.0
394748.0		470819.0		394748.0		76071.0
263725.0		297354.0		263725.0		33629.0
151301.0		167375.0		151301.0		16074.0
64669.0		68548.0		64669.0		3879.0
13664.0		14362.0		13664.0		698.0
6568.0		6789.0		6568.0		221.0
2956.0		3039.0		2956.0		83.0
1581.0		1615.0		1581.0		34.0
1604.0		1665.0		1604.0		61.0
1.52<|#eta|<1.81
119279.0		143951.0		119279.0		24672.0
197254.0		239433.0		197254.0		42179.0
305450.0		364819.0		305450.0		59369.0
396188.0		464536.0		396188.0		68348.0
289973.0		320284.0		289973.0		30311.0
169264.0		183135.0		169264.0		13871.0
67286.0		72997.0		67286.0		5711.0
13875.0		14878.0		13875.0		1003.0
6557.0		6830.0		6557.0		273.0
3030.0		3108.0		3030.0		78.0
1489.0		1525.0		1489.0		36.0
1588.0		1642.0		1588.0		54.0
1.81<|#eta|<2.01
89125.0		96191.0		89125.0		7066.0
138977.0		154677.0		138977.0		15700.0
202634.0		221049.0		202634.0		18415.0
254339.0		279129.0		254339.0		24790.0
178021.0		189350.0		178021.0		11329.0
98698.0		105134.0		98698.0		6436.0
39312.0		41669.0		39312.0		2357.0
7803.0		8300.0		7803.0		497.0
3524.0		3708.0		3524.0		184.0
1482.0		1516.0		1482.0		34.0
694.0		723.0		694.0		29.0
758.0		797.0		758.0		39.0
2.01<|#eta|<2.37
156362.0		171938.0		156362.0		15576.0
243951.0		266840.0		243951.0		22889.0
324895.0		352631.0		324895.0		27736.0
379657.0		412847.0		379657.0		33190.0
251055.0		272757.0		251055.0		21702.0
136042.0		149605.0		136042.0		13563.0
53376.0		57403.0		53376.0		4027.0
10184.0		10987.0		10184.0		803.0
4675.0		4956.0		4675.0		281.0
1904.0		1956.0		1904.0		52.0
893.0		967.0		893.0		74.0
931.0		974.0		931.0		43.0
