0.00<|#eta|<0.60
336718.0		413109.0		336718.0		76391.0
645205.0		766305.0		645205.0		121100.0
1050050.0		1205480.0		1050050.0		155427.0
1394180.0		1582460.0		1394180.0		188282.0
951550.0		1055180.0		951550.0		103628.0
547597.0		592638.0		547597.0		45041.0
239975.0		254812.0		239975.0		14837.0
51122.0		52638.0		51122.0		1516.0
23589.0		24393.0		23589.0		804.0
10359.0		10622.0		10359.0		263.0
5230.0		5357.0		5230.0		127.0
5465.0		5770.0		5465.0		305.0
0.60<|#eta|<0.80
99775.0		124486.0		99775.0		24711.0
212883.0		255996.0		212883.0		43113.0
351726.0		409638.0		351726.0		57912.0
439922.0		505608.0		439922.0		65686.0
310091.0		337397.0		310091.0		27306.0
172843.0		187491.0		172843.0		14648.0
75653.0		79655.0		75653.0		4002.0
15958.0		16589.0		15958.0		631.0
7331.0		7493.0		7331.0		162.0
3081.0		3177.0		3081.0		96.0
1643.0		1696.0		1643.0		53.0
1739.0		1805.0		1739.0		66.0
0.80<|#eta|<1.15
177284.0		216726.0		177284.0		39442.0
330662.0		397139.0		330662.0		66477.0
565897.0		658748.0		565897.0		92851.0
736135.0		835279.0		736135.0		99144.0
483051.0		531503.0		483051.0		48452.0
272769.0		296729.0		272769.0		23960.0
116348.0		124301.0		116348.0		7953.0
25457.0		26414.0		25457.0		957.0
11943.0		12159.0		11943.0		216.0
5307.0		5385.0		5307.0		78.0
2557.0		2605.0		2557.0		48.0
2877.0		2950.0		2877.0		73.0
1.15<|#eta|<1.37
95612.0		125895.0		95612.0		30283.0
172003.0		215988.0		172003.0		43985.0
292145.0		353321.0		292145.0		61176.0
398306.0		470819.0		398306.0		72513.0
262396.0		297354.0		262396.0		34958.0
150585.0		167375.0		150585.0		16790.0
63979.0		68548.0		63979.0		4569.0
13674.0		14362.0		13674.0		688.0
6625.0		6789.0		6625.0		164.0
2949.0		3039.0		2949.0		90.0
1576.0		1615.0		1576.0		39.0
1580.0		1665.0		1580.0		85.0
1.52<|#eta|<1.81
118838.0		143951.0		118838.0		25113.0
198784.0		239433.0		198784.0		40649.0
306862.0		364819.0		306862.0		57957.0
396830.0		464536.0		396830.0		67706.0
289073.0		320284.0		289073.0		31211.0
168767.0		183135.0		168767.0		14368.0
67131.0		72997.0		67131.0		5866.0
13906.0		14878.0		13906.0		972.0
6585.0		6830.0		6585.0		245.0
3034.0		3108.0		3034.0		74.0
1471.0		1525.0		1471.0		54.0
1590.0		1642.0		1590.0		52.0
1.81<|#eta|<2.01
88752.0		96191.0		88752.0		7439.0
139076.0		154677.0		139076.0		15601.0
202320.0		221049.0		202320.0		18729.0
253962.0		279129.0		253962.0		25167.0
177485.0		189350.0		177485.0		11865.0
99171.0		105134.0		99171.0		5963.0
39446.0		41669.0		39446.0		2223.0
7795.0		8300.0		7795.0		505.0
3544.0		3708.0		3544.0		164.0
1488.0		1516.0		1488.0		28.0
695.0		723.0		695.0		28.0
758.0		797.0		758.0		39.0
2.01<|#eta|<2.37
156440.0		171938.0		156440.0		15498.0
245148.0		266840.0		245148.0		21692.0
323733.0		352631.0		323733.0		28898.0
379405.0		412847.0		379405.0		33442.0
251904.0		272757.0		251904.0		20853.0
136429.0		149605.0		136429.0		13176.0
53390.0		57403.0		53390.0		4013.0
10197.0		10987.0		10197.0		790.0
4744.0		4956.0		4744.0		212.0
1900.0		1956.0		1900.0		56.0
909.0		967.0		909.0		58.0
918.0		974.0		918.0		56.0
