0.00<|#eta|<0.60
340459.0		413109.0		340459.0		72650.0
647576.0		766305.0		647576.0		118729.0
1048430.0		1205480.0		1048430.0		157050.0
1393160.0		1582460.0		1393160.0		189285.0
947202.0		1055180.0		947202.0		107968.0
544765.0		592638.0		544765.0		47873.0
240924.0		254812.0		240924.0		13888.0
51235.0		52638.0		51235.0		1403.0
23670.0		24393.0		23670.0		723.0
10376.0		10622.0		10376.0		246.0
5239.0		5357.0		5239.0		118.0
5513.0		5770.0		5513.0		257.0
0.60<|#eta|<0.80
99611.0		124486.0		99611.0		24875.0
210074.0		255996.0		210074.0		45922.0
354732.0		409638.0		354732.0		54906.0
444086.0		505608.0		444086.0		61522.0
309803.0		337397.0		309803.0		27594.0
172573.0		187491.0		172573.0		14918.0
75481.0		79655.0		75481.0		4174.0
15902.0		16589.0		15902.0		687.0
7365.0		7493.0		7365.0		128.0
3026.0		3177.0		3026.0		151.0
1651.0		1696.0		1651.0		45.0
1744.0		1805.0		1744.0		61.0
0.80<|#eta|<1.15
176163.0		216726.0		176163.0		40563.0
331688.0		397139.0		331688.0		65451.0
563886.0		658748.0		563886.0		94862.0
733063.0		835279.0		733063.0		102216.0
479253.0		531503.0		479253.0		52250.0
273054.0		296729.0		273054.0		23675.0
116497.0		124301.0		116497.0		7804.0
25446.0		26414.0		25446.0		968.0
11942.0		12159.0		11942.0		217.0
5296.0		5385.0		5296.0		89.0
2554.0		2605.0		2554.0		51.0
2893.0		2950.0		2893.0		57.0
1.15<|#eta|<1.37
94997.0		125895.0		94997.0		30898.0
168498.0		215988.0		168498.0		47490.0
295210.0		353321.0		295210.0		58111.0
396520.0		470819.0		396520.0		74299.0
262321.0		297354.0		262321.0		35033.0
151865.0		167375.0		151865.0		15510.0
64448.0		68548.0		64448.0		4100.0
13659.0		14362.0		13659.0		703.0
6586.0		6789.0		6586.0		203.0
2945.0		3039.0		2945.0		94.0
1564.0		1615.0		1564.0		51.0
1597.0		1665.0		1597.0		68.0
1.52<|#eta|<1.81
117767.0		143951.0		117767.0		26184.0
196817.0		239433.0		196817.0		42616.0
306348.0		364819.0		306348.0		58471.0
395723.0		464536.0		395723.0		68813.0
287259.0		320284.0		287259.0		33025.0
168186.0		183135.0		168186.0		14949.0
67130.0		72997.0		67130.0		5867.0
13937.0		14878.0		13937.0		941.0
6582.0		6830.0		6582.0		248.0
3012.0		3108.0		3012.0		96.0
1477.0		1525.0		1477.0		48.0
1582.0		1642.0		1582.0		60.0
1.81<|#eta|<2.01
89421.0		96191.0		89421.0		6770.0
138801.0		154677.0		138801.0		15876.0
202414.0		221049.0		202414.0		18635.0
252973.0		279129.0		252973.0		26156.0
176857.0		189350.0		176857.0		12493.0
98945.0		105134.0		98945.0		6189.0
39341.0		41669.0		39341.0		2328.0
7877.0		8300.0		7877.0		423.0
3539.0		3708.0		3539.0		169.0
1457.0		1516.0		1457.0		59.0
695.0		723.0		695.0		28.0
765.0		797.0		765.0		32.0
2.01<|#eta|<2.37
155880.0		171938.0		155880.0		16058.0
243452.0		266840.0		243452.0		23388.0
323972.0		352631.0		323972.0		28659.0
377369.0		412847.0		377369.0		35478.0
251784.0		272757.0		251784.0		20973.0
136244.0		149605.0		136244.0		13361.0
53343.0		57403.0		53343.0		4060.0
10173.0		10987.0		10173.0		814.0
4730.0		4956.0		4730.0		226.0
1899.0		1956.0		1899.0		57.0
907.0		967.0		907.0		60.0
926.0		974.0		926.0		48.0
