0.00<|#eta|<0.60
339576.0		413109.0		339576.0		73533.0
657460.0		766305.0		657460.0		108845.0
1053760.0		1205480.0		1053760.0		151729.0
1402550.0		1582460.0		1402550.0		179910.0
956290.0		1055180.0		956290.0		98886.0
543535.0		592638.0		543535.0		49103.0
240986.0		254812.0		240986.0		13826.0
50976.0		52638.0		50976.0		1662.0
23700.0		24393.0		23700.0		693.0
10401.0		10622.0		10401.0		221.0
5224.0		5357.0		5224.0		133.0
5518.0		5770.0		5518.0		252.0
0.60<|#eta|<0.80
100482.0		124486.0		100482.0		24004.0
209859.0		255996.0		209859.0		46137.0
352276.0		409638.0		352276.0		57362.0
441973.0		505608.0		441973.0		63635.0
309390.0		337397.0		309390.0		28007.0
170788.0		187491.0		170788.0		16703.0
75355.0		79655.0		75355.0		4300.0
15908.0		16589.0		15908.0		681.0
7339.0		7493.0		7339.0		154.0
3065.0		3177.0		3065.0		112.0
1667.0		1696.0		1667.0		29.0
1739.0		1805.0		1739.0		66.0
0.80<|#eta|<1.15
178090.0		216726.0		178090.0		38636.0
326775.0		397139.0		326775.0		70364.0
572263.0		658748.0		572263.0		86485.0
739333.0		835279.0		739333.0		95946.0
481647.0		531503.0		481647.0		49856.0
271879.0		296729.0		271879.0		24850.0
116523.0		124301.0		116523.0		7778.0
25337.0		26414.0		25337.0		1077.0
11985.0		12159.0		11985.0		174.0
5330.0		5385.0		5330.0		55.0
2554.0		2605.0		2554.0		51.0
2883.0		2950.0		2883.0		67.0
1.15<|#eta|<1.37
97433.0		125895.0		97433.0		28462.0
172318.0		215988.0		172318.0		43670.0
295037.0		353321.0		295037.0		58284.0
397943.0		470819.0		397943.0		72876.0
262040.0		297354.0		262040.0		35314.0
151324.0		167375.0		151324.0		16051.0
64231.0		68548.0		64231.0		4317.0
13680.0		14362.0		13680.0		682.0
6632.0		6789.0		6632.0		157.0
2958.0		3039.0		2958.0		81.0
1577.0		1615.0		1577.0		38.0
1569.0		1665.0		1569.0		96.0
1.52<|#eta|<1.81
118919.0		143951.0		118919.0		25032.0
194049.0		239433.0		194049.0		45384.0
309100.0		364819.0		309100.0		55719.0
396307.0		464536.0		396307.0		68229.0
288480.0		320284.0		288480.0		31804.0
168317.0		183135.0		168317.0		14818.0
67126.0		72997.0		67126.0		5871.0
13930.0		14878.0		13930.0		948.0
6613.0		6830.0		6613.0		217.0
3030.0		3108.0		3030.0		78.0
1476.0		1525.0		1476.0		49.0
1586.0		1642.0		1586.0		56.0
1.81<|#eta|<2.01
88733.0		96191.0		88733.0		7458.0
139591.0		154677.0		139591.0		15086.0
203513.0		221049.0		203513.0		17536.0
252908.0		279129.0		252908.0		26221.0
177787.0		189350.0		177787.0		11563.0
98795.0		105134.0		98795.0		6339.0
39265.0		41669.0		39265.0		2404.0
7814.0		8300.0		7814.0		486.0
3596.0		3708.0		3596.0		112.0
1477.0		1516.0		1477.0		39.0
694.0		723.0		694.0		29.0
755.0		797.0		755.0		42.0
2.01<|#eta|<2.37
156265.0		171938.0		156265.0		15673.0
244438.0		266840.0		244438.0		22402.0
322890.0		352631.0		322890.0		29741.0
379115.0		412847.0		379115.0		33732.0
252243.0		272757.0		252243.0		20514.0
135827.0		149605.0		135827.0		13778.0
53346.0		57403.0		53346.0		4057.0
10159.0		10987.0		10159.0		828.0
4729.0		4956.0		4729.0		227.0
1916.0		1956.0		1916.0		40.0
907.0		967.0		907.0		60.0
932.0		974.0		932.0		42.0
