0.00<|#eta|<0.60
338239.0		413109.0		338239.0		74870.0
646964.0		766305.0		646964.0		119341.0
1046350.0		1205480.0		1046350.0		159145.0
1403460.0		1582460.0		1403460.0		178995.0
957120.0		1055180.0		957120.0		98052.0
548705.0		592638.0		548705.0		43933.0
240393.0		254812.0		240393.0		14419.0
51109.0		52638.0		51109.0		1529.0
23702.0		24393.0		23702.0		691.0
10321.0		10622.0		10321.0		301.0
5197.0		5357.0		5197.0		160.0
5509.0		5770.0		5509.0		261.0
0.60<|#eta|<0.80
98615.0		124486.0		98615.0		25871.0
217026.0		255996.0		217026.0		38970.0
356381.0		409638.0		356381.0		53257.0
434137.0		505608.0		434137.0		71471.0
307595.0		337397.0		307595.0		29802.0
171905.0		187491.0		171905.0		15586.0
75430.0		79655.0		75430.0		4225.0
15997.0		16589.0		15997.0		592.0
7338.0		7493.0		7338.0		155.0
3080.0		3177.0		3080.0		97.0
1654.0		1696.0		1654.0		42.0
1732.0		1805.0		1732.0		73.0
0.80<|#eta|<1.15
181041.0		216726.0		181041.0		35685.0
331108.0		397139.0		331108.0		66031.0
564087.0		658748.0		564087.0		94661.0
741323.0		835279.0		741323.0		93956.0
480551.0		531503.0		480551.0		50952.0
272744.0		296729.0		272744.0		23985.0
116260.0		124301.0		116260.0		8041.0
25281.0		26414.0		25281.0		1133.0
11957.0		12159.0		11957.0		202.0
5302.0		5385.0		5302.0		83.0
2558.0		2605.0		2558.0		47.0
2871.0		2950.0		2871.0		79.0
1.15<|#eta|<1.37
96829.0		125895.0		96829.0		29066.0
168957.0		215988.0		168957.0		47031.0
296205.0		353321.0		296205.0		57116.0
398497.0		470819.0		398497.0		72322.0
265023.0		297354.0		265023.0		32331.0
150404.0		167375.0		150404.0		16971.0
64393.0		68548.0		64393.0		4155.0
13589.0		14362.0		13589.0		773.0
6603.0		6789.0		6603.0		186.0
2934.0		3039.0		2934.0		105.0
1567.0		1615.0		1567.0		48.0
1591.0		1665.0		1591.0		74.0
1.52<|#eta|<1.81
119203.0		143951.0		119203.0		24748.0
199029.0		239433.0		199029.0		40404.0
304831.0		364819.0		304831.0		59988.0
395841.0		464536.0		395841.0		68695.0
287287.0		320284.0		287287.0		32997.0
167831.0		183135.0		167831.0		15304.0
67310.0		72997.0		67310.0		5687.0
13982.0		14878.0		13982.0		896.0
6574.0		6830.0		6574.0		256.0
3033.0		3108.0		3033.0		75.0
1473.0		1525.0		1473.0		52.0
1587.0		1642.0		1587.0		55.0
1.81<|#eta|<2.01
89015.0		96191.0		89015.0		7176.0
139393.0		154677.0		139393.0		15284.0
202784.0		221049.0		202784.0		18265.0
253273.0		279129.0		253273.0		25856.0
177594.0		189350.0		177594.0		11756.0
98817.0		105134.0		98817.0		6317.0
39383.0		41669.0		39383.0		2286.0
7826.0		8300.0		7826.0		474.0
3531.0		3708.0		3531.0		177.0
1470.0		1516.0		1470.0		46.0
693.0		723.0		693.0		30.0
746.0		797.0		746.0		51.0
2.01<|#eta|<2.37
156336.0		171938.0		156336.0		15602.0
245642.0		266840.0		245642.0		21198.0
324187.0		352631.0		324187.0		28444.0
377998.0		412847.0		377998.0		34849.0
252432.0		272757.0		252432.0		20325.0
135824.0		149605.0		135824.0		13781.0
53282.0		57403.0		53282.0		4121.0
10100.0		10987.0		10100.0		887.0
4719.0		4956.0		4719.0		237.0
1899.0		1956.0		1899.0		57.0
901.0		967.0		901.0		66.0
929.0		974.0		929.0		45.0
