0.00<|#eta|<0.60
338638.0		413109.0		338638.0		74471.0
638788.0		766305.0		638788.0		127517.0
1047410.0		1205480.0		1047410.0		158079.0
1392290.0		1582460.0		1392290.0		190167.0
950190.0		1055180.0		950190.0		104985.0
547629.0		592638.0		547629.0		45009.0
241469.0		254812.0		241469.0		13343.0
50953.0		52638.0		50953.0		1685.0
23650.0		24393.0		23650.0		743.0
10393.0		10622.0		10393.0		229.0
5183.0		5357.0		5183.0		174.0
5480.0		5770.0		5480.0		290.0
0.60<|#eta|<0.80
99046.0		124486.0		99046.0		25440.0
212319.0		255996.0		212319.0		43677.0
350175.0		409638.0		350175.0		59463.0
438295.0		505608.0		438295.0		67313.0
309678.0		337397.0		309678.0		27719.0
172330.0		187491.0		172330.0		15161.0
75487.0		79655.0		75487.0		4168.0
16021.0		16589.0		16021.0		568.0
7361.0		7493.0		7361.0		132.0
3076.0		3177.0		3076.0		101.0
1663.0		1696.0		1663.0		33.0
1741.0		1805.0		1741.0		64.0
0.80<|#eta|<1.15
178297.0		216726.0		178297.0		38429.0
332971.0		397139.0		332971.0		64168.0
571596.0		658748.0		571596.0		87152.0
738141.0		835279.0		738141.0		97138.0
477080.0		531503.0		477080.0		54423.0
271769.0		296729.0		271769.0		24960.0
117136.0		124301.0		117136.0		7165.0
25330.0		26414.0		25330.0		1084.0
11964.0		12159.0		11964.0		195.0
5296.0		5385.0		5296.0		89.0
2564.0		2605.0		2564.0		41.0
2885.0		2950.0		2885.0		65.0
1.15<|#eta|<1.37
96409.0		125895.0		96409.0		29486.0
171309.0		215988.0		171309.0		44679.0
296095.0		353321.0		296095.0		57226.0
397214.0		470819.0		397214.0		73605.0
262543.0		297354.0		262543.0		34811.0
151362.0		167375.0		151362.0		16013.0
64425.0		68548.0		64425.0		4123.0
13714.0		14362.0		13714.0		648.0
6574.0		6789.0		6574.0		215.0
2957.0		3039.0		2957.0		82.0
1571.0		1615.0		1571.0		44.0
1585.0		1665.0		1585.0		80.0
1.52<|#eta|<1.81
118028.0		143951.0		118028.0		25923.0
195490.0		239433.0		195490.0		43943.0
307031.0		364819.0		307031.0		57788.0
395250.0		464536.0		395250.0		69286.0
288218.0		320284.0		288218.0		32066.0
167780.0		183135.0		167780.0		15355.0
67350.0		72997.0		67350.0		5647.0
13882.0		14878.0		13882.0		996.0
6595.0		6830.0		6595.0		235.0
3017.0		3108.0		3017.0		91.0
1485.0		1525.0		1485.0		40.0
1580.0		1642.0		1580.0		62.0
1.81<|#eta|<2.01
89410.0		96191.0		89410.0		6781.0
138377.0		154677.0		138377.0		16300.0
203461.0		221049.0		203461.0		17588.0
253240.0		279129.0		253240.0		25889.0
178442.0		189350.0		178442.0		10908.0
99178.0		105134.0		99178.0		5956.0
39268.0		41669.0		39268.0		2401.0
7799.0		8300.0		7799.0		501.0
3601.0		3708.0		3601.0		107.0
1489.0		1516.0		1489.0		27.0
695.0		723.0		695.0		28.0
756.0		797.0		756.0		41.0
2.01<|#eta|<2.37
156076.0		171938.0		156076.0		15862.0
244020.0		266840.0		244020.0		22820.0
322409.0		352631.0		322409.0		30222.0
379142.0		412847.0		379142.0		33705.0
251872.0		272757.0		251872.0		20885.0
135919.0		149605.0		135919.0		13686.0
53372.0		57403.0		53372.0		4031.0
10162.0		10987.0		10162.0		825.0
4729.0		4956.0		4729.0		227.0
1896.0		1956.0		1896.0		60.0
910.0		967.0		910.0		57.0
920.0		974.0		920.0		54.0
