0.00<|#eta|<0.60
342803.0		413109.0		342803.0		70306.0
648220.0		766305.0		648220.0		118085.0
1042740.0		1205480.0		1042740.0		162751.0
1392770.0		1582460.0		1392770.0		189681.0
952380.0		1055180.0		952380.0		102786.0
546878.0		592638.0		546878.0		45760.0
240434.0		254812.0		240434.0		14378.0
50966.0		52638.0		50966.0		1672.0
23623.0		24393.0		23623.0		770.0
10380.0		10622.0		10380.0		242.0
5229.0		5357.0		5229.0		128.0
5503.0		5770.0		5503.0		267.0
0.60<|#eta|<0.80
100319.0		124486.0		100319.0		24167.0
216032.0		255996.0		216032.0		39964.0
352812.0		409638.0		352812.0		56826.0
441631.0		505608.0		441631.0		63977.0
308877.0		337397.0		308877.0		28520.0
172220.0		187491.0		172220.0		15271.0
76132.0		79655.0		76132.0		3523.0
15990.0		16589.0		15990.0		599.0
7362.0		7493.0		7362.0		131.0
3073.0		3177.0		3073.0		104.0
1664.0		1696.0		1664.0		32.0
1741.0		1805.0		1741.0		64.0
0.80<|#eta|<1.15
179553.0		216726.0		179553.0		37173.0
331861.0		397139.0		331861.0		65278.0
562844.0		658748.0		562844.0		95904.0
735925.0		835279.0		735925.0		99354.0
479313.0		531503.0		479313.0		52190.0
272496.0		296729.0		272496.0		24233.0
116314.0		124301.0		116314.0		7987.0
25237.0		26414.0		25237.0		1177.0
11931.0		12159.0		11931.0		228.0
5311.0		5385.0		5311.0		74.0
2564.0		2605.0		2564.0		41.0
2880.0		2950.0		2880.0		70.0
1.15<|#eta|<1.37
96071.0		125895.0		96071.0		29824.0
171658.0		215988.0		171658.0		44330.0
293206.0		353321.0		293206.0		60115.0
398063.0		470819.0		398063.0		72756.0
264355.0		297354.0		264355.0		32999.0
149988.0		167375.0		149988.0		17387.0
64497.0		68548.0		64497.0		4051.0
13644.0		14362.0		13644.0		718.0
6595.0		6789.0		6595.0		194.0
2949.0		3039.0		2949.0		90.0
1578.0		1615.0		1578.0		37.0
1581.0		1665.0		1581.0		84.0
1.52<|#eta|<1.81
117568.0		143951.0		117568.0		26383.0
197163.0		239433.0		197163.0		42270.0
308828.0		364819.0		308828.0		55991.0
396172.0		464536.0		396172.0		68364.0
289313.0		320284.0		289313.0		30971.0
168511.0		183135.0		168511.0		14624.0
67408.0		72997.0		67408.0		5589.0
13940.0		14878.0		13940.0		938.0
6601.0		6830.0		6601.0		229.0
3011.0		3108.0		3011.0		97.0
1479.0		1525.0		1479.0		46.0
1587.0		1642.0		1587.0		55.0
1.81<|#eta|<2.01
89624.0		96191.0		89624.0		6567.0
140865.0		154677.0		140865.0		13812.0
203707.0		221049.0		203707.0		17342.0
253720.0		279129.0		253720.0		25409.0
177369.0		189350.0		177369.0		11981.0
99079.0		105134.0		99079.0		6055.0
39353.0		41669.0		39353.0		2316.0
7784.0		8300.0		7784.0		516.0
3516.0		3708.0		3516.0		192.0
1486.0		1516.0		1486.0		30.0
696.0		723.0		696.0		27.0
763.0		797.0		763.0		34.0
2.01<|#eta|<2.37
156516.0		171938.0		156516.0		15422.0
242720.0		266840.0		242720.0		24120.0
322020.0		352631.0		322020.0		30611.0
377447.0		412847.0		377447.0		35400.0
251526.0		272757.0		251526.0		21231.0
136015.0		149605.0		136015.0		13590.0
53133.0		57403.0		53133.0		4270.0
10180.0		10987.0		10180.0		807.0
4742.0		4956.0		4742.0		214.0
1897.0		1956.0		1897.0		59.0
919.0		967.0		919.0		48.0
933.0		974.0		933.0		41.0
