0.00<|#eta|<0.60
336334.0		413109.0		336334.0		76775.0
648787.0		766305.0		648787.0		117518.0
1046860.0		1205480.0		1046860.0		158620.0
1398590.0		1582460.0		1398590.0		183870.0
954030.0		1055180.0		954030.0		101133.0
546739.0		592638.0		546739.0		45899.0
240775.0		254812.0		240775.0		14037.0
51130.0		52638.0		51130.0		1508.0
23569.0		24393.0		23569.0		824.0
10308.0		10622.0		10308.0		314.0
5234.0		5357.0		5234.0		123.0
5489.0		5770.0		5489.0		281.0
0.60<|#eta|<0.80
98677.0		124486.0		98677.0		25809.0
213673.0		255996.0		213673.0		42323.0
353063.0		409638.0		353063.0		56575.0
436726.0		505608.0		436726.0		68882.0
309912.0		337397.0		309912.0		27485.0
173120.0		187491.0		173120.0		14371.0
75726.0		79655.0		75726.0		3929.0
15922.0		16589.0		15922.0		667.0
7346.0		7493.0		7346.0		147.0
3096.0		3177.0		3096.0		81.0
1662.0		1696.0		1662.0		34.0
1739.0		1805.0		1739.0		66.0
0.80<|#eta|<1.15
178684.0		216726.0		178684.0		38042.0
332364.0		397139.0		332364.0		64775.0
563558.0		658748.0		563558.0		95190.0
737989.0		835279.0		737989.0		97290.0
481123.0		531503.0		481123.0		50380.0
272388.0		296729.0		272388.0		24341.0
116467.0		124301.0		116467.0		7834.0
25392.0		26414.0		25392.0		1022.0
11950.0		12159.0		11950.0		209.0
5307.0		5385.0		5307.0		78.0
2564.0		2605.0		2564.0		41.0
2880.0		2950.0		2880.0		70.0
1.15<|#eta|<1.37
96975.0		125895.0		96975.0		28920.0
172261.0		215988.0		172261.0		43727.0
296621.0		353321.0		296621.0		56700.0
394845.0		470819.0		394845.0		75974.0
259737.0		297354.0		259737.0		37617.0
150809.0		167375.0		150809.0		16566.0
64478.0		68548.0		64478.0		4070.0
13720.0		14362.0		13720.0		642.0
6637.0		6789.0		6637.0		152.0
2956.0		3039.0		2956.0		83.0
1572.0		1615.0		1572.0		43.0
1587.0		1665.0		1587.0		78.0
1.52<|#eta|<1.81
118565.0		143951.0		118565.0		25386.0
198121.0		239433.0		198121.0		41312.0
307167.0		364819.0		307167.0		57652.0
397357.0		464536.0		397357.0		67179.0
289509.0		320284.0		289509.0		30775.0
168726.0		183135.0		168726.0		14409.0
67181.0		72997.0		67181.0		5816.0
13875.0		14878.0		13875.0		1003.0
6606.0		6830.0		6606.0		224.0
3034.0		3108.0		3034.0		74.0
1492.0		1525.0		1492.0		33.0
1584.0		1642.0		1584.0		58.0
1.81<|#eta|<2.01
89046.0		96191.0		89046.0		7145.0
139021.0		154677.0		139021.0		15656.0
202205.0		221049.0		202205.0		18844.0
253522.0		279129.0		253522.0		25607.0
178428.0		189350.0		178428.0		10922.0
98610.0		105134.0		98610.0		6524.0
39202.0		41669.0		39202.0		2467.0
7801.0		8300.0		7801.0		499.0
3489.0		3708.0		3489.0		219.0
1474.0		1516.0		1474.0		42.0
702.0		723.0		702.0		21.0
764.0		797.0		764.0		33.0
2.01<|#eta|<2.37
155868.0		171938.0		155868.0		16070.0
243790.0		266840.0		243790.0		23050.0
322242.0		352631.0		322242.0		30389.0
378607.0		412847.0		378607.0		34240.0
251866.0		272757.0		251866.0		20891.0
136027.0		149605.0		136027.0		13578.0
53213.0		57403.0		53213.0		4190.0
10200.0		10987.0		10200.0		787.0
4725.0		4956.0		4725.0		231.0
1900.0		1956.0		1900.0		56.0
913.0		967.0		913.0		54.0
931.0		974.0		931.0		43.0
