0.00<|#eta|<0.60
342653.0		413109.0		342653.0		70456.0
647793.0		766305.0		647793.0		118512.0
1057620.0		1205480.0		1057620.0		147861.0
1397630.0		1582460.0		1397630.0		184812.0
953890.0		1055180.0		953890.0		101273.0
544846.0		592638.0		544846.0		47792.0
240956.0		254812.0		240956.0		13856.0
50948.0		52638.0		50948.0		1690.0
23719.0		24393.0		23719.0		674.0
10355.0		10622.0		10355.0		267.0
5228.0		5357.0		5228.0		129.0
5492.0		5770.0		5492.0		278.0
0.60<|#eta|<0.80
99439.0		124486.0		99439.0		25047.0
212278.0		255996.0		212278.0		43718.0
356531.0		409638.0		356531.0		53107.0
439653.0		505608.0		439653.0		65955.0
309531.0		337397.0		309531.0		27866.0
172121.0		187491.0		172121.0		15370.0
75724.0		79655.0		75724.0		3931.0
15895.0		16589.0		15895.0		694.0
7323.0		7493.0		7323.0		170.0
3083.0		3177.0		3083.0		94.0
1655.0		1696.0		1655.0		41.0
1744.0		1805.0		1744.0		61.0
0.80<|#eta|<1.15
179562.0		216726.0		179562.0		37164.0
332440.0		397139.0		332440.0		64699.0
569918.0		658748.0		569918.0		88830.0
732521.0		835279.0		732521.0		102758.0
475750.0		531503.0		475750.0		55753.0
273434.0		296729.0		273434.0		23295.0
116080.0		124301.0		116080.0		8221.0
25146.0		26414.0		25146.0		1268.0
11985.0		12159.0		11985.0		174.0
5300.0		5385.0		5300.0		85.0
2546.0		2605.0		2546.0		59.0
2870.0		2950.0		2870.0		80.0
1.15<|#eta|<1.37
97632.0		125895.0		97632.0		28263.0
171947.0		215988.0		171947.0		44041.0
297621.0		353321.0		297621.0		55700.0
398471.0		470819.0		398471.0		72348.0
262208.0		297354.0		262208.0		35146.0
151421.0		167375.0		151421.0		15954.0
64636.0		68548.0		64636.0		3912.0
13729.0		14362.0		13729.0		633.0
6616.0		6789.0		6616.0		173.0
2948.0		3039.0		2948.0		91.0
1590.0		1615.0		1590.0		25.0
1588.0		1665.0		1588.0		77.0
1.52<|#eta|<1.81
118073.0		143951.0		118073.0		25878.0
196672.0		239433.0		196672.0		42761.0
307131.0		364819.0		307131.0		57688.0
396915.0		464536.0		396915.0		67621.0
287832.0		320284.0		287832.0		32452.0
168442.0		183135.0		168442.0		14693.0
66988.0		72997.0		66988.0		6009.0
13889.0		14878.0		13889.0		989.0
6631.0		6830.0		6631.0		199.0
2999.0		3108.0		2999.0		109.0
1472.0		1525.0		1472.0		53.0
1600.0		1642.0		1600.0		42.0
1.81<|#eta|<2.01
89339.0		96191.0		89339.0		6852.0
138210.0		154677.0		138210.0		16467.0
203092.0		221049.0		203092.0		17957.0
254094.0		279129.0		254094.0		25035.0
178162.0		189350.0		178162.0		11188.0
98532.0		105134.0		98532.0		6602.0
39324.0		41669.0		39324.0		2345.0
7798.0		8300.0		7798.0		502.0
3573.0		3708.0		3573.0		135.0
1473.0		1516.0		1473.0		43.0
700.0		723.0		700.0		23.0
751.0		797.0		751.0		46.0
2.01<|#eta|<2.37
156590.0		171938.0		156590.0		15348.0
243404.0		266840.0		243404.0		23436.0
323905.0		352631.0		323905.0		28726.0
379219.0		412847.0		379219.0		33628.0
251674.0		272757.0		251674.0		21083.0
136062.0		149605.0		136062.0		13543.0
53235.0		57403.0		53235.0		4168.0
10151.0		10987.0		10151.0		836.0
4733.0		4956.0		4733.0		223.0
1904.0		1956.0		1904.0		52.0
905.0		967.0		905.0		62.0
919.0		974.0		919.0		55.0
