0.00<|#eta|<0.60
342646.0		413109.0		342646.0		70463.0
647810.0		766305.0		647810.0		118495.0
1047370.0		1205480.0		1047370.0		158105.0
1394200.0		1582460.0		1394200.0		188243.0
951640.0		1055180.0		951640.0		103529.0
547578.0		592638.0		547578.0		45060.0
241228.0		254812.0		241228.0		13584.0
51247.0		52638.0		51247.0		1391.0
23667.0		24393.0		23667.0		726.0
10347.0		10622.0		10347.0		275.0
5245.0		5357.0		5245.0		112.0
5483.0		5770.0		5483.0		287.0
0.60<|#eta|<0.80
99428.0		124486.0		99428.0		25058.0
215502.0		255996.0		215502.0		40494.0
353851.0		409638.0		353851.0		55787.0
441147.0		505608.0		441147.0		64461.0
310137.0		337397.0		310137.0		27260.0
171666.0		187491.0		171666.0		15825.0
75040.0		79655.0		75040.0		4615.0
15717.0		16589.0		15717.0		872.0
7339.0		7493.0		7339.0		154.0
3081.0		3177.0		3081.0		96.0
1655.0		1696.0		1655.0		41.0
1742.0		1805.0		1742.0		63.0
0.80<|#eta|<1.15
178076.0		216726.0		178076.0		38650.0
329671.0		397139.0		329671.0		67468.0
567604.0		658748.0		567604.0		91144.0
738827.0		835279.0		738827.0		96452.0
478280.0		531503.0		478280.0		53223.0
271647.0		296729.0		271647.0		25082.0
116962.0		124301.0		116962.0		7339.0
25342.0		26414.0		25342.0		1072.0
11975.0		12159.0		11975.0		184.0
5292.0		5385.0		5292.0		93.0
2577.0		2605.0		2577.0		28.0
2883.0		2950.0		2883.0		67.0
1.15<|#eta|<1.37
95392.0		125895.0		95392.0		30503.0
166033.0		215988.0		166033.0		49955.0
297177.0		353321.0		297177.0		56144.0
396420.0		470819.0		396420.0		74399.0
263034.0		297354.0		263034.0		34320.0
151336.0		167375.0		151336.0		16039.0
64214.0		68548.0		64214.0		4334.0
13735.0		14362.0		13735.0		627.0
6575.0		6789.0		6575.0		214.0
2949.0		3039.0		2949.0		90.0
1574.0		1615.0		1574.0		41.0
1581.0		1665.0		1581.0		84.0
1.52<|#eta|<1.81
118963.0		143951.0		118963.0		24988.0
196112.0		239433.0		196112.0		43321.0
306638.0		364819.0		306638.0		58181.0
394770.0		464536.0		394770.0		69766.0
289804.0		320284.0		289804.0		30480.0
167855.0		183135.0		167855.0		15280.0
67119.0		72997.0		67119.0		5878.0
13899.0		14878.0		13899.0		979.0
6603.0		6830.0		6603.0		227.0
3023.0		3108.0		3023.0		85.0
1472.0		1525.0		1472.0		53.0
1596.0		1642.0		1596.0		46.0
1.81<|#eta|<2.01
89055.0		96191.0		89055.0		7136.0
138198.0		154677.0		138198.0		16479.0
203586.0		221049.0		203586.0		17463.0
252858.0		279129.0		252858.0		26271.0
178999.0		189350.0		178999.0		10351.0
99273.0		105134.0		99273.0		5861.0
39325.0		41669.0		39325.0		2344.0
7781.0		8300.0		7781.0		519.0
3536.0		3708.0		3536.0		172.0
1476.0		1516.0		1476.0		40.0
687.0		723.0		687.0		36.0
762.0		797.0		762.0		35.0
2.01<|#eta|<2.37
155784.0		171938.0		155784.0		16154.0
245648.0		266840.0		245648.0		21192.0
322846.0		352631.0		322846.0		29785.0
380459.0		412847.0		380459.0		32388.0
251178.0		272757.0		251178.0		21579.0
135378.0		149605.0		135378.0		14227.0
53346.0		57403.0		53346.0		4057.0
10231.0		10987.0		10231.0		756.0
4715.0		4956.0		4715.0		241.0
1901.0		1956.0		1901.0		55.0
889.0		967.0		889.0		78.0
926.0		974.0		926.0		48.0
