0.00<|#eta|<0.60
339781.0		413109.0		339781.0		73328.0
641170.0		766305.0		641170.0		125135.0
1047960.0		1205480.0		1047960.0		157525.0
1389020.0		1582460.0		1389020.0		193435.0
950880.0		1055180.0		950880.0		104298.0
544718.0		592638.0		544718.0		47920.0
241423.0		254812.0		241423.0		13389.0
51036.0		52638.0		51036.0		1602.0
23622.0		24393.0		23622.0		771.0
10382.0		10622.0		10382.0		240.0
5163.0		5357.0		5163.0		194.0
5484.0		5770.0		5484.0		286.0
0.60<|#eta|<0.80
99101.0		124486.0		99101.0		25385.0
208882.0		255996.0		208882.0		47114.0
354818.0		409638.0		354818.0		54820.0
443373.0		505608.0		443373.0		62235.0
305724.0		337397.0		305724.0		31673.0
172529.0		187491.0		172529.0		14962.0
76063.0		79655.0		76063.0		3592.0
15872.0		16589.0		15872.0		717.0
7304.0		7493.0		7304.0		189.0
3085.0		3177.0		3085.0		92.0
1664.0		1696.0		1664.0		32.0
1742.0		1805.0		1742.0		63.0
0.80<|#eta|<1.15
178301.0		216726.0		178301.0		38425.0
332253.0		397139.0		332253.0		64886.0
572179.0		658748.0		572179.0		86569.0
743800.0		835279.0		743800.0		91479.0
477728.0		531503.0		477728.0		53775.0
272349.0		296729.0		272349.0		24380.0
116609.0		124301.0		116609.0		7692.0
25233.0		26414.0		25233.0		1181.0
11990.0		12159.0		11990.0		169.0
5309.0		5385.0		5309.0		76.0
2548.0		2605.0		2548.0		57.0
2885.0		2950.0		2885.0		65.0
1.15<|#eta|<1.37
97938.0		125895.0		97938.0		27957.0
171172.0		215988.0		171172.0		44816.0
296765.0		353321.0		296765.0		56556.0
397726.0		470819.0		397726.0		73093.0
262246.0		297354.0		262246.0		35108.0
151469.0		167375.0		151469.0		15906.0
64491.0		68548.0		64491.0		4057.0
13650.0		14362.0		13650.0		712.0
6642.0		6789.0		6642.0		147.0
2975.0		3039.0		2975.0		64.0
1572.0		1615.0		1572.0		43.0
1567.0		1665.0		1567.0		98.0
1.52<|#eta|<1.81
118437.0		143951.0		118437.0		25514.0
198302.0		239433.0		198302.0		41131.0
309115.0		364819.0		309115.0		55704.0
394915.0		464536.0		394915.0		69621.0
287413.0		320284.0		287413.0		32871.0
168178.0		183135.0		168178.0		14957.0
67345.0		72997.0		67345.0		5652.0
13818.0		14878.0		13818.0		1060.0
6634.0		6830.0		6634.0		196.0
3032.0		3108.0		3032.0		76.0
1479.0		1525.0		1479.0		46.0
1585.0		1642.0		1585.0		57.0
1.81<|#eta|<2.01
89073.0		96191.0		89073.0		7118.0
139787.0		154677.0		139787.0		14890.0
202155.0		221049.0		202155.0		18894.0
255232.0		279129.0		255232.0		23897.0
177582.0		189350.0		177582.0		11768.0
98918.0		105134.0		98918.0		6216.0
39349.0		41669.0		39349.0		2320.0
7838.0		8300.0		7838.0		462.0
3572.0		3708.0		3572.0		136.0
1461.0		1516.0		1461.0		55.0
694.0		723.0		694.0		29.0
758.0		797.0		758.0		39.0
2.01<|#eta|<2.37
156252.0		171938.0		156252.0		15686.0
243778.0		266840.0		243778.0		23062.0
322646.0		352631.0		322646.0		29985.0
379472.0		412847.0		379472.0		33375.0
252253.0		272757.0		252253.0		20504.0
136043.0		149605.0		136043.0		13562.0
53196.0		57403.0		53196.0		4207.0
10187.0		10987.0		10187.0		800.0
4744.0		4956.0		4744.0		212.0
1915.0		1956.0		1915.0		41.0
906.0		967.0		906.0		61.0
928.0		974.0		928.0		46.0
