0.00<|#eta|<0.60
338814.0		413109.0		338814.0		74295.0
648593.0		766305.0		648593.0		117712.0
1055040.0		1205480.0		1055040.0		150442.0
1398340.0		1582460.0		1398340.0		184106.0
953840.0		1055180.0		953840.0		101336.0
547244.0		592638.0		547244.0		45394.0
240378.0		254812.0		240378.0		14434.0
51055.0		52638.0		51055.0		1583.0
23646.0		24393.0		23646.0		747.0
10334.0		10622.0		10334.0		288.0
5239.0		5357.0		5239.0		118.0
5492.0		5770.0		5492.0		278.0
0.60<|#eta|<0.80
101173.0		124486.0		101173.0		23313.0
216756.0		255996.0		216756.0		39240.0
351595.0		409638.0		351595.0		58043.0
440090.0		505608.0		440090.0		65518.0
308123.0		337397.0		308123.0		29274.0
173033.0		187491.0		173033.0		14458.0
75729.0		79655.0		75729.0		3926.0
16020.0		16589.0		16020.0		569.0
7336.0		7493.0		7336.0		157.0
3060.0		3177.0		3060.0		117.0
1662.0		1696.0		1662.0		34.0
1748.0		1805.0		1748.0		57.0
0.80<|#eta|<1.15
178609.0		216726.0		178609.0		38117.0
330149.0		397139.0		330149.0		66990.0
565747.0		658748.0		565747.0		93001.0
736791.0		835279.0		736791.0		98488.0
477457.0		531503.0		477457.0		54046.0
271918.0		296729.0		271918.0		24811.0
116141.0		124301.0		116141.0		8160.0
25364.0		26414.0		25364.0		1050.0
11889.0		12159.0		11889.0		270.0
5289.0		5385.0		5289.0		96.0
2560.0		2605.0		2560.0		45.0
2882.0		2950.0		2882.0		68.0
1.15<|#eta|<1.37
95750.0		125895.0		95750.0		30145.0
170145.0		215988.0		170145.0		45843.0
293932.0		353321.0		293932.0		59389.0
398141.0		470819.0		398141.0		72678.0
262527.0		297354.0		262527.0		34827.0
150819.0		167375.0		150819.0		16556.0
64471.0		68548.0		64471.0		4077.0
13681.0		14362.0		13681.0		681.0
6605.0		6789.0		6605.0		184.0
2970.0		3039.0		2970.0		69.0
1580.0		1615.0		1580.0		35.0
1607.0		1665.0		1607.0		58.0
1.52<|#eta|<1.81
117808.0		143951.0		117808.0		26143.0
197340.0		239433.0		197340.0		42093.0
308533.0		364819.0		308533.0		56286.0
395590.0		464536.0		395590.0		68946.0
289743.0		320284.0		289743.0		30541.0
167535.0		183135.0		167535.0		15600.0
67065.0		72997.0		67065.0		5932.0
13926.0		14878.0		13926.0		952.0
6603.0		6830.0		6603.0		227.0
3021.0		3108.0		3021.0		87.0
1470.0		1525.0		1470.0		55.0
1582.0		1642.0		1582.0		60.0
1.81<|#eta|<2.01
89130.0		96191.0		89130.0		7061.0
140113.0		154677.0		140113.0		14564.0
203383.0		221049.0		203383.0		17666.0
253993.0		279129.0		253993.0		25136.0
178143.0		189350.0		178143.0		11207.0
99058.0		105134.0		99058.0		6076.0
39299.0		41669.0		39299.0		2370.0
7806.0		8300.0		7806.0		494.0
3602.0		3708.0		3602.0		106.0
1471.0		1516.0		1471.0		45.0
695.0		723.0		695.0		28.0
758.0		797.0		758.0		39.0
2.01<|#eta|<2.37
155794.0		171938.0		155794.0		16144.0
243399.0		266840.0		243399.0		23441.0
323551.0		352631.0		323551.0		29080.0
378249.0		412847.0		378249.0		34598.0
251568.0		272757.0		251568.0		21189.0
136271.0		149605.0		136271.0		13334.0
53557.0		57403.0		53557.0		3846.0
10178.0		10987.0		10178.0		809.0
4744.0		4956.0		4744.0		212.0
1900.0		1956.0		1900.0		56.0
911.0		967.0		911.0		56.0
920.0		974.0		920.0		54.0
