0.00<|#eta|<0.60
339263.0		413109.0		339263.0		73846.0
649777.0		766305.0		649777.0		116528.0
1046060.0		1205480.0		1046060.0		159408.0
1393770.0		1582460.0		1393770.0		188678.0
950990.0		1055180.0		950990.0		104182.0
549028.0		592638.0		549028.0		43610.0
240020.0		254812.0		240020.0		14792.0
51020.0		52638.0		51020.0		1618.0
23587.0		24393.0		23587.0		806.0
10378.0		10622.0		10378.0		244.0
5215.0		5357.0		5215.0		142.0
5483.0		5770.0		5483.0		287.0
0.60<|#eta|<0.80
99640.0		124486.0		99640.0		24846.0
214362.0		255996.0		214362.0		41634.0
357471.0		409638.0		357471.0		52167.0
441585.0		505608.0		441585.0		64023.0
306975.0		337397.0		306975.0		30422.0
172718.0		187491.0		172718.0		14773.0
75816.0		79655.0		75816.0		3839.0
15940.0		16589.0		15940.0		649.0
7350.0		7493.0		7350.0		143.0
3070.0		3177.0		3070.0		107.0
1665.0		1696.0		1665.0		31.0
1732.0		1805.0		1732.0		73.0
0.80<|#eta|<1.15
178663.0		216726.0		178663.0		38063.0
330744.0		397139.0		330744.0		66395.0
563423.0		658748.0		563423.0		95325.0
743711.0		835279.0		743711.0		91568.0
481359.0		531503.0		481359.0		50144.0
272009.0		296729.0		272009.0		24720.0
117021.0		124301.0		117021.0		7280.0
25298.0		26414.0		25298.0		1116.0
11949.0		12159.0		11949.0		210.0
5266.0		5385.0		5266.0		119.0
2551.0		2605.0		2551.0		54.0
2892.0		2950.0		2892.0		58.0
1.15<|#eta|<1.37
95692.0		125895.0		95692.0		30203.0
168990.0		215988.0		168990.0		46998.0
297166.0		353321.0		297166.0		56155.0
395138.0		470819.0		395138.0		75681.0
261478.0		297354.0		261478.0		35876.0
151107.0		167375.0		151107.0		16268.0
64246.0		68548.0		64246.0		4302.0
13589.0		14362.0		13589.0		773.0
6572.0		6789.0		6572.0		217.0
2959.0		3039.0		2959.0		80.0
1580.0		1615.0		1580.0		35.0
1590.0		1665.0		1590.0		75.0
1.52<|#eta|<1.81
118861.0		143951.0		118861.0		25090.0
195836.0		239433.0		195836.0		43597.0
307689.0		364819.0		307689.0		57130.0
392605.0		464536.0		392605.0		71931.0
290315.0		320284.0		290315.0		29969.0
168732.0		183135.0		168732.0		14403.0
67445.0		72997.0		67445.0		5552.0
13850.0		14878.0		13850.0		1028.0
6601.0		6830.0		6601.0		229.0
3015.0		3108.0		3015.0		93.0
1468.0		1525.0		1468.0		57.0
1592.0		1642.0		1592.0		50.0
1.81<|#eta|<2.01
89130.0		96191.0		89130.0		7061.0
138805.0		154677.0		138805.0		15872.0
203988.0		221049.0		203988.0		17061.0
253626.0		279129.0		253626.0		25503.0
178119.0		189350.0		178119.0		11231.0
99367.0		105134.0		99367.0		5767.0
39303.0		41669.0		39303.0		2366.0
7752.0		8300.0		7752.0		548.0
3558.0		3708.0		3558.0		150.0
1465.0		1516.0		1465.0		51.0
684.0		723.0		684.0		39.0
755.0		797.0		755.0		42.0
2.01<|#eta|<2.37
156295.0		171938.0		156295.0		15643.0
244385.0		266840.0		244385.0		22455.0
325203.0		352631.0		325203.0		27428.0
378384.0		412847.0		378384.0		34463.0
250972.0		272757.0		250972.0		21785.0
136041.0		149605.0		136041.0		13564.0
53275.0		57403.0		53275.0		4128.0
10167.0		10987.0		10167.0		820.0
4721.0		4956.0		4721.0		235.0
1904.0		1956.0		1904.0		52.0
911.0		967.0		911.0		56.0
937.0		974.0		937.0		37.0
