0.00<|#eta|<0.60
333123.0		413109.0		333123.0		79986.0
647197.0		766305.0		647197.0		119108.0
1049130.0		1205480.0		1049130.0		156360.0
1391080.0		1582460.0		1391080.0		191380.0
951150.0		1055180.0		951150.0		104035.0
547914.0		592638.0		547914.0		44724.0
240724.0		254812.0		240724.0		14088.0
51006.0		52638.0		51006.0		1632.0
23633.0		24393.0		23633.0		760.0
10355.0		10622.0		10355.0		267.0
5210.0		5357.0		5210.0		147.0
5519.0		5770.0		5519.0		251.0
0.60<|#eta|<0.80
99462.0		124486.0		99462.0		25024.0
214098.0		255996.0		214098.0		41898.0
352553.0		409638.0		352553.0		57085.0
442353.0		505608.0		442353.0		63255.0
308587.0		337397.0		308587.0		28810.0
171323.0		187491.0		171323.0		16168.0
75742.0		79655.0		75742.0		3913.0
15870.0		16589.0		15870.0		719.0
7325.0		7493.0		7325.0		168.0
3106.0		3177.0		3106.0		71.0
1662.0		1696.0		1662.0		34.0
1740.0		1805.0		1740.0		65.0
0.80<|#eta|<1.15
177352.0		216726.0		177352.0		39374.0
328079.0		397139.0		328079.0		69060.0
571183.0		658748.0		571183.0		87565.0
736799.0		835279.0		736799.0		98480.0
476449.0		531503.0		476449.0		55054.0
271395.0		296729.0		271395.0		25334.0
116388.0		124301.0		116388.0		7913.0
25341.0		26414.0		25341.0		1073.0
11981.0		12159.0		11981.0		178.0
5324.0		5385.0		5324.0		61.0
2551.0		2605.0		2551.0		54.0
2875.0		2950.0		2875.0		75.0
1.15<|#eta|<1.37
96379.0		125895.0		96379.0		29516.0
169403.0		215988.0		169403.0		46585.0
297457.0		353321.0		297457.0		55864.0
397053.0		470819.0		397053.0		73766.0
262948.0		297354.0		262948.0		34406.0
151371.0		167375.0		151371.0		16004.0
64606.0		68548.0		64606.0		3942.0
13708.0		14362.0		13708.0		654.0
6596.0		6789.0		6596.0		193.0
2945.0		3039.0		2945.0		94.0
1576.0		1615.0		1576.0		39.0
1578.0		1665.0		1578.0		87.0
1.52<|#eta|<1.81
120261.0		143951.0		120261.0		23690.0
197837.0		239433.0		197837.0		41596.0
306689.0		364819.0		306689.0		58130.0
395929.0		464536.0		395929.0		68607.0
287753.0		320284.0		287753.0		32531.0
168330.0		183135.0		168330.0		14805.0
67361.0		72997.0		67361.0		5636.0
13868.0		14878.0		13868.0		1010.0
6632.0		6830.0		6632.0		198.0
3043.0		3108.0		3043.0		65.0
1479.0		1525.0		1479.0		46.0
1596.0		1642.0		1596.0		46.0
1.81<|#eta|<2.01
89416.0		96191.0		89416.0		6775.0
139702.0		154677.0		139702.0		14975.0
201017.0		221049.0		201017.0		20032.0
254426.0		279129.0		254426.0		24703.0
177610.0		189350.0		177610.0		11740.0
99219.0		105134.0		99219.0		5915.0
39334.0		41669.0		39334.0		2335.0
7895.0		8300.0		7895.0		405.0
3591.0		3708.0		3591.0		117.0
1474.0		1516.0		1474.0		42.0
694.0		723.0		694.0		29.0
742.0		797.0		742.0		55.0
2.01<|#eta|<2.37
156524.0		171938.0		156524.0		15414.0
243048.0		266840.0		243048.0		23792.0
323931.0		352631.0		323931.0		28700.0
378015.0		412847.0		378015.0		34832.0
251077.0		272757.0		251077.0		21680.0
136305.0		149605.0		136305.0		13300.0
53235.0		57403.0		53235.0		4168.0
10184.0		10987.0		10184.0		803.0
4736.0		4956.0		4736.0		220.0
1896.0		1956.0		1896.0		60.0
897.0		967.0		897.0		70.0
930.0		974.0		930.0		44.0
