0.00<|#eta|<0.60
340547.0		413109.0		340547.0		72562.0
647982.0		766305.0		647982.0		118323.0
1059120.0		1205480.0		1059120.0		146362.0
1395420.0		1582460.0		1395420.0		187023.0
953470.0		1055180.0		953470.0		101719.0
546807.0		592638.0		546807.0		45831.0
240496.0		254812.0		240496.0		14316.0
51059.0		52638.0		51059.0		1579.0
23637.0		24393.0		23637.0		756.0
10349.0		10622.0		10349.0		273.0
5224.0		5357.0		5224.0		133.0
5467.0		5770.0		5467.0		303.0
0.60<|#eta|<0.80
99312.0		124486.0		99312.0		25174.0
210489.0		255996.0		210489.0		45507.0
357096.0		409638.0		357096.0		52542.0
439505.0		505608.0		439505.0		66103.0
309242.0		337397.0		309242.0		28155.0
172599.0		187491.0		172599.0		14892.0
75660.0		79655.0		75660.0		3995.0
15909.0		16589.0		15909.0		680.0
7356.0		7493.0		7356.0		137.0
3077.0		3177.0		3077.0		100.0
1661.0		1696.0		1661.0		35.0
1741.0		1805.0		1741.0		64.0
0.80<|#eta|<1.15
177774.0		216726.0		177774.0		38952.0
332226.0		397139.0		332226.0		64913.0
570878.0		658748.0		570878.0		87870.0
740200.0		835279.0		740200.0		95079.0
477356.0		531503.0		477356.0		54147.0
271076.0		296729.0		271076.0		25653.0
116670.0		124301.0		116670.0		7631.0
25284.0		26414.0		25284.0		1130.0
11928.0		12159.0		11928.0		231.0
5307.0		5385.0		5307.0		78.0
2557.0		2605.0		2557.0		48.0
2885.0		2950.0		2885.0		65.0
1.15<|#eta|<1.37
98511.0		125895.0		98511.0		27384.0
167022.0		215988.0		167022.0		48966.0
296204.0		353321.0		296204.0		57117.0
397036.0		470819.0		397036.0		73783.0
260821.0		297354.0		260821.0		36533.0
151505.0		167375.0		151505.0		15870.0
64237.0		68548.0		64237.0		4311.0
13689.0		14362.0		13689.0		673.0
6585.0		6789.0		6585.0		204.0
2956.0		3039.0		2956.0		83.0
1568.0		1615.0		1568.0		47.0
1584.0		1665.0		1584.0		81.0
1.52<|#eta|<1.81
118650.0		143951.0		118650.0		25301.0
195832.0		239433.0		195832.0		43601.0
307160.0		364819.0		307160.0		57659.0
396299.0		464536.0		396299.0		68237.0
289015.0		320284.0		289015.0		31269.0
167871.0		183135.0		167871.0		15264.0
67123.0		72997.0		67123.0		5874.0
13918.0		14878.0		13918.0		960.0
6610.0		6830.0		6610.0		220.0
3016.0		3108.0		3016.0		92.0
1486.0		1525.0		1486.0		39.0
1583.0		1642.0		1583.0		59.0
1.81<|#eta|<2.01
88864.0		96191.0		88864.0		7327.0
137642.0		154677.0		137642.0		17035.0
203298.0		221049.0		203298.0		17751.0
253289.0		279129.0		253289.0		25840.0
177837.0		189350.0		177837.0		11513.0
99070.0		105134.0		99070.0		6064.0
39345.0		41669.0		39345.0		2324.0
7859.0		8300.0		7859.0		441.0
3545.0		3708.0		3545.0		163.0
1479.0		1516.0		1479.0		37.0
699.0		723.0		699.0		24.0
760.0		797.0		760.0		37.0
2.01<|#eta|<2.37
155878.0		171938.0		155878.0		16060.0
244622.0		266840.0		244622.0		22218.0
325358.0		352631.0		325358.0		27273.0
378796.0		412847.0		378796.0		34051.0
251844.0		272757.0		251844.0		20913.0
136135.0		149605.0		136135.0		13470.0
53242.0		57403.0		53242.0		4161.0
10217.0		10987.0		10217.0		770.0
4742.0		4956.0		4742.0		214.0
1912.0		1956.0		1912.0		44.0
910.0		967.0		910.0		57.0
925.0		974.0		925.0		49.0
