0.00<|#eta|<0.60
337616.0		413109.0		337616.0		75493.0
637512.0		766305.0		637512.0		128793.0
1052780.0		1205480.0		1052780.0		152702.0
1395820.0		1582460.0		1395820.0		186640.0
954700.0		1055180.0		954700.0		100481.0
548313.0		592638.0		548313.0		44325.0
240983.0		254812.0		240983.0		13829.0
51081.0		52638.0		51081.0		1557.0
23569.0		24393.0		23569.0		824.0
10346.0		10622.0		10346.0		276.0
5188.0		5357.0		5188.0		169.0
5541.0		5770.0		5541.0		229.0
0.60<|#eta|<0.80
101324.0		124486.0		101324.0		23162.0
220025.0		255996.0		220025.0		35971.0
354522.0		409638.0		354522.0		55116.0
441003.0		505608.0		441003.0		64605.0
310116.0		337397.0		310116.0		27281.0
172029.0		187491.0		172029.0		15462.0
76011.0		79655.0		76011.0		3644.0
15946.0		16589.0		15946.0		643.0
7368.0		7493.0		7368.0		125.0
3047.0		3177.0		3047.0		130.0
1646.0		1696.0		1646.0		50.0
1739.0		1805.0		1739.0		66.0
0.80<|#eta|<1.15
179328.0		216726.0		179328.0		37398.0
325719.0		397139.0		325719.0		71420.0
560049.0		658748.0		560049.0		98699.0
735331.0		835279.0		735331.0		99948.0
477828.0		531503.0		477828.0		53675.0
272813.0		296729.0		272813.0		23916.0
116691.0		124301.0		116691.0		7610.0
25488.0		26414.0		25488.0		926.0
11890.0		12159.0		11890.0		269.0
5294.0		5385.0		5294.0		91.0
2563.0		2605.0		2563.0		42.0
2885.0		2950.0		2885.0		65.0
1.15<|#eta|<1.37
97603.0		125895.0		97603.0		28292.0
169403.0		215988.0		169403.0		46585.0
295057.0		353321.0		295057.0		58264.0
393747.0		470819.0		393747.0		77072.0
261738.0		297354.0		261738.0		35616.0
151150.0		167375.0		151150.0		16225.0
64601.0		68548.0		64601.0		3947.0
13649.0		14362.0		13649.0		713.0
6606.0		6789.0		6606.0		183.0
2964.0		3039.0		2964.0		75.0
1569.0		1615.0		1569.0		46.0
1597.0		1665.0		1597.0		68.0
1.52<|#eta|<1.81
119619.0		143951.0		119619.0		24332.0
196717.0		239433.0		196717.0		42716.0
307380.0		364819.0		307380.0		57439.0
396648.0		464536.0		396648.0		67888.0
288318.0		320284.0		288318.0		31966.0
168237.0		183135.0		168237.0		14898.0
67248.0		72997.0		67248.0		5749.0
13946.0		14878.0		13946.0		932.0
6571.0		6830.0		6571.0		259.0
3031.0		3108.0		3031.0		77.0
1480.0		1525.0		1480.0		45.0
1595.0		1642.0		1595.0		47.0
1.81<|#eta|<2.01
89029.0		96191.0		89029.0		7162.0
138586.0		154677.0		138586.0		16091.0
202914.0		221049.0		202914.0		18135.0
254022.0		279129.0		254022.0		25107.0
177544.0		189350.0		177544.0		11806.0
98802.0		105134.0		98802.0		6332.0
39275.0		41669.0		39275.0		2394.0
7839.0		8300.0		7839.0		461.0
3529.0		3708.0		3529.0		179.0
1475.0		1516.0		1475.0		41.0
698.0		723.0		698.0		25.0
769.0		797.0		769.0		28.0
2.01<|#eta|<2.37
155948.0		171938.0		155948.0		15990.0
244255.0		266840.0		244255.0		22585.0
324126.0		352631.0		324126.0		28505.0
378483.0		412847.0		378483.0		34364.0
251180.0		272757.0		251180.0		21577.0
136000.0		149605.0		136000.0		13605.0
53253.0		57403.0		53253.0		4150.0
10158.0		10987.0		10158.0		829.0
4717.0		4956.0		4717.0		239.0
1922.0		1956.0		1922.0		34.0
924.0		967.0		924.0		43.0
918.0		974.0		918.0		56.0
