0.00<|#eta|<0.60
341350.0		413109.0		341350.0		71759.0
648646.0		766305.0		648646.0		117659.0
1050710.0		1205480.0		1050710.0		154770.0
1393200.0		1582460.0		1393200.0		189248.0
955660.0		1055180.0		955660.0		99514.0
544098.0		592638.0		544098.0		48540.0
241154.0		254812.0		241154.0		13658.0
51073.0		52638.0		51073.0		1565.0
23663.0		24393.0		23663.0		730.0
10365.0		10622.0		10365.0		257.0
5227.0		5357.0		5227.0		130.0
5458.0		5770.0		5458.0		312.0
0.60<|#eta|<0.80
101080.0		124486.0		101080.0		23406.0
216940.0		255996.0		216940.0		39056.0
353751.0		409638.0		353751.0		55887.0
439363.0		505608.0		439363.0		66245.0
310049.0		337397.0		310049.0		27348.0
172422.0		187491.0		172422.0		15069.0
76012.0		79655.0		76012.0		3643.0
15998.0		16589.0		15998.0		591.0
7345.0		7493.0		7345.0		148.0
3068.0		3177.0		3068.0		109.0
1673.0		1696.0		1673.0		23.0
1731.0		1805.0		1731.0		74.0
0.80<|#eta|<1.15
179308.0		216726.0		179308.0		37418.0
330574.0		397139.0		330574.0		66565.0
563010.0		658748.0		563010.0		95738.0
738367.0		835279.0		738367.0		96912.0
479809.0		531503.0		479809.0		51694.0
272968.0		296729.0		272968.0		23761.0
116091.0		124301.0		116091.0		8210.0
25209.0		26414.0		25209.0		1205.0
11888.0		12159.0		11888.0		271.0
5339.0		5385.0		5339.0		46.0
2574.0		2605.0		2574.0		31.0
2885.0		2950.0		2885.0		65.0
1.15<|#eta|<1.37
94959.0		125895.0		94959.0		30936.0
173097.0		215988.0		173097.0		42891.0
298178.0		353321.0		298178.0		55143.0
397669.0		470819.0		397669.0		73150.0
264611.0		297354.0		264611.0		32743.0
151258.0		167375.0		151258.0		16117.0
64171.0		68548.0		64171.0		4377.0
13737.0		14362.0		13737.0		625.0
6615.0		6789.0		6615.0		174.0
2946.0		3039.0		2946.0		93.0
1569.0		1615.0		1569.0		46.0
1568.0		1665.0		1568.0		97.0
1.52<|#eta|<1.81
119025.0		143951.0		119025.0		24926.0
196148.0		239433.0		196148.0		43285.0
303498.0		364819.0		303498.0		61321.0
392339.0		464536.0		392339.0		72197.0
286669.0		320284.0		286669.0		33615.0
168262.0		183135.0		168262.0		14873.0
67448.0		72997.0		67448.0		5549.0
13951.0		14878.0		13951.0		927.0
6590.0		6830.0		6590.0		240.0
3017.0		3108.0		3017.0		91.0
1486.0		1525.0		1486.0		39.0
1588.0		1642.0		1588.0		54.0
1.81<|#eta|<2.01
89076.0		96191.0		89076.0		7115.0
140127.0		154677.0		140127.0		14550.0
201855.0		221049.0		201855.0		19194.0
252554.0		279129.0		252554.0		26575.0
177160.0		189350.0		177160.0		12190.0
98995.0		105134.0		98995.0		6139.0
39201.0		41669.0		39201.0		2468.0
7789.0		8300.0		7789.0		511.0
3559.0		3708.0		3559.0		149.0
1473.0		1516.0		1473.0		43.0
699.0		723.0		699.0		24.0
765.0		797.0		765.0		32.0
2.01<|#eta|<2.37
156127.0		171938.0		156127.0		15811.0
245639.0		266840.0		245639.0		21201.0
323240.0		352631.0		323240.0		29391.0
377353.0		412847.0		377353.0		35494.0
252360.0		272757.0		252360.0		20397.0
136019.0		149605.0		136019.0		13586.0
53485.0		57403.0		53485.0		3918.0
10194.0		10987.0		10194.0		793.0
4702.0		4956.0		4702.0		254.0
1907.0		1956.0		1907.0		49.0
907.0		967.0		907.0		60.0
931.0		974.0		931.0		43.0
