0.00<|#eta|<0.60
341199.0		413109.0		341199.0		71910.0
651473.0		766305.0		651473.0		114832.0
1049700.0		1205480.0		1049700.0		155782.0
1384900.0		1582460.0		1384900.0		197563.0
954710.0		1055180.0		954710.0		100458.0
547581.0		592638.0		547581.0		45057.0
240086.0		254812.0		240086.0		14726.0
51194.0		52638.0		51194.0		1444.0
23531.0		24393.0		23531.0		862.0
10325.0		10622.0		10325.0		297.0
5240.0		5357.0		5240.0		117.0
5524.0		5770.0		5524.0		246.0
0.60<|#eta|<0.80
100658.0		124486.0		100658.0		23828.0
218771.0		255996.0		218771.0		37225.0
353152.0		409638.0		353152.0		56486.0
442669.0		505608.0		442669.0		62939.0
304273.0		337397.0		304273.0		33124.0
171832.0		187491.0		171832.0		15659.0
76300.0		79655.0		76300.0		3355.0
15925.0		16589.0		15925.0		664.0
7394.0		7493.0		7394.0		99.0
3050.0		3177.0		3050.0		127.0
1665.0		1696.0		1665.0		31.0
1738.0		1805.0		1738.0		67.0
0.80<|#eta|<1.15
176453.0		216726.0		176453.0		40273.0
329416.0		397139.0		329416.0		67723.0
569132.0		658748.0		569132.0		89616.0
733636.0		835279.0		733636.0		101643.0
482126.0		531503.0		482126.0		49377.0
272243.0		296729.0		272243.0		24486.0
116962.0		124301.0		116962.0		7339.0
25358.0		26414.0		25358.0		1056.0
11914.0		12159.0		11914.0		245.0
5301.0		5385.0		5301.0		84.0
2569.0		2605.0		2569.0		36.0
2854.0		2950.0		2854.0		96.0
1.15<|#eta|<1.37
97286.0		125895.0		97286.0		28609.0
170867.0		215988.0		170867.0		45121.0
295049.0		353321.0		295049.0		58272.0
399400.0		470819.0		399400.0		71419.0
261339.0		297354.0		261339.0		36015.0
150493.0		167375.0		150493.0		16882.0
64514.0		68548.0		64514.0		4034.0
13642.0		14362.0		13642.0		720.0
6633.0		6789.0		6633.0		156.0
2982.0		3039.0		2982.0		57.0
1578.0		1615.0		1578.0		37.0
1609.0		1665.0		1609.0		56.0
1.52<|#eta|<1.81
118832.0		143951.0		118832.0		25119.0
196186.0		239433.0		196186.0		43247.0
309196.0		364819.0		309196.0		55623.0
397089.0		464536.0		397089.0		67447.0
289216.0		320284.0		289216.0		31068.0
168312.0		183135.0		168312.0		14823.0
67400.0		72997.0		67400.0		5597.0
13910.0		14878.0		13910.0		968.0
6596.0		6830.0		6596.0		234.0
3012.0		3108.0		3012.0		96.0
1467.0		1525.0		1467.0		58.0
1591.0		1642.0		1591.0		51.0
1.81<|#eta|<2.01
88569.0		96191.0		88569.0		7622.0
140142.0		154677.0		140142.0		14535.0
203598.0		221049.0		203598.0		17451.0
252696.0		279129.0		252696.0		26433.0
177280.0		189350.0		177280.0		12070.0
99106.0		105134.0		99106.0		6028.0
39303.0		41669.0		39303.0		2366.0
7827.0		8300.0		7827.0		473.0
3566.0		3708.0		3566.0		142.0
1479.0		1516.0		1479.0		37.0
701.0		723.0		701.0		22.0
769.0		797.0		769.0		28.0
2.01<|#eta|<2.37
155988.0		171938.0		155988.0		15950.0
244679.0		266840.0		244679.0		22161.0
323324.0		352631.0		323324.0		29307.0
377748.0		412847.0		377748.0		35099.0
252021.0		272757.0		252021.0		20736.0
135839.0		149605.0		135839.0		13766.0
53262.0		57403.0		53262.0		4141.0
10136.0		10987.0		10136.0		851.0
4728.0		4956.0		4728.0		228.0
1913.0		1956.0		1913.0		43.0
907.0		967.0		907.0		60.0
943.0		974.0		943.0		31.0
