0.00<|#eta|<0.60
338667.0		413109.0		338667.0		74442.0
650646.0		766305.0		650646.0		115659.0
1055840.0		1205480.0		1055840.0		149645.0
1400960.0		1582460.0		1400960.0		181500.0
953850.0		1055180.0		953850.0		101331.0
549319.0		592638.0		549319.0		43319.0
240352.0		254812.0		240352.0		14460.0
51153.0		52638.0		51153.0		1485.0
23666.0		24393.0		23666.0		727.0
10347.0		10622.0		10347.0		275.0
5227.0		5357.0		5227.0		130.0
5502.0		5770.0		5502.0		268.0
0.60<|#eta|<0.80
100083.0		124486.0		100083.0		24403.0
216328.0		255996.0		216328.0		39668.0
350969.0		409638.0		350969.0		58669.0
441784.0		505608.0		441784.0		63824.0
310277.0		337397.0		310277.0		27120.0
171111.0		187491.0		171111.0		16380.0
75945.0		79655.0		75945.0		3710.0
16044.0		16589.0		16044.0		545.0
7383.0		7493.0		7383.0		110.0
3063.0		3177.0		3063.0		114.0
1666.0		1696.0		1666.0		30.0
1744.0		1805.0		1744.0		61.0
0.80<|#eta|<1.15
177582.0		216726.0		177582.0		39144.0
328939.0		397139.0		328939.0		68200.0
561532.0		658748.0		561532.0		97216.0
740281.0		835279.0		740281.0		94998.0
480625.0		531503.0		480625.0		50878.0
272099.0		296729.0		272099.0		24630.0
116598.0		124301.0		116598.0		7703.0
25345.0		26414.0		25345.0		1069.0
11928.0		12159.0		11928.0		231.0
5308.0		5385.0		5308.0		77.0
2547.0		2605.0		2547.0		58.0
2873.0		2950.0		2873.0		77.0
1.15<|#eta|<1.37
95300.0		125895.0		95300.0		30595.0
169274.0		215988.0		169274.0		46714.0
296475.0		353321.0		296475.0		56846.0
396615.0		470819.0		396615.0		74204.0
263172.0		297354.0		263172.0		34182.0
150715.0		167375.0		150715.0		16660.0
64601.0		68548.0		64601.0		3947.0
13770.0		14362.0		13770.0		592.0
6588.0		6789.0		6588.0		201.0
2955.0		3039.0		2955.0		84.0
1567.0		1615.0		1567.0		48.0
1579.0		1665.0		1579.0		86.0
1.52<|#eta|<1.81
118878.0		143951.0		118878.0		25073.0
198235.0		239433.0		198235.0		41198.0
305959.0		364819.0		305959.0		58860.0
397147.0		464536.0		397147.0		67389.0
288915.0		320284.0		288915.0		31369.0
168502.0		183135.0		168502.0		14633.0
67556.0		72997.0		67556.0		5441.0
13961.0		14878.0		13961.0		917.0
6586.0		6830.0		6586.0		244.0
3012.0		3108.0		3012.0		96.0
1473.0		1525.0		1473.0		52.0
1588.0		1642.0		1588.0		54.0
1.81<|#eta|<2.01
88504.0		96191.0		88504.0		7687.0
139273.0		154677.0		139273.0		15404.0
203870.0		221049.0		203870.0		17179.0
253320.0		279129.0		253320.0		25809.0
177696.0		189350.0		177696.0		11654.0
98615.0		105134.0		98615.0		6519.0
39221.0		41669.0		39221.0		2448.0
7787.0		8300.0		7787.0		513.0
3590.0		3708.0		3590.0		118.0
1455.0		1516.0		1455.0		61.0
698.0		723.0		698.0		25.0
755.0		797.0		755.0		42.0
2.01<|#eta|<2.37
155552.0		171938.0		155552.0		16386.0
241545.0		266840.0		241545.0		25295.0
323788.0		352631.0		323788.0		28843.0
378725.0		412847.0		378725.0		34122.0
252009.0		272757.0		252009.0		20748.0
136188.0		149605.0		136188.0		13417.0
53182.0		57403.0		53182.0		4221.0
10126.0		10987.0		10126.0		861.0
4718.0		4956.0		4718.0		238.0
1909.0		1956.0		1909.0		47.0
901.0		967.0		901.0		66.0
939.0		974.0		939.0		35.0
