0.00<|#eta|<0.60
337512.0		413109.0		337512.0		75597.0
652566.0		766305.0		652566.0		113739.0
1053180.0		1205480.0		1053180.0		152302.0
1399360.0		1582460.0		1399360.0		183091.0
950010.0		1055180.0		950010.0		105165.0
549069.0		592638.0		549069.0		43569.0
240298.0		254812.0		240298.0		14514.0
50985.0		52638.0		50985.0		1653.0
23694.0		24393.0		23694.0		699.0
10395.0		10622.0		10395.0		227.0
5227.0		5357.0		5227.0		130.0
5521.0		5770.0		5521.0		249.0
0.60<|#eta|<0.80
99206.0		124486.0		99206.0		25280.0
209386.0		255996.0		209386.0		46610.0
356014.0		409638.0		356014.0		53624.0
435820.0		505608.0		435820.0		69788.0
309830.0		337397.0		309830.0		27567.0
171073.0		187491.0		171073.0		16418.0
75246.0		79655.0		75246.0		4409.0
15997.0		16589.0		15997.0		592.0
7376.0		7493.0		7376.0		117.0
3047.0		3177.0		3047.0		130.0
1667.0		1696.0		1667.0		29.0
1741.0		1805.0		1741.0		64.0
0.80<|#eta|<1.15
176334.0		216726.0		176334.0		40392.0
331889.0		397139.0		331889.0		65250.0
565533.0		658748.0		565533.0		93215.0
739613.0		835279.0		739613.0		95666.0
474380.0		531503.0		474380.0		57123.0
271871.0		296729.0		271871.0		24858.0
117276.0		124301.0		117276.0		7025.0
25330.0		26414.0		25330.0		1084.0
11951.0		12159.0		11951.0		208.0
5304.0		5385.0		5304.0		81.0
2557.0		2605.0		2557.0		48.0
2884.0		2950.0		2884.0		66.0
1.15<|#eta|<1.37
96971.0		125895.0		96971.0		28924.0
172449.0		215988.0		172449.0		43539.0
296515.0		353321.0		296515.0		56806.0
395448.0		470819.0		395448.0		75371.0
262583.0		297354.0		262583.0		34771.0
151105.0		167375.0		151105.0		16270.0
64475.0		68548.0		64475.0		4073.0
13660.0		14362.0		13660.0		702.0
6623.0		6789.0		6623.0		166.0
2959.0		3039.0		2959.0		80.0
1579.0		1615.0		1579.0		36.0
1610.0		1665.0		1610.0		55.0
1.52<|#eta|<1.81
119264.0		143951.0		119264.0		24687.0
195505.0		239433.0		195505.0		43928.0
305522.0		364819.0		305522.0		59297.0
392961.0		464536.0		392961.0		71575.0
288587.0		320284.0		288587.0		31697.0
168391.0		183135.0		168391.0		14744.0
67304.0		72997.0		67304.0		5693.0
13901.0		14878.0		13901.0		977.0
6594.0		6830.0		6594.0		236.0
3030.0		3108.0		3030.0		78.0
1484.0		1525.0		1484.0		41.0
1586.0		1642.0		1586.0		56.0
1.81<|#eta|<2.01
88873.0		96191.0		88873.0		7318.0
139213.0		154677.0		139213.0		15464.0
202014.0		221049.0		202014.0		19035.0
253360.0		279129.0		253360.0		25769.0
177678.0		189350.0		177678.0		11672.0
99231.0		105134.0		99231.0		5903.0
39360.0		41669.0		39360.0		2309.0
7781.0		8300.0		7781.0		519.0
3584.0		3708.0		3584.0		124.0
1459.0		1516.0		1459.0		57.0
697.0		723.0		697.0		26.0
760.0		797.0		760.0		37.0
2.01<|#eta|<2.37
156451.0		171938.0		156451.0		15487.0
242511.0		266840.0		242511.0		24329.0
323333.0		352631.0		323333.0		29298.0
378652.0		412847.0		378652.0		34195.0
252353.0		272757.0		252353.0		20404.0
135761.0		149605.0		135761.0		13844.0
53507.0		57403.0		53507.0		3896.0
10194.0		10987.0		10194.0		793.0
4721.0		4956.0		4721.0		235.0
1903.0		1956.0		1903.0		53.0
902.0		967.0		902.0		65.0
923.0		974.0		923.0		51.0
