0.00<|#eta|<0.60
338609.0		413109.0		338609.0		74500.0
647677.0		766305.0		647677.0		118628.0
1049890.0		1205480.0		1049890.0		155590.0
1394750.0		1582460.0		1394750.0		187710.0
951610.0		1055180.0		951610.0		103569.0
547023.0		592638.0		547023.0		45615.0
240092.0		254812.0		240092.0		14720.0
50965.0		52638.0		50965.0		1673.0
23673.0		24393.0		23673.0		720.0
10309.0		10622.0		10309.0		313.0
5237.0		5357.0		5237.0		120.0
5474.0		5770.0		5474.0		296.0
0.60<|#eta|<0.80
100162.0		124486.0		100162.0		24324.0
215869.0		255996.0		215869.0		40127.0
357955.0		409638.0		357955.0		51683.0
443556.0		505608.0		443556.0		62052.0
310533.0		337397.0		310533.0		26864.0
172055.0		187491.0		172055.0		15436.0
76086.0		79655.0		76086.0		3569.0
15922.0		16589.0		15922.0		667.0
7348.0		7493.0		7348.0		145.0
3067.0		3177.0		3067.0		110.0
1642.0		1696.0		1642.0		54.0
1742.0		1805.0		1742.0		63.0
0.80<|#eta|<1.15
176239.0		216726.0		176239.0		40487.0
331725.0		397139.0		331725.0		65414.0
571713.0		658748.0		571713.0		87035.0
739146.0		835279.0		739146.0		96133.0
479447.0		531503.0		479447.0		52056.0
272101.0		296729.0		272101.0		24628.0
116866.0		124301.0		116866.0		7435.0
25250.0		26414.0		25250.0		1164.0
11890.0		12159.0		11890.0		269.0
5291.0		5385.0		5291.0		94.0
2559.0		2605.0		2559.0		46.0
2875.0		2950.0		2875.0		75.0
1.15<|#eta|<1.37
96901.0		125895.0		96901.0		28994.0
168791.0		215988.0		168791.0		47197.0
295132.0		353321.0		295132.0		58189.0
396568.0		470819.0		396568.0		74251.0
261907.0		297354.0		261907.0		35447.0
150555.0		167375.0		150555.0		16820.0
64373.0		68548.0		64373.0		4175.0
13721.0		14362.0		13721.0		641.0
6596.0		6789.0		6596.0		193.0
2963.0		3039.0		2963.0		76.0
1574.0		1615.0		1574.0		41.0
1564.0		1665.0		1564.0		101.0
1.52<|#eta|<1.81
119391.0		143951.0		119391.0		24560.0
196951.0		239433.0		196951.0		42482.0
309262.0		364819.0		309262.0		55557.0
397000.0		464536.0		397000.0		67536.0
289101.0		320284.0		289101.0		31183.0
168415.0		183135.0		168415.0		14720.0
67220.0		72997.0		67220.0		5777.0
13936.0		14878.0		13936.0		942.0
6624.0		6830.0		6624.0		206.0
3061.0		3108.0		3061.0		47.0
1491.0		1525.0		1491.0		34.0
1601.0		1642.0		1601.0		41.0
1.81<|#eta|<2.01
89009.0		96191.0		89009.0		7182.0
139352.0		154677.0		139352.0		15325.0
202307.0		221049.0		202307.0		18742.0
253421.0		279129.0		253421.0		25708.0
177573.0		189350.0		177573.0		11777.0
99299.0		105134.0		99299.0		5835.0
39388.0		41669.0		39388.0		2281.0
7815.0		8300.0		7815.0		485.0
3573.0		3708.0		3573.0		135.0
1470.0		1516.0		1470.0		46.0
694.0		723.0		694.0		29.0
752.0		797.0		752.0		45.0
2.01<|#eta|<2.37
156249.0		171938.0		156249.0		15689.0
245778.0		266840.0		245778.0		21062.0
323597.0		352631.0		323597.0		29034.0
379746.0		412847.0		379746.0		33101.0
251786.0		272757.0		251786.0		20971.0
136077.0		149605.0		136077.0		13528.0
53363.0		57403.0		53363.0		4040.0
10187.0		10987.0		10187.0		800.0
4717.0		4956.0		4717.0		239.0
1911.0		1956.0		1911.0		45.0
906.0		967.0		906.0		61.0
934.0		974.0		934.0		40.0
