0.00<|#eta|<0.60
332632.0		413109.0		332632.0		80477.0
651424.0		766305.0		651424.0		114881.0
1051730.0		1205480.0		1051730.0		153756.0
1398390.0		1582460.0		1398390.0		184069.0
952860.0		1055180.0		952860.0		102302.0
548882.0		592638.0		548882.0		43756.0
241210.0		254812.0		241210.0		13602.0
51130.0		52638.0		51130.0		1508.0
23831.0		24393.0		23831.0		562.0
10373.0		10622.0		10373.0		249.0
5222.0		5357.0		5222.0		135.0
5432.0		5770.0		5432.0		338.0
0.60<|#eta|<0.80
101571.0		124486.0		101571.0		22915.0
208639.0		255996.0		208639.0		47357.0
356868.0		409638.0		356868.0		52770.0
441509.0		505608.0		441509.0		64099.0
310049.0		337397.0		310049.0		27348.0
172081.0		187491.0		172081.0		15410.0
75147.0		79655.0		75147.0		4508.0
15929.0		16589.0		15929.0		660.0
7362.0		7493.0		7362.0		131.0
3067.0		3177.0		3067.0		110.0
1650.0		1696.0		1650.0		46.0
1745.0		1805.0		1745.0		60.0
0.80<|#eta|<1.15
180301.0		216726.0		180301.0		36425.0
330660.0		397139.0		330660.0		66479.0
566958.0		658748.0		566958.0		91790.0
744036.0		835279.0		744036.0		91243.0
479606.0		531503.0		479606.0		51897.0
271973.0		296729.0		271973.0		24756.0
116433.0		124301.0		116433.0		7868.0
25173.0		26414.0		25173.0		1241.0
11987.0		12159.0		11987.0		172.0
5307.0		5385.0		5307.0		78.0
2544.0		2605.0		2544.0		61.0
2888.0		2950.0		2888.0		62.0
1.15<|#eta|<1.37
96779.0		125895.0		96779.0		29116.0
168862.0		215988.0		168862.0		47126.0
293757.0		353321.0		293757.0		59564.0
398103.0		470819.0		398103.0		72716.0
264078.0		297354.0		264078.0		33276.0
150381.0		167375.0		150381.0		16994.0
64431.0		68548.0		64431.0		4117.0
13645.0		14362.0		13645.0		717.0
6629.0		6789.0		6629.0		160.0
2955.0		3039.0		2955.0		84.0
1588.0		1615.0		1588.0		27.0
1609.0		1665.0		1609.0		56.0
1.52<|#eta|<1.81
118701.0		143951.0		118701.0		25250.0
197331.0		239433.0		197331.0		42102.0
308141.0		364819.0		308141.0		56678.0
396545.0		464536.0		396545.0		67991.0
288094.0		320284.0		288094.0		32190.0
168443.0		183135.0		168443.0		14692.0
67090.0		72997.0		67090.0		5907.0
13948.0		14878.0		13948.0		930.0
6606.0		6830.0		6606.0		224.0
3003.0		3108.0		3003.0		105.0
1469.0		1525.0		1469.0		56.0
1581.0		1642.0		1581.0		61.0
1.81<|#eta|<2.01
88908.0		96191.0		88908.0		7283.0
138235.0		154677.0		138235.0		16442.0
202166.0		221049.0		202166.0		18883.0
254327.0		279129.0		254327.0		24802.0
177037.0		189350.0		177037.0		12313.0
98819.0		105134.0		98819.0		6315.0
39319.0		41669.0		39319.0		2350.0
7795.0		8300.0		7795.0		505.0
3579.0		3708.0		3579.0		129.0
1485.0		1516.0		1485.0		31.0
693.0		723.0		693.0		30.0
758.0		797.0		758.0		39.0
2.01<|#eta|<2.37
156997.0		171938.0		156997.0		14941.0
244823.0		266840.0		244823.0		22017.0
323699.0		352631.0		323699.0		28932.0
377807.0		412847.0		377807.0		35040.0
252399.0		272757.0		252399.0		20358.0
135902.0		149605.0		135902.0		13703.0
53221.0		57403.0		53221.0		4182.0
10124.0		10987.0		10124.0		863.0
4732.0		4956.0		4732.0		224.0
1905.0		1956.0		1905.0		51.0
903.0		967.0		903.0		64.0
928.0		974.0		928.0		46.0
