0.00<|#eta|<0.60
338660.0		413109.0		338660.0		74449.0
650826.0		766305.0		650826.0		115479.0
1038780.0		1205480.0		1038780.0		166709.0
1400920.0		1582460.0		1400920.0		181538.0
954020.0		1055180.0		954020.0		101144.0
543603.0		592638.0		543603.0		49035.0
240841.0		254812.0		240841.0		13971.0
50786.0		52638.0		50786.0		1852.0
23775.0		24393.0		23775.0		618.0
10337.0		10622.0		10337.0		285.0
5235.0		5357.0		5235.0		122.0
5432.0		5770.0		5432.0		338.0
0.60<|#eta|<0.80
100971.0		124486.0		100971.0		23515.0
215033.0		255996.0		215033.0		40963.0
356045.0		409638.0		356045.0		53593.0
439217.0		505608.0		439217.0		66391.0
304905.0		337397.0		304905.0		32492.0
172550.0		187491.0		172550.0		14941.0
75623.0		79655.0		75623.0		4032.0
15945.0		16589.0		15945.0		644.0
7311.0		7493.0		7311.0		182.0
3088.0		3177.0		3088.0		89.0
1660.0		1696.0		1660.0		36.0
1745.0		1805.0		1745.0		60.0
0.80<|#eta|<1.15
175553.0		216726.0		175553.0		41173.0
333219.0		397139.0		333219.0		63920.0
567891.0		658748.0		567891.0		90857.0
739191.0		835279.0		739191.0		96088.0
477766.0		531503.0		477766.0		53737.0
272627.0		296729.0		272627.0		24102.0
116276.0		124301.0		116276.0		8025.0
25305.0		26414.0		25305.0		1109.0
11968.0		12159.0		11968.0		191.0
5268.0		5385.0		5268.0		117.0
2553.0		2605.0		2553.0		52.0
2881.0		2950.0		2881.0		69.0
1.15<|#eta|<1.37
97272.0		125895.0		97272.0		28623.0
171960.0		215988.0		171960.0		44028.0
298567.0		353321.0		298567.0		54754.0
401167.0		470819.0		401167.0		69652.0
261278.0		297354.0		261278.0		36076.0
150711.0		167375.0		150711.0		16664.0
64328.0		68548.0		64328.0		4220.0
13701.0		14362.0		13701.0		661.0
6629.0		6789.0		6629.0		160.0
2964.0		3039.0		2964.0		75.0
1574.0		1615.0		1574.0		41.0
1602.0		1665.0		1602.0		63.0
1.52<|#eta|<1.81
119270.0		143951.0		119270.0		24681.0
198118.0		239433.0		198118.0		41315.0
305197.0		364819.0		305197.0		59622.0
393524.0		464536.0		393524.0		71012.0
288964.0		320284.0		288964.0		31320.0
168417.0		183135.0		168417.0		14718.0
67252.0		72997.0		67252.0		5745.0
13886.0		14878.0		13886.0		992.0
6577.0		6830.0		6577.0		253.0
3019.0		3108.0		3019.0		89.0
1474.0		1525.0		1474.0		51.0
1578.0		1642.0		1578.0		64.0
1.81<|#eta|<2.01
89020.0		96191.0		89020.0		7171.0
138153.0		154677.0		138153.0		16524.0
201797.0		221049.0		201797.0		19252.0
252672.0		279129.0		252672.0		26457.0
178013.0		189350.0		178013.0		11337.0
98923.0		105134.0		98923.0		6211.0
39218.0		41669.0		39218.0		2451.0
7795.0		8300.0		7795.0		505.0
3543.0		3708.0		3543.0		165.0
1472.0		1516.0		1472.0		44.0
695.0		723.0		695.0		28.0
755.0		797.0		755.0		42.0
2.01<|#eta|<2.37
156654.0		171938.0		156654.0		15284.0
245365.0		266840.0		245365.0		21475.0
323092.0		352631.0		323092.0		29539.0
377864.0		412847.0		377864.0		34983.0
250833.0		272757.0		250833.0		21924.0
136086.0		149605.0		136086.0		13519.0
53301.0		57403.0		53301.0		4102.0
10170.0		10987.0		10170.0		817.0
4734.0		4956.0		4734.0		222.0
1904.0		1956.0		1904.0		52.0
911.0		967.0		911.0		56.0
942.0		974.0		942.0		32.0
