0.00<|#eta|<0.60
338629.0		413109.0		338629.0		74480.0
642149.0		766305.0		642149.0		124156.0
1055900.0		1205480.0		1055900.0		149576.0
1400610.0		1582460.0		1400610.0		181835.0
948860.0		1055180.0		948860.0		106314.0
545285.0		592638.0		545285.0		47353.0
241516.0		254812.0		241516.0		13296.0
51169.0		52638.0		51169.0		1469.0
23621.0		24393.0		23621.0		772.0
10403.0		10622.0		10403.0		219.0
5232.0		5357.0		5232.0		125.0
5513.0		5770.0		5513.0		257.0
0.60<|#eta|<0.80
99678.0		124486.0		99678.0		24808.0
211871.0		255996.0		211871.0		44125.0
357448.0		409638.0		357448.0		52190.0
441791.0		505608.0		441791.0		63817.0
309132.0		337397.0		309132.0		28265.0
172654.0		187491.0		172654.0		14837.0
75451.0		79655.0		75451.0		4204.0
15967.0		16589.0		15967.0		622.0
7319.0		7493.0		7319.0		174.0
3031.0		3177.0		3031.0		146.0
1667.0		1696.0		1667.0		29.0
1729.0		1805.0		1729.0		76.0
0.80<|#eta|<1.15
181338.0		216726.0		181338.0		35388.0
331818.0		397139.0		331818.0		65321.0
563499.0		658748.0		563499.0		95249.0
740371.0		835279.0		740371.0		94908.0
476539.0		531503.0		476539.0		54964.0
271981.0		296729.0		271981.0		24748.0
116774.0		124301.0		116774.0		7527.0
25281.0		26414.0		25281.0		1133.0
11947.0		12159.0		11947.0		212.0
5306.0		5385.0		5306.0		79.0
2565.0		2605.0		2565.0		40.0
2888.0		2950.0		2888.0		62.0
1.15<|#eta|<1.37
97486.0		125895.0		97486.0		28409.0
170058.0		215988.0		170058.0		45930.0
296668.0		353321.0		296668.0		56653.0
395300.0		470819.0		395300.0		75519.0
263031.0		297354.0		263031.0		34323.0
151584.0		167375.0		151584.0		15791.0
64577.0		68548.0		64577.0		3971.0
13718.0		14362.0		13718.0		644.0
6602.0		6789.0		6602.0		187.0
2971.0		3039.0		2971.0		68.0
1576.0		1615.0		1576.0		39.0
1588.0		1665.0		1588.0		77.0
1.52<|#eta|<1.81
118717.0		143951.0		118717.0		25234.0
197410.0		239433.0		197410.0		42023.0
307226.0		364819.0		307226.0		57593.0
392128.0		464536.0		392128.0		72408.0
287369.0		320284.0		287369.0		32915.0
168691.0		183135.0		168691.0		14444.0
67280.0		72997.0		67280.0		5717.0
13949.0		14878.0		13949.0		929.0
6581.0		6830.0		6581.0		249.0
3029.0		3108.0		3029.0		79.0
1475.0		1525.0		1475.0		50.0
1609.0		1642.0		1609.0		33.0
1.81<|#eta|<2.01
89131.0		96191.0		89131.0		7060.0
140472.0		154677.0		140472.0		14205.0
202589.0		221049.0		202589.0		18460.0
254076.0		279129.0		254076.0		25053.0
177989.0		189350.0		177989.0		11361.0
99137.0		105134.0		99137.0		5997.0
39349.0		41669.0		39349.0		2320.0
7855.0		8300.0		7855.0		445.0
3559.0		3708.0		3559.0		149.0
1495.0		1516.0		1495.0		21.0
692.0		723.0		692.0		31.0
758.0		797.0		758.0		39.0
2.01<|#eta|<2.37
156047.0		171938.0		156047.0		15891.0
241754.0		266840.0		241754.0		25086.0
323886.0		352631.0		323886.0		28745.0
378353.0		412847.0		378353.0		34494.0
252014.0		272757.0		252014.0		20743.0
136031.0		149605.0		136031.0		13574.0
53266.0		57403.0		53266.0		4137.0
10219.0		10987.0		10219.0		768.0
4740.0		4956.0		4740.0		216.0
1894.0		1956.0		1894.0		62.0
905.0		967.0		905.0		62.0
921.0		974.0		921.0		53.0
