0.00<|#eta|<0.60
339868.0		413109.0		339868.0		73241.0
645888.0		766305.0		645888.0		120417.0
1043730.0		1205480.0		1043730.0		161746.0
1391370.0		1582460.0		1391370.0		191074.0
956160.0		1055180.0		956160.0		99012.0
548162.0		592638.0		548162.0		44476.0
240496.0		254812.0		240496.0		14316.0
51014.0		52638.0		51014.0		1624.0
23560.0		24393.0		23560.0		833.0
10382.0		10622.0		10382.0		240.0
5204.0		5357.0		5204.0		153.0
5472.0		5770.0		5472.0		298.0
0.60<|#eta|<0.80
98378.0		124486.0		98378.0		26108.0
214004.0		255996.0		214004.0		41992.0
351158.0		409638.0		351158.0		58480.0
440548.0		505608.0		440548.0		65060.0
310453.0		337397.0		310453.0		26944.0
170684.0		187491.0		170684.0		16807.0
75794.0		79655.0		75794.0		3861.0
15995.0		16589.0		15995.0		594.0
7329.0		7493.0		7329.0		164.0
3089.0		3177.0		3089.0		88.0
1664.0		1696.0		1664.0		32.0
1741.0		1805.0		1741.0		64.0
0.80<|#eta|<1.15
177016.0		216726.0		177016.0		39710.0
333383.0		397139.0		333383.0		63756.0
556938.0		658748.0		556938.0		101810.0
741303.0		835279.0		741303.0		93976.0
475303.0		531503.0		475303.0		56200.0
272006.0		296729.0		272006.0		24723.0
116288.0		124301.0		116288.0		8013.0
25268.0		26414.0		25268.0		1146.0
12007.0		12159.0		12007.0		152.0
5312.0		5385.0		5312.0		73.0
2568.0		2605.0		2568.0		37.0
2877.0		2950.0		2877.0		73.0
1.15<|#eta|<1.37
96221.0		125895.0		96221.0		29674.0
167880.0		215988.0		167880.0		48108.0
295217.0		353321.0		295217.0		58104.0
399327.0		470819.0		399327.0		71492.0
263788.0		297354.0		263788.0		33566.0
150170.0		167375.0		150170.0		17205.0
64286.0		68548.0		64286.0		4262.0
13607.0		14362.0		13607.0		755.0
6596.0		6789.0		6596.0		193.0
2966.0		3039.0		2966.0		73.0
1572.0		1615.0		1572.0		43.0
1598.0		1665.0		1598.0		67.0
1.52<|#eta|<1.81
118934.0		143951.0		118934.0		25017.0
194283.0		239433.0		194283.0		45150.0
303208.0		364819.0		303208.0		61611.0
397224.0		464536.0		397224.0		67312.0
286848.0		320284.0		286848.0		33436.0
168104.0		183135.0		168104.0		15031.0
66957.0		72997.0		66957.0		6040.0
13902.0		14878.0		13902.0		976.0
6628.0		6830.0		6628.0		202.0
3036.0		3108.0		3036.0		72.0
1486.0		1525.0		1486.0		39.0
1584.0		1642.0		1584.0		58.0
1.81<|#eta|<2.01
89598.0		96191.0		89598.0		6593.0
137593.0		154677.0		137593.0		17084.0
201400.0		221049.0		201400.0		19649.0
253542.0		279129.0		253542.0		25587.0
177885.0		189350.0		177885.0		11465.0
99249.0		105134.0		99249.0		5885.0
39228.0		41669.0		39228.0		2441.0
7795.0		8300.0		7795.0		505.0
3539.0		3708.0		3539.0		169.0
1487.0		1516.0		1487.0		29.0
692.0		723.0		692.0		31.0
762.0		797.0		762.0		35.0
2.01<|#eta|<2.37
156160.0		171938.0		156160.0		15778.0
244576.0		266840.0		244576.0		22264.0
322702.0		352631.0		322702.0		29929.0
378391.0		412847.0		378391.0		34456.0
251243.0		272757.0		251243.0		21514.0
136230.0		149605.0		136230.0		13375.0
53226.0		57403.0		53226.0		4177.0
10141.0		10987.0		10141.0		846.0
4716.0		4956.0		4716.0		240.0
1903.0		1956.0		1903.0		53.0
897.0		967.0		897.0		70.0
938.0		974.0		938.0		36.0
