0.00<|#eta|<0.60
336617.0		413109.0		336617.0		76492.0
649964.0		766305.0		649964.0		116341.0
1051630.0		1205480.0		1051630.0		153847.0
1393890.0		1582460.0		1393890.0		188565.0
949540.0		1055180.0		949540.0		105640.0
546740.0		592638.0		546740.0		45898.0
240631.0		254812.0		240631.0		14181.0
51137.0		52638.0		51137.0		1501.0
23677.0		24393.0		23677.0		716.0
10351.0		10622.0		10351.0		271.0
5224.0		5357.0		5224.0		133.0
5454.0		5770.0		5454.0		316.0
0.60<|#eta|<0.80
99853.0		124486.0		99853.0		24633.0
210299.0		255996.0		210299.0		45697.0
352840.0		409638.0		352840.0		56798.0
439849.0		505608.0		439849.0		65759.0
308888.0		337397.0		308888.0		28509.0
172011.0		187491.0		172011.0		15480.0
75718.0		79655.0		75718.0		3937.0
15891.0		16589.0		15891.0		698.0
7377.0		7493.0		7377.0		116.0
3071.0		3177.0		3071.0		106.0
1665.0		1696.0		1665.0		31.0
1738.0		1805.0		1738.0		67.0
0.80<|#eta|<1.15
178051.0		216726.0		178051.0		38675.0
326767.0		397139.0		326767.0		70372.0
568167.0		658748.0		568167.0		90581.0
738770.0		835279.0		738770.0		96509.0
478101.0		531503.0		478101.0		53402.0
272451.0		296729.0		272451.0		24278.0
116826.0		124301.0		116826.0		7475.0
25381.0		26414.0		25381.0		1033.0
11983.0		12159.0		11983.0		176.0
5308.0		5385.0		5308.0		77.0
2571.0		2605.0		2571.0		34.0
2866.0		2950.0		2866.0		84.0
1.15<|#eta|<1.37
96710.0		125895.0		96710.0		29185.0
169487.0		215988.0		169487.0		46501.0
295862.0		353321.0		295862.0		57459.0
396730.0		470819.0		396730.0		74089.0
263592.0		297354.0		263592.0		33762.0
150982.0		167375.0		150982.0		16393.0
64853.0		68548.0		64853.0		3695.0
13731.0		14362.0		13731.0		631.0
6589.0		6789.0		6589.0		200.0
2986.0		3039.0		2986.0		53.0
1581.0		1615.0		1581.0		34.0
1594.0		1665.0		1594.0		71.0
1.52<|#eta|<1.81
118738.0		143951.0		118738.0		25213.0
197023.0		239433.0		197023.0		42410.0
307164.0		364819.0		307164.0		57655.0
395344.0		464536.0		395344.0		69192.0
288151.0		320284.0		288151.0		32133.0
168694.0		183135.0		168694.0		14441.0
67260.0		72997.0		67260.0		5737.0
13896.0		14878.0		13896.0		982.0
6608.0		6830.0		6608.0		222.0
3030.0		3108.0		3030.0		78.0
1477.0		1525.0		1477.0		48.0
1593.0		1642.0		1593.0		49.0
1.81<|#eta|<2.01
88891.0		96191.0		88891.0		7300.0
138086.0		154677.0		138086.0		16591.0
202534.0		221049.0		202534.0		18515.0
254309.0		279129.0		254309.0		24820.0
178048.0		189350.0		178048.0		11302.0
99357.0		105134.0		99357.0		5777.0
39263.0		41669.0		39263.0		2406.0
7792.0		8300.0		7792.0		508.0
3524.0		3708.0		3524.0		184.0
1483.0		1516.0		1483.0		33.0
694.0		723.0		694.0		29.0
750.0		797.0		750.0		47.0
2.01<|#eta|<2.37
155969.0		171938.0		155969.0		15969.0
244617.0		266840.0		244617.0		22223.0
322749.0		352631.0		322749.0		29882.0
377535.0		412847.0		377535.0		35312.0
251344.0		272757.0		251344.0		21413.0
136183.0		149605.0		136183.0		13422.0
53365.0		57403.0		53365.0		4038.0
10164.0		10987.0		10164.0		823.0
4739.0		4956.0		4739.0		217.0
1911.0		1956.0		1911.0		45.0
913.0		967.0		913.0		54.0
938.0		974.0		938.0		36.0
