0.00<|#eta|<0.60
339078.0		413109.0		339078.0		74031.0
640094.0		766305.0		640094.0		126211.0
1047680.0		1205480.0		1047680.0		157796.0
1389200.0		1582460.0		1389200.0		193251.0
952730.0		1055180.0		952730.0		102457.0
547614.0		592638.0		547614.0		45024.0
241160.0		254812.0		241160.0		13652.0
51235.0		52638.0		51235.0		1403.0
23606.0		24393.0		23606.0		787.0
10347.0		10622.0		10347.0		275.0
5217.0		5357.0		5217.0		140.0
5476.0		5770.0		5476.0		294.0
0.60<|#eta|<0.80
99089.0		124486.0		99089.0		25397.0
211132.0		255996.0		211132.0		44864.0
355275.0		409638.0		355275.0		54363.0
440267.0		505608.0		440267.0		65341.0
311698.0		337397.0		311698.0		25699.0
172376.0		187491.0		172376.0		15115.0
75523.0		79655.0		75523.0		4132.0
15969.0		16589.0		15969.0		620.0
7341.0		7493.0		7341.0		152.0
3063.0		3177.0		3063.0		114.0
1643.0		1696.0		1643.0		53.0
1747.0		1805.0		1747.0		58.0
0.80<|#eta|<1.15
176701.0		216726.0		176701.0		40025.0
333280.0		397139.0		333280.0		63859.0
566620.0		658748.0		566620.0		92128.0
736021.0		835279.0		736021.0		99258.0
480922.0		531503.0		480922.0		50581.0
272229.0		296729.0		272229.0		24500.0
116749.0		124301.0		116749.0		7552.0
25297.0		26414.0		25297.0		1117.0
11955.0		12159.0		11955.0		204.0
5300.0		5385.0		5300.0		85.0
2552.0		2605.0		2552.0		53.0
2878.0		2950.0		2878.0		72.0
1.15<|#eta|<1.37
97376.0		125895.0		97376.0		28519.0
169425.0		215988.0		169425.0		46563.0
296673.0		353321.0		296673.0		56648.0
397200.0		470819.0		397200.0		73619.0
261580.0		297354.0		261580.0		35774.0
151354.0		167375.0		151354.0		16021.0
64351.0		68548.0		64351.0		4197.0
13691.0		14362.0		13691.0		671.0
6567.0		6789.0		6567.0		222.0
2950.0		3039.0		2950.0		89.0
1577.0		1615.0		1577.0		38.0
1586.0		1665.0		1586.0		79.0
1.52<|#eta|<1.81
117913.0		143951.0		117913.0		26038.0
198911.0		239433.0		198911.0		40522.0
306824.0		364819.0		306824.0		57995.0
394857.0		464536.0		394857.0		69679.0
286655.0		320284.0		286655.0		33629.0
168158.0		183135.0		168158.0		14977.0
67171.0		72997.0		67171.0		5826.0
13935.0		14878.0		13935.0		943.0
6616.0		6830.0		6616.0		214.0
3020.0		3108.0		3020.0		88.0
1476.0		1525.0		1476.0		49.0
1589.0		1642.0		1589.0		53.0
1.81<|#eta|<2.01
88337.0		96191.0		88337.0		7854.0
139543.0		154677.0		139543.0		15134.0
202796.0		221049.0		202796.0		18253.0
253699.0		279129.0		253699.0		25430.0
177431.0		189350.0		177431.0		11919.0
98919.0		105134.0		98919.0		6215.0
39339.0		41669.0		39339.0		2330.0
7824.0		8300.0		7824.0		476.0
3568.0		3708.0		3568.0		140.0
1469.0		1516.0		1469.0		47.0
701.0		723.0		701.0		22.0
759.0		797.0		759.0		38.0
2.01<|#eta|<2.37
156115.0		171938.0		156115.0		15823.0
243787.0		266840.0		243787.0		23053.0
321957.0		352631.0		321957.0		30674.0
378680.0		412847.0		378680.0		34167.0
251707.0		272757.0		251707.0		21050.0
135659.0		149605.0		135659.0		13946.0
53388.0		57403.0		53388.0		4015.0
10168.0		10987.0		10168.0		819.0
4728.0		4956.0		4728.0		228.0
1913.0		1956.0		1913.0		43.0
912.0		967.0		912.0		55.0
925.0		974.0		925.0		49.0
