0.00<|#eta|<0.60
340396.0		413109.0		340396.0		72713.0
651576.0		766305.0		651576.0		114729.0
1052340.0		1205480.0		1052340.0		153139.0
1398560.0		1582460.0		1398560.0		183902.0
950510.0		1055180.0		950510.0		104668.0
544994.0		592638.0		544994.0		47644.0
241592.0		254812.0		241592.0		13220.0
51076.0		52638.0		51076.0		1562.0
23633.0		24393.0		23633.0		760.0
10381.0		10622.0		10381.0		241.0
5216.0		5357.0		5216.0		141.0
5483.0		5770.0		5483.0		287.0
0.60<|#eta|<0.80
98941.0		124486.0		98941.0		25545.0
214492.0		255996.0		214492.0		41504.0
354475.0		409638.0		354475.0		55163.0
439804.0		505608.0		439804.0		65804.0
310425.0		337397.0		310425.0		26972.0
172571.0		187491.0		172571.0		14920.0
75395.0		79655.0		75395.0		4260.0
15911.0		16589.0		15911.0		678.0
7362.0		7493.0		7362.0		131.0
3042.0		3177.0		3042.0		135.0
1658.0		1696.0		1658.0		38.0
1755.0		1805.0		1755.0		50.0
0.80<|#eta|<1.15
176526.0		216726.0		176526.0		40200.0
333802.0		397139.0		333802.0		63337.0
559958.0		658748.0		559958.0		98790.0
741843.0		835279.0		741843.0		93436.0
478243.0		531503.0		478243.0		53260.0
271224.0		296729.0		271224.0		25505.0
116701.0		124301.0		116701.0		7600.0
25353.0		26414.0		25353.0		1061.0
11997.0		12159.0		11997.0		162.0
5319.0		5385.0		5319.0		66.0
2574.0		2605.0		2574.0		31.0
2876.0		2950.0		2876.0		74.0
1.15<|#eta|<1.37
95318.0		125895.0		95318.0		30577.0
168260.0		215988.0		168260.0		47728.0
294888.0		353321.0		294888.0		58433.0
397604.0		470819.0		397604.0		73215.0
264506.0		297354.0		264506.0		32848.0
151712.0		167375.0		151712.0		15663.0
63999.0		68548.0		63999.0		4549.0
13688.0		14362.0		13688.0		674.0
6629.0		6789.0		6629.0		160.0
2965.0		3039.0		2965.0		74.0
1577.0		1615.0		1577.0		38.0
1603.0		1665.0		1603.0		62.0
1.52<|#eta|<1.81
118798.0		143951.0		118798.0		25153.0
196821.0		239433.0		196821.0		42612.0
307819.0		364819.0		307819.0		57000.0
396156.0		464536.0		396156.0		68380.0
288579.0		320284.0		288579.0		31705.0
168445.0		183135.0		168445.0		14690.0
66979.0		72997.0		66979.0		6018.0
13889.0		14878.0		13889.0		989.0
6574.0		6830.0		6574.0		256.0
3024.0		3108.0		3024.0		84.0
1477.0		1525.0		1477.0		48.0
1584.0		1642.0		1584.0		58.0
1.81<|#eta|<2.01
88635.0		96191.0		88635.0		7556.0
139337.0		154677.0		139337.0		15340.0
202223.0		221049.0		202223.0		18826.0
252746.0		279129.0		252746.0		26383.0
177907.0		189350.0		177907.0		11443.0
98542.0		105134.0		98542.0		6592.0
39338.0		41669.0		39338.0		2331.0
7818.0		8300.0		7818.0		482.0
3561.0		3708.0		3561.0		147.0
1467.0		1516.0		1467.0		49.0
694.0		723.0		694.0		29.0
778.0		797.0		778.0		19.0
2.01<|#eta|<2.37
155893.0		171938.0		155893.0		16045.0
244144.0		266840.0		244144.0		22696.0
322563.0		352631.0		322563.0		30068.0
378969.0		412847.0		378969.0		33878.0
252001.0		272757.0		252001.0		20756.0
135803.0		149605.0		135803.0		13802.0
53427.0		57403.0		53427.0		3976.0
10238.0		10987.0		10238.0		749.0
4722.0		4956.0		4722.0		234.0
1910.0		1956.0		1910.0		46.0
898.0		967.0		898.0		69.0
922.0		974.0		922.0		52.0
