0.00<|#eta|<0.60
343400.0		413109.0		343400.0		69709.0
646798.0		766305.0		646798.0		119507.0
1045800.0		1205480.0		1045800.0		159680.0
1398240.0		1582460.0		1398240.0		184218.0
952780.0		1055180.0		952780.0		102394.0
545036.0		592638.0		545036.0		47602.0
240575.0		254812.0		240575.0		14237.0
51185.0		52638.0		51185.0		1453.0
23549.0		24393.0		23549.0		844.0
10389.0		10622.0		10389.0		233.0
5212.0		5357.0		5212.0		145.0
5497.0		5770.0		5497.0		273.0
0.60<|#eta|<0.80
99292.0		124486.0		99292.0		25194.0
207519.0		255996.0		207519.0		48477.0
353791.0		409638.0		353791.0		55847.0
442980.0		505608.0		442980.0		62628.0
307197.0		337397.0		307197.0		30200.0
172712.0		187491.0		172712.0		14779.0
75862.0		79655.0		75862.0		3793.0
15909.0		16589.0		15909.0		680.0
7351.0		7493.0		7351.0		142.0
3085.0		3177.0		3085.0		92.0
1640.0		1696.0		1640.0		56.0
1742.0		1805.0		1742.0		63.0
0.80<|#eta|<1.15
178475.0		216726.0		178475.0		38251.0
331066.0		397139.0		331066.0		66073.0
567270.0		658748.0		567270.0		91478.0
739516.0		835279.0		739516.0		95763.0
479730.0		531503.0		479730.0		51773.0
271802.0		296729.0		271802.0		24927.0
116030.0		124301.0		116030.0		8271.0
25255.0		26414.0		25255.0		1159.0
11940.0		12159.0		11940.0		219.0
5345.0		5385.0		5345.0		40.0
2565.0		2605.0		2565.0		40.0
2896.0		2950.0		2896.0		54.0
1.15<|#eta|<1.37
96511.0		125895.0		96511.0		29384.0
171068.0		215988.0		171068.0		44920.0
295125.0		353321.0		295125.0		58196.0
393672.0		470819.0		393672.0		77147.0
262114.0		297354.0		262114.0		35240.0
150597.0		167375.0		150597.0		16778.0
64415.0		68548.0		64415.0		4133.0
13724.0		14362.0		13724.0		638.0
6603.0		6789.0		6603.0		186.0
2953.0		3039.0		2953.0		86.0
1587.0		1615.0		1587.0		28.0
1579.0		1665.0		1579.0		86.0
1.52<|#eta|<1.81
119856.0		143951.0		119856.0		24095.0
195906.0		239433.0		195906.0		43527.0
305466.0		364819.0		305466.0		59353.0
396402.0		464536.0		396402.0		68134.0
288091.0		320284.0		288091.0		32193.0
168005.0		183135.0		168005.0		15130.0
67339.0		72997.0		67339.0		5658.0
13938.0		14878.0		13938.0		940.0
6569.0		6830.0		6569.0		261.0
3024.0		3108.0		3024.0		84.0
1477.0		1525.0		1477.0		48.0
1576.0		1642.0		1576.0		66.0
1.81<|#eta|<2.01
88869.0		96191.0		88869.0		7322.0
139301.0		154677.0		139301.0		15376.0
203797.0		221049.0		203797.0		17252.0
254155.0		279129.0		254155.0		24974.0
177804.0		189350.0		177804.0		11546.0
98931.0		105134.0		98931.0		6203.0
39376.0		41669.0		39376.0		2293.0
7832.0		8300.0		7832.0		468.0
3600.0		3708.0		3600.0		108.0
1468.0		1516.0		1468.0		48.0
697.0		723.0		697.0		26.0
767.0		797.0		767.0		30.0
2.01<|#eta|<2.37
156009.0		171938.0		156009.0		15929.0
244549.0		266840.0		244549.0		22291.0
321728.0		352631.0		321728.0		30903.0
378849.0		412847.0		378849.0		33998.0
252475.0		272757.0		252475.0		20282.0
135764.0		149605.0		135764.0		13841.0
53208.0		57403.0		53208.0		4195.0
10141.0		10987.0		10141.0		846.0
4722.0		4956.0		4722.0		234.0
1902.0		1956.0		1902.0		54.0
906.0		967.0		906.0		61.0
943.0		974.0		943.0		31.0
