0.00<|#eta|<0.60
339592.0		413109.0		339592.0		73517.0
639802.0		766305.0		639802.0		126503.0
1051260.0		1205480.0		1051260.0		154210.0
1386410.0		1582460.0		1386410.0		196055.0
957670.0		1055180.0		957670.0		97507.0
547706.0		592638.0		547706.0		44932.0
241089.0		254812.0		241089.0		13723.0
51100.0		52638.0		51100.0		1538.0
23555.0		24393.0		23555.0		838.0
10389.0		10622.0		10389.0		233.0
5216.0		5357.0		5216.0		141.0
5442.0		5770.0		5442.0		328.0
0.60<|#eta|<0.80
98987.0		124486.0		98987.0		25499.0
214648.0		255996.0		214648.0		41348.0
354483.0		409638.0		354483.0		55155.0
437939.0		505608.0		437939.0		67669.0
310164.0		337397.0		310164.0		27233.0
172855.0		187491.0		172855.0		14636.0
75633.0		79655.0		75633.0		4022.0
15840.0		16589.0		15840.0		749.0
7332.0		7493.0		7332.0		161.0
3085.0		3177.0		3085.0		92.0
1668.0		1696.0		1668.0		28.0
1741.0		1805.0		1741.0		64.0
0.80<|#eta|<1.15
178807.0		216726.0		178807.0		37919.0
328488.0		397139.0		328488.0		68651.0
569668.0		658748.0		569668.0		89080.0
742005.0		835279.0		742005.0		93274.0
478729.0		531503.0		478729.0		52774.0
271391.0		296729.0		271391.0		25338.0
116843.0		124301.0		116843.0		7458.0
25336.0		26414.0		25336.0		1078.0
11985.0		12159.0		11985.0		174.0
5286.0		5385.0		5286.0		99.0
2554.0		2605.0		2554.0		51.0
2881.0		2950.0		2881.0		69.0
1.15<|#eta|<1.37
96690.0		125895.0		96690.0		29205.0
171661.0		215988.0		171661.0		44327.0
299100.0		353321.0		299100.0		54221.0
398433.0		470819.0		398433.0		72386.0
264061.0		297354.0		264061.0		33293.0
150887.0		167375.0		150887.0		16488.0
64345.0		68548.0		64345.0		4203.0
13617.0		14362.0		13617.0		745.0
6593.0		6789.0		6593.0		196.0
2973.0		3039.0		2973.0		66.0
1581.0		1615.0		1581.0		34.0
1609.0		1665.0		1609.0		56.0
1.52<|#eta|<1.81
118286.0		143951.0		118286.0		25665.0
195960.0		239433.0		195960.0		43473.0
305541.0		364819.0		305541.0		59278.0
398213.0		464536.0		398213.0		66323.0
289505.0		320284.0		289505.0		30779.0
168002.0		183135.0		168002.0		15133.0
67234.0		72997.0		67234.0		5763.0
14012.0		14878.0		14012.0		866.0
6584.0		6830.0		6584.0		246.0
3042.0		3108.0		3042.0		66.0
1491.0		1525.0		1491.0		34.0
1582.0		1642.0		1582.0		60.0
1.81<|#eta|<2.01
89429.0		96191.0		89429.0		6762.0
138456.0		154677.0		138456.0		16221.0
203165.0		221049.0		203165.0		17884.0
253447.0		279129.0		253447.0		25682.0
178005.0		189350.0		178005.0		11345.0
99230.0		105134.0		99230.0		5904.0
39274.0		41669.0		39274.0		2395.0
7800.0		8300.0		7800.0		500.0
3596.0		3708.0		3596.0		112.0
1474.0		1516.0		1474.0		42.0
695.0		723.0		695.0		28.0
762.0		797.0		762.0		35.0
2.01<|#eta|<2.37
155877.0		171938.0		155877.0		16061.0
243422.0		266840.0		243422.0		23418.0
322080.0		352631.0		322080.0		30551.0
377697.0		412847.0		377697.0		35150.0
251044.0		272757.0		251044.0		21713.0
136203.0		149605.0		136203.0		13402.0
53243.0		57403.0		53243.0		4160.0
10196.0		10987.0		10196.0		791.0
4739.0		4956.0		4739.0		217.0
1911.0		1956.0		1911.0		45.0
904.0		967.0		904.0		63.0
945.0		974.0		945.0		29.0
