0.00<|#eta|<0.60
338322.0		413109.0		338322.0		74787.0
647823.0		766305.0		647823.0		118482.0
1048470.0		1205480.0		1048470.0		157016.0
1388690.0		1582460.0		1388690.0		193768.0
953360.0		1055180.0		953360.0		101807.0
548958.0		592638.0		548958.0		43680.0
240760.0		254812.0		240760.0		14052.0
50981.0		52638.0		50981.0		1657.0
23687.0		24393.0		23687.0		706.0
10356.0		10622.0		10356.0		266.0
5225.0		5357.0		5225.0		132.0
5464.0		5770.0		5464.0		306.0
0.60<|#eta|<0.80
100638.0		124486.0		100638.0		23848.0
218601.0		255996.0		218601.0		37395.0
352787.0		409638.0		352787.0		56851.0
440992.0		505608.0		440992.0		64616.0
311037.0		337397.0		311037.0		26360.0
172702.0		187491.0		172702.0		14789.0
75802.0		79655.0		75802.0		3853.0
15896.0		16589.0		15896.0		693.0
7355.0		7493.0		7355.0		138.0
3063.0		3177.0		3063.0		114.0
1649.0		1696.0		1649.0		47.0
1734.0		1805.0		1734.0		71.0
0.80<|#eta|<1.15
178796.0		216726.0		178796.0		37930.0
332084.0		397139.0		332084.0		65055.0
569826.0		658748.0		569826.0		88922.0
739447.0		835279.0		739447.0		95832.0
476399.0		531503.0		476399.0		55104.0
272039.0		296729.0		272039.0		24690.0
116257.0		124301.0		116257.0		8044.0
25363.0		26414.0		25363.0		1051.0
11954.0		12159.0		11954.0		205.0
5329.0		5385.0		5329.0		56.0
2563.0		2605.0		2563.0		42.0
2894.0		2950.0		2894.0		56.0
1.15<|#eta|<1.37
96554.0		125895.0		96554.0		29341.0
171565.0		215988.0		171565.0		44423.0
294878.0		353321.0		294878.0		58443.0
394155.0		470819.0		394155.0		76664.0
264187.0		297354.0		264187.0		33167.0
151011.0		167375.0		151011.0		16364.0
64461.0		68548.0		64461.0		4087.0
13609.0		14362.0		13609.0		753.0
6640.0		6789.0		6640.0		149.0
2965.0		3039.0		2965.0		74.0
1571.0		1615.0		1571.0		44.0
1582.0		1665.0		1582.0		83.0
1.52<|#eta|<1.81
119099.0		143951.0		119099.0		24852.0
196870.0		239433.0		196870.0		42563.0
309644.0		364819.0		309644.0		55175.0
395605.0		464536.0		395605.0		68931.0
289506.0		320284.0		289506.0		30778.0
168216.0		183135.0		168216.0		14919.0
67084.0		72997.0		67084.0		5913.0
13865.0		14878.0		13865.0		1013.0
6573.0		6830.0		6573.0		257.0
3040.0		3108.0		3040.0		68.0
1478.0		1525.0		1478.0		47.0
1593.0		1642.0		1593.0		49.0
1.81<|#eta|<2.01
89233.0		96191.0		89233.0		6958.0
138878.0		154677.0		138878.0		15799.0
202266.0		221049.0		202266.0		18783.0
253400.0		279129.0		253400.0		25729.0
177890.0		189350.0		177890.0		11460.0
98711.0		105134.0		98711.0		6423.0
39262.0		41669.0		39262.0		2407.0
7785.0		8300.0		7785.0		515.0
3586.0		3708.0		3586.0		122.0
1489.0		1516.0		1489.0		27.0
702.0		723.0		702.0		21.0
756.0		797.0		756.0		41.0
2.01<|#eta|<2.37
155758.0		171938.0		155758.0		16180.0
244030.0		266840.0		244030.0		22810.0
322155.0		352631.0		322155.0		30476.0
378770.0		412847.0		378770.0		34077.0
251465.0		272757.0		251465.0		21292.0
136305.0		149605.0		136305.0		13300.0
53399.0		57403.0		53399.0		4004.0
10203.0		10987.0		10203.0		784.0
4719.0		4956.0		4719.0		237.0
1901.0		1956.0		1901.0		55.0
906.0		967.0		906.0		61.0
928.0		974.0		928.0		46.0
