0.00<|#eta|<0.60
337092.0		413109.0		337092.0		76017.0
655655.0		766305.0		655655.0		110650.0
1048540.0		1205480.0		1048540.0		156934.0
1397550.0		1582460.0		1397550.0		184895.0
948634.0		1055180.0		948634.0		106538.0
550246.0		592638.0		550246.0		42392.0
240410.0		254812.0		240410.0		14402.0
51109.0		52638.0		51109.0		1529.0
23597.0		24393.0		23597.0		796.0
10327.0		10622.0		10327.0		295.0
5197.0		5357.0		5197.0		160.0
5452.0		5770.0		5452.0		318.0
0.60<|#eta|<0.80
99645.0		124486.0		99645.0		24841.0
210059.0		255996.0		210059.0		45937.0
350888.0		409638.0		350888.0		58750.0
441908.0		505608.0		441908.0		63700.0
309195.0		337397.0		309195.0		28202.0
172616.0		187491.0		172616.0		14875.0
75753.0		79655.0		75753.0		3902.0
15878.0		16589.0		15878.0		711.0
7369.0		7493.0		7369.0		124.0
3062.0		3177.0		3062.0		115.0
1667.0		1696.0		1667.0		29.0
1743.0		1805.0		1743.0		62.0
0.80<|#eta|<1.15
177571.0		216726.0		177571.0		39155.0
331371.0		397139.0		331371.0		65768.0
561300.0		658748.0		561300.0		97448.0
741266.0		835279.0		741266.0		94013.0
479162.0		531503.0		479162.0		52341.0
271241.0		296729.0		271241.0		25488.0
116200.0		124301.0		116200.0		8101.0
25200.0		26414.0		25200.0		1214.0
11961.0		12159.0		11961.0		198.0
5281.0		5385.0		5281.0		104.0
2565.0		2605.0		2565.0		40.0
2875.0		2950.0		2875.0		75.0
1.15<|#eta|<1.37
95994.0		125895.0		95994.0		29901.0
166863.0		215988.0		166863.0		49125.0
298534.0		353321.0		298534.0		54787.0
394675.0		470819.0		394675.0		76144.0
263912.0		297354.0		263912.0		33442.0
151859.0		167375.0		151859.0		15516.0
64310.0		68548.0		64310.0		4238.0
13671.0		14362.0		13671.0		691.0
6601.0		6789.0		6601.0		188.0
2950.0		3039.0		2950.0		89.0
1580.0		1615.0		1580.0		35.0
1598.0		1665.0		1598.0		67.0
1.52<|#eta|<1.81
118670.0		143951.0		118670.0		25281.0
196638.0		239433.0		196638.0		42795.0
303241.0		364819.0		303241.0		61578.0
396096.0		464536.0		396096.0		68440.0
288043.0		320284.0		288043.0		32241.0
168090.0		183135.0		168090.0		15045.0
67204.0		72997.0		67204.0		5793.0
13882.0		14878.0		13882.0		996.0
6584.0		6830.0		6584.0		246.0
3037.0		3108.0		3037.0		71.0
1475.0		1525.0		1475.0		50.0
1591.0		1642.0		1591.0		51.0
1.81<|#eta|<2.01
89190.0		96191.0		89190.0		7001.0
138972.0		154677.0		138972.0		15705.0
203014.0		221049.0		203014.0		18035.0
253747.0		279129.0		253747.0		25382.0
177765.0		189350.0		177765.0		11585.0
98782.0		105134.0		98782.0		6352.0
39261.0		41669.0		39261.0		2408.0
7810.0		8300.0		7810.0		490.0
3546.0		3708.0		3546.0		162.0
1464.0		1516.0		1464.0		52.0
696.0		723.0		696.0		27.0
759.0		797.0		759.0		38.0
2.01<|#eta|<2.37
156019.0		171938.0		156019.0		15919.0
243483.0		266840.0		243483.0		23357.0
324465.0		352631.0		324465.0		28166.0
378369.0		412847.0		378369.0		34478.0
252134.0		272757.0		252134.0		20623.0
136351.0		149605.0		136351.0		13254.0
53128.0		57403.0		53128.0		4275.0
10186.0		10987.0		10186.0		801.0
4724.0		4956.0		4724.0		232.0
1913.0		1956.0		1913.0		43.0
906.0		967.0		906.0		61.0
935.0		974.0		935.0		39.0
