0.00<|#eta|<0.60
336350.0		413109.0		336350.0		76759.0
642035.0		766305.0		642035.0		124270.0
1049060.0		1205480.0		1049060.0		156423.0
1396230.0		1582460.0		1396230.0		186231.0
950740.0		1055180.0		950740.0		104440.0
547968.0		592638.0		547968.0		44670.0
241053.0		254812.0		241053.0		13759.0
50974.0		52638.0		50974.0		1664.0
23624.0		24393.0		23624.0		769.0
10391.0		10622.0		10391.0		231.0
5236.0		5357.0		5236.0		121.0
5511.0		5770.0		5511.0		259.0
0.60<|#eta|<0.80
99241.0		124486.0		99241.0		25245.0
212677.0		255996.0		212677.0		43319.0
354825.0		409638.0		354825.0		54813.0
439312.0		505608.0		439312.0		66296.0
307247.0		337397.0		307247.0		30150.0
172161.0		187491.0		172161.0		15330.0
75592.0		79655.0		75592.0		4063.0
15999.0		16589.0		15999.0		590.0
7345.0		7493.0		7345.0		148.0
3087.0		3177.0		3087.0		90.0
1654.0		1696.0		1654.0		42.0
1743.0		1805.0		1743.0		62.0
0.80<|#eta|<1.15
178974.0		216726.0		178974.0		37752.0
333520.0		397139.0		333520.0		63619.0
569018.0		658748.0		569018.0		89730.0
739262.0		835279.0		739262.0		96017.0
477378.0		531503.0		477378.0		54125.0
273213.0		296729.0		273213.0		23516.0
116751.0		124301.0		116751.0		7550.0
25415.0		26414.0		25415.0		999.0
11957.0		12159.0		11957.0		202.0
5297.0		5385.0		5297.0		88.0
2564.0		2605.0		2564.0		41.0
2870.0		2950.0		2870.0		80.0
1.15<|#eta|<1.37
96715.0		125895.0		96715.0		29180.0
170410.0		215988.0		170410.0		45578.0
294459.0		353321.0		294459.0		58862.0
397856.0		470819.0		397856.0		72963.0
262754.0		297354.0		262754.0		34600.0
151324.0		167375.0		151324.0		16051.0
64435.0		68548.0		64435.0		4113.0
13669.0		14362.0		13669.0		693.0
6577.0		6789.0		6577.0		212.0
2947.0		3039.0		2947.0		92.0
1578.0		1615.0		1578.0		37.0
1596.0		1665.0		1596.0		69.0
1.52<|#eta|<1.81
117867.0		143951.0		117867.0		26084.0
194935.0		239433.0		194935.0		44498.0
306207.0		364819.0		306207.0		58612.0
397018.0		464536.0		397018.0		67518.0
287624.0		320284.0		287624.0		32660.0
168292.0		183135.0		168292.0		14843.0
67357.0		72997.0		67357.0		5640.0
13953.0		14878.0		13953.0		925.0
6581.0		6830.0		6581.0		249.0
3021.0		3108.0		3021.0		87.0
1485.0		1525.0		1485.0		40.0
1595.0		1642.0		1595.0		47.0
1.81<|#eta|<2.01
89261.0		96191.0		89261.0		6930.0
139124.0		154677.0		139124.0		15553.0
202986.0		221049.0		202986.0		18063.0
254173.0		279129.0		254173.0		24956.0
177834.0		189350.0		177834.0		11516.0
99200.0		105134.0		99200.0		5934.0
39191.0		41669.0		39191.0		2478.0
7803.0		8300.0		7803.0		497.0
3592.0		3708.0		3592.0		116.0
1484.0		1516.0		1484.0		32.0
694.0		723.0		694.0		29.0
758.0		797.0		758.0		39.0
2.01<|#eta|<2.37
156268.0		171938.0		156268.0		15670.0
243800.0		266840.0		243800.0		23040.0
323977.0		352631.0		323977.0		28654.0
379114.0		412847.0		379114.0		33733.0
251917.0		272757.0		251917.0		20840.0
136044.0		149605.0		136044.0		13561.0
53287.0		57403.0		53287.0		4116.0
10149.0		10987.0		10149.0		838.0
4733.0		4956.0		4733.0		223.0
1918.0		1956.0		1918.0		38.0
911.0		967.0		911.0		56.0
943.0		974.0		943.0		31.0
