0.00<|#eta|<0.60
337450.0		413109.0		337450.0		75659.0
643574.0		766305.0		643574.0		122731.0
1049460.0		1205480.0		1049460.0		156023.0
1401850.0		1582460.0		1401850.0		180599.0
952220.0		1055180.0		952220.0		102968.0
547132.0		592638.0		547132.0		45506.0
240740.0		254812.0		240740.0		14072.0
51102.0		52638.0		51102.0		1536.0
23681.0		24393.0		23681.0		712.0
10392.0		10622.0		10392.0		230.0
5217.0		5357.0		5217.0		140.0
5488.0		5770.0		5488.0		282.0
0.60<|#eta|<0.80
98352.0		124486.0		98352.0		26134.0
213067.0		255996.0		213067.0		42929.0
354923.0		409638.0		354923.0		54715.0
443270.0		505608.0		443270.0		62338.0
308497.0		337397.0		308497.0		28900.0
172720.0		187491.0		172720.0		14771.0
75675.0		79655.0		75675.0		3980.0
15882.0		16589.0		15882.0		707.0
7348.0		7493.0		7348.0		145.0
3072.0		3177.0		3072.0		105.0
1658.0		1696.0		1658.0		38.0
1745.0		1805.0		1745.0		60.0
0.80<|#eta|<1.15
176912.0		216726.0		176912.0		39814.0
334338.0		397139.0		334338.0		62801.0
569980.0		658748.0		569980.0		88768.0
735496.0		835279.0		735496.0		99783.0
478223.0		531503.0		478223.0		53280.0
272279.0		296729.0		272279.0		24450.0
116515.0		124301.0		116515.0		7786.0
25504.0		26414.0		25504.0		910.0
11919.0		12159.0		11919.0		240.0
5286.0		5385.0		5286.0		99.0
2556.0		2605.0		2556.0		49.0
2889.0		2950.0		2889.0		61.0
1.15<|#eta|<1.37
96622.0		125895.0		96622.0		29273.0
170737.0		215988.0		170737.0		45251.0
297229.0		353321.0		297229.0		56092.0
397171.0		470819.0		397171.0		73648.0
262694.0		297354.0		262694.0		34660.0
151230.0		167375.0		151230.0		16145.0
64383.0		68548.0		64383.0		4165.0
13675.0		14362.0		13675.0		687.0
6542.0		6789.0		6542.0		247.0
2962.0		3039.0		2962.0		77.0
1579.0		1615.0		1579.0		36.0
1602.0		1665.0		1602.0		63.0
1.52<|#eta|<1.81
119966.0		143951.0		119966.0		23985.0
196402.0		239433.0		196402.0		43031.0
303740.0		364819.0		303740.0		61079.0
395558.0		464536.0		395558.0		68978.0
288466.0		320284.0		288466.0		31818.0
168168.0		183135.0		168168.0		14967.0
67197.0		72997.0		67197.0		5800.0
13909.0		14878.0		13909.0		969.0
6628.0		6830.0		6628.0		202.0
3022.0		3108.0		3022.0		86.0
1477.0		1525.0		1477.0		48.0
1594.0		1642.0		1594.0		48.0
1.81<|#eta|<2.01
89023.0		96191.0		89023.0		7168.0
138629.0		154677.0		138629.0		16048.0
203996.0		221049.0		203996.0		17053.0
253403.0		279129.0		253403.0		25726.0
177555.0		189350.0		177555.0		11795.0
99053.0		105134.0		99053.0		6081.0
39231.0		41669.0		39231.0		2438.0
7836.0		8300.0		7836.0		464.0
3537.0		3708.0		3537.0		171.0
1476.0		1516.0		1476.0		40.0
692.0		723.0		692.0		31.0
749.0		797.0		749.0		48.0
2.01<|#eta|<2.37
157174.0		171938.0		157174.0		14764.0
243397.0		266840.0		243397.0		23443.0
323369.0		352631.0		323369.0		29262.0
378885.0		412847.0		378885.0		33962.0
250891.0		272757.0		250891.0		21866.0
135976.0		149605.0		135976.0		13629.0
53258.0		57403.0		53258.0		4145.0
10211.0		10987.0		10211.0		776.0
4731.0		4956.0		4731.0		225.0
1910.0		1956.0		1910.0		46.0
904.0		967.0		904.0		63.0
941.0		974.0		941.0		33.0
