0.00<|#eta|<0.60
340214.0		413109.0		340214.0		72895.0
645896.0		766305.0		645896.0		120409.0
1050580.0		1205480.0		1050580.0		154896.0
1398740.0		1582460.0		1398740.0		183708.0
949310.0		1055180.0		949310.0		105862.0
547343.0		592638.0		547343.0		45295.0
239958.0		254812.0		239958.0		14854.0
51204.0		52638.0		51204.0		1434.0
23659.0		24393.0		23659.0		734.0
10374.0		10622.0		10374.0		248.0
5203.0		5357.0		5203.0		154.0
5463.0		5770.0		5463.0		307.0
0.60<|#eta|<0.80
98120.0		124486.0		98120.0		26366.0
216654.0		255996.0		216654.0		39342.0
354070.0		409638.0		354070.0		55568.0
439848.0		505608.0		439848.0		65760.0
308986.0		337397.0		308986.0		28411.0
171489.0		187491.0		171489.0		16002.0
75339.0		79655.0		75339.0		4316.0
15976.0		16589.0		15976.0		613.0
7346.0		7493.0		7346.0		147.0
3060.0		3177.0		3060.0		117.0
1628.0		1696.0		1628.0		68.0
1735.0		1805.0		1735.0		70.0
0.80<|#eta|<1.15
178786.0		216726.0		178786.0		37940.0
332022.0		397139.0		332022.0		65117.0
558722.0		658748.0		558722.0		100026.0
737037.0		835279.0		737037.0		98242.0
472814.0		531503.0		472814.0		58689.0
271924.0		296729.0		271924.0		24805.0
116711.0		124301.0		116711.0		7590.0
25214.0		26414.0		25214.0		1200.0
11964.0		12159.0		11964.0		195.0
5309.0		5385.0		5309.0		76.0
2573.0		2605.0		2573.0		32.0
2887.0		2950.0		2887.0		63.0
1.15<|#eta|<1.37
95579.0		125895.0		95579.0		30316.0
168692.0		215988.0		168692.0		47296.0
295208.0		353321.0		295208.0		58113.0
397489.0		470819.0		397489.0		73330.0
261749.0		297354.0		261749.0		35605.0
152014.0		167375.0		152014.0		15361.0
64200.0		68548.0		64200.0		4348.0
13611.0		14362.0		13611.0		751.0
6571.0		6789.0		6571.0		218.0
2971.0		3039.0		2971.0		68.0
1574.0		1615.0		1574.0		41.0
1570.0		1665.0		1570.0		95.0
1.52<|#eta|<1.81
117986.0		143951.0		117986.0		25965.0
197434.0		239433.0		197434.0		41999.0
306951.0		364819.0		306951.0		57868.0
395068.0		464536.0		395068.0		69468.0
288060.0		320284.0		288060.0		32224.0
168836.0		183135.0		168836.0		14299.0
67215.0		72997.0		67215.0		5782.0
13924.0		14878.0		13924.0		954.0
6589.0		6830.0		6589.0		241.0
3030.0		3108.0		3030.0		78.0
1473.0		1525.0		1473.0		52.0
1598.0		1642.0		1598.0		44.0
1.81<|#eta|<2.01
89430.0		96191.0		89430.0		6761.0
140446.0		154677.0		140446.0		14231.0
203138.0		221049.0		203138.0		17911.0
254396.0		279129.0		254396.0		24733.0
178358.0		189350.0		178358.0		10992.0
99502.0		105134.0		99502.0		5632.0
39391.0		41669.0		39391.0		2278.0
7795.0		8300.0		7795.0		505.0
3491.0		3708.0		3491.0		217.0
1468.0		1516.0		1468.0		48.0
696.0		723.0		696.0		27.0
754.0		797.0		754.0		43.0
2.01<|#eta|<2.37
156526.0		171938.0		156526.0		15412.0
244089.0		266840.0		244089.0		22751.0
323554.0		352631.0		323554.0		29077.0
378506.0		412847.0		378506.0		34341.0
252192.0		272757.0		252192.0		20565.0
135830.0		149605.0		135830.0		13775.0
53244.0		57403.0		53244.0		4159.0
10144.0		10987.0		10144.0		843.0
4708.0		4956.0		4708.0		248.0
1898.0		1956.0		1898.0		58.0
904.0		967.0		904.0		63.0
917.0		974.0		917.0		57.0
