0.00<|#eta|<0.60
340196.0		413109.0		340196.0		72913.0
643106.0		766305.0		643106.0		123199.0
1047740.0		1205480.0		1047740.0		157740.0
1398150.0		1582460.0		1398150.0		184309.0
953330.0		1055180.0		953330.0		101845.0
549202.0		592638.0		549202.0		43436.0
241826.0		254812.0		241826.0		12986.0
51049.0		52638.0		51049.0		1589.0
23607.0		24393.0		23607.0		786.0
10344.0		10622.0		10344.0		278.0
5204.0		5357.0		5204.0		153.0
5456.0		5770.0		5456.0		314.0
0.60<|#eta|<0.80
100072.0		124486.0		100072.0		24414.0
211839.0		255996.0		211839.0		44157.0
356056.0		409638.0		356056.0		53582.0
440322.0		505608.0		440322.0		65286.0
309629.0		337397.0		309629.0		27768.0
172924.0		187491.0		172924.0		14567.0
75576.0		79655.0		75576.0		4079.0
15904.0		16589.0		15904.0		685.0
7390.0		7493.0		7390.0		103.0
3066.0		3177.0		3066.0		111.0
1661.0		1696.0		1661.0		35.0
1750.0		1805.0		1750.0		55.0
0.80<|#eta|<1.15
177511.0		216726.0		177511.0		39215.0
327628.0		397139.0		327628.0		69511.0
574256.0		658748.0		574256.0		84492.0
739548.0		835279.0		739548.0		95731.0
482755.0		531503.0		482755.0		48748.0
271372.0		296729.0		271372.0		25357.0
116922.0		124301.0		116922.0		7379.0
25167.0		26414.0		25167.0		1247.0
12008.0		12159.0		12008.0		151.0
5322.0		5385.0		5322.0		63.0
2563.0		2605.0		2563.0		42.0
2874.0		2950.0		2874.0		76.0
1.15<|#eta|<1.37
96965.0		125895.0		96965.0		28930.0
168185.0		215988.0		168185.0		47803.0
298147.0		353321.0		298147.0		55174.0
400420.0		470819.0		400420.0		70399.0
263511.0		297354.0		263511.0		33843.0
150481.0		167375.0		150481.0		16894.0
64529.0		68548.0		64529.0		4019.0
13573.0		14362.0		13573.0		789.0
6560.0		6789.0		6560.0		229.0
2943.0		3039.0		2943.0		96.0
1565.0		1615.0		1565.0		50.0
1561.0		1665.0		1561.0		104.0
1.52<|#eta|<1.81
118012.0		143951.0		118012.0		25939.0
199274.0		239433.0		199274.0		40159.0
308840.0		364819.0		308840.0		55979.0
393763.0		464536.0		393763.0		70773.0
288990.0		320284.0		288990.0		31294.0
168286.0		183135.0		168286.0		14849.0
67343.0		72997.0		67343.0		5654.0
13925.0		14878.0		13925.0		953.0
6589.0		6830.0		6589.0		241.0
3023.0		3108.0		3023.0		85.0
1475.0		1525.0		1475.0		50.0
1595.0		1642.0		1595.0		47.0
1.81<|#eta|<2.01
88548.0		96191.0		88548.0		7643.0
139238.0		154677.0		139238.0		15439.0
203780.0		221049.0		203780.0		17269.0
254585.0		279129.0		254585.0		24544.0
177726.0		189350.0		177726.0		11624.0
99117.0		105134.0		99117.0		6017.0
39276.0		41669.0		39276.0		2393.0
7819.0		8300.0		7819.0		481.0
3556.0		3708.0		3556.0		152.0
1458.0		1516.0		1458.0		58.0
702.0		723.0		702.0		21.0
753.0		797.0		753.0		44.0
2.01<|#eta|<2.37
156447.0		171938.0		156447.0		15491.0
244433.0		266840.0		244433.0		22407.0
323208.0		352631.0		323208.0		29423.0
378691.0		412847.0		378691.0		34156.0
251595.0		272757.0		251595.0		21162.0
136174.0		149605.0		136174.0		13431.0
53197.0		57403.0		53197.0		4206.0
10125.0		10987.0		10125.0		862.0
4730.0		4956.0		4730.0		226.0
1917.0		1956.0		1917.0		39.0
917.0		967.0		917.0		50.0
919.0		974.0		919.0		55.0
