0.00<|#eta|<0.60
338066.0		413109.0		338066.0		75043.0
647644.0		766305.0		647644.0		118661.0
1046790.0		1205480.0		1046790.0		158686.0
1392140.0		1582460.0		1392140.0		190312.0
956730.0		1055180.0		956730.0		98441.0
549291.0		592638.0		549291.0		43347.0
240800.0		254812.0		240800.0		14012.0
50894.0		52638.0		50894.0		1744.0
23705.0		24393.0		23705.0		688.0
10358.0		10622.0		10358.0		264.0
5224.0		5357.0		5224.0		133.0
5484.0		5770.0		5484.0		286.0
0.60<|#eta|<0.80
99359.0		124486.0		99359.0		25127.0
209050.0		255996.0		209050.0		46946.0
351483.0		409638.0		351483.0		58155.0
437927.0		505608.0		437927.0		67681.0
310943.0		337397.0		310943.0		26454.0
172767.0		187491.0		172767.0		14724.0
75555.0		79655.0		75555.0		4100.0
15904.0		16589.0		15904.0		685.0
7342.0		7493.0		7342.0		151.0
3071.0		3177.0		3071.0		106.0
1673.0		1696.0		1673.0		23.0
1742.0		1805.0		1742.0		63.0
0.80<|#eta|<1.15
176732.0		216726.0		176732.0		39994.0
327165.0		397139.0		327165.0		69974.0
565434.0		658748.0		565434.0		93314.0
743378.0		835279.0		743378.0		91901.0
478476.0		531503.0		478476.0		53027.0
271979.0		296729.0		271979.0		24750.0
116814.0		124301.0		116814.0		7487.0
25137.0		26414.0		25137.0		1277.0
11946.0		12159.0		11946.0		213.0
5315.0		5385.0		5315.0		70.0
2555.0		2605.0		2555.0		50.0
2885.0		2950.0		2885.0		65.0
1.15<|#eta|<1.37
97616.0		125895.0		97616.0		28279.0
169633.0		215988.0		169633.0		46355.0
296413.0		353321.0		296413.0		56908.0
395682.0		470819.0		395682.0		75137.0
262406.0		297354.0		262406.0		34948.0
152183.0		167375.0		152183.0		15192.0
64083.0		68548.0		64083.0		4465.0
13661.0		14362.0		13661.0		701.0
6570.0		6789.0		6570.0		219.0
2955.0		3039.0		2955.0		84.0
1576.0		1615.0		1576.0		39.0
1594.0		1665.0		1594.0		71.0
1.52<|#eta|<1.81
118876.0		143951.0		118876.0		25075.0
196268.0		239433.0		196268.0		43165.0
307460.0		364819.0		307460.0		57359.0
397611.0		464536.0		397611.0		66925.0
286401.0		320284.0		286401.0		33883.0
168553.0		183135.0		168553.0		14582.0
67131.0		72997.0		67131.0		5866.0
13929.0		14878.0		13929.0		949.0
6601.0		6830.0		6601.0		229.0
3038.0		3108.0		3038.0		70.0
1480.0		1525.0		1480.0		45.0
1575.0		1642.0		1575.0		67.0
1.81<|#eta|<2.01
89224.0		96191.0		89224.0		6967.0
138774.0		154677.0		138774.0		15903.0
201855.0		221049.0		201855.0		19194.0
253955.0		279129.0		253955.0		25174.0
177818.0		189350.0		177818.0		11532.0
99181.0		105134.0		99181.0		5953.0
39303.0		41669.0		39303.0		2366.0
7816.0		8300.0		7816.0		484.0
3533.0		3708.0		3533.0		175.0
1465.0		1516.0		1465.0		51.0
689.0		723.0		689.0		34.0
758.0		797.0		758.0		39.0
2.01<|#eta|<2.37
156024.0		171938.0		156024.0		15914.0
245791.0		266840.0		245791.0		21049.0
322056.0		352631.0		322056.0		30575.0
378207.0		412847.0		378207.0		34640.0
251678.0		272757.0		251678.0		21079.0
135889.0		149605.0		135889.0		13716.0
53251.0		57403.0		53251.0		4152.0
10116.0		10987.0		10116.0		871.0
4731.0		4956.0		4731.0		225.0
1900.0		1956.0		1900.0		56.0
897.0		967.0		897.0		70.0
931.0		974.0		931.0		43.0
