0.00<|#eta|<0.60
340233.0		413109.0		340233.0		72876.0
651569.0		766305.0		651569.0		114736.0
1051940.0		1205480.0		1051940.0		153540.0
1399050.0		1582460.0		1399050.0		183397.0
948534.0		1055180.0		948534.0		106640.0
546419.0		592638.0		546419.0		46219.0
240736.0		254812.0		240736.0		14076.0
51079.0		52638.0		51079.0		1559.0
23671.0		24393.0		23671.0		722.0
10301.0		10622.0		10301.0		321.0
5233.0		5357.0		5233.0		124.0
5492.0		5770.0		5492.0		278.0
0.60<|#eta|<0.80
101078.0		124486.0		101078.0		23408.0
212919.0		255996.0		212919.0		43077.0
355755.0		409638.0		355755.0		53883.0
437178.0		505608.0		437178.0		68430.0
308616.0		337397.0		308616.0		28781.0
172969.0		187491.0		172969.0		14522.0
76134.0		79655.0		76134.0		3521.0
15891.0		16589.0		15891.0		698.0
7312.0		7493.0		7312.0		181.0
3103.0		3177.0		3103.0		74.0
1669.0		1696.0		1669.0		27.0
1747.0		1805.0		1747.0		58.0
0.80<|#eta|<1.15
176894.0		216726.0		176894.0		39832.0
329934.0		397139.0		329934.0		67205.0
572700.0		658748.0		572700.0		86048.0
741529.0		835279.0		741529.0		93750.0
481013.0		531503.0		481013.0		50490.0
271709.0		296729.0		271709.0		25020.0
116671.0		124301.0		116671.0		7630.0
25154.0		26414.0		25154.0		1260.0
11965.0		12159.0		11965.0		194.0
5275.0		5385.0		5275.0		110.0
2565.0		2605.0		2565.0		40.0
2876.0		2950.0		2876.0		74.0
1.15<|#eta|<1.37
98169.0		125895.0		98169.0		27726.0
170195.0		215988.0		170195.0		45793.0
293764.0		353321.0		293764.0		59557.0
397059.0		470819.0		397059.0		73760.0
260565.0		297354.0		260565.0		36789.0
151115.0		167375.0		151115.0		16260.0
64066.0		68548.0		64066.0		4482.0
13723.0		14362.0		13723.0		639.0
6621.0		6789.0		6621.0		168.0
2953.0		3039.0		2953.0		86.0
1576.0		1615.0		1576.0		39.0
1606.0		1665.0		1606.0		59.0
1.52<|#eta|<1.81
119684.0		143951.0		119684.0		24267.0
197159.0		239433.0		197159.0		42274.0
307117.0		364819.0		307117.0		57702.0
397934.0		464536.0		397934.0		66602.0
288426.0		320284.0		288426.0		31858.0
168614.0		183135.0		168614.0		14521.0
67123.0		72997.0		67123.0		5874.0
13974.0		14878.0		13974.0		904.0
6601.0		6830.0		6601.0		229.0
3023.0		3108.0		3023.0		85.0
1472.0		1525.0		1472.0		53.0
1583.0		1642.0		1583.0		59.0
1.81<|#eta|<2.01
89108.0		96191.0		89108.0		7083.0
139029.0		154677.0		139029.0		15648.0
203205.0		221049.0		203205.0		17844.0
253587.0		279129.0		253587.0		25542.0
177451.0		189350.0		177451.0		11899.0
99249.0		105134.0		99249.0		5885.0
39308.0		41669.0		39308.0		2361.0
7840.0		8300.0		7840.0		460.0
3539.0		3708.0		3539.0		169.0
1468.0		1516.0		1468.0		48.0
697.0		723.0		697.0		26.0
750.0		797.0		750.0		47.0
2.01<|#eta|<2.37
156554.0		171938.0		156554.0		15384.0
244985.0		266840.0		244985.0		21855.0
323390.0		352631.0		323390.0		29241.0
378011.0		412847.0		378011.0		34836.0
251739.0		272757.0		251739.0		21018.0
135940.0		149605.0		135940.0		13665.0
53169.0		57403.0		53169.0		4234.0
10222.0		10987.0		10222.0		765.0
4740.0		4956.0		4740.0		216.0
1908.0		1956.0		1908.0		48.0
887.0		967.0		887.0		80.0
930.0		974.0		930.0		44.0
