0.00<|#eta|<0.60
335991.0		413109.0		335991.0		77118.0
658694.0		766305.0		658694.0		107611.0
1047830.0		1205480.0		1047830.0		157643.0
1393100.0		1582460.0		1393100.0		189363.0
953840.0		1055180.0		953840.0		101333.0
546061.0		592638.0		546061.0		46577.0
239897.0		254812.0		239897.0		14915.0
50949.0		52638.0		50949.0		1689.0
23659.0		24393.0		23659.0		734.0
10317.0		10622.0		10317.0		305.0
5183.0		5357.0		5183.0		174.0
5480.0		5770.0		5480.0		290.0
0.60<|#eta|<0.80
98068.0		124486.0		98068.0		26418.0
209275.0		255996.0		209275.0		46721.0
354359.0		409638.0		354359.0		55279.0
439168.0		505608.0		439168.0		66440.0
309665.0		337397.0		309665.0		27732.0
171130.0		187491.0		171130.0		16361.0
75617.0		79655.0		75617.0		4038.0
15998.0		16589.0		15998.0		591.0
7348.0		7493.0		7348.0		145.0
3098.0		3177.0		3098.0		79.0
1659.0		1696.0		1659.0		37.0
1740.0		1805.0		1740.0		65.0
0.80<|#eta|<1.15
178065.0		216726.0		178065.0		38661.0
331116.0		397139.0		331116.0		66023.0
569877.0		658748.0		569877.0		88871.0
739486.0		835279.0		739486.0		95793.0
474342.0		531503.0		474342.0		57161.0
271773.0		296729.0		271773.0		24956.0
116500.0		124301.0		116500.0		7801.0
25325.0		26414.0		25325.0		1089.0
11878.0		12159.0		11878.0		281.0
5259.0		5385.0		5259.0		126.0
2544.0		2605.0		2544.0		61.0
2888.0		2950.0		2888.0		62.0
1.15<|#eta|<1.37
97464.0		125895.0		97464.0		28431.0
169395.0		215988.0		169395.0		46593.0
294968.0		353321.0		294968.0		58353.0
396152.0		470819.0		396152.0		74667.0
261983.0		297354.0		261983.0		35371.0
151773.0		167375.0		151773.0		15602.0
64283.0		68548.0		64283.0		4265.0
13717.0		14362.0		13717.0		645.0
6575.0		6789.0		6575.0		214.0
2961.0		3039.0		2961.0		78.0
1580.0		1615.0		1580.0		35.0
1584.0		1665.0		1584.0		81.0
1.52<|#eta|<1.81
118426.0		143951.0		118426.0		25525.0
197191.0		239433.0		197191.0		42242.0
308798.0		364819.0		308798.0		56021.0
397078.0		464536.0		397078.0		67458.0
288734.0		320284.0		288734.0		31550.0
167969.0		183135.0		167969.0		15166.0
67428.0		72997.0		67428.0		5569.0
13998.0		14878.0		13998.0		880.0
6604.0		6830.0		6604.0		226.0
3038.0		3108.0		3038.0		70.0
1481.0		1525.0		1481.0		44.0
1584.0		1642.0		1584.0		58.0
1.81<|#eta|<2.01
89125.0		96191.0		89125.0		7066.0
138151.0		154677.0		138151.0		16526.0
201669.0		221049.0		201669.0		19380.0
253939.0		279129.0		253939.0		25190.0
177443.0		189350.0		177443.0		11907.0
99062.0		105134.0		99062.0		6072.0
39408.0		41669.0		39408.0		2261.0
7807.0		8300.0		7807.0		493.0
3558.0		3708.0		3558.0		150.0
1457.0		1516.0		1457.0		59.0
697.0		723.0		697.0		26.0
772.0		797.0		772.0		25.0
2.01<|#eta|<2.37
155749.0		171938.0		155749.0		16189.0
243879.0		266840.0		243879.0		22961.0
324144.0		352631.0		324144.0		28487.0
376820.0		412847.0		376820.0		36027.0
252046.0		272757.0		252046.0		20711.0
135584.0		149605.0		135584.0		14021.0
53158.0		57403.0		53158.0		4245.0
10168.0		10987.0		10168.0		819.0
4705.0		4956.0		4705.0		251.0
1909.0		1956.0		1909.0		47.0
911.0		967.0		911.0		56.0
926.0		974.0		926.0		48.0
