0.00<|#eta|<0.60
339612.0		413109.0		339612.0		73497.0
640075.0		766305.0		640075.0		126230.0
1046680.0		1205480.0		1046680.0		158800.0
1398440.0		1582460.0		1398440.0		184013.0
949750.0		1055180.0		949750.0		105422.0
547348.0		592638.0		547348.0		45290.0
239715.0		254812.0		239715.0		15097.0
51054.0		52638.0		51054.0		1584.0
23564.0		24393.0		23564.0		829.0
10377.0		10622.0		10377.0		245.0
5210.0		5357.0		5210.0		147.0
5496.0		5770.0		5496.0		274.0
0.60<|#eta|<0.80
100866.0		124486.0		100866.0		23620.0
215915.0		255996.0		215915.0		40081.0
356983.0		409638.0		356983.0		52655.0
437727.0		505608.0		437727.0		67881.0
307561.0		337397.0		307561.0		29836.0
172808.0		187491.0		172808.0		14683.0
75704.0		79655.0		75704.0		3951.0
15801.0		16589.0		15801.0		788.0
7295.0		7493.0		7295.0		198.0
3070.0		3177.0		3070.0		107.0
1671.0		1696.0		1671.0		25.0
1742.0		1805.0		1742.0		63.0
0.80<|#eta|<1.15
179046.0		216726.0		179046.0		37680.0
329074.0		397139.0		329074.0		68065.0
565074.0		658748.0		565074.0		93674.0
741926.0		835279.0		741926.0		93353.0
478831.0		531503.0		478831.0		52672.0
271257.0		296729.0		271257.0		25472.0
115934.0		124301.0		115934.0		8367.0
25286.0		26414.0		25286.0		1128.0
11965.0		12159.0		11965.0		194.0
5298.0		5385.0		5298.0		87.0
2558.0		2605.0		2558.0		47.0
2876.0		2950.0		2876.0		74.0
1.15<|#eta|<1.37
95736.0		125895.0		95736.0		30159.0
170784.0		215988.0		170784.0		45204.0
296615.0		353321.0		296615.0		56706.0
395568.0		470819.0		395568.0		75251.0
263727.0		297354.0		263727.0		33627.0
150913.0		167375.0		150913.0		16462.0
64611.0		68548.0		64611.0		3937.0
13708.0		14362.0		13708.0		654.0
6605.0		6789.0		6605.0		184.0
2977.0		3039.0		2977.0		62.0
1571.0		1615.0		1571.0		44.0
1574.0		1665.0		1574.0		91.0
1.52<|#eta|<1.81
117855.0		143951.0		117855.0		26096.0
195622.0		239433.0		195622.0		43811.0
305338.0		364819.0		305338.0		59481.0
395583.0		464536.0		395583.0		68953.0
289144.0		320284.0		289144.0		31140.0
168037.0		183135.0		168037.0		15098.0
67383.0		72997.0		67383.0		5614.0
13944.0		14878.0		13944.0		934.0
6594.0		6830.0		6594.0		236.0
3028.0		3108.0		3028.0		80.0
1473.0		1525.0		1473.0		52.0
1590.0		1642.0		1590.0		52.0
1.81<|#eta|<2.01
89267.0		96191.0		89267.0		6924.0
139720.0		154677.0		139720.0		14957.0
202262.0		221049.0		202262.0		18787.0
253883.0		279129.0		253883.0		25246.0
177714.0		189350.0		177714.0		11636.0
99227.0		105134.0		99227.0		5907.0
39312.0		41669.0		39312.0		2357.0
7818.0		8300.0		7818.0		482.0
3525.0		3708.0		3525.0		183.0
1461.0		1516.0		1461.0		55.0
697.0		723.0		697.0		26.0
756.0		797.0		756.0		41.0
2.01<|#eta|<2.37
156479.0		171938.0		156479.0		15459.0
244258.0		266840.0		244258.0		22582.0
322862.0		352631.0		322862.0		29769.0
378444.0		412847.0		378444.0		34403.0
252060.0		272757.0		252060.0		20697.0
135733.0		149605.0		135733.0		13872.0
53328.0		57403.0		53328.0		4075.0
10198.0		10987.0		10198.0		789.0
4711.0		4956.0		4711.0		245.0
1906.0		1956.0		1906.0		50.0
909.0		967.0		909.0		58.0
935.0		974.0		935.0		39.0
