0 < |eta| < 0.6
440412.185	578558.79	 428614.83999999997		139317.712
803216.88	986484.57	 780920.19		184411.75199999998
1208959.55	1418845.6400000001	 1177911.9000000001		211244.953
1523740.49	1765093.79	 1483596.0599999998		242790.98200000002
1051513.09	1201990.55	 1025970.0700000002		151912.474
671822.2600000001	766453.8099999999	 660081.69		95628.56
317146.638	347664.26399999997	 311750.839		30930.934599999997
69387.519	77426.65	 68481.23700000001		8135.3171
31249.151800000003	34468.85249999999	 30728.8575		3261.27401
13160.132399999999	14456.8366	 12844.2477		1328.47541
6548.9606	7372.495800000001	 6406.7965		845.0687800000001
7052.726299999999	7904.0567	 6943.281400000001		847.53625
0.6 < |eta| < 0.8
129824.17199999999	170449.82899999997	 126824.56599999999		40996.111399999994
262668.908	319310.90299999993	 256380.039		57128.7769
408870.852	476585.939	 398920.478		68212.552
506014.327	564303.61	 494141.127		58425.5426
340734.16500000004	386087.22800000006	 332309.513		45447.068999999996
223898.77200000006	245702.214	 219911.232		22083.7811
101057.269	110398.801	 99461.236		9220.459
23172.8465	24719.2822	 22794.012		1554.57355
9857.717299999998	10918.778300000002	 9799.831600000001		1100.9256960000002
3960.3017900000004	4645.6229299999995	 3942.6011800000006		682.6113999999999
2057.28064	2230.50734	 2021.29722		169.41931000000002
2161.37357	2420.41523	 2122.72243		281.63323800000006
0.8 < |eta| < 1.15
223834.15600000002	299757.67600000004	 219019.59199999998		75722.915
415737.494	509181.734	 406222.652		93343.06700000001
666834.37	774215.2599999999	 651449.75		107090.65800000001
785308.91	937095.19	 765368.68		150108.787
564444.94	615526.11	 551701.09		51239.8079
363635.134	391998.4019999999	 357612.448		28439.726400000003
158625.736	174013.402	 156072.874		15307.343400000002
35847.436499999996	39566.89040000001	 35365.8404		3743.5653000000007
16684.9692	17667.112399999998	 16464.582399999996		956.30799
7145.480099999999	7616.3072	 7045.9803999999995		465.5319300463252
3472.5995999999996	3623.138099999999	 3436.4051000000004		138.06990004632522
3778.4767500000007	4005.73185	 3683.15004		232.18814999999998
1.15 < |eta| < 1.37
132189.035	178550.17799999999	 128740.072		46765.619999999995
228145.67099999997	285888.70499999996	 222899.892		58214.1033
361947.32700000005	423779.95200000005	 353290.4320000001		62040.309
477494.22699999996	535847.801	 466464.81200000003		58396.307
320962.856	354186.657	 314203.3		33240.6239
207327.326	223541.28600000002	 203425.287		16273.507000000001
92436.55599999998	99115.26700000002	 90754.80099999999		6644.139799999999
20714.6142	21980.7689	 20392.7445		1254.8032000000003
9600.4329	10152.4029	 9498.4001		539.77748
4016.1401199999996	4238.895020000001	 3966.419790000001		223.05046
2111.22478	2207.5347199999997	 2110.3797		84.30921599999999
2085.86318	2216.3638800000003	 2028.2574500000003		125.982982
1.52 < |eta| < 1.81
157785.23200000002	207147.916	 153673.87199999997		49151.4186
260024.95700000002	319770.954	 253618.973		59460.59799999999
372534.26100000006	442575.9469999999	 363472.931		69622.44799999999
468389.4419999999	540509.89	 456110.338		71517.263
328836.867	370053.32600000006	 320815.812		41150.0004
211042.68	238571.73799999998	 223552.53999999998		27451.502400000005
95903.22200000001	104244.675	 93697.77799999999		8330.438
21130.877000000004	22934.774	 20755.0289		1788.11675
9670.576200000001	10255.188199999999	 9512.2766		596.0432659530001
4065.2717000000002	4322.3968	 3890.5887000000002		274.394151
2118.1794499999996	2252.76215	 2083.83499		144.14147999999997
2148.72812	2265.3517199999997	 2062.8698900000004		110.91988099999999
1.81 < |eta| < 2.01
103579.51299999999	131885.75000000003	 101425.88399999999		28183.037600000003
172033.00000000003	202156.2	 167414.551		30043.4918
235412.33299999998	269827.524	 229583.435		34119.543000000005
288952.415	321623.42699999997	 281415.085		32377.740500000004
188055.282	209708.998	 183224.75100000002		21655.923899999998
115875.41300000003	128811.147	 113412.642		12872.2376
51772.85930000001	57792.5441	 50663.105200000005		6047.376359999999
11727.5379	12870.985299999998	 11412.4409		1144.0727
5464.90878	5833.3485	 5389.35033		359.26893
2160.8648	2335.0449	 2124.3187000000003		161.372932
1069.73781	1206.77698	 1037.1946699999999		134.538453
1114.671204	1195.055004	 1113.574736		76.52718
2.01 < |eta| < 2.37
175586.059	226350.238	 170686.84399999998		50216.86380000001
269560.386	338502.70900000003	 262034.27599999998		68125.39199999999
365860.07200000004	426443.673	 356896.033		60343.979
415949.61600000004	479930.50200000004	 404570.198		63434.024999999994
271443.544	312879.501	 263996.127		40988.9331
165178.151	189616.30599999998	 160489.516		24170.1423
74689.067	83933.835	 73038.66200000001		9171.0662
16282.248	18216.602	 15821.507		1886.64015
7113.316970000001	8100.865270000001	 6991.05328		951.6735199999999
2937.58681	3283.2953600000005	 2890.8521299999998		329.33073
1332.93636	1495.90298	 1316.6530599999999		165.87592
1348.0796400000004	1523.55284	 1313.5894		179.06342999999998