0.00<|#eta|<0.60
0.006381198374812436
0.0037108432678494285
0.0016888274609477838
0.0006805094616696428
0.0005818867866246302
0.0008603211629067964
0.0014698129215853228
0.001695597382685432
0.0012434859602726833
0.001979173285439728
0.00013637271348554414
0.0006494583846179403
0.60<|#eta|<0.80
0.0063776360685383615
0.004022023829499344
0.0014900028037624358
0.0006264355840024383
0.00045031345935842015
0.0008742390298132063
0.0009326874801626195
0.002389517759030957
0.0010098924953645394
0.0002867457851547517
0.0004901230328671069
0.0004185256380373481
0.80<|#eta|<1.15
0.006387792828475458
0.0040194277599145956
0.0016910151464564205
0.0007684915382288882
0.00041792346398239477
0.0008776081195428498
0.001126439088548592
0.0018200914938456547
0.0006968231144649506
0.001785569540253773
0.0038994833155279185
0.0008622281166263956
1.15<|#eta|<1.37
0.007018593440192733
0.004115169444901534
0.001831136053770055
0.0007548651851840837
0.0008380693613365686
0.001048585863084206
0.0007892193428566951
0.0018887110808849528
0.004812558645501119
0.003721810841194717
0.0019585061633297096
0.005356687748898192
1.52<|#eta|<1.81
0.016684139020171962
0.011688026365264892
0.004022890895699183
0.0016762221612276473
0.001327053389155286
0.0022247057477277066
0.0025411796928398456
0.0026311334590404245
0.003274523592874057
0.0029214237878175675
0.0032057894381227747
0.00020514497868207027
1.81<|#eta|<2.01
0.006952794997681755
0.004255300622242664
0.0019110686955297052
0.0011195946472054574
0.000801332459293369
0.001136222259890629
0.001053185810540369
6.761535056987178e-05
0.00037684030664986157
0.0008606852575332447
0.0009614708433283159
0.0009668949396682835
2.01<|#eta|<2.37
0.004825983173966764
0.002709194348656463
0.0012384843820343328
0.000777026860201202
0.0005737407426206209
0.0007477917385824151
0.000694505417199176
0.0008781442736777167
0.001451732304546205
0.004545520499137368
0.0002942116930437777
0.0004982448732540057
