0.00<|#eta|<0.60
0.005496231299161436
0.0033859298120546555
0.0015602570254251713
0.0007031513235014053
0.0005406979630134812
0.0008086578328881933
0.0015805171029316112
0.00144966096907162
0.0017323987063988522
0.0019770832191563503
0.0006704544438638216
0.0005767239267946422
0.60<|#eta|<0.80
0.004637866868227647
0.003003111781762491
0.0011749981037120216
0.0006209887435554284
0.0004499356609368732
0.0007763679779034804
0.0014644595935436877
0.002176930292181023
0.0012281075023156118
0.0005459720062175322
0.0019329571296218262
0.0013758559037823082
0.80<|#eta|<1.15
0.004907301681462806
0.003060849943563926
0.001484557606110437
0.0006874385927109206
0.00037744428669617136
0.0009029942641509692
0.0009371734180994018
0.0018494707069893757
0.0010784781836352675
0.001991520949836678
0.001954864221634822
0.001663130146671743
1.15<|#eta|<1.37
0.005494418215537977
0.002994630286474065
0.001553908995144515
0.0007494185868969216
0.0007908058221637315
0.0007709511442893779
0.0014015784075821491
0.001499717144576307
0.004492171575457671
0.002029855167031247
0.002439594124725497
0.0027815562195685484
1.52<|#eta|<1.81
0.015396924894604203
0.010839184621202702
0.0037926885851168324
0.0016505958259174225
0.0013008097274711528
0.0023607630141458946
0.0025840694339183123
0.0029105328954396326
0.00398220686576245
0.004109372809781964
0.0028866391971797967
0.00015780382975560947
1.81<|#eta|<2.01
0.004428428367574733
0.0031013302729305803
0.00154152993462231
0.0008808733088774279
0.0007423831666677483
0.0008429429557056389
0.0009952255895253614
0.00041499675429990113
0.0008802654432278345
0.0015451700283681813
0.003496222095467294
0.0027973913140662
2.01<|#eta|<2.37
0.004539508000120707
0.0024206116968334968
0.001268532451641824
0.0006747873121482062
0.0005082815440593524
0.0007655727841312521
0.0003299425443435977
0.00154868021785326
0.0012757088727679555
0.005153750248547695
0.004178455861411856
0.00021995715932232596
