0.00<|#eta|<0.60
0.0027426708766631336
0.0021586733528283775
0.0010499919573297989
0.0005874244893285807
0.00043247298418369606
0.0009930204385469876
0.00047594024439545635
0.0011445514661972966
0.00043841385706167024
0.0004940076198983734
0.0016755240608070654
0.0009721179811921221
0.60<|#eta|<0.80
0.0036060036035225895
0.002041419062345451
0.0008954047963708467
0.0006429741891190721
0.0003589853688861222
0.0008953247597829339
0.0007070576546499563
0.00026666774139805227
0.00044329120746755546
0.00045284220665797736
0.0011237818021039292
0.004993103162481138
0.80<|#eta|<1.15
0.0029762228016365633
0.0018465517257968411
0.0011611361887956528
0.00041524451505747795
0.0004563498763480167
0.0008356304296746053
0.0008086796659696471
0.001419349351928778
0.0003611010392944314
0.00026741709248301326
0.0013215329047623348
0.0013222780840639325
1.15<|#eta|<1.37
0.003056734755725321
0.002526010185554761
0.0010127553181208393
0.0006524382912838078
0.0003390133629110892
0.0010457933704682842
0.0007347501027781256
0.0011447832578869166
0.0016686337125664252
0.0024736076150241315
0.00014775989071114104
0.0011149564330815709
1.52<|#eta|<1.81
0.007417781257016864
0.0076262191104043975
0.0036285033197985816
0.0014824059535284428
0.0016971794580759036
0.002414786324278162
0.0022048541425691015
0.0024987778931814253
0.0004326185930483284
0.0005317624602040327
0.0017787513845207714
0.004889423800210513
1.81<|#eta|<2.01
0.0031306187022944743
0.0017813447738409538
0.0013626588689352737
0.0005592029274714694
0.0008303488163184936
0.00035604447386772264
0.000745885177868999
0.0006081437351946883
0.001193978053939726
0.0024539569566074393
0.0028989413163058586
0.00035774450884162867
2.01<|#eta|<2.37
0.0011653730301579568
0.0017696734997604269
0.0010512763220128507
0.00044710699410410726
0.0006168085797914058
0.0008484943710977966
0.0006043790135344951
0.0011867301532941799
0.001347213564497074
0.002378497790868961
0.00019319259545458323
0.0021556962992730355
