0.00<|#eta|<0.60
361574.0		442181.0		361574.0		80607.0
699081.0		831765.0		699081.0		132684.0
1129020.0		1299060.0		1129020.0		170029.0
1462830.0		1659830.0		1462830.0		196997.0
1013310.0		1123750.0		1013310.0		110446.0
592472.0		642210.0		592472.0		49738.0
253106.0		267976.0		253106.0		14870.0
54539.0		56257.0		54539.0		1718.0
24866.0		25640.0		24866.0		774.0
10911.0		11196.0		10911.0		285.0
5488.0		5624.0		5488.0		136.0
5872.0		6186.0		5872.0		314.0
0.60<|#eta|<0.80
107506.0		134987.0		107506.0		27481.0
230571.0		277788.0		230571.0		47217.0
380712.0		440910.0		380712.0		60198.0
461440.0		530652.0		461440.0		69212.0
328928.0		359012.0		328928.0		30084.0
186769.0		203343.0		186769.0		16574.0
79540.0		83734.0		79540.0		4194.0
17087.0		17815.0		17087.0		728.0
7740.0		7887.0		7740.0		147.0
3250.0		3354.0		3250.0		104.0
1785.0		1826.0		1785.0		41.0
1814.0		1875.0		1814.0		61.0
0.80<|#eta|<1.15
192511.0		235691.0		192511.0		43180.0
361383.0		436803.0		361383.0		75420.0
609870.0		710505.0		609870.0		100635.0
775828.0		877441.0		775828.0		101613.0
509825.0		566898.0		509825.0		57073.0
293720.0		320896.0		293720.0		27176.0
122642.0		130641.0		122642.0		7999.0
26953.0		28105.0		26953.0		1152.0
12591.0		12792.0		12591.0		201.0
5590.0		5682.0		5590.0		92.0
2686.0		2726.0		2686.0		40.0
3066.0		3131.0		3066.0		65.0
1.15<|#eta|<1.37
105345.0		138646.0		105345.0		33301.0
187904.0		240324.0		187904.0		52420.0
321116.0		384073.0		321116.0		62957.0
416238.0		494196.0		416238.0		77958.0
280911.0		318571.0		280911.0		37660.0
163776.0		181664.0		163776.0		17888.0
67843.0		72351.0		67843.0		4508.0
14636.0		15365.0		14636.0		729.0
6935.0		7125.0		6935.0		190.0
3086.0		3182.0		3086.0		96.0
1644.0		1688.0		1644.0		44.0
1666.0		1754.0		1666.0		88.0
1.52<|#eta|<1.81
131921.0		164168.0		131921.0		32247.0
219467.0		272496.0		219467.0		53029.0
335838.0		402108.0		335838.0		66270.0
417556.0		491525.0		417556.0		73969.0
308563.0		343401.0		308563.0		34838.0
184662.0		201917.0		184662.0		17255.0
71708.0		78129.0		71708.0		6421.0
14923.0		16004.0		14923.0		1081.0
6930.0		7183.0		6930.0		253.0
3216.0		3305.0		3216.0		89.0
1567.0		1612.0		1567.0		45.0
1676.0		1719.0		1676.0		43.0
1.81<|#eta|<2.01
96089.0		104078.0		96089.0		7989.0
151061.0		168706.0		151061.0		17645.0
219992.0		240241.0		219992.0		20249.0
267253.0		294151.0		267253.0		26898.0
188833.0		201445.0		188833.0		12612.0
107356.0		114044.0		107356.0		6688.0
41394.0		43836.0		41394.0		2442.0
8329.0		8845.0		8329.0		516.0
3727.0		3864.0		3727.0		137.0
1593.0		1627.0		1593.0		34.0
738.0		767.0		738.0		29.0
804.0		841.0		804.0		37.0
2.01<|#eta|<2.37
167082.0		184508.0		167082.0		17426.0
263857.0		288958.0		263857.0		25101.0
349788.0		382130.0		349788.0		32342.0
399193.0		435748.0		399193.0		36555.0
267597.0		290009.0		267597.0		22412.0
146268.0		161026.0		146268.0		14758.0
56145.0		60488.0		56145.0		4343.0
10818.0		11675.0		10818.0		857.0
4934.0		5157.0		4934.0		223.0
2020.0		2083.0		2020.0		63.0
969.0		1029.0		969.0		60.0
969.0		1014.0		969.0		45.0
