0.00<|#eta|<0.60
0.004193433448558048
0.003632697327126566
0.0016349329256692968
0.0006680725874892435
0.0005127765790255978
0.0006829438669316845
0.0006221412739748633
0.0005030861962305178
0.00021959382864300547
0.0008838760702725157
0.0002719086259559411
0.0020596068384975963
0.60<|#eta|<0.80
0.003969759344230939
0.0039567258873545175
0.0009749932490341617
0.0005865323730549488
0.0006097730135123935
0.0003943736901206307
0.00015448635520831644
0.0013201637508984954
0.0009800449228712926
0.0014127705675237578
0.004175148277501095
0.0023697137580794836
0.80<|#eta|<1.15
0.005788408590426064
0.005452672778638923
0.0018538289832726873
0.0005727238227662967
0.00036420193118624766
0.0005302756056182467
0.0005164157705962458
0.00023898875576744416
0.0015582115765359061
0.0015211011854863177
0.0026009578622295804
0.002629689978292493
1.15<|#eta|<1.37
0.006571925095080977
0.0046381192453542885
0.002041067102058647
0.0008312013174720523
0.0008670599281646041
0.0010873660116953454
0.0010510167996727882
0.000597954984165816
0.0001414052143173805
0.0012128108732714082
6.015876043607982e-05
0.005726593183833839
1.52<|#eta|<1.81
0.020526698367079987
0.017695075811410943
0.00607296095807619
0.0024270631000020693
0.0021286810054351735
0.004564759273152363
0.0033594349506409493
0.0036929452271963203
0.0006686113645993919
0.0011888698726822966
0.0015925639669690517
0.0048271131772926745
1.81<|#eta|<2.01
0.0026259831717136972
0.0041034129744217385
0.0018655561772519258
0.0006138588322461835
0.0007750744992068848
0.00044211837978169743
0.0005692109383128585
0.0008185824133163377
0.0017613419365213323
0.007466758996031664
0.0009178762255630524
8.056370724340844e-05
2.01<|#eta|<2.37
0.002168320441296001
0.0021198814123487564
0.001180608447545195
0.0003847184059079245
0.000325415020379749
0.0006033734399230051
4.356987490028441e-05
0.00131996369468379
0.002560871914851881
0.003659972098603248
0.0037385319026413955
0.0012575483275214516
