0.00<|#eta|<0.60
282541.0		355753.0		282541.0		73212.0
520923.0		631542.0		520923.0		110619.0
803919.0		968210.0		803919.0		164297.0
1093100.0		1267390.0		1093100.0		174297.0
756024.0		847912.0		756024.0		91888.0
440507.0		480297.0		440507.0		39790.0
191559.0		205827.0		191559.0		14268.0
40615.0		43062.0		40615.0		2447.0
18663.0		19265.0		18663.0		602.0
8288.0		8522.0		8288.0		234.0
4192.0		4299.0		4192.0		107.0
4496.0		4662.0		4496.0		166.0
0.60<|#eta|<0.80
79435.0		98620.0		79435.0		19185.0
169436.0		203945.0		169436.0		34509.0
274641.0		328245.0		274641.0		53604.0
348367.0		404244.0		348367.0		55877.0
244209.0		271811.0		244209.0		27602.0
141401.0		153683.0		141401.0		12282.0
61525.0		65032.0		61525.0		3507.0
12742.0		13350.0		12742.0		608.0
5918.0		6064.0		5918.0		146.0
2629.0		2677.0		2629.0		48.0
1338.0		1382.0		1338.0		44.0
1442.0		1474.0		1442.0		32.0
0.80<|#eta|<1.15
142810.0		171975.0		142810.0		29165.0
267735.0		315206.0		267735.0		47471.0
448834.0		524724.0		448834.0		75890.0
573711.0		666298.0		573711.0		92587.0
376402.0		429478.0		376402.0		53076.0
222939.0		244041.0		222939.0		21102.0
95722.0		101765.0		95722.0		6043.0
20199.0		21209.0		20199.0		1010.0
9744.0		9926.0		9744.0		182.0
4210.0		4296.0		4210.0		86.0
2112.0		2128.0		2112.0		16.0
2340.0		2379.0		2340.0		39.0
1.15<|#eta|<1.37
77904.0		100792.0		77904.0		22888.0
137153.0		172225.0		137153.0		35072.0
229165.0		280205.0		229165.0		51040.0
307958.0		372976.0		307958.0		65018.0
212683.0		239568.0		212683.0		26885.0
123545.0		136699.0		123545.0		13154.0
53993.0		57292.0		53993.0		3299.0
11288.0		11767.0		11288.0		479.0
5309.0		5411.0		5309.0		102.0
2429.0		2469.0		2429.0		40.0
1186.0		1213.0		1186.0		27.0
1278.0		1314.0		1278.0		36.0
1.52<|#eta|<1.81
98471.0		118965.0		98471.0		20494.0
159062.0		190841.0		159062.0		31779.0
236643.0		288987.0		236643.0		52344.0
309527.0		368565.0		309527.0		59038.0
227896.0		255295.0		227896.0		27399.0
135296.0		147273.0		135296.0		11977.0
56126.0		60984.0		56126.0		4858.0
11335.0		12044.0		11335.0		709.0
5417.0		5568.0		5417.0		151.0
2277.0		2346.0		2277.0		69.0
1198.0		1220.0		1198.0		22.0
1276.0		1317.0		1276.0		41.0
1.81<|#eta|<2.01
70696.0		77253.0		70696.0		6557.0
112281.0		123961.0		112281.0		11680.0
161122.0		176713.0		161122.0		15591.0
199889.0		220812.0		199889.0		20923.0
137905.0		147443.0		137905.0		9538.0
77796.0		82446.0		77796.0		4650.0
32550.0		34331.0		32550.0		1781.0
6511.0		6972.0		6511.0		461.0
2935.0		3009.0		2935.0		74.0
1218.0		1239.0		1218.0		21.0
575.0		609.0		575.0		34.0
527.0		549.0		527.0		22.0
2.01<|#eta|<2.37
123496.0		138377.0		123496.0		14881.0
193558.0		214201.0		193558.0		20643.0
258435.0		282456.0		258435.0		24021.0
294133.0		324092.0		294133.0		29959.0
191969.0		209451.0		191969.0		17482.0
103886.0		115298.0		103886.0		11412.0
43428.0		47173.0		43428.0		3745.0
8810.0		9469.0		8810.0		659.0
3847.0		4046.0		3847.0		199.0
1510.0		1609.0		1510.0		99.0
728.0		791.0		728.0		63.0
650.0		698.0		650.0		48.0
