0.00<|#eta|<0.60
281371.0		355753.0		281371.0		74382.0
516137.0		631542.0		516137.0		115405.0
829990.0		968210.0		829990.0		138226.0
1086820.0		1267390.0		1086820.0		180583.0
759376.0		847912.0		759376.0		88536.0
439763.0		480297.0		439763.0		40534.0
192094.0		205827.0		192094.0		13733.0
41199.0		43062.0		41199.0		1863.0
18550.0		19265.0		18550.0		715.0
8291.0		8522.0		8291.0		231.0
4185.0		4299.0		4185.0		114.0
4381.0		4662.0		4381.0		281.0
0.60<|#eta|<0.80
76540.0		98620.0		76540.0		22080.0
166811.0		203945.0		166811.0		37134.0
281118.0		328245.0		281118.0		47127.0
349816.0		404244.0		349816.0		54428.0
245100.0		271811.0		245100.0		26711.0
141138.0		153683.0		141138.0		12545.0
61121.0		65032.0		61121.0		3911.0
12690.0		13350.0		12690.0		660.0
5903.0		6064.0		5903.0		161.0
2623.0		2677.0		2623.0		54.0
1358.0		1382.0		1358.0		24.0
1446.0		1474.0		1446.0		28.0
0.80<|#eta|<1.15
136984.0		171975.0		136984.0		34991.0
260311.0		315206.0		260311.0		54895.0
448274.0		524724.0		448274.0		76450.0
573516.0		666298.0		573516.0		92782.0
376752.0		429478.0		376752.0		52726.0
223946.0		244041.0		223946.0		20095.0
95110.0		101765.0		95110.0		6655.0
20038.0		21209.0		20038.0		1171.0
9683.0		9926.0		9683.0		243.0
4155.0		4296.0		4155.0		141.0
2092.0		2128.0		2092.0		36.0
2334.0		2379.0		2334.0		45.0
1.15<|#eta|<1.37
75677.0		100792.0		75677.0		25115.0
134307.0		172225.0		134307.0		37918.0
228773.0		280205.0		228773.0		51432.0
307623.0		372976.0		307623.0		65353.0
212833.0		239568.0		212833.0		26735.0
124125.0		136699.0		124125.0		12574.0
53704.0		57292.0		53704.0		3588.0
11205.0		11767.0		11205.0		562.0
5307.0		5411.0		5307.0		104.0
2403.0		2469.0		2403.0		66.0
1183.0		1213.0		1183.0		30.0
1256.0		1314.0		1256.0		58.0
1.52<|#eta|<1.81
95919.0		118965.0		95919.0		23046.0
154982.0		190841.0		154982.0		35859.0
236169.0		288987.0		236169.0		52818.0
309228.0		368565.0		309228.0		59337.0
227084.0		255295.0		227084.0		28211.0
135642.0		147273.0		135642.0		11631.0
55746.0		60984.0		55746.0		5238.0
11333.0		12044.0		11333.0		711.0
5378.0		5568.0		5378.0		190.0
2282.0		2346.0		2282.0		64.0
1185.0		1220.0		1185.0		35.0
1272.0		1317.0		1272.0		45.0
1.81<|#eta|<2.01
69218.0		77253.0		69218.0		8035.0
109735.0		123961.0		109735.0		14226.0
161034.0		176713.0		161034.0		15679.0
200368.0		220812.0		200368.0		20444.0
138424.0		147443.0		138424.0		9019.0
77677.0		82446.0		77677.0		4769.0
32384.0		34331.0		32384.0		1947.0
6500.0		6972.0		6500.0		472.0
2904.0		3009.0		2904.0		105.0
1185.0		1239.0		1185.0		54.0
582.0		609.0		582.0		27.0
526.0		549.0		526.0		23.0
2.01<|#eta|<2.37
124072.0		138377.0		124072.0		14305.0
193343.0		214201.0		193343.0		20858.0
258093.0		282456.0		258093.0		24363.0
293359.0		324092.0		293359.0		30733.0
191820.0		209451.0		191820.0		17631.0
103839.0		115298.0		103839.0		11459.0
43339.0		47173.0		43339.0		3834.0
8795.0		9469.0		8795.0		674.0
3835.0		4046.0		3835.0		211.0
1522.0		1609.0		1522.0		87.0
728.0		791.0		728.0		63.0
652.0		698.0		652.0		46.0
