0.00<|#eta|<0.60
285708.0		355753.0		285708.0		70045.0
519730.0		631542.0		519730.0		111812.0
813694.0		968210.0		813694.0		154522.0
1098430.0		1267390.0		1098430.0		168973.0
757479.0		847912.0		757479.0		90433.0
437609.0		480297.0		437609.0		42688.0
193043.0		205827.0		193043.0		12784.0
41244.0		43062.0		41244.0		1818.0
18563.0		19265.0		18563.0		702.0
8308.0		8522.0		8308.0		214.0
4189.0		4299.0		4189.0		110.0
4447.0		4662.0		4447.0		215.0
0.60<|#eta|<0.80
78313.0		98620.0		78313.0		20307.0
166882.0		203945.0		166882.0		37063.0
276531.0		328245.0		276531.0		51714.0
352961.0		404244.0		352961.0		51283.0
245260.0		271811.0		245260.0		26551.0
140893.0		153683.0		140893.0		12790.0
61436.0		65032.0		61436.0		3596.0
12780.0		13350.0		12780.0		570.0
5870.0		6064.0		5870.0		194.0
2637.0		2677.0		2637.0		40.0
1356.0		1382.0		1356.0		26.0
1443.0		1474.0		1443.0		31.0
0.80<|#eta|<1.15
141213.0		171975.0		141213.0		30762.0
264816.0		315206.0		264816.0		50390.0
443534.0		524724.0		443534.0		81190.0
573349.0		666298.0		573349.0		92949.0
376824.0		429478.0		376824.0		52654.0
219509.0		244041.0		219509.0		24532.0
94817.0		101765.0		94817.0		6948.0
20141.0		21209.0		20141.0		1068.0
9704.0		9926.0		9704.0		222.0
4176.0		4296.0		4176.0		120.0
2109.0		2128.0		2109.0		19.0
2344.0		2379.0		2344.0		35.0
1.15<|#eta|<1.37
76212.0		100792.0		76212.0		24580.0
135699.0		172225.0		135699.0		36526.0
228602.0		280205.0		228602.0		51603.0
306905.0		372976.0		306905.0		66071.0
209714.0		239568.0		209714.0		29854.0
122271.0		136699.0		122271.0		14428.0
53475.0		57292.0		53475.0		3817.0
11214.0		11767.0		11214.0		553.0
5303.0		5411.0		5303.0		108.0
2433.0		2469.0		2433.0		36.0
1193.0		1213.0		1193.0		20.0
1271.0		1314.0		1271.0		43.0
1.52<|#eta|<1.81
97205.0		118965.0		97205.0		21760.0
158254.0		190841.0		158254.0		32587.0
237434.0		288987.0		237434.0		51553.0
311480.0		368565.0		311480.0		57085.0
226993.0		255295.0		226993.0		28302.0
134665.0		147273.0		134665.0		12608.0
55584.0		60984.0		55584.0		5400.0
11307.0		12044.0		11307.0		737.0
5391.0		5568.0		5391.0		177.0
2289.0		2346.0		2289.0		57.0
1191.0		1220.0		1191.0		29.0
1281.0		1317.0		1281.0		36.0
1.81<|#eta|<2.01
70042.0		77253.0		70042.0		7211.0
111848.0		123961.0		111848.0		12113.0
160467.0		176713.0		160467.0		16246.0
199888.0		220812.0		199888.0		20924.0
137809.0		147443.0		137809.0		9634.0
77219.0		82446.0		77219.0		5227.0
32350.0		34331.0		32350.0		1981.0
6456.0		6972.0		6456.0		516.0
2895.0		3009.0		2895.0		114.0
1189.0		1239.0		1189.0		50.0
581.0		609.0		581.0		28.0
527.0		549.0		527.0		22.0
2.01<|#eta|<2.37
123353.0		138377.0		123353.0		15024.0
192905.0		214201.0		192905.0		21296.0
257565.0		282456.0		257565.0		24891.0
293456.0		324092.0		293456.0		30636.0
191824.0		209451.0		191824.0		17627.0
103927.0		115298.0		103927.0		11371.0
43403.0		47173.0		43403.0		3770.0
8783.0		9469.0		8783.0		686.0
3850.0		4046.0		3850.0		196.0
1511.0		1609.0		1511.0		98.0
737.0		791.0		737.0		54.0
655.0		698.0		655.0		43.0
