0.00<|#eta|<0.60
283924.0		355753.0		283924.0		71829.0
518023.0		631542.0		518023.0		113519.0
827499.0		968210.0		827499.0		140717.0
1097710.0		1267390.0		1097710.0		169681.0
757324.0		847912.0		757324.0		90588.0
438126.0		480297.0		438126.0		42171.0
193360.0		205827.0		193360.0		12467.0
41339.0		43062.0		41339.0		1723.0
18567.0		19265.0		18567.0		698.0
8345.0		8522.0		8345.0		177.0
4186.0		4299.0		4186.0		113.0
4369.0		4662.0		4369.0		293.0
0.60<|#eta|<0.80
76521.0		98620.0		76521.0		22099.0
169286.0		203945.0		169286.0		34659.0
280145.0		328245.0		280145.0		48100.0
351260.0		404244.0		351260.0		52984.0
244912.0		271811.0		244912.0		26899.0
141231.0		153683.0		141231.0		12452.0
61253.0		65032.0		61253.0		3779.0
12835.0		13350.0		12835.0		515.0
5870.0		6064.0		5870.0		194.0
2636.0		2677.0		2636.0		41.0
1342.0		1382.0		1342.0		40.0
1430.0		1474.0		1430.0		44.0
0.80<|#eta|<1.15
134500.0		171975.0		134500.0		37475.0
261351.0		315206.0		261351.0		53855.0
451225.0		524724.0		451225.0		73499.0
582579.0		666298.0		582579.0		83719.0
380176.0		429478.0		380176.0		49302.0
220200.0		244041.0		220200.0		23841.0
94595.0		101765.0		94595.0		7170.0
20137.0		21209.0		20137.0		1072.0
9734.0		9926.0		9734.0		192.0
4165.0		4296.0		4165.0		131.0
2103.0		2128.0		2103.0		25.0
2335.0		2379.0		2335.0		44.0
1.15<|#eta|<1.37
75019.0		100792.0		75019.0		25773.0
133249.0		172225.0		133249.0		38976.0
232129.0		280205.0		232129.0		48076.0
313075.0		372976.0		313075.0		59901.0
213680.0		239568.0		213680.0		25888.0
121800.0		136699.0		121800.0		14899.0
53297.0		57292.0		53297.0		3995.0
11159.0		11767.0		11159.0		608.0
5306.0		5411.0		5306.0		105.0
2413.0		2469.0		2413.0		56.0
1182.0		1213.0		1182.0		31.0
1246.0		1314.0		1246.0		68.0
1.52<|#eta|<1.81
95311.0		118965.0		95311.0		23654.0
155191.0		190841.0		155191.0		35650.0
239115.0		288987.0		239115.0		49872.0
313107.0		368565.0		313107.0		55458.0
228937.0		255295.0		228937.0		26358.0
134230.0		147273.0		134230.0		13043.0
55551.0		60984.0		55551.0		5433.0
11255.0		12044.0		11255.0		789.0
5372.0		5568.0		5372.0		196.0
2288.0		2346.0		2288.0		58.0
1190.0		1220.0		1190.0		30.0
1276.0		1317.0		1276.0		41.0
1.81<|#eta|<2.01
69208.0		77253.0		69208.0		8045.0
109688.0		123961.0		109688.0		14273.0
160671.0		176713.0		160671.0		16042.0
201163.0		220812.0		201163.0		19649.0
137997.0		147443.0		137997.0		9446.0
77288.0		82446.0		77288.0		5158.0
32293.0		34331.0		32293.0		2038.0
6516.0		6972.0		6516.0		456.0
2914.0		3009.0		2914.0		95.0
1179.0		1239.0		1179.0		60.0
578.0		609.0		578.0		31.0
523.0		549.0		523.0		26.0
2.01<|#eta|<2.37
123505.0		138377.0		123505.0		14872.0
192713.0		214201.0		192713.0		21488.0
257897.0		282456.0		257897.0		24559.0
294793.0		324092.0		294793.0		29299.0
192186.0		209451.0		192186.0		17265.0
103765.0		115298.0		103765.0		11533.0
43481.0		47173.0		43481.0		3692.0
8771.0		9469.0		8771.0		698.0
3843.0		4046.0		3843.0		203.0
1513.0		1609.0		1513.0		96.0
740.0		791.0		740.0		51.0
662.0		698.0		662.0		36.0
