0.00<|#eta|<0.60
283577.0		355753.0		283577.0		72176.0
517317.0		631542.0		517317.0		114225.0
826149.0		968210.0		826149.0		142067.0
1094010.0		1267390.0		1094010.0		173384.0
757434.0		847912.0		757434.0		90478.0
439014.0		480297.0		439014.0		41283.0
193421.0		205827.0		193421.0		12406.0
41286.0		43062.0		41286.0		1776.0
18554.0		19265.0		18554.0		711.0
8314.0		8522.0		8314.0		208.0
4184.0		4299.0		4184.0		115.0
4442.0		4662.0		4442.0		220.0
0.60<|#eta|<0.80
76140.0		98620.0		76140.0		22480.0
162459.0		203945.0		162459.0		41486.0
278392.0		328245.0		278392.0		49853.0
351248.0		404244.0		351248.0		52996.0
244502.0		271811.0		244502.0		27309.0
140639.0		153683.0		140639.0		13044.0
61164.0		65032.0		61164.0		3868.0
12730.0		13350.0		12730.0		620.0
5896.0		6064.0		5896.0		168.0
2623.0		2677.0		2623.0		54.0
1349.0		1382.0		1349.0		33.0
1448.0		1474.0		1448.0		26.0
0.80<|#eta|<1.15
136014.0		171975.0		136014.0		35961.0
260030.0		315206.0		260030.0		55176.0
447918.0		524724.0		447918.0		76806.0
575643.0		666298.0		575643.0		90655.0
375679.0		429478.0		375679.0		53799.0
220047.0		244041.0		220047.0		23994.0
94963.0		101765.0		94963.0		6802.0
20045.0		21209.0		20045.0		1164.0
9733.0		9926.0		9733.0		193.0
4165.0		4296.0		4165.0		131.0
2095.0		2128.0		2095.0		33.0
2334.0		2379.0		2334.0		45.0
1.15<|#eta|<1.37
75311.0		100792.0		75311.0		25481.0
133182.0		172225.0		133182.0		39043.0
229434.0		280205.0		229434.0		50771.0
306314.0		372976.0		306314.0		66662.0
211626.0		239568.0		211626.0		27942.0
122298.0		136699.0		122298.0		14401.0
53204.0		57292.0		53204.0		4088.0
11186.0		11767.0		11186.0		581.0
5281.0		5411.0		5281.0		130.0
2420.0		2469.0		2420.0		49.0
1173.0		1213.0		1173.0		40.0
1260.0		1314.0		1260.0		54.0
1.52<|#eta|<1.81
95975.0		118965.0		95975.0		22990.0
156010.0		190841.0		156010.0		34831.0
237012.0		288987.0		237012.0		51975.0
308435.0		368565.0		308435.0		60130.0
226887.0		255295.0		226887.0		28408.0
134222.0		147273.0		134222.0		13051.0
55687.0		60984.0		55687.0		5297.0
11214.0		12044.0		11214.0		830.0
5357.0		5568.0		5357.0		211.0
2291.0		2346.0		2291.0		55.0
1191.0		1220.0		1191.0		29.0
1270.0		1317.0		1270.0		47.0
1.81<|#eta|<2.01
69557.0		77253.0		69557.0		7696.0
110242.0		123961.0		110242.0		13719.0
161233.0		176713.0		161233.0		15480.0
200870.0		220812.0		200870.0		19942.0
137603.0		147443.0		137603.0		9840.0
77517.0		82446.0		77517.0		4929.0
32181.0		34331.0		32181.0		2150.0
6463.0		6972.0		6463.0		509.0
2904.0		3009.0		2904.0		105.0
1209.0		1239.0		1209.0		30.0
583.0		609.0		583.0		26.0
523.0		549.0		523.0		26.0
2.01<|#eta|<2.37
123614.0		138377.0		123614.0		14763.0
192957.0		214201.0		192957.0		21244.0
256397.0		282456.0		256397.0		26059.0
294171.0		324092.0		294171.0		29921.0
192213.0		209451.0		192213.0		17238.0
103878.0		115298.0		103878.0		11420.0
43501.0		47173.0		43501.0		3672.0
8767.0		9469.0		8767.0		702.0
3834.0		4046.0		3834.0		212.0
1518.0		1609.0		1518.0		91.0
742.0		791.0		742.0		49.0
668.0		698.0		668.0		30.0
