0.00<|#eta|<0.60
283191.0		355753.0		283191.0		72562.0
519358.0		631542.0		519358.0		112184.0
825797.0		968210.0		825797.0		142419.0
1100130.0		1267390.0		1100130.0		167255.0
756586.0		847912.0		756586.0		91326.0
439991.0		480297.0		439991.0		40306.0
193500.0		205827.0		193500.0		12327.0
41257.0		43062.0		41257.0		1805.0
18513.0		19265.0		18513.0		752.0
8348.0		8522.0		8348.0		174.0
4164.0		4299.0		4164.0		135.0
4455.0		4662.0		4455.0		207.0
0.60<|#eta|<0.80
79052.0		98620.0		79052.0		19568.0
167463.0		203945.0		167463.0		36482.0
280783.0		328245.0		280783.0		47462.0
351275.0		404244.0		351275.0		52969.0
243791.0		271811.0		243791.0		28020.0
141542.0		153683.0		141542.0		12141.0
61372.0		65032.0		61372.0		3660.0
12735.0		13350.0		12735.0		615.0
5891.0		6064.0		5891.0		173.0
2620.0		2677.0		2620.0		57.0
1340.0		1382.0		1340.0		42.0
1445.0		1474.0		1445.0		29.0
0.80<|#eta|<1.15
136289.0		171975.0		136289.0		35686.0
257510.0		315206.0		257510.0		57696.0
444912.0		524724.0		444912.0		79812.0
575869.0		666298.0		575869.0		90429.0
375868.0		429478.0		375868.0		53610.0
219603.0		244041.0		219603.0		24438.0
94344.0		101765.0		94344.0		7421.0
20036.0		21209.0		20036.0		1173.0
9704.0		9926.0		9704.0		222.0
4160.0		4296.0		4160.0		136.0
2104.0		2128.0		2104.0		24.0
2329.0		2379.0		2329.0		50.0
1.15<|#eta|<1.37
75963.0		100792.0		75963.0		24829.0
132220.0		172225.0		132220.0		40005.0
228551.0		280205.0		228551.0		51654.0
308646.0		372976.0		308646.0		64330.0
211463.0		239568.0		211463.0		28105.0
122118.0		136699.0		122118.0		14581.0
53205.0		57292.0		53205.0		4087.0
11160.0		11767.0		11160.0		607.0
5296.0		5411.0		5296.0		115.0
2410.0		2469.0		2410.0		59.0
1176.0		1213.0		1176.0		37.0
1259.0		1314.0		1259.0		55.0
1.52<|#eta|<1.81
94947.0		118965.0		94947.0		24018.0
155159.0		190841.0		155159.0		35682.0
238210.0		288987.0		238210.0		50777.0
309824.0		368565.0		309824.0		58741.0
227192.0		255295.0		227192.0		28103.0
134068.0		147273.0		134068.0		13205.0
55475.0		60984.0		55475.0		5509.0
11292.0		12044.0		11292.0		752.0
5380.0		5568.0		5380.0		188.0
2284.0		2346.0		2284.0		62.0
1183.0		1220.0		1183.0		37.0
1281.0		1317.0		1281.0		36.0
1.81<|#eta|<2.01
69493.0		77253.0		69493.0		7760.0
110280.0		123961.0		110280.0		13681.0
159338.0		176713.0		159338.0		17375.0
200531.0		220812.0		200531.0		20281.0
138465.0		147443.0		138465.0		8978.0
77500.0		82446.0		77500.0		4946.0
32169.0		34331.0		32169.0		2162.0
6460.0		6972.0		6460.0		512.0
2927.0		3009.0		2927.0		82.0
1198.0		1239.0		1198.0		41.0
583.0		609.0		583.0		26.0
524.0		549.0		524.0		25.0
2.01<|#eta|<2.37
123538.0		138377.0		123538.0		14839.0
193005.0		214201.0		193005.0		21196.0
258244.0		282456.0		258244.0		24212.0
294387.0		324092.0		294387.0		29705.0
192588.0		209451.0		192588.0		16863.0
103892.0		115298.0		103892.0		11406.0
43482.0		47173.0		43482.0		3691.0
8824.0		9469.0		8824.0		645.0
3855.0		4046.0		3855.0		191.0
1503.0		1609.0		1503.0		106.0
738.0		791.0		738.0		53.0
649.0		698.0		649.0		49.0
