0.00<|#eta|<0.60
279839.0		355753.0		279839.0		75914.0
517014.0		631542.0		517014.0		114528.0
833310.0		968210.0		833310.0		134906.0
1093360.0		1267390.0		1093360.0		174044.0
756932.0		847912.0		756932.0		90980.0
439953.0		480297.0		439953.0		40344.0
191124.0		205827.0		191124.0		14703.0
41280.0		43062.0		41280.0		1782.0
18581.0		19265.0		18581.0		684.0
8305.0		8522.0		8305.0		217.0
4190.0		4299.0		4190.0		109.0
4404.0		4662.0		4404.0		258.0
0.60<|#eta|<0.80
77034.0		98620.0		77034.0		21586.0
163780.0		203945.0		163780.0		40165.0
280606.0		328245.0		280606.0		47639.0
351829.0		404244.0		351829.0		52415.0
245313.0		271811.0		245313.0		26498.0
142293.0		153683.0		142293.0		11390.0
61138.0		65032.0		61138.0		3894.0
12803.0		13350.0		12803.0		547.0
5881.0		6064.0		5881.0		183.0
2610.0		2677.0		2610.0		67.0
1350.0		1382.0		1350.0		32.0
1453.0		1474.0		1453.0		21.0
0.80<|#eta|<1.15
137110.0		171975.0		137110.0		34865.0
259765.0		315206.0		259765.0		55441.0
455149.0		524724.0		455149.0		69575.0
588490.0		666298.0		588490.0		77808.0
381975.0		429478.0		381975.0		47503.0
224289.0		244041.0		224289.0		19752.0
95349.0		101765.0		95349.0		6416.0
20008.0		21209.0		20008.0		1201.0
9700.0		9926.0		9700.0		226.0
4176.0		4296.0		4176.0		120.0
2112.0		2128.0		2112.0		16.0
2327.0		2379.0		2327.0		52.0
1.15<|#eta|<1.37
74365.0		100792.0		74365.0		26427.0
134337.0		172225.0		134337.0		37888.0
234197.0		280205.0		234197.0		46008.0
316304.0		372976.0		316304.0		56672.0
214836.0		239568.0		214836.0		24732.0
124521.0		136699.0		124521.0		12178.0
53630.0		57292.0		53630.0		3662.0
11180.0		11767.0		11180.0		587.0
5294.0		5411.0		5294.0		117.0
2390.0		2469.0		2390.0		79.0
1193.0		1213.0		1193.0		20.0
1272.0		1314.0		1272.0		42.0
1.52<|#eta|<1.81
95066.0		118965.0		95066.0		23899.0
155138.0		190841.0		155138.0		35703.0
242046.0		288987.0		242046.0		46941.0
315987.0		368565.0		315987.0		52578.0
229757.0		255295.0		229757.0		25538.0
136346.0		147273.0		136346.0		10927.0
55855.0		60984.0		55855.0		5129.0
11284.0		12044.0		11284.0		760.0
5374.0		5568.0		5374.0		194.0
2280.0		2346.0		2280.0		66.0
1183.0		1220.0		1183.0		37.0
1273.0		1317.0		1273.0		44.0
1.81<|#eta|<2.01
69350.0		77253.0		69350.0		7903.0
110416.0		123961.0		110416.0		13545.0
162882.0		176713.0		162882.0		13831.0
202308.0		220812.0		202308.0		18504.0
138625.0		147443.0		138625.0		8818.0
78138.0		82446.0		78138.0		4308.0
32452.0		34331.0		32452.0		1879.0
6491.0		6972.0		6491.0		481.0
2905.0		3009.0		2905.0		104.0
1184.0		1239.0		1184.0		55.0
578.0		609.0		578.0		31.0
523.0		549.0		523.0		26.0
2.01<|#eta|<2.37
123184.0		138377.0		123184.0		15193.0
192656.0		214201.0		192656.0		21545.0
257367.0		282456.0		257367.0		25089.0
293583.0		324092.0		293583.0		30509.0
192050.0		209451.0		192050.0		17401.0
103719.0		115298.0		103719.0		11579.0
43511.0		47173.0		43511.0		3662.0
8791.0		9469.0		8791.0		678.0
3849.0		4046.0		3849.0		197.0
1529.0		1609.0		1529.0		80.0
736.0		791.0		736.0		55.0
671.0		698.0		671.0		27.0
