0.00<|#eta|<0.60
282977.0		355753.0		282977.0		72776.0
522937.0		631542.0		522937.0		108605.0
825827.0		968210.0		825827.0		142389.0
1089150.0		1267390.0		1089150.0		178240.0
758745.0		847912.0		758745.0		89167.0
440082.0		480297.0		440082.0		40215.0
192236.0		205827.0		192236.0		13591.0
41268.0		43062.0		41268.0		1794.0
18574.0		19265.0		18574.0		691.0
8309.0		8522.0		8309.0		213.0
4169.0		4299.0		4169.0		130.0
4423.0		4662.0		4423.0		239.0
0.60<|#eta|<0.80
76990.0		98620.0		76990.0		21630.0
163831.0		203945.0		163831.0		40114.0
280503.0		328245.0		280503.0		47742.0
351701.0		404244.0		351701.0		52543.0
244888.0		271811.0		244888.0		26923.0
141639.0		153683.0		141639.0		12044.0
61437.0		65032.0		61437.0		3595.0
12794.0		13350.0		12794.0		556.0
5862.0		6064.0		5862.0		202.0
2615.0		2677.0		2615.0		62.0
1344.0		1382.0		1344.0		38.0
1439.0		1474.0		1439.0		35.0
0.80<|#eta|<1.15
137246.0		171975.0		137246.0		34729.0
258434.0		315206.0		258434.0		56772.0
442885.0		524724.0		442885.0		81839.0
576699.0		666298.0		576699.0		89599.0
374797.0		429478.0		374797.0		54681.0
223295.0		244041.0		223295.0		20746.0
95130.0		101765.0		95130.0		6635.0
20013.0		21209.0		20013.0		1196.0
9679.0		9926.0		9679.0		247.0
4149.0		4296.0		4149.0		147.0
2108.0		2128.0		2108.0		20.0
2339.0		2379.0		2339.0		40.0
1.15<|#eta|<1.37
74365.0		100792.0		74365.0		26427.0
133429.0		172225.0		133429.0		38796.0
226094.0		280205.0		226094.0		54111.0
307107.0		372976.0		307107.0		65869.0
209593.0		239568.0		209593.0		29975.0
124133.0		136699.0		124133.0		12566.0
53657.0		57292.0		53657.0		3635.0
11198.0		11767.0		11198.0		569.0
5301.0		5411.0		5301.0		110.0
2386.0		2469.0		2386.0		83.0
1186.0		1213.0		1186.0		27.0
1269.0		1314.0		1269.0		45.0
1.52<|#eta|<1.81
96024.0		118965.0		96024.0		22941.0
155679.0		190841.0		155679.0		35162.0
236538.0		288987.0		236538.0		52449.0
310246.0		368565.0		310246.0		58319.0
227439.0		255295.0		227439.0		27856.0
135747.0		147273.0		135747.0		11526.0
55957.0		60984.0		55957.0		5027.0
11348.0		12044.0		11348.0		696.0
5365.0		5568.0		5365.0		203.0
2284.0		2346.0		2284.0		62.0
1184.0		1220.0		1184.0		36.0
1285.0		1317.0		1285.0		32.0
1.81<|#eta|<2.01
69824.0		77253.0		69824.0		7429.0
110512.0		123961.0		110512.0		13449.0
160988.0		176713.0		160988.0		15725.0
200536.0		220812.0		200536.0		20276.0
138097.0		147443.0		138097.0		9346.0
77619.0		82446.0		77619.0		4827.0
32369.0		34331.0		32369.0		1962.0
6481.0		6972.0		6481.0		491.0
2894.0		3009.0		2894.0		115.0
1189.0		1239.0		1189.0		50.0
582.0		609.0		582.0		27.0
527.0		549.0		527.0		22.0
2.01<|#eta|<2.37
123390.0		138377.0		123390.0		14987.0
193550.0		214201.0		193550.0		20651.0
256871.0		282456.0		256871.0		25585.0
294287.0		324092.0		294287.0		29805.0
192491.0		209451.0		192491.0		16960.0
103862.0		115298.0		103862.0		11436.0
43381.0		47173.0		43381.0		3792.0
8797.0		9469.0		8797.0		672.0
3859.0		4046.0		3859.0		187.0
1507.0		1609.0		1507.0		102.0
729.0		791.0		729.0		62.0
647.0		698.0		647.0		51.0
