0.00<|#eta|<0.60
285482.0		355753.0		285482.0		70271.0
523677.0		631542.0		523677.0		107865.0
813524.0		968210.0		813524.0		154692.0
1095100.0		1267390.0		1095100.0		172301.0
760368.0		847912.0		760368.0		87544.0
439192.0		480297.0		439192.0		41105.0
192738.0		205827.0		192738.0		13089.0
41273.0		43062.0		41273.0		1789.0
18564.0		19265.0		18564.0		701.0
8310.0		8522.0		8310.0		212.0
4172.0		4299.0		4172.0		127.0
4453.0		4662.0		4453.0		209.0
0.60<|#eta|<0.80
77064.0		98620.0		77064.0		21556.0
165688.0		203945.0		165688.0		38257.0
278176.0		328245.0		278176.0		50069.0
352395.0		404244.0		352395.0		51849.0
246232.0		271811.0		246232.0		25579.0
140712.0		153683.0		140712.0		12971.0
60970.0		65032.0		60970.0		4062.0
12836.0		13350.0		12836.0		514.0
5922.0		6064.0		5922.0		142.0
2625.0		2677.0		2625.0		52.0
1364.0		1382.0		1364.0		18.0
1444.0		1474.0		1444.0		30.0
0.80<|#eta|<1.15
140580.0		171975.0		140580.0		31395.0
267650.0		315206.0		267650.0		47556.0
447906.0		524724.0		447906.0		76818.0
571358.0		666298.0		571358.0		94940.0
376581.0		429478.0		376581.0		52897.0
219665.0		244041.0		219665.0		24376.0
94691.0		101765.0		94691.0		7074.0
19992.0		21209.0		19992.0		1217.0
9742.0		9926.0		9742.0		184.0
4182.0		4296.0		4182.0		114.0
2112.0		2128.0		2112.0		16.0
2346.0		2379.0		2346.0		33.0
1.15<|#eta|<1.37
77199.0		100792.0		77199.0		23593.0
136083.0		172225.0		136083.0		36142.0
228996.0		280205.0		228996.0		51209.0
307847.0		372976.0		307847.0		65129.0
210878.0		239568.0		210878.0		28690.0
122125.0		136699.0		122125.0		14574.0
53312.0		57292.0		53312.0		3980.0
11183.0		11767.0		11183.0		584.0
5270.0		5411.0		5270.0		141.0
2432.0		2469.0		2432.0		37.0
1184.0		1213.0		1184.0		29.0
1273.0		1314.0		1273.0		41.0
1.52<|#eta|<1.81
96942.0		118965.0		96942.0		22023.0
157150.0		190841.0		157150.0		33691.0
235760.0		288987.0		235760.0		53227.0
311035.0		368565.0		311035.0		57530.0
228153.0		255295.0		228153.0		27142.0
134455.0		147273.0		134455.0		12818.0
55570.0		60984.0		55570.0		5414.0
11358.0		12044.0		11358.0		686.0
5376.0		5568.0		5376.0		192.0
2278.0		2346.0		2278.0		68.0
1178.0		1220.0		1178.0		42.0
1281.0		1317.0		1281.0		36.0
1.81<|#eta|<2.01
70362.0		77253.0		70362.0		6891.0
110863.0		123961.0		110863.0		13098.0
160663.0		176713.0		160663.0		16050.0
200647.0		220812.0		200647.0		20165.0
137493.0		147443.0		137493.0		9950.0
77470.0		82446.0		77470.0		4976.0
32264.0		34331.0		32264.0		2067.0
6471.0		6972.0		6471.0		501.0
2908.0		3009.0		2908.0		101.0
1191.0		1239.0		1191.0		48.0
581.0		609.0		581.0		28.0
525.0		549.0		525.0		24.0
2.01<|#eta|<2.37
123813.0		138377.0		123813.0		14564.0
192397.0		214201.0		192397.0		21804.0
257052.0		282456.0		257052.0		25404.0
294244.0		324092.0		294244.0		29848.0
191831.0		209451.0		191831.0		17620.0
103472.0		115298.0		103472.0		11826.0
43387.0		47173.0		43387.0		3786.0
8793.0		9469.0		8793.0		676.0
3856.0		4046.0		3856.0		190.0
1525.0		1609.0		1525.0		84.0
735.0		791.0		735.0		56.0
659.0		698.0		659.0		39.0
