0.00<|#eta|<0.60
283967.0		355753.0		283967.0		71786.0
519849.0		631542.0		519849.0		111693.0
818274.0		968210.0		818274.0		149942.0
1098270.0		1267390.0		1098270.0		169135.0
755504.0		847912.0		755504.0		92408.0
440223.0		480297.0		440223.0		40074.0
192098.0		205827.0		192098.0		13729.0
41148.0		43062.0		41148.0		1914.0
18598.0		19265.0		18598.0		667.0
8324.0		8522.0		8324.0		198.0
4188.0		4299.0		4188.0		111.0
4448.0		4662.0		4448.0		214.0
0.60<|#eta|<0.80
79253.0		98620.0		79253.0		19367.0
167138.0		203945.0		167138.0		36807.0
279083.0		328245.0		279083.0		49162.0
351196.0		404244.0		351196.0		53048.0
247839.0		271811.0		247839.0		23972.0
141525.0		153683.0		141525.0		12158.0
61168.0		65032.0		61168.0		3864.0
12805.0		13350.0		12805.0		545.0
5909.0		6064.0		5909.0		155.0
2632.0		2677.0		2632.0		45.0
1349.0		1382.0		1349.0		33.0
1450.0		1474.0		1450.0		24.0
0.80<|#eta|<1.15
139527.0		171975.0		139527.0		32448.0
265713.0		315206.0		265713.0		49493.0
453250.0		524724.0		453250.0		71474.0
580598.0		666298.0		580598.0		85700.0
377777.0		429478.0		377777.0		51701.0
222811.0		244041.0		222811.0		21230.0
95449.0		101765.0		95449.0		6316.0
20004.0		21209.0		20004.0		1205.0
9707.0		9926.0		9707.0		219.0
4197.0		4296.0		4197.0		99.0
2115.0		2128.0		2115.0		13.0
2347.0		2379.0		2347.0		32.0
1.15<|#eta|<1.37
76590.0		100792.0		76590.0		24202.0
135917.0		172225.0		135917.0		36308.0
232924.0		280205.0		232924.0		47281.0
312762.0		372976.0		312762.0		60214.0
213576.0		239568.0		213576.0		25992.0
123897.0		136699.0		123897.0		12802.0
53689.0		57292.0		53689.0		3603.0
11198.0		11767.0		11198.0		569.0
5293.0		5411.0		5293.0		118.0
2423.0		2469.0		2423.0		46.0
1190.0		1213.0		1190.0		23.0
1287.0		1314.0		1287.0		27.0
1.52<|#eta|<1.81
97438.0		118965.0		97438.0		21527.0
157226.0		190841.0		157226.0		33615.0
238135.0		288987.0		238135.0		50852.0
313126.0		368565.0		313126.0		55439.0
229594.0		255295.0		229594.0		25701.0
135634.0		147273.0		135634.0		11639.0
55797.0		60984.0		55797.0		5187.0
11320.0		12044.0		11320.0		724.0
5367.0		5568.0		5367.0		201.0
2281.0		2346.0		2281.0		65.0
1192.0		1220.0		1192.0		28.0
1282.0		1317.0		1282.0		35.0
1.81<|#eta|<2.01
70093.0		77253.0		70093.0		7160.0
111314.0		123961.0		111314.0		12647.0
160675.0		176713.0		160675.0		16038.0
200852.0		220812.0		200852.0		19960.0
138162.0		147443.0		138162.0		9281.0
77751.0		82446.0		77751.0		4695.0
32422.0		34331.0		32422.0		1909.0
6459.0		6972.0		6459.0		513.0
2926.0		3009.0		2926.0		83.0
1188.0		1239.0		1188.0		51.0
581.0		609.0		581.0		28.0
525.0		549.0		525.0		24.0
2.01<|#eta|<2.37
123237.0		138377.0		123237.0		15140.0
192349.0		214201.0		192349.0		21852.0
256985.0		282456.0		256985.0		25471.0
294291.0		324092.0		294291.0		29801.0
192396.0		209451.0		192396.0		17055.0
103770.0		115298.0		103770.0		11528.0
43442.0		47173.0		43442.0		3731.0
8785.0		9469.0		8785.0		684.0
3847.0		4046.0		3847.0		199.0
1508.0		1609.0		1508.0		101.0
736.0		791.0		736.0		55.0
644.0		698.0		644.0		54.0
