0.00<|#eta|<0.60
282695.0		355753.0		282695.0		73058.0
518468.0		631542.0		518468.0		113074.0
820796.0		968210.0		820796.0		147420.0
1091220.0		1267390.0		1091220.0		176174.0
758051.0		847912.0		758051.0		89861.0
440895.0		480297.0		440895.0		39402.0
191971.0		205827.0		191971.0		13856.0
41301.0		43062.0		41301.0		1761.0
18680.0		19265.0		18680.0		585.0
8328.0		8522.0		8328.0		194.0
4157.0		4299.0		4157.0		142.0
4414.0		4662.0		4414.0		248.0
0.60<|#eta|<0.80
76632.0		98620.0		76632.0		21988.0
165822.0		203945.0		165822.0		38123.0
280599.0		328245.0		280599.0		47646.0
348424.0		404244.0		348424.0		55820.0
245202.0		271811.0		245202.0		26609.0
142184.0		153683.0		142184.0		11499.0
61160.0		65032.0		61160.0		3872.0
12824.0		13350.0		12824.0		526.0
5921.0		6064.0		5921.0		143.0
2617.0		2677.0		2617.0		60.0
1359.0		1382.0		1359.0		23.0
1441.0		1474.0		1441.0		33.0
0.80<|#eta|<1.15
135193.0		171975.0		135193.0		36782.0
257731.0		315206.0		257731.0		57475.0
444614.0		524724.0		444614.0		80110.0
572668.0		666298.0		572668.0		93630.0
375485.0		429478.0		375485.0		53993.0
223325.0		244041.0		223325.0		20716.0
95596.0		101765.0		95596.0		6169.0
20137.0		21209.0		20137.0		1072.0
9703.0		9926.0		9703.0		223.0
4156.0		4296.0		4156.0		140.0
2107.0		2128.0		2107.0		21.0
2334.0		2379.0		2334.0		45.0
1.15<|#eta|<1.37
75424.0		100792.0		75424.0		25368.0
133925.0		172225.0		133925.0		38300.0
228996.0		280205.0		228996.0		51209.0
306054.0		372976.0		306054.0		66922.0
210769.0		239568.0		210769.0		28799.0
123889.0		136699.0		123889.0		12810.0
53516.0		57292.0		53516.0		3776.0
11208.0		11767.0		11208.0		559.0
5306.0		5411.0		5306.0		105.0
2409.0		2469.0		2409.0		60.0
1171.0		1213.0		1171.0		42.0
1258.0		1314.0		1258.0		56.0
1.52<|#eta|<1.81
96525.0		118965.0		96525.0		22440.0
155078.0		190841.0		155078.0		35763.0
236199.0		288987.0		236199.0		52788.0
310455.0		368565.0		310455.0		58110.0
228156.0		255295.0		228156.0		27139.0
135664.0		147273.0		135664.0		11609.0
56005.0		60984.0		56005.0		4979.0
11300.0		12044.0		11300.0		744.0
5386.0		5568.0		5386.0		182.0
2285.0		2346.0		2285.0		61.0
1188.0		1220.0		1188.0		32.0
1278.0		1317.0		1278.0		39.0
1.81<|#eta|<2.01
70005.0		77253.0		70005.0		7248.0
108840.0		123961.0		108840.0		15121.0
160141.0		176713.0		160141.0		16572.0
199990.0		220812.0		199990.0		20822.0
137892.0		147443.0		137892.0		9551.0
77798.0		82446.0		77798.0		4648.0
32331.0		34331.0		32331.0		2000.0
6500.0		6972.0		6500.0		472.0
2897.0		3009.0		2897.0		112.0
1188.0		1239.0		1188.0		51.0
580.0		609.0		580.0		29.0
526.0		549.0		526.0		23.0
2.01<|#eta|<2.37
123966.0		138377.0		123966.0		14411.0
193702.0		214201.0		193702.0		20499.0
258080.0		282456.0		258080.0		24376.0
294308.0		324092.0		294308.0		29784.0
192138.0		209451.0		192138.0		17313.0
103876.0		115298.0		103876.0		11422.0
43316.0		47173.0		43316.0		3857.0
8788.0		9469.0		8788.0		681.0
3841.0		4046.0		3841.0		205.0
1500.0		1609.0		1500.0		109.0
731.0		791.0		731.0		60.0
649.0		698.0		649.0		49.0
