0.00<|#eta|<0.60
282886.0		355753.0		282886.0		72867.0
519167.0		631542.0		519167.0		112375.0
817215.0		968210.0		817215.0		151001.0
1096630.0		1267390.0		1096630.0		170773.0
757108.0		847912.0		757108.0		90804.0
439314.0		480297.0		439314.0		40983.0
191789.0		205827.0		191789.0		14038.0
41316.0		43062.0		41316.0		1746.0
18587.0		19265.0		18587.0		678.0
8318.0		8522.0		8318.0		204.0
4210.0		4299.0		4210.0		89.0
4500.0		4662.0		4500.0		162.0
0.60<|#eta|<0.80
77767.0		98620.0		77767.0		20853.0
166744.0		203945.0		166744.0		37201.0
280232.0		328245.0		280232.0		48013.0
352796.0		404244.0		352796.0		51448.0
245233.0		271811.0		245233.0		26578.0
141849.0		153683.0		141849.0		11834.0
61031.0		65032.0		61031.0		4001.0
12754.0		13350.0		12754.0		596.0
5867.0		6064.0		5867.0		197.0
2637.0		2677.0		2637.0		40.0
1353.0		1382.0		1353.0		29.0
1439.0		1474.0		1439.0		35.0
0.80<|#eta|<1.15
140660.0		171975.0		140660.0		31315.0
267093.0		315206.0		267093.0		48113.0
452745.0		524724.0		452745.0		71979.0
580582.0		666298.0		580582.0		85716.0
377852.0		429478.0		377852.0		51626.0
222898.0		244041.0		222898.0		21143.0
94838.0		101765.0		94838.0		6927.0
20097.0		21209.0		20097.0		1112.0
9720.0		9926.0		9720.0		206.0
4182.0		4296.0		4182.0		114.0
2110.0		2128.0		2110.0		18.0
2341.0		2379.0		2341.0		38.0
1.15<|#eta|<1.37
77210.0		100792.0		77210.0		23582.0
136143.0		172225.0		136143.0		36082.0
230090.0		280205.0		230090.0		50115.0
312742.0		372976.0		312742.0		60234.0
213382.0		239568.0		213382.0		26186.0
124165.0		136699.0		124165.0		12534.0
53468.0		57292.0		53468.0		3824.0
11205.0		11767.0		11205.0		562.0
5286.0		5411.0		5286.0		125.0
2435.0		2469.0		2435.0		34.0
1189.0		1213.0		1189.0		24.0
1277.0		1314.0		1277.0		37.0
1.52<|#eta|<1.81
97384.0		118965.0		97384.0		21581.0
157743.0		190841.0		157743.0		33098.0
239387.0		288987.0		239387.0		49600.0
312071.0		368565.0		312071.0		56494.0
228987.0		255295.0		228987.0		26308.0
135680.0		147273.0		135680.0		11593.0
55853.0		60984.0		55853.0		5131.0
11235.0		12044.0		11235.0		809.0
5379.0		5568.0		5379.0		189.0
2280.0		2346.0		2280.0		66.0
1189.0		1220.0		1189.0		31.0
1282.0		1317.0		1282.0		35.0
1.81<|#eta|<2.01
70213.0		77253.0		70213.0		7040.0
111779.0		123961.0		111779.0		12182.0
161319.0		176713.0		161319.0		15394.0
201123.0		220812.0		201123.0		19689.0
137946.0		147443.0		137946.0		9497.0
77898.0		82446.0		77898.0		4548.0
32340.0		34331.0		32340.0		1991.0
6472.0		6972.0		6472.0		500.0
2910.0		3009.0		2910.0		99.0
1186.0		1239.0		1186.0		53.0
580.0		609.0		580.0		29.0
525.0		549.0		525.0		24.0
2.01<|#eta|<2.37
124241.0		138377.0		124241.0		14136.0
193267.0		214201.0		193267.0		20934.0
257771.0		282456.0		257771.0		24685.0
294258.0		324092.0		294258.0		29834.0
191954.0		209451.0		191954.0		17497.0
103846.0		115298.0		103846.0		11452.0
43436.0		47173.0		43436.0		3737.0
8808.0		9469.0		8808.0		661.0
3847.0		4046.0		3847.0		199.0
1501.0		1609.0		1501.0		108.0
739.0		791.0		739.0		52.0
651.0		698.0		651.0		47.0
