0.00<|#eta|<0.60
284695.0		355753.0		284695.0		71058.0
523751.0		631542.0		523751.0		107791.0
812393.0		968210.0		812393.0		155823.0
1093740.0		1267390.0		1093740.0		173655.0
754915.0		847912.0		754915.0		92997.0
440566.0		480297.0		440566.0		39731.0
192301.0		205827.0		192301.0		13526.0
41073.0		43062.0		41073.0		1989.0
18636.0		19265.0		18636.0		629.0
8293.0		8522.0		8293.0		229.0
4181.0		4299.0		4181.0		118.0
4460.0		4662.0		4460.0		202.0
0.60<|#eta|<0.80
76794.0		98620.0		76794.0		21826.0
167749.0		203945.0		167749.0		36196.0
280676.0		328245.0		280676.0		47569.0
353117.0		404244.0		353117.0		51127.0
243864.0		271811.0		243864.0		27947.0
141898.0		153683.0		141898.0		11785.0
61224.0		65032.0		61224.0		3808.0
12738.0		13350.0		12738.0		612.0
5911.0		6064.0		5911.0		153.0
2637.0		2677.0		2637.0		40.0
1354.0		1382.0		1354.0		28.0
1445.0		1474.0		1445.0		29.0
0.80<|#eta|<1.15
140452.0		171975.0		140452.0		31523.0
265364.0		315206.0		265364.0		49842.0
446714.0		524724.0		446714.0		78010.0
572474.0		666298.0		572474.0		93824.0
375127.0		429478.0		375127.0		54351.0
223271.0		244041.0		223271.0		20770.0
96130.0		101765.0		96130.0		5635.0
20185.0		21209.0		20185.0		1024.0
9750.0		9926.0		9750.0		176.0
4198.0		4296.0		4198.0		98.0
2116.0		2128.0		2116.0		12.0
2344.0		2379.0		2344.0		35.0
1.15<|#eta|<1.37
77470.0		100792.0		77470.0		23322.0
135754.0		172225.0		135754.0		36471.0
228409.0		280205.0		228409.0		51796.0
308240.0		372976.0		308240.0		64736.0
211184.0		239568.0		211184.0		28384.0
123801.0		136699.0		123801.0		12898.0
53757.0		57292.0		53757.0		3535.0
11254.0		11767.0		11254.0		513.0
5313.0		5411.0		5313.0		98.0
2423.0		2469.0		2423.0		46.0
1190.0		1213.0		1190.0		23.0
1275.0		1314.0		1275.0		39.0
1.52<|#eta|<1.81
96623.0		118965.0		96623.0		22342.0
157927.0		190841.0		157927.0		32914.0
237681.0		288987.0		237681.0		51306.0
310253.0		368565.0		310253.0		58312.0
227020.0		255295.0		227020.0		28275.0
135747.0		147273.0		135747.0		11526.0
56136.0		60984.0		56136.0		4848.0
11401.0		12044.0		11401.0		643.0
5397.0		5568.0		5397.0		171.0
2285.0		2346.0		2285.0		61.0
1190.0		1220.0		1190.0		30.0
1282.0		1317.0		1282.0		35.0
1.81<|#eta|<2.01
70323.0		77253.0		70323.0		6930.0
111585.0		123961.0		111585.0		12376.0
161039.0		176713.0		161039.0		15674.0
200612.0		220812.0		200612.0		20200.0
138479.0		147443.0		138479.0		8964.0
78017.0		82446.0		78017.0		4429.0
32459.0		34331.0		32459.0		1872.0
6511.0		6972.0		6511.0		461.0
2938.0		3009.0		2938.0		71.0
1209.0		1239.0		1209.0		30.0
582.0		609.0		582.0		27.0
526.0		549.0		526.0		23.0
2.01<|#eta|<2.37
123827.0		138377.0		123827.0		14550.0
193164.0		214201.0		193164.0		21037.0
258017.0		282456.0		258017.0		24439.0
294135.0		324092.0		294135.0		29957.0
191521.0		209451.0		191521.0		17930.0
103721.0		115298.0		103721.0		11577.0
43396.0		47173.0		43396.0		3777.0
8770.0		9469.0		8770.0		699.0
3868.0		4046.0		3868.0		178.0
1509.0		1609.0		1509.0		100.0
730.0		791.0		730.0		61.0
659.0		698.0		659.0		39.0
