0.00<|#eta|<0.60
283260.0		355753.0		283260.0		72493.0
515784.0		631542.0		515784.0		115758.0
827726.0		968210.0		827726.0		140490.0
1094420.0		1267390.0		1094420.0		172971.0
755294.0		847912.0		755294.0		92618.0
439600.0		480297.0		439600.0		40697.0
192038.0		205827.0		192038.0		13789.0
41228.0		43062.0		41228.0		1834.0
18611.0		19265.0		18611.0		654.0
8334.0		8522.0		8334.0		188.0
4176.0		4299.0		4176.0		123.0
4416.0		4662.0		4416.0		246.0
0.60<|#eta|<0.80
77939.0		98620.0		77939.0		20681.0
166556.0		203945.0		166556.0		37389.0
278304.0		328245.0		278304.0		49941.0
351367.0		404244.0		351367.0		52877.0
245995.0		271811.0		245995.0		25816.0
141011.0		153683.0		141011.0		12672.0
61050.0		65032.0		61050.0		3982.0
12696.0		13350.0		12696.0		654.0
5907.0		6064.0		5907.0		157.0
2620.0		2677.0		2620.0		57.0
1337.0		1382.0		1337.0		45.0
1446.0		1474.0		1446.0		28.0
0.80<|#eta|<1.15
138162.0		171975.0		138162.0		33813.0
259706.0		315206.0		259706.0		55500.0
453810.0		524724.0		453810.0		70914.0
581335.0		666298.0		581335.0		84963.0
380826.0		429478.0		380826.0		48652.0
223050.0		244041.0		223050.0		20991.0
95496.0		101765.0		95496.0		6269.0
20073.0		21209.0		20073.0		1136.0
9728.0		9926.0		9728.0		198.0
4172.0		4296.0		4172.0		124.0
2104.0		2128.0		2104.0		24.0
2334.0		2379.0		2334.0		45.0
1.15<|#eta|<1.37
75874.0		100792.0		75874.0		24918.0
134182.0		172225.0		134182.0		38043.0
231661.0		280205.0		231661.0		48544.0
311681.0		372976.0		311681.0		61295.0
213041.0		239568.0		213041.0		26527.0
124027.0		136699.0		124027.0		12672.0
53714.0		57292.0		53714.0		3578.0
11165.0		11767.0		11165.0		602.0
5299.0		5411.0		5299.0		112.0
2427.0		2469.0		2427.0		42.0
1197.0		1213.0		1197.0		16.0
1268.0		1314.0		1268.0		46.0
1.52<|#eta|<1.81
96613.0		118965.0		96613.0		22352.0
154097.0		190841.0		154097.0		36744.0
240620.0		288987.0		240620.0		48367.0
312980.0		368565.0		312980.0		55585.0
227968.0		255295.0		227968.0		27327.0
135214.0		147273.0		135214.0		12059.0
55874.0		60984.0		55874.0		5110.0
11317.0		12044.0		11317.0		727.0
5369.0		5568.0		5369.0		199.0
2281.0		2346.0		2281.0		65.0
1190.0		1220.0		1190.0		30.0
1274.0		1317.0		1274.0		43.0
1.81<|#eta|<2.01
70328.0		77253.0		70328.0		6925.0
110961.0		123961.0		110961.0		13000.0
161804.0		176713.0		161804.0		14909.0
201446.0		220812.0		201446.0		19366.0
138327.0		147443.0		138327.0		9116.0
77734.0		82446.0		77734.0		4712.0
32395.0		34331.0		32395.0		1936.0
6500.0		6972.0		6500.0		472.0
2907.0		3009.0		2907.0		102.0
1177.0		1239.0		1177.0		62.0
580.0		609.0		580.0		29.0
525.0		549.0		525.0		24.0
2.01<|#eta|<2.37
123627.0		138377.0		123627.0		14750.0
192630.0		214201.0		192630.0		21571.0
257431.0		282456.0		257431.0		25025.0
293752.0		324092.0		293752.0		30340.0
192101.0		209451.0		192101.0		17350.0
103743.0		115298.0		103743.0		11555.0
43337.0		47173.0		43337.0		3836.0
8756.0		9469.0		8756.0		713.0
3855.0		4046.0		3855.0		191.0
1497.0		1609.0		1497.0		112.0
735.0		791.0		735.0		56.0
657.0		698.0		657.0		41.0
