0.00<|#eta|<0.60
281158.0		355753.0		281158.0		74595.0
524545.0		631542.0		524545.0		106997.0
827588.0		968210.0		827588.0		140628.0
1097170.0		1267390.0		1097170.0		170223.0
759331.0		847912.0		759331.0		88581.0
438553.0		480297.0		438553.0		41744.0
192798.0		205827.0		192798.0		13029.0
41320.0		43062.0		41320.0		1742.0
18615.0		19265.0		18615.0		650.0
8342.0		8522.0		8342.0		180.0
4199.0		4299.0		4199.0		100.0
4397.0		4662.0		4397.0		265.0
0.60<|#eta|<0.80
77492.0		98620.0		77492.0		21128.0
166169.0		203945.0		166169.0		37776.0
282083.0		328245.0		282083.0		46162.0
351061.0		404244.0		351061.0		53183.0
245847.0		271811.0		245847.0		25964.0
141300.0		153683.0		141300.0		12383.0
61066.0		65032.0		61066.0		3966.0
12692.0		13350.0		12692.0		658.0
5897.0		6064.0		5897.0		167.0
2618.0		2677.0		2618.0		59.0
1348.0		1382.0		1348.0		34.0
1437.0		1474.0		1437.0		37.0
0.80<|#eta|<1.15
136782.0		171975.0		136782.0		35193.0
259388.0		315206.0		259388.0		55818.0
453176.0		524724.0		453176.0		71548.0
584459.0		666298.0		584459.0		81839.0
378901.0		429478.0		378901.0		50577.0
220989.0		244041.0		220989.0		23052.0
95153.0		101765.0		95153.0		6612.0
19990.0		21209.0		19990.0		1219.0
9692.0		9926.0		9692.0		234.0
4183.0		4296.0		4183.0		113.0
2092.0		2128.0		2092.0		36.0
2351.0		2379.0		2351.0		28.0
1.15<|#eta|<1.37
75735.0		100792.0		75735.0		25057.0
133819.0		172225.0		133819.0		38406.0
232517.0		280205.0		232517.0		47688.0
311972.0		372976.0		311972.0		61004.0
213762.0		239568.0		213762.0		25806.0
121752.0		136699.0		121752.0		14947.0
53307.0		57292.0		53307.0		3985.0
11153.0		11767.0		11153.0		614.0
5290.0		5411.0		5290.0		121.0
2404.0		2469.0		2404.0		65.0
1179.0		1213.0		1179.0		34.0
1269.0		1314.0		1269.0		45.0
1.52<|#eta|<1.81
96072.0		118965.0		96072.0		22893.0
155726.0		190841.0		155726.0		35115.0
239578.0		288987.0		239578.0		49409.0
312650.0		368565.0		312650.0		55915.0
229147.0		255295.0		229147.0		26148.0
134239.0		147273.0		134239.0		13034.0
55552.0		60984.0		55552.0		5432.0
11267.0		12044.0		11267.0		777.0
5374.0		5568.0		5374.0		194.0
2275.0		2346.0		2275.0		71.0
1185.0		1220.0		1185.0		35.0
1283.0		1317.0		1283.0		34.0
1.81<|#eta|<2.01
68857.0		77253.0		68857.0		8396.0
110342.0		123961.0		110342.0		13619.0
161491.0		176713.0		161491.0		15222.0
201190.0		220812.0		201190.0		19622.0
138144.0		147443.0		138144.0		9299.0
77419.0		82446.0		77419.0		5027.0
32248.0		34331.0		32248.0		2083.0
6495.0		6972.0		6495.0		477.0
2923.0		3009.0		2923.0		86.0
1213.0		1239.0		1213.0		26.0
581.0		609.0		581.0		28.0
526.0		549.0		526.0		23.0
2.01<|#eta|<2.37
123431.0		138377.0		123431.0		14946.0
192595.0		214201.0		192595.0		21606.0
257993.0		282456.0		257993.0		24463.0
294457.0		324092.0		294457.0		29635.0
192206.0		209451.0		192206.0		17245.0
103794.0		115298.0		103794.0		11504.0
43381.0		47173.0		43381.0		3792.0
8783.0		9469.0		8783.0		686.0
3850.0		4046.0		3850.0		196.0
1505.0		1609.0		1505.0		104.0
733.0		791.0		733.0		58.0
655.0		698.0		655.0		43.0
