0.00<|#eta|<0.60
281654.0		355753.0		281654.0		74099.0
523600.0		631542.0		523600.0		107942.0
823899.0		968210.0		823899.0		144317.0
1092310.0		1267390.0		1092310.0		175083.0
756143.0		847912.0		756143.0		91769.0
435477.0		480297.0		435477.0		44820.0
192877.0		205827.0		192877.0		12950.0
41046.0		43062.0		41046.0		2016.0
18558.0		19265.0		18558.0		707.0
8286.0		8522.0		8286.0		236.0
4180.0		4299.0		4180.0		119.0
4469.0		4662.0		4469.0		193.0
0.60<|#eta|<0.80
76649.0		98620.0		76649.0		21971.0
167829.0		203945.0		167829.0		36116.0
284465.0		328245.0		284465.0		43780.0
354933.0		404244.0		354933.0		49311.0
246367.0		271811.0		246367.0		25444.0
140185.0		153683.0		140185.0		13498.0
61197.0		65032.0		61197.0		3835.0
12843.0		13350.0		12843.0		507.0
5924.0		6064.0		5924.0		140.0
2630.0		2677.0		2630.0		47.0
1350.0		1382.0		1350.0		32.0
1445.0		1474.0		1445.0		29.0
0.80<|#eta|<1.15
140180.0		171975.0		140180.0		31795.0
267107.0		315206.0		267107.0		48099.0
461162.0		524724.0		461162.0		63562.0
590760.0		666298.0		590760.0		75538.0
382926.0		429478.0		382926.0		46552.0
219862.0		244041.0		219862.0		24179.0
95546.0		101765.0		95546.0		6219.0
20227.0		21209.0		20227.0		982.0
9735.0		9926.0		9735.0		191.0
4183.0		4296.0		4183.0		113.0
2113.0		2128.0		2113.0		15.0
2342.0		2379.0		2342.0		37.0
1.15<|#eta|<1.37
76765.0		100792.0		76765.0		24027.0
136504.0		172225.0		136504.0		35721.0
235334.0		280205.0		235334.0		44871.0
318652.0		372976.0		318652.0		54324.0
215629.0		239568.0		215629.0		23939.0
121321.0		136699.0		121321.0		15378.0
53625.0		57292.0		53625.0		3667.0
11262.0		11767.0		11262.0		505.0
5305.0		5411.0		5305.0		106.0
2437.0		2469.0		2437.0		32.0
1189.0		1213.0		1189.0		24.0
1274.0		1314.0		1274.0		40.0
1.52<|#eta|<1.81
96660.0		118965.0		96660.0		22305.0
158333.0		190841.0		158333.0		32508.0
244341.0		288987.0		244341.0		44646.0
318707.0		368565.0		318707.0		49858.0
230952.0		255295.0		230952.0		24343.0
133872.0		147273.0		133872.0		13401.0
55709.0		60984.0		55709.0		5275.0
11341.0		12044.0		11341.0		703.0
5400.0		5568.0		5400.0		168.0
2281.0		2346.0		2281.0		65.0
1182.0		1220.0		1182.0		38.0
1279.0		1317.0		1279.0		38.0
1.81<|#eta|<2.01
69901.0		77253.0		69901.0		7352.0
110536.0		123961.0		110536.0		13425.0
162894.0		176713.0		162894.0		13819.0
202952.0		220812.0		202952.0		17860.0
139260.0		147443.0		139260.0		8183.0
77388.0		82446.0		77388.0		5058.0
32309.0		34331.0		32309.0		2022.0
6508.0		6972.0		6508.0		464.0
2920.0		3009.0		2920.0		89.0
1212.0		1239.0		1212.0		27.0
584.0		609.0		584.0		25.0
526.0		549.0		526.0		23.0
2.01<|#eta|<2.37
123941.0		138377.0		123941.0		14436.0
192241.0		214201.0		192241.0		21960.0
257563.0		282456.0		257563.0		24893.0
294006.0		324092.0		294006.0		30086.0
191910.0		209451.0		191910.0		17541.0
103878.0		115298.0		103878.0		11420.0
43384.0		47173.0		43384.0		3789.0
8787.0		9469.0		8787.0		682.0
3857.0		4046.0		3857.0		189.0
1500.0		1609.0		1500.0		109.0
740.0		791.0		740.0		51.0
657.0		698.0		657.0		41.0
