0.00<|#eta|<0.60
284788.0		355753.0		284788.0		70965.0
522828.0		631542.0		522828.0		108714.0
820865.0		968210.0		820865.0		147351.0
1093910.0		1267390.0		1093910.0		173486.0
757439.0		847912.0		757439.0		90473.0
439566.0		480297.0		439566.0		40731.0
192059.0		205827.0		192059.0		13768.0
41230.0		43062.0		41230.0		1832.0
18550.0		19265.0		18550.0		715.0
8327.0		8522.0		8327.0		195.0
4184.0		4299.0		4184.0		115.0
4441.0		4662.0		4441.0		221.0
0.60<|#eta|<0.80
77381.0		98620.0		77381.0		21239.0
167526.0		203945.0		167526.0		36419.0
280317.0		328245.0		280317.0		47928.0
351008.0		404244.0		351008.0		53236.0
245528.0		271811.0		245528.0		26283.0
141152.0		153683.0		141152.0		12531.0
61114.0		65032.0		61114.0		3918.0
12741.0		13350.0		12741.0		609.0
5893.0		6064.0		5893.0		171.0
2627.0		2677.0		2627.0		50.0
1344.0		1382.0		1344.0		38.0
1443.0		1474.0		1443.0		31.0
0.80<|#eta|<1.15
141066.0		171975.0		141066.0		30909.0
266542.0		315206.0		266542.0		48664.0
451234.0		524724.0		451234.0		73490.0
580870.0		666298.0		580870.0		85428.0
380225.0		429478.0		380225.0		49253.0
222958.0		244041.0		222958.0		21083.0
95058.0		101765.0		95058.0		6707.0
20065.0		21209.0		20065.0		1144.0
9684.0		9926.0		9684.0		242.0
4180.0		4296.0		4180.0		116.0
2106.0		2128.0		2106.0		22.0
2346.0		2379.0		2346.0		33.0
1.15<|#eta|<1.37
77607.0		100792.0		77607.0		23185.0
136607.0		172225.0		136607.0		35618.0
231090.0		280205.0		231090.0		49115.0
313012.0		372976.0		313012.0		59964.0
213614.0		239568.0		213614.0		25954.0
123911.0		136699.0		123911.0		12788.0
53566.0		57292.0		53566.0		3726.0
11149.0		11767.0		11149.0		618.0
5266.0		5411.0		5266.0		145.0
2412.0		2469.0		2412.0		57.0
1188.0		1213.0		1188.0		25.0
1283.0		1314.0		1283.0		31.0
1.52<|#eta|<1.81
96849.0		118965.0		96849.0		22116.0
158030.0		190841.0		158030.0		32811.0
239501.0		288987.0		239501.0		49486.0
314410.0		368565.0		314410.0		54155.0
229179.0		255295.0		229179.0		26116.0
135554.0		147273.0		135554.0		11719.0
55902.0		60984.0		55902.0		5082.0
11271.0		12044.0		11271.0		773.0
5370.0		5568.0		5370.0		198.0
2274.0		2346.0		2274.0		72.0
1187.0		1220.0		1187.0		33.0
1280.0		1317.0		1280.0		37.0
1.81<|#eta|<2.01
70284.0		77253.0		70284.0		6969.0
110840.0		123961.0		110840.0		13121.0
161267.0		176713.0		161267.0		15446.0
202152.0		220812.0		202152.0		18660.0
138193.0		147443.0		138193.0		9250.0
77882.0		82446.0		77882.0		4564.0
32406.0		34331.0		32406.0		1925.0
6468.0		6972.0		6468.0		504.0
2903.0		3009.0		2903.0		106.0
1190.0		1239.0		1190.0		49.0
584.0		609.0		584.0		25.0
526.0		549.0		526.0		23.0
2.01<|#eta|<2.37
123363.0		138377.0		123363.0		15014.0
192597.0		214201.0		192597.0		21604.0
257954.0		282456.0		257954.0		24502.0
294077.0		324092.0		294077.0		30015.0
191868.0		209451.0		191868.0		17583.0
103866.0		115298.0		103866.0		11432.0
43459.0		47173.0		43459.0		3714.0
8772.0		9469.0		8772.0		697.0
3842.0		4046.0		3842.0		204.0
1521.0		1609.0		1521.0		88.0
734.0		791.0		734.0		57.0
651.0		698.0		651.0		47.0
