0.00<|#eta|<0.60
281793.0		355753.0		281793.0		73960.0
520010.0		631542.0		520010.0		111532.0
798737.0		968210.0		798737.0		169479.0
1095150.0		1267390.0		1095150.0		172250.0
756077.0		847912.0		756077.0		91835.0
437912.0		480297.0		437912.0		42385.0
192657.0		205827.0		192657.0		13170.0
40716.0		43062.0		40716.0		2346.0
18567.0		19265.0		18567.0		698.0
8296.0		8522.0		8296.0		226.0
4187.0		4299.0		4187.0		112.0
4448.0		4662.0		4448.0		214.0
0.60<|#eta|<0.80
79254.0		98620.0		79254.0		19366.0
169443.0		203945.0		169443.0		34502.0
280477.0		328245.0		280477.0		47768.0
353048.0		404244.0		353048.0		51196.0
245805.0		271811.0		245805.0		26006.0
140805.0		153683.0		140805.0		12878.0
61299.0		65032.0		61299.0		3733.0
12757.0		13350.0		12757.0		593.0
5921.0		6064.0		5921.0		143.0
2629.0		2677.0		2629.0		48.0
1344.0		1382.0		1344.0		38.0
1445.0		1474.0		1445.0		29.0
0.80<|#eta|<1.15
143338.0		171975.0		143338.0		28637.0
268859.0		315206.0		268859.0		46347.0
446171.0		524724.0		446171.0		78553.0
579771.0		666298.0		579771.0		86527.0
378347.0		429478.0		378347.0		51131.0
219843.0		244041.0		219843.0		24198.0
95344.0		101765.0		95344.0		6421.0
20142.0		21209.0		20142.0		1067.0
9706.0		9926.0		9706.0		220.0
4199.0		4296.0		4199.0		97.0
2114.0		2128.0		2114.0		14.0
2357.0		2379.0		2357.0		22.0
1.15<|#eta|<1.37
77392.0		100792.0		77392.0		23400.0
136715.0		172225.0		136715.0		35510.0
233116.0		280205.0		233116.0		47089.0
311421.0		372976.0		311421.0		61555.0
214315.0		239568.0		214315.0		25253.0
121780.0		136699.0		121780.0		14919.0
53737.0		57292.0		53737.0		3555.0
11254.0		11767.0		11254.0		513.0
5299.0		5411.0		5299.0		112.0
2433.0		2469.0		2433.0		36.0
1186.0		1213.0		1186.0		27.0
1261.0		1314.0		1261.0		53.0
1.52<|#eta|<1.81
98376.0		118965.0		98376.0		20589.0
158728.0		190841.0		158728.0		32113.0
241443.0		288987.0		241443.0		47544.0
312658.0		368565.0		312658.0		55907.0
229154.0		255295.0		229154.0		26141.0
134376.0		147273.0		134376.0		12897.0
55788.0		60984.0		55788.0		5196.0
11303.0		12044.0		11303.0		741.0
5386.0		5568.0		5386.0		182.0
2272.0		2346.0		2272.0		74.0
1186.0		1220.0		1186.0		34.0
1282.0		1317.0		1282.0		35.0
1.81<|#eta|<2.01
70465.0		77253.0		70465.0		6788.0
112085.0		123961.0		112085.0		11876.0
161885.0		176713.0		161885.0		14828.0
201694.0		220812.0		201694.0		19118.0
138353.0		147443.0		138353.0		9090.0
77468.0		82446.0		77468.0		4978.0
32346.0		34331.0		32346.0		1985.0
6483.0		6972.0		6483.0		489.0
2935.0		3009.0		2935.0		74.0
1206.0		1239.0		1206.0		33.0
581.0		609.0		581.0		28.0
526.0		549.0		526.0		23.0
2.01<|#eta|<2.37
123829.0		138377.0		123829.0		14548.0
192252.0		214201.0		192252.0		21949.0
257868.0		282456.0		257868.0		24588.0
293900.0		324092.0		293900.0		30192.0
192214.0		209451.0		192214.0		17237.0
103904.0		115298.0		103904.0		11394.0
43424.0		47173.0		43424.0		3749.0
8777.0		9469.0		8777.0		692.0
3850.0		4046.0		3850.0		196.0
1506.0		1609.0		1506.0		103.0
736.0		791.0		736.0		55.0
666.0		698.0		666.0		32.0
