0.00<|#eta|<0.60
280630.0		355753.0		280630.0		75123.0
524335.0		631542.0		524335.0		107207.0
829876.0		968210.0		829876.0		138340.0
1097710.0		1267390.0		1097710.0		169693.0
753504.0		847912.0		753504.0		94408.0
437622.0		480297.0		437622.0		42675.0
192731.0		205827.0		192731.0		13096.0
41188.0		43062.0		41188.0		1874.0
18606.0		19265.0		18606.0		659.0
8313.0		8522.0		8313.0		209.0
4186.0		4299.0		4186.0		113.0
4382.0		4662.0		4382.0		280.0
0.60<|#eta|<0.80
78484.0		98620.0		78484.0		20136.0
163627.0		203945.0		163627.0		40318.0
279918.0		328245.0		279918.0		48327.0
351437.0		404244.0		351437.0		52807.0
244582.0		271811.0		244582.0		27229.0
141179.0		153683.0		141179.0		12504.0
61271.0		65032.0		61271.0		3761.0
12795.0		13350.0		12795.0		555.0
5882.0		6064.0		5882.0		182.0
2612.0		2677.0		2612.0		65.0
1353.0		1382.0		1353.0		29.0
1434.0		1474.0		1434.0		40.0
0.80<|#eta|<1.15
135843.0		171975.0		135843.0		36132.0
261333.0		315206.0		261333.0		53873.0
453748.0		524724.0		453748.0		70976.0
581877.0		666298.0		581877.0		84421.0
379561.0		429478.0		379561.0		49917.0
220125.0		244041.0		220125.0		23916.0
94680.0		101765.0		94680.0		7085.0
20005.0		21209.0		20005.0		1204.0
9702.0		9926.0		9702.0		224.0
4168.0		4296.0		4168.0		128.0
2108.0		2128.0		2108.0		20.0
2344.0		2379.0		2344.0		35.0
1.15<|#eta|<1.37
75170.0		100792.0		75170.0		25622.0
132706.0		172225.0		132706.0		39519.0
231193.0		280205.0		231193.0		49012.0
312178.0		372976.0		312178.0		60798.0
213695.0		239568.0		213695.0		25873.0
122239.0		136699.0		122239.0		14460.0
53211.0		57292.0		53211.0		4081.0
11185.0		11767.0		11185.0		582.0
5284.0		5411.0		5284.0		127.0
2399.0		2469.0		2399.0		70.0
1186.0		1213.0		1186.0		27.0
1256.0		1314.0		1256.0		58.0
1.52<|#eta|<1.81
95245.0		118965.0		95245.0		23720.0
154558.0		190841.0		154558.0		36283.0
240065.0		288987.0		240065.0		48922.0
313256.0		368565.0		313256.0		55309.0
228083.0		255295.0		228083.0		27212.0
134347.0		147273.0		134347.0		12926.0
55538.0		60984.0		55538.0		5446.0
11279.0		12044.0		11279.0		765.0
5360.0		5568.0		5360.0		208.0
2290.0		2346.0		2290.0		56.0
1177.0		1220.0		1177.0		43.0
1284.0		1317.0		1284.0		33.0
1.81<|#eta|<2.01
69823.0		77253.0		69823.0		7430.0
110260.0		123961.0		110260.0		13701.0
162176.0		176713.0		162176.0		14537.0
200942.0		220812.0		200942.0		19870.0
138192.0		147443.0		138192.0		9251.0
77401.0		82446.0		77401.0		5045.0
32240.0		34331.0		32240.0		2091.0
6459.0		6972.0		6459.0		513.0
2881.0		3009.0		2881.0		128.0
1188.0		1239.0		1188.0		51.0
581.0		609.0		581.0		28.0
521.0		549.0		521.0		28.0
2.01<|#eta|<2.37
123857.0		138377.0		123857.0		14520.0
193679.0		214201.0		193679.0		20522.0
258033.0		282456.0		258033.0		24423.0
293911.0		324092.0		293911.0		30181.0
192713.0		209451.0		192713.0		16738.0
103781.0		115298.0		103781.0		11517.0
43461.0		47173.0		43461.0		3712.0
8805.0		9469.0		8805.0		664.0
3849.0		4046.0		3849.0		197.0
1516.0		1609.0		1516.0		93.0
734.0		791.0		734.0		57.0
657.0		698.0		657.0		41.0
