0.00<|#eta|<0.60
284035.0		355753.0		284035.0		71718.0
524651.0		631542.0		524651.0		106891.0
824151.0		968210.0		824151.0		144065.0
1092420.0		1267390.0		1092420.0		174975.0
754221.0		847912.0		754221.0		93691.0
437247.0		480297.0		437247.0		43050.0
191771.0		205827.0		191771.0		14056.0
41383.0		43062.0		41383.0		1679.0
18638.0		19265.0		18638.0		627.0
8314.0		8522.0		8314.0		208.0
4181.0		4299.0		4181.0		118.0
4466.0		4662.0		4466.0		196.0
0.60<|#eta|<0.80
79306.0		98620.0		79306.0		19314.0
167780.0		203945.0		167780.0		36165.0
282907.0		328245.0		282907.0		45338.0
351989.0		404244.0		351989.0		52255.0
244881.0		271811.0		244881.0		26930.0
141139.0		153683.0		141139.0		12544.0
61118.0		65032.0		61118.0		3914.0
12814.0		13350.0		12814.0		536.0
5873.0		6064.0		5873.0		191.0
2628.0		2677.0		2628.0		49.0
1352.0		1382.0		1352.0		30.0
1449.0		1474.0		1449.0		25.0
0.80<|#eta|<1.15
140817.0		171975.0		140817.0		31158.0
267888.0		315206.0		267888.0		47318.0
457250.0		524724.0		457250.0		67474.0
588828.0		666298.0		588828.0		77470.0
382357.0		429478.0		382357.0		47121.0
223419.0		244041.0		223419.0		20622.0
95517.0		101765.0		95517.0		6248.0
20076.0		21209.0		20076.0		1133.0
9699.0		9926.0		9699.0		227.0
4164.0		4296.0		4164.0		132.0
2114.0		2128.0		2114.0		14.0
2360.0		2379.0		2360.0		19.0
1.15<|#eta|<1.37
76421.0		100792.0		76421.0		24371.0
137566.0		172225.0		137566.0		34659.0
234387.0		280205.0		234387.0		45818.0
317122.0		372976.0		317122.0		55854.0
213900.0		239568.0		213900.0		25668.0
123718.0		136699.0		123718.0		12981.0
53622.0		57292.0		53622.0		3670.0
11188.0		11767.0		11188.0		579.0
5298.0		5411.0		5298.0		113.0
2427.0		2469.0		2427.0		42.0
1188.0		1213.0		1188.0		25.0
1278.0		1314.0		1278.0		36.0
1.52<|#eta|<1.81
96745.0		118965.0		96745.0		22220.0
157686.0		190841.0		157686.0		33155.0
243736.0		288987.0		243736.0		45251.0
317191.0		368565.0		317191.0		51374.0
229481.0		255295.0		229481.0		25814.0
135257.0		147273.0		135257.0		12016.0
55950.0		60984.0		55950.0		5034.0
11266.0		12044.0		11266.0		778.0
5352.0		5568.0		5352.0		216.0
2290.0		2346.0		2290.0		56.0
1196.0		1220.0		1196.0		24.0
1274.0		1317.0		1274.0		43.0
1.81<|#eta|<2.01
69975.0		77253.0		69975.0		7278.0
111156.0		123961.0		111156.0		12805.0
162939.0		176713.0		162939.0		13774.0
201837.0		220812.0		201837.0		18975.0
138595.0		147443.0		138595.0		8848.0
77810.0		82446.0		77810.0		4636.0
32346.0		34331.0		32346.0		1985.0
6479.0		6972.0		6479.0		493.0
2889.0		3009.0		2889.0		120.0
1189.0		1239.0		1189.0		50.0
582.0		609.0		582.0		27.0
526.0		549.0		526.0		23.0
2.01<|#eta|<2.37
124013.0		138377.0		124013.0		14364.0
192857.0		214201.0		192857.0		21344.0
258234.0		282456.0		258234.0		24222.0
294513.0		324092.0		294513.0		29579.0
191667.0		209451.0		191667.0		17784.0
103564.0		115298.0		103564.0		11734.0
43474.0		47173.0		43474.0		3699.0
8799.0		9469.0		8799.0		670.0
3858.0		4046.0		3858.0		188.0
1537.0		1609.0		1537.0		72.0
733.0		791.0		733.0		58.0
666.0		698.0		666.0		32.0
