0.00<|#eta|<0.60
283302.0		355753.0		283302.0		72451.0
518947.0		631542.0		518947.0		112595.0
832214.0		968210.0		832214.0		136002.0
1097670.0		1267390.0		1097670.0		169730.0
756163.0		847912.0		756163.0		91749.0
438231.0		480297.0		438231.0		42066.0
192157.0		205827.0		192157.0		13670.0
41130.0		43062.0		41130.0		1932.0
18644.0		19265.0		18644.0		621.0
8339.0		8522.0		8339.0		183.0
4183.0		4299.0		4183.0		116.0
4434.0		4662.0		4434.0		228.0
0.60<|#eta|<0.80
74870.0		98620.0		74870.0		23750.0
167291.0		203945.0		167291.0		36654.0
284614.0		328245.0		284614.0		43631.0
351841.0		404244.0		351841.0		52403.0
245567.0		271811.0		245567.0		26244.0
141179.0		153683.0		141179.0		12504.0
61127.0		65032.0		61127.0		3905.0
12802.0		13350.0		12802.0		548.0
5901.0		6064.0		5901.0		163.0
2636.0		2677.0		2636.0		41.0
1351.0		1382.0		1351.0		31.0
1447.0		1474.0		1447.0		27.0
0.80<|#eta|<1.15
135330.0		171975.0		135330.0		36645.0
260269.0		315206.0		260269.0		54937.0
455461.0		524724.0		455461.0		69263.0
588973.0		666298.0		588973.0		77325.0
381603.0		429478.0		381603.0		47875.0
223085.0		244041.0		223085.0		20956.0
95954.0		101765.0		95954.0		5811.0
20310.0		21209.0		20310.0		899.0
9742.0		9926.0		9742.0		184.0
4193.0		4296.0		4193.0		103.0
2102.0		2128.0		2102.0		26.0
2334.0		2379.0		2334.0		45.0
1.15<|#eta|<1.37
75069.0		100792.0		75069.0		25723.0
132878.0		172225.0		132878.0		39347.0
235618.0		280205.0		235618.0		44587.0
314540.0		372976.0		314540.0		58436.0
215423.0		239568.0		215423.0		24145.0
123778.0		136699.0		123778.0		12921.0
53920.0		57292.0		53920.0		3372.0
11271.0		11767.0		11271.0		496.0
5304.0		5411.0		5304.0		107.0
2427.0		2469.0		2427.0		42.0
1183.0		1213.0		1183.0		30.0
1248.0		1314.0		1248.0		66.0
1.52<|#eta|<1.81
95647.0		118965.0		95647.0		23318.0
155430.0		190841.0		155430.0		35411.0
242006.0		288987.0		242006.0		46981.0
315964.0		368565.0		315964.0		52601.0
230288.0		255295.0		230288.0		25007.0
135515.0		147273.0		135515.0		11758.0
56131.0		60984.0		56131.0		4853.0
11340.0		12044.0		11340.0		704.0
5389.0		5568.0		5389.0		179.0
2273.0		2346.0		2273.0		73.0
1186.0		1220.0		1186.0		34.0
1280.0		1317.0		1280.0		37.0
1.81<|#eta|<2.01
69393.0		77253.0		69393.0		7860.0
110581.0		123961.0		110581.0		13380.0
162811.0		176713.0		162811.0		13902.0
202043.0		220812.0		202043.0		18769.0
138243.0		147443.0		138243.0		9200.0
77740.0		82446.0		77740.0		4706.0
32426.0		34331.0		32426.0		1905.0
6480.0		6972.0		6480.0		492.0
2934.0		3009.0		2934.0		75.0
1199.0		1239.0		1199.0		40.0
580.0		609.0		580.0		29.0
525.0		549.0		525.0		24.0
2.01<|#eta|<2.37
124062.0		138377.0		124062.0		14315.0
192419.0		214201.0		192419.0		21782.0
258256.0		282456.0		258256.0		24200.0
293865.0		324092.0		293865.0		30227.0
191806.0		209451.0		191806.0		17645.0
103699.0		115298.0		103699.0		11599.0
43415.0		47173.0		43415.0		3758.0
8815.0		9469.0		8815.0		654.0
3852.0		4046.0		3852.0		194.0
1509.0		1609.0		1509.0		100.0
737.0		791.0		737.0		54.0
654.0		698.0		654.0		44.0
