0.00<|#eta|<0.60
284653.0		355753.0		284653.0		71100.0
515738.0		631542.0		515738.0		115804.0
831869.0		968210.0		831869.0		136347.0
1092290.0		1267390.0		1092290.0		175115.0
756001.0		847912.0		756001.0		91911.0
438215.0		480297.0		438215.0		42082.0
192593.0		205827.0		192593.0		13234.0
41271.0		43062.0		41271.0		1791.0
18580.0		19265.0		18580.0		685.0
8306.0		8522.0		8306.0		216.0
4149.0		4299.0		4149.0		150.0
4384.0		4662.0		4384.0		278.0
0.60<|#eta|<0.80
78093.0		98620.0		78093.0		20527.0
163848.0		203945.0		163848.0		40097.0
281931.0		328245.0		281931.0		46314.0
353486.0		404244.0		353486.0		50758.0
243346.0		271811.0		243346.0		28465.0
140795.0		153683.0		140795.0		12888.0
61078.0		65032.0		61078.0		3954.0
12717.0		13350.0		12717.0		633.0
5826.0		6064.0		5826.0		238.0
2621.0		2677.0		2621.0		56.0
1347.0		1382.0		1347.0		35.0
1436.0		1474.0		1436.0		38.0
0.80<|#eta|<1.15
135718.0		171975.0		135718.0		36257.0
262147.0		315206.0		262147.0		53059.0
451498.0		524724.0		451498.0		73226.0
581290.0		666298.0		581290.0		85008.0
379327.0		429478.0		379327.0		50151.0
218524.0		244041.0		218524.0		25517.0
94569.0		101765.0		94569.0		7196.0
20105.0		21209.0		20105.0		1104.0
9687.0		9926.0		9687.0		239.0
4156.0		4296.0		4156.0		140.0
2105.0		2128.0		2105.0		23.0
2325.0		2379.0		2325.0		54.0
1.15<|#eta|<1.37
74910.0		100792.0		74910.0		25882.0
134888.0		172225.0		134888.0		37337.0
233560.0		280205.0		233560.0		46645.0
313269.0		372976.0		313269.0		59707.0
213231.0		239568.0		213231.0		26337.0
121450.0		136699.0		121450.0		15249.0
53339.0		57292.0		53339.0		3953.0
11200.0		11767.0		11200.0		567.0
5279.0		5411.0		5279.0		132.0
2412.0		2469.0		2412.0		57.0
1184.0		1213.0		1184.0		29.0
1249.0		1314.0		1249.0		65.0
1.52<|#eta|<1.81
95678.0		118965.0		95678.0		23287.0
154902.0		190841.0		154902.0		35939.0
239040.0		288987.0		239040.0		49947.0
313441.0		368565.0		313441.0		55124.0
228673.0		255295.0		228673.0		26622.0
134055.0		147273.0		134055.0		13218.0
55606.0		60984.0		55606.0		5378.0
11287.0		12044.0		11287.0		757.0
5368.0		5568.0		5368.0		200.0
2277.0		2346.0		2277.0		69.0
1192.0		1220.0		1192.0		28.0
1269.0		1317.0		1269.0		48.0
1.81<|#eta|<2.01
69804.0		77253.0		69804.0		7449.0
109583.0		123961.0		109583.0		14378.0
161011.0		176713.0		161011.0		15702.0
202056.0		220812.0		202056.0		18756.0
138325.0		147443.0		138325.0		9118.0
77639.0		82446.0		77639.0		4807.0
32292.0		34331.0		32292.0		2039.0
6457.0		6972.0		6457.0		515.0
2920.0		3009.0		2920.0		89.0
1200.0		1239.0		1200.0		39.0
579.0		609.0		579.0		30.0
524.0		549.0		524.0		25.0
2.01<|#eta|<2.37
123882.0		138377.0		123882.0		14495.0
193312.0		214201.0		193312.0		20889.0
257691.0		282456.0		257691.0		24765.0
294149.0		324092.0		294149.0		29943.0
191942.0		209451.0		191942.0		17509.0
103659.0		115298.0		103659.0		11639.0
43422.0		47173.0		43422.0		3751.0
8777.0		9469.0		8777.0		692.0
3848.0		4046.0		3848.0		198.0
1517.0		1609.0		1517.0		92.0
738.0		791.0		738.0		53.0
664.0		698.0		664.0		34.0
