0.00<|#eta|<0.60
283709.0		355753.0		283709.0		72044.0
521476.0		631542.0		521476.0		110066.0
824104.0		968210.0		824104.0		144112.0
1097710.0		1267390.0		1097710.0		169678.0
757691.0		847912.0		757691.0		90221.0
438101.0		480297.0		438101.0		42196.0
192584.0		205827.0		192584.0		13243.0
41420.0		43062.0		41420.0		1642.0
18549.0		19265.0		18549.0		716.0
8326.0		8522.0		8326.0		196.0
4167.0		4299.0		4167.0		132.0
4463.0		4662.0		4463.0		199.0
0.60<|#eta|<0.80
78320.0		98620.0		78320.0		20300.0
168753.0		203945.0		168753.0		35192.0
278880.0		328245.0		278880.0		49365.0
351813.0		404244.0		351813.0		52431.0
245464.0		271811.0		245464.0		26347.0
141687.0		153683.0		141687.0		11996.0
61265.0		65032.0		61265.0		3767.0
12837.0		13350.0		12837.0		513.0
5847.0		6064.0		5847.0		217.0
2632.0		2677.0		2632.0		45.0
1357.0		1382.0		1357.0		25.0
1435.0		1474.0		1435.0		39.0
0.80<|#eta|<1.15
140240.0		171975.0		140240.0		31735.0
267607.0		315206.0		267607.0		47599.0
450957.0		524724.0		450957.0		73767.0
585401.0		666298.0		585401.0		80897.0
377687.0		429478.0		377687.0		51791.0
219789.0		244041.0		219789.0		24252.0
95193.0		101765.0		95193.0		6572.0
20102.0		21209.0		20102.0		1107.0
9694.0		9926.0		9694.0		232.0
4168.0		4296.0		4168.0		128.0
2107.0		2128.0		2107.0		21.0
2340.0		2379.0		2340.0		39.0
1.15<|#eta|<1.37
76559.0		100792.0		76559.0		24233.0
137534.0		172225.0		137534.0		34691.0
231894.0		280205.0		231894.0		48311.0
309639.0		372976.0		309639.0		63337.0
213266.0		239568.0		213266.0		26302.0
121784.0		136699.0		121784.0		14915.0
53151.0		57292.0		53151.0		4141.0
11207.0		11767.0		11207.0		560.0
5302.0		5411.0		5302.0		109.0
2414.0		2469.0		2414.0		55.0
1187.0		1213.0		1187.0		26.0
1269.0		1314.0		1269.0		45.0
1.52<|#eta|<1.81
97750.0		118965.0		97750.0		21215.0
157208.0		190841.0		157208.0		33633.0
239967.0		288987.0		239967.0		49020.0
314595.0		368565.0		314595.0		53970.0
228869.0		255295.0		228869.0		26426.0
134218.0		147273.0		134218.0		13055.0
55642.0		60984.0		55642.0		5342.0
11334.0		12044.0		11334.0		710.0
5388.0		5568.0		5388.0		180.0
2285.0		2346.0		2285.0		61.0
1191.0		1220.0		1191.0		29.0
1288.0		1317.0		1288.0		29.0
1.81<|#eta|<2.01
70407.0		77253.0		70407.0		6846.0
111569.0		123961.0		111569.0		12392.0
161521.0		176713.0		161521.0		15192.0
201440.0		220812.0		201440.0		19372.0
137988.0		147443.0		137988.0		9455.0
77442.0		82446.0		77442.0		5004.0
32228.0		34331.0		32228.0		2103.0
6468.0		6972.0		6468.0		504.0
2929.0		3009.0		2929.0		80.0
1189.0		1239.0		1189.0		50.0
583.0		609.0		583.0		26.0
524.0		549.0		524.0		25.0
2.01<|#eta|<2.37
123452.0		138377.0		123452.0		14925.0
193197.0		214201.0		193197.0		21004.0
258275.0		282456.0		258275.0		24181.0
294246.0		324092.0		294246.0		29846.0
192239.0		209451.0		192239.0		17212.0
103592.0		115298.0		103592.0		11706.0
43447.0		47173.0		43447.0		3726.0
8761.0		9469.0		8761.0		708.0
3840.0		4046.0		3840.0		206.0
1507.0		1609.0		1507.0		102.0
734.0		791.0		734.0		57.0
657.0		698.0		657.0		41.0
