0.00<|#eta|<0.60
280271.0		355753.0		280271.0		75482.0
514052.0		631542.0		514052.0		117490.0
830917.0		968210.0		830917.0		137299.0
1093050.0		1267390.0		1093050.0		174340.0
756559.0		847912.0		756559.0		91353.0
438619.0		480297.0		438619.0		41678.0
191238.0		205827.0		191238.0		14589.0
41213.0		43062.0		41213.0		1849.0
18544.0		19265.0		18544.0		721.0
8328.0		8522.0		8328.0		194.0
4188.0		4299.0		4188.0		111.0
4424.0		4662.0		4424.0		238.0
0.60<|#eta|<0.80
75775.0		98620.0		75775.0		22845.0
168202.0		203945.0		168202.0		35743.0
282521.0		328245.0		282521.0		45724.0
350841.0		404244.0		350841.0		53403.0
242855.0		271811.0		242855.0		28956.0
141566.0		153683.0		141566.0		12117.0
61025.0		65032.0		61025.0		4007.0
12855.0		13350.0		12855.0		495.0
5859.0		6064.0		5859.0		205.0
2621.0		2677.0		2621.0		56.0
1349.0		1382.0		1349.0		33.0
1446.0		1474.0		1446.0		28.0
0.80<|#eta|<1.15
136589.0		171975.0		136589.0		35386.0
260778.0		315206.0		260778.0		54428.0
449035.0		524724.0		449035.0		75689.0
576744.0		666298.0		576744.0		89554.0
375821.0		429478.0		375821.0		53657.0
222519.0		244041.0		222519.0		21522.0
95393.0		101765.0		95393.0		6372.0
20023.0		21209.0		20023.0		1186.0
9681.0		9926.0		9681.0		245.0
4170.0		4296.0		4170.0		126.0
2107.0		2128.0		2107.0		21.0
2331.0		2379.0		2331.0		48.0
1.15<|#eta|<1.37
74954.0		100792.0		74954.0		25838.0
133102.0		172225.0		133102.0		39123.0
229053.0		280205.0		229053.0		51152.0
304847.0		372976.0		304847.0		68129.0
211178.0		239568.0		211178.0		28390.0
123737.0		136699.0		123737.0		12962.0
53489.0		57292.0		53489.0		3803.0
11202.0		11767.0		11202.0		565.0
5262.0		5411.0		5262.0		149.0
2414.0		2469.0		2414.0		55.0
1188.0		1213.0		1188.0		25.0
1262.0		1314.0		1262.0		52.0
1.52<|#eta|<1.81
95778.0		118965.0		95778.0		23187.0
154276.0		190841.0		154276.0		36565.0
239014.0		288987.0		239014.0		49973.0
310476.0		368565.0		310476.0		58089.0
226905.0		255295.0		226905.0		28390.0
135322.0		147273.0		135322.0		11951.0
55931.0		60984.0		55931.0		5053.0
11328.0		12044.0		11328.0		716.0
5374.0		5568.0		5374.0		194.0
2284.0		2346.0		2284.0		62.0
1187.0		1220.0		1187.0		33.0
1283.0		1317.0		1283.0		34.0
1.81<|#eta|<2.01
70273.0		77253.0		70273.0		6980.0
110010.0		123961.0		110010.0		13951.0
160270.0		176713.0		160270.0		16443.0
200912.0		220812.0		200912.0		19900.0
137894.0		147443.0		137894.0		9549.0
77771.0		82446.0		77771.0		4675.0
32461.0		34331.0		32461.0		1870.0
6473.0		6972.0		6473.0		499.0
2896.0		3009.0		2896.0		113.0
1190.0		1239.0		1190.0		49.0
572.0		609.0		572.0		37.0
525.0		549.0		525.0		24.0
2.01<|#eta|<2.37
123766.0		138377.0		123766.0		14611.0
193199.0		214201.0		193199.0		21002.0
257841.0		282456.0		257841.0		24615.0
294349.0		324092.0		294349.0		29743.0
191539.0		209451.0		191539.0		17912.0
103892.0		115298.0		103892.0		11406.0
43379.0		47173.0		43379.0		3794.0
8782.0		9469.0		8782.0		687.0
3835.0		4046.0		3835.0		211.0
1499.0		1609.0		1499.0		110.0
735.0		791.0		735.0		56.0
670.0		698.0		670.0		28.0
