0.00<|#eta|<0.60
280424.0		355753.0		280424.0		75329.0
516796.0		631542.0		516796.0		114746.0
814387.0		968210.0		814387.0		153829.0
1092030.0		1267390.0		1092030.0		175372.0
758152.0		847912.0		758152.0		89760.0
438078.0		480297.0		438078.0		42219.0
192349.0		205827.0		192349.0		13478.0
40883.0		43062.0		40883.0		2179.0
18511.0		19265.0		18511.0		754.0
8316.0		8522.0		8316.0		206.0
4183.0		4299.0		4183.0		116.0
4439.0		4662.0		4439.0		223.0
0.60<|#eta|<0.80
77676.0		98620.0		77676.0		20944.0
168349.0		203945.0		168349.0		35596.0
277417.0		328245.0		277417.0		50828.0
351310.0		404244.0		351310.0		52934.0
245704.0		271811.0		245704.0		26107.0
141219.0		153683.0		141219.0		12464.0
61289.0		65032.0		61289.0		3743.0
12778.0		13350.0		12778.0		572.0
5917.0		6064.0		5917.0		147.0
2617.0		2677.0		2617.0		60.0
1352.0		1382.0		1352.0		30.0
1443.0		1474.0		1443.0		31.0
0.80<|#eta|<1.15
142225.0		171975.0		142225.0		29750.0
266339.0		315206.0		266339.0		48867.0
447891.0		524724.0		447891.0		76833.0
584000.0		666298.0		584000.0		82298.0
378173.0		429478.0		378173.0		51305.0
220078.0		244041.0		220078.0		23963.0
95368.0		101765.0		95368.0		6397.0
20188.0		21209.0		20188.0		1021.0
9722.0		9926.0		9722.0		204.0
4186.0		4296.0		4186.0		110.0
2102.0		2128.0		2102.0		26.0
2329.0		2379.0		2329.0		50.0
1.15<|#eta|<1.37
77588.0		100792.0		77588.0		23204.0
135277.0		172225.0		135277.0		36948.0
230057.0		280205.0		230057.0		50148.0
313060.0		372976.0		313060.0		59916.0
212921.0		239568.0		212921.0		26647.0
121534.0		136699.0		121534.0		15165.0
53433.0		57292.0		53433.0		3859.0
11173.0		11767.0		11173.0		594.0
5290.0		5411.0		5290.0		121.0
2427.0		2469.0		2427.0		42.0
1181.0		1213.0		1181.0		32.0
1271.0		1314.0		1271.0		43.0
1.52<|#eta|<1.81
97381.0		118965.0		97381.0		21584.0
157191.0		190841.0		157191.0		33650.0
240113.0		288987.0		240113.0		48874.0
312551.0		368565.0		312551.0		56014.0
228917.0		255295.0		228917.0		26378.0
133856.0		147273.0		133856.0		13417.0
55805.0		60984.0		55805.0		5179.0
11273.0		12044.0		11273.0		771.0
5379.0		5568.0		5379.0		189.0
2274.0		2346.0		2274.0		72.0
1191.0		1220.0		1191.0		29.0
1280.0		1317.0		1280.0		37.0
1.81<|#eta|<2.01
70270.0		77253.0		70270.0		6983.0
110981.0		123961.0		110981.0		12980.0
161644.0		176713.0		161644.0		15069.0
201833.0		220812.0		201833.0		18979.0
138031.0		147443.0		138031.0		9412.0
77454.0		82446.0		77454.0		4992.0
32378.0		34331.0		32378.0		1953.0
6502.0		6972.0		6502.0		470.0
2923.0		3009.0		2923.0		86.0
1208.0		1239.0		1208.0		31.0
581.0		609.0		581.0		28.0
522.0		549.0		522.0		27.0
2.01<|#eta|<2.37
123811.0		138377.0		123811.0		14566.0
192962.0		214201.0		192962.0		21239.0
256997.0		282456.0		256997.0		25459.0
294608.0		324092.0		294608.0		29484.0
192019.0		209451.0		192019.0		17432.0
103798.0		115298.0		103798.0		11500.0
43412.0		47173.0		43412.0		3761.0
8810.0		9469.0		8810.0		659.0
3858.0		4046.0		3858.0		188.0
1496.0		1609.0		1496.0		113.0
734.0		791.0		734.0		57.0
665.0		698.0		665.0		33.0
