0.00<|#eta|<0.60
284064.0		355753.0		284064.0		71689.0
520352.0		631542.0		520352.0		111190.0
819419.0		968210.0		819419.0		148797.0
1095310.0		1267390.0		1095310.0		172084.0
756055.0		847912.0		756055.0		91857.0
437643.0		480297.0		437643.0		42654.0
193281.0		205827.0		193281.0		12546.0
41328.0		43062.0		41328.0		1734.0
18632.0		19265.0		18632.0		633.0
8297.0		8522.0		8297.0		225.0
4166.0		4299.0		4166.0		133.0
4394.0		4662.0		4394.0		268.0
0.60<|#eta|<0.80
78534.0		98620.0		78534.0		20086.0
166056.0		203945.0		166056.0		37889.0
279726.0		328245.0		279726.0		48519.0
352991.0		404244.0		352991.0		51253.0
245967.0		271811.0		245967.0		25844.0
140929.0		153683.0		140929.0		12754.0
61272.0		65032.0		61272.0		3760.0
12814.0		13350.0		12814.0		536.0
5893.0		6064.0		5893.0		171.0
2634.0		2677.0		2634.0		43.0
1348.0		1382.0		1348.0		34.0
1438.0		1474.0		1438.0		36.0
0.80<|#eta|<1.15
136153.0		171975.0		136153.0		35822.0
258215.0		315206.0		258215.0		56991.0
448763.0		524724.0		448763.0		75961.0
572318.0		666298.0		572318.0		93980.0
374036.0		429478.0		374036.0		55442.0
219557.0		244041.0		219557.0		24484.0
95104.0		101765.0		95104.0		6661.0
19998.0		21209.0		19998.0		1211.0
9707.0		9926.0		9707.0		219.0
4179.0		4296.0		4179.0		117.0
2114.0		2128.0		2114.0		14.0
2322.0		2379.0		2322.0		57.0
1.15<|#eta|<1.37
76582.0		100792.0		76582.0		24210.0
132017.0		172225.0		132017.0		40208.0
229427.0		280205.0		229427.0		50778.0
305589.0		372976.0		305589.0		67387.0
211190.0		239568.0		211190.0		28378.0
122498.0		136699.0		122498.0		14201.0
53112.0		57292.0		53112.0		4180.0
11180.0		11767.0		11180.0		587.0
5280.0		5411.0		5280.0		131.0
2423.0		2469.0		2423.0		46.0
1186.0		1213.0		1186.0		27.0
1258.0		1314.0		1258.0		56.0
1.52<|#eta|<1.81
95294.0		118965.0		95294.0		23671.0
155688.0		190841.0		155688.0		35153.0
236528.0		288987.0		236528.0		52459.0
310337.0		368565.0		310337.0		58228.0
228770.0		255295.0		228770.0		26525.0
134448.0		147273.0		134448.0		12825.0
55597.0		60984.0		55597.0		5387.0
11312.0		12044.0		11312.0		732.0
5358.0		5568.0		5358.0		210.0
2285.0		2346.0		2285.0		61.0
1189.0		1220.0		1189.0		31.0
1272.0		1317.0		1272.0		45.0
1.81<|#eta|<2.01
70248.0		77253.0		70248.0		7005.0
109807.0		123961.0		109807.0		14154.0
161087.0		176713.0		161087.0		15626.0
200215.0		220812.0		200215.0		20597.0
138112.0		147443.0		138112.0		9331.0
77333.0		82446.0		77333.0		5113.0
32200.0		34331.0		32200.0		2131.0
6463.0		6972.0		6463.0		509.0
2929.0		3009.0		2929.0		80.0
1199.0		1239.0		1199.0		40.0
571.0		609.0		571.0		38.0
524.0		549.0		524.0		25.0
2.01<|#eta|<2.37
123810.0		138377.0		123810.0		14567.0
193015.0		214201.0		193015.0		21186.0
257440.0		282456.0		257440.0		25016.0
293626.0		324092.0		293626.0		30466.0
191852.0		209451.0		191852.0		17599.0
104035.0		115298.0		104035.0		11263.0
43445.0		47173.0		43445.0		3728.0
8751.0		9469.0		8751.0		718.0
3845.0		4046.0		3845.0		201.0
1510.0		1609.0		1510.0		99.0
738.0		791.0		738.0		53.0
650.0		698.0		650.0		48.0
