0.00<|#eta|<0.60
279999.0		355753.0		279999.0		75754.0
517905.0		631542.0		517905.0		113637.0
829488.0		968210.0		829488.0		138728.0
1094180.0		1267390.0		1094180.0		173217.0
756891.0		847912.0		756891.0		91021.0
436436.0		480297.0		436436.0		43861.0
193261.0		205827.0		193261.0		12566.0
41281.0		43062.0		41281.0		1781.0
18495.0		19265.0		18495.0		770.0
8316.0		8522.0		8316.0		206.0
4189.0		4299.0		4189.0		110.0
4439.0		4662.0		4439.0		223.0
0.60<|#eta|<0.80
77906.0		98620.0		77906.0		20714.0
166579.0		203945.0		166579.0		37366.0
282974.0		328245.0		282974.0		45271.0
354153.0		404244.0		354153.0		50091.0
246344.0		271811.0		246344.0		25467.0
140319.0		153683.0		140319.0		13364.0
60841.0		65032.0		60841.0		4191.0
12790.0		13350.0		12790.0		560.0
5930.0		6064.0		5930.0		134.0
2633.0		2677.0		2633.0		44.0
1346.0		1382.0		1346.0		36.0
1442.0		1474.0		1442.0		32.0
0.80<|#eta|<1.15
135367.0		171975.0		135367.0		36608.0
260678.0		315206.0		260678.0		54528.0
456172.0		524724.0		456172.0		68552.0
585764.0		666298.0		585764.0		80534.0
381507.0		429478.0		381507.0		47971.0
219679.0		244041.0		219679.0		24362.0
95057.0		101765.0		95057.0		6708.0
20103.0		21209.0		20103.0		1106.0
9691.0		9926.0		9691.0		235.0
4178.0		4296.0		4178.0		118.0
2099.0		2128.0		2099.0		29.0
2336.0		2379.0		2336.0		43.0
1.15<|#eta|<1.37
75366.0		100792.0		75366.0		25426.0
132341.0		172225.0		132341.0		39884.0
233457.0		280205.0		233457.0		46748.0
315565.0		372976.0		315565.0		57411.0
214615.0		239568.0		214615.0		24953.0
121664.0		136699.0		121664.0		15035.0
53172.0		57292.0		53172.0		4120.0
11194.0		11767.0		11194.0		573.0
5269.0		5411.0		5269.0		142.0
2412.0		2469.0		2412.0		57.0
1178.0		1213.0		1178.0		35.0
1265.0		1314.0		1265.0		49.0
1.52<|#eta|<1.81
95837.0		118965.0		95837.0		23128.0
154235.0		190841.0		154235.0		36606.0
242025.0		288987.0		242025.0		46962.0
315529.0		368565.0		315529.0		53036.0
229764.0		255295.0		229764.0		25531.0
134226.0		147273.0		134226.0		13047.0
55385.0		60984.0		55385.0		5599.0
11286.0		12044.0		11286.0		758.0
5358.0		5568.0		5358.0		210.0
2279.0		2346.0		2279.0		67.0
1185.0		1220.0		1185.0		35.0
1276.0		1317.0		1276.0		41.0
1.81<|#eta|<2.01
69483.0		77253.0		69483.0		7770.0
109888.0		123961.0		109888.0		14073.0
162413.0		176713.0		162413.0		14300.0
201676.0		220812.0		201676.0		19136.0
139061.0		147443.0		139061.0		8382.0
77406.0		82446.0		77406.0		5040.0
32248.0		34331.0		32248.0		2083.0
6501.0		6972.0		6501.0		471.0
2939.0		3009.0		2939.0		70.0
1185.0		1239.0		1185.0		54.0
581.0		609.0		581.0		28.0
523.0		549.0		523.0		26.0
2.01<|#eta|<2.37
123545.0		138377.0		123545.0		14832.0
193244.0		214201.0		193244.0		20957.0
258288.0		282456.0		258288.0		24168.0
293707.0		324092.0		293707.0		30385.0
192054.0		209451.0		192054.0		17397.0
103765.0		115298.0		103765.0		11533.0
43448.0		47173.0		43448.0		3725.0
8795.0		9469.0		8795.0		674.0
3850.0		4046.0		3850.0		196.0
1501.0		1609.0		1501.0		108.0
741.0		791.0		741.0		50.0
653.0		698.0		653.0		45.0
