0.00<|#eta|<0.60
281848.0		355753.0		281848.0		73905.0
519362.0		631542.0		519362.0		112180.0
826346.0		968210.0		826346.0		141870.0
1096120.0		1267390.0		1096120.0		171277.0
756788.0		847912.0		756788.0		91124.0
437309.0		480297.0		437309.0		42988.0
192777.0		205827.0		192777.0		13050.0
41290.0		43062.0		41290.0		1772.0
18617.0		19265.0		18617.0		648.0
8299.0		8522.0		8299.0		223.0
4183.0		4299.0		4183.0		116.0
4429.0		4662.0		4429.0		233.0
0.60<|#eta|<0.80
77861.0		98620.0		77861.0		20759.0
163648.0		203945.0		163648.0		40297.0
281824.0		328245.0		281824.0		46421.0
351383.0		404244.0		351383.0		52861.0
244786.0		271811.0		244786.0		27025.0
141761.0		153683.0		141761.0		11922.0
60939.0		65032.0		60939.0		4093.0
12688.0		13350.0		12688.0		662.0
5906.0		6064.0		5906.0		158.0
2640.0		2677.0		2640.0		37.0
1339.0		1382.0		1339.0		43.0
1449.0		1474.0		1449.0		25.0
0.80<|#eta|<1.15
136871.0		171975.0		136871.0		35104.0
261043.0		315206.0		261043.0		54163.0
453294.0		524724.0		453294.0		71430.0
583241.0		666298.0		583241.0		83057.0
378872.0		429478.0		378872.0		50606.0
219580.0		244041.0		219580.0		24461.0
95030.0		101765.0		95030.0		6735.0
19928.0		21209.0		19928.0		1281.0
9688.0		9926.0		9688.0		238.0
4173.0		4296.0		4173.0		123.0
2106.0		2128.0		2106.0		22.0
2327.0		2379.0		2327.0		52.0
1.15<|#eta|<1.37
74883.0		100792.0		74883.0		25909.0
133834.0		172225.0		133834.0		38391.0
230380.0		280205.0		230380.0		49825.0
311648.0		372976.0		311648.0		61328.0
213662.0		239568.0		213662.0		25906.0
121832.0		136699.0		121832.0		14867.0
53267.0		57292.0		53267.0		4025.0
11182.0		11767.0		11182.0		585.0
5297.0		5411.0		5297.0		114.0
2393.0		2469.0		2393.0		76.0
1184.0		1213.0		1184.0		29.0
1258.0		1314.0		1258.0		56.0
1.52<|#eta|<1.81
95993.0		118965.0		95993.0		22972.0
154863.0		190841.0		154863.0		35978.0
240384.0		288987.0		240384.0		48603.0
312948.0		368565.0		312948.0		55617.0
228043.0		255295.0		228043.0		27252.0
133899.0		147273.0		133899.0		13374.0
55475.0		60984.0		55475.0		5509.0
11315.0		12044.0		11315.0		729.0
5357.0		5568.0		5357.0		211.0
2281.0		2346.0		2281.0		65.0
1189.0		1220.0		1189.0		31.0
1270.0		1317.0		1270.0		47.0
1.81<|#eta|<2.01
69117.0		77253.0		69117.0		8136.0
110348.0		123961.0		110348.0		13613.0
161896.0		176713.0		161896.0		14817.0
201675.0		220812.0		201675.0		19137.0
137589.0		147443.0		137589.0		9854.0
77314.0		82446.0		77314.0		5132.0
32336.0		34331.0		32336.0		1995.0
6453.0		6972.0		6453.0		519.0
2931.0		3009.0		2931.0		78.0
1187.0		1239.0		1187.0		52.0
581.0		609.0		581.0		28.0
527.0		549.0		527.0		22.0
2.01<|#eta|<2.37
123548.0		138377.0		123548.0		14829.0
192262.0		214201.0		192262.0		21939.0
258419.0		282456.0		258419.0		24037.0
293884.0		324092.0		293884.0		30208.0
192021.0		209451.0		192021.0		17430.0
104056.0		115298.0		104056.0		11242.0
43500.0		47173.0		43500.0		3673.0
8787.0		9469.0		8787.0		682.0
3851.0		4046.0		3851.0		195.0
1510.0		1609.0		1510.0		99.0
741.0		791.0		741.0		50.0
658.0		698.0		658.0		40.0
