0.00<|#eta|<0.60
281151.0		355753.0		281151.0		74602.0
520154.0		631542.0		520154.0		111388.0
829236.0		968210.0		829236.0		138980.0
1092160.0		1267390.0		1092160.0		175245.0
755280.0		847912.0		755280.0		92632.0
439509.0		480297.0		439509.0		40788.0
192206.0		205827.0		192206.0		13621.0
41321.0		43062.0		41321.0		1741.0
18572.0		19265.0		18572.0		693.0
8297.0		8522.0		8297.0		225.0
4182.0		4299.0		4182.0		117.0
4421.0		4662.0		4421.0		241.0
0.60<|#eta|<0.80
79247.0		98620.0		79247.0		19373.0
168072.0		203945.0		168072.0		35873.0
282513.0		328245.0		282513.0		45732.0
352959.0		404244.0		352959.0		51285.0
246064.0		271811.0		246064.0		25747.0
141181.0		153683.0		141181.0		12502.0
61226.0		65032.0		61226.0		3806.0
12800.0		13350.0		12800.0		550.0
5900.0		6064.0		5900.0		164.0
2625.0		2677.0		2625.0		52.0
1340.0		1382.0		1340.0		42.0
1440.0		1474.0		1440.0		34.0
0.80<|#eta|<1.15
135724.0		171975.0		135724.0		36251.0
261698.0		315206.0		261698.0		53508.0
457201.0		524724.0		457201.0		67523.0
584319.0		666298.0		584319.0		81979.0
382382.0		429478.0		382382.0		47096.0
223030.0		244041.0		223030.0		21011.0
95483.0		101765.0		95483.0		6282.0
20055.0		21209.0		20055.0		1154.0
9713.0		9926.0		9713.0		213.0
4171.0		4296.0		4171.0		125.0
2098.0		2128.0		2098.0		30.0
2330.0		2379.0		2330.0		49.0
1.15<|#eta|<1.37
74492.0		100792.0		74492.0		26300.0
133899.0		172225.0		133899.0		38326.0
233825.0		280205.0		233825.0		46380.0
317025.0		372976.0		317025.0		55951.0
214334.0		239568.0		214334.0		25234.0
124111.0		136699.0		124111.0		12588.0
53642.0		57292.0		53642.0		3650.0
11151.0		11767.0		11151.0		616.0
5295.0		5411.0		5295.0		116.0
2431.0		2469.0		2431.0		38.0
1194.0		1213.0		1194.0		19.0
1263.0		1314.0		1263.0		51.0
1.52<|#eta|<1.81
95360.0		118965.0		95360.0		23605.0
155483.0		190841.0		155483.0		35358.0
241739.0		288987.0		241739.0		47248.0
316288.0		368565.0		316288.0		52277.0
230512.0		255295.0		230512.0		24783.0
135441.0		147273.0		135441.0		11832.0
55803.0		60984.0		55803.0		5181.0
11346.0		12044.0		11346.0		698.0
5367.0		5568.0		5367.0		201.0
2279.0		2346.0		2279.0		67.0
1187.0		1220.0		1187.0		33.0
1280.0		1317.0		1280.0		37.0
1.81<|#eta|<2.01
69889.0		77253.0		69889.0		7364.0
110189.0		123961.0		110189.0		13772.0
162093.0		176713.0		162093.0		14620.0
201953.0		220812.0		201953.0		18859.0
138346.0		147443.0		138346.0		9097.0
77702.0		82446.0		77702.0		4744.0
32431.0		34331.0		32431.0		1900.0
6514.0		6972.0		6514.0		458.0
2901.0		3009.0		2901.0		108.0
1206.0		1239.0		1206.0		33.0
579.0		609.0		579.0		30.0
524.0		549.0		524.0		25.0
2.01<|#eta|<2.37
123287.0		138377.0		123287.0		15090.0
192989.0		214201.0		192989.0		21212.0
257935.0		282456.0		257935.0		24521.0
294036.0		324092.0		294036.0		30056.0
191893.0		209451.0		191893.0		17558.0
103670.0		115298.0		103670.0		11628.0
43514.0		47173.0		43514.0		3659.0
8800.0		9469.0		8800.0		669.0
3848.0		4046.0		3848.0		198.0
1516.0		1609.0		1516.0		93.0
724.0		791.0		724.0		67.0
652.0		698.0		652.0		46.0
