0.00<|#eta|<0.60
281379.0		355753.0		281379.0		74374.0
522317.0		631542.0		522317.0		109225.0
827513.0		968210.0		827513.0		140703.0
1100150.0		1267390.0		1100150.0		167260.0
757911.0		847912.0		757911.0		90001.0
439534.0		480297.0		439534.0		40763.0
192312.0		205827.0		192312.0		13515.0
40928.0		43062.0		40928.0		2134.0
18634.0		19265.0		18634.0		631.0
8291.0		8522.0		8291.0		231.0
4183.0		4299.0		4183.0		116.0
4432.0		4662.0		4432.0		230.0
0.60<|#eta|<0.80
78269.0		98620.0		78269.0		20351.0
166850.0		203945.0		166850.0		37095.0
283950.0		328245.0		283950.0		44295.0
352577.0		404244.0		352577.0		51667.0
246683.0		271811.0		246683.0		25128.0
142290.0		153683.0		142290.0		11393.0
61360.0		65032.0		61360.0		3672.0
12770.0		13350.0		12770.0		580.0
5913.0		6064.0		5913.0		151.0
2626.0		2677.0		2626.0		51.0
1350.0		1382.0		1350.0		32.0
1427.0		1474.0		1427.0		47.0
0.80<|#eta|<1.15
135157.0		171975.0		135157.0		36818.0
260069.0		315206.0		260069.0		55137.0
454006.0		524724.0		454006.0		70718.0
581705.0		666298.0		581705.0		84593.0
379073.0		429478.0		379073.0		50405.0
223835.0		244041.0		223835.0		20206.0
95744.0		101765.0		95744.0		6021.0
20240.0		21209.0		20240.0		969.0
9743.0		9926.0		9743.0		183.0
4197.0		4296.0		4197.0		99.0
2098.0		2128.0		2098.0		30.0
2327.0		2379.0		2327.0		52.0
1.15<|#eta|<1.37
74679.0		100792.0		74679.0		26113.0
133435.0		172225.0		133435.0		38790.0
232356.0		280205.0		232356.0		47849.0
311326.0		372976.0		311326.0		61650.0
212251.0		239568.0		212251.0		27317.0
124146.0		136699.0		124146.0		12553.0
53734.0		57292.0		53734.0		3558.0
11270.0		11767.0		11270.0		497.0
5299.0		5411.0		5299.0		112.0
2417.0		2469.0		2417.0		52.0
1187.0		1213.0		1187.0		26.0
1265.0		1314.0		1265.0		49.0
1.52<|#eta|<1.81
95899.0		118965.0		95899.0		23066.0
155220.0		190841.0		155220.0		35621.0
239532.0		288987.0		239532.0		49455.0
312777.0		368565.0		312777.0		55788.0
228907.0		255295.0		228907.0		26388.0
135875.0		147273.0		135875.0		11398.0
56200.0		60984.0		56200.0		4784.0
11312.0		12044.0		11312.0		732.0
5402.0		5568.0		5402.0		166.0
2283.0		2346.0		2283.0		63.0
1182.0		1220.0		1182.0		38.0
1269.0		1317.0		1269.0		48.0
1.81<|#eta|<2.01
70084.0		77253.0		70084.0		7169.0
110306.0		123961.0		110306.0		13655.0
161345.0		176713.0		161345.0		15368.0
201824.0		220812.0		201824.0		18988.0
138018.0		147443.0		138018.0		9425.0
77791.0		82446.0		77791.0		4655.0
32422.0		34331.0		32422.0		1909.0
6483.0		6972.0		6483.0		489.0
2918.0		3009.0		2918.0		91.0
1189.0		1239.0		1189.0		50.0
582.0		609.0		582.0		27.0
525.0		549.0		525.0		24.0
2.01<|#eta|<2.37
123562.0		138377.0		123562.0		14815.0
193380.0		214201.0		193380.0		20821.0
258499.0		282456.0		258499.0		23957.0
293798.0		324092.0		293798.0		30294.0
191941.0		209451.0		191941.0		17510.0
103843.0		115298.0		103843.0		11455.0
43322.0		47173.0		43322.0		3851.0
8780.0		9469.0		8780.0		689.0
3856.0		4046.0		3856.0		190.0
1518.0		1609.0		1518.0		91.0
737.0		791.0		737.0		54.0
644.0		698.0		644.0		54.0
