0.00<|#eta|<0.60
283686.0		355753.0		283686.0		72067.0
515481.0		631542.0		515481.0		116061.0
827539.0		968210.0		827539.0		140677.0
1094980.0		1267390.0		1094980.0		172411.0
756239.0		847912.0		756239.0		91673.0
439099.0		480297.0		439099.0		41198.0
192278.0		205827.0		192278.0		13549.0
40928.0		43062.0		40928.0		2134.0
18624.0		19265.0		18624.0		641.0
8272.0		8522.0		8272.0		250.0
4204.0		4299.0		4204.0		95.0
4428.0		4662.0		4428.0		234.0
0.60<|#eta|<0.80
77578.0		98620.0		77578.0		21042.0
166646.0		203945.0		166646.0		37299.0
279885.0		328245.0		279885.0		48360.0
350287.0		404244.0		350287.0		53957.0
245758.0		271811.0		245758.0		26053.0
142024.0		153683.0		142024.0		11659.0
61565.0		65032.0		61565.0		3467.0
12789.0		13350.0		12789.0		561.0
5917.0		6064.0		5917.0		147.0
2641.0		2677.0		2641.0		36.0
1357.0		1382.0		1357.0		25.0
1442.0		1474.0		1442.0		32.0
0.80<|#eta|<1.15
136172.0		171975.0		136172.0		35803.0
261134.0		315206.0		261134.0		54072.0
446980.0		524724.0		446980.0		77744.0
571944.0		666298.0		571944.0		94354.0
375238.0		429478.0		375238.0		54240.0
223488.0		244041.0		223488.0		20553.0
95998.0		101765.0		95998.0		5767.0
20242.0		21209.0		20242.0		967.0
9750.0		9926.0		9750.0		176.0
4197.0		4296.0		4197.0		99.0
2095.0		2128.0		2095.0		33.0
2324.0		2379.0		2324.0		55.0
1.15<|#eta|<1.37
75041.0		100792.0		75041.0		25751.0
133055.0		172225.0		133055.0		39170.0
227560.0		280205.0		227560.0		52645.0
307068.0		372976.0		307068.0		65908.0
212521.0		239568.0		212521.0		27047.0
124195.0		136699.0		124195.0		12504.0
53916.0		57292.0		53916.0		3376.0
11233.0		11767.0		11233.0		534.0
5279.0		5411.0		5279.0		132.0
2430.0		2469.0		2430.0		39.0
1191.0		1213.0		1191.0		22.0
1272.0		1314.0		1272.0		42.0
1.52<|#eta|<1.81
95756.0		118965.0		95756.0		23209.0
155250.0		190841.0		155250.0		35591.0
236895.0		288987.0		236895.0		52092.0
310070.0		368565.0		310070.0		58495.0
227079.0		255295.0		227079.0		28216.0
135407.0		147273.0		135407.0		11866.0
56131.0		60984.0		56131.0		4853.0
11381.0		12044.0		11381.0		663.0
5387.0		5568.0		5387.0		181.0
2277.0		2346.0		2277.0		69.0
1177.0		1220.0		1177.0		43.0
1286.0		1317.0		1286.0		31.0
1.81<|#eta|<2.01
69247.0		77253.0		69247.0		8006.0
110730.0		123961.0		110730.0		13231.0
160893.0		176713.0		160893.0		15820.0
200175.0		220812.0		200175.0		20637.0
138071.0		147443.0		138071.0		9372.0
77705.0		82446.0		77705.0		4741.0
32467.0		34331.0		32467.0		1864.0
6530.0		6972.0		6530.0		442.0
2910.0		3009.0		2910.0		99.0
1189.0		1239.0		1189.0		50.0
585.0		609.0		585.0		24.0
525.0		549.0		525.0		24.0
2.01<|#eta|<2.37
123691.0		138377.0		123691.0		14686.0
193836.0		214201.0		193836.0		20365.0
257868.0		282456.0		257868.0		24588.0
294555.0		324092.0		294555.0		29537.0
192348.0		209451.0		192348.0		17103.0
103788.0		115298.0		103788.0		11510.0
43444.0		47173.0		43444.0		3729.0
8806.0		9469.0		8806.0		663.0
3837.0		4046.0		3837.0		209.0
1520.0		1609.0		1520.0		89.0
738.0		791.0		738.0		53.0
647.0		698.0		647.0		51.0
