0.00<|#eta|<0.60
283567.0		355753.0		283567.0		72186.0
522988.0		631542.0		522988.0		108554.0
813369.0		968210.0		813369.0		154847.0
1096260.0		1267390.0		1096260.0		171140.0
758037.0		847912.0		758037.0		89875.0
440699.0		480297.0		440699.0		39598.0
192037.0		205827.0		192037.0		13790.0
41284.0		43062.0		41284.0		1778.0
18643.0		19265.0		18643.0		622.0
8282.0		8522.0		8282.0		240.0
4195.0		4299.0		4195.0		104.0
4445.0		4662.0		4445.0		217.0
0.60<|#eta|<0.80
79127.0		98620.0		79127.0		19493.0
167109.0		203945.0		167109.0		36836.0
275312.0		328245.0		275312.0		52933.0
350534.0		404244.0		350534.0		53710.0
242930.0		271811.0		242930.0		28881.0
141806.0		153683.0		141806.0		11877.0
61351.0		65032.0		61351.0		3681.0
12711.0		13350.0		12711.0		639.0
5864.0		6064.0		5864.0		200.0
2622.0		2677.0		2622.0		55.0
1350.0		1382.0		1350.0		32.0
1442.0		1474.0		1442.0		32.0
0.80<|#eta|<1.15
140986.0		171975.0		140986.0		30989.0
267739.0		315206.0		267739.0		47467.0
447067.0		524724.0		447067.0		77657.0
572613.0		666298.0		572613.0		93685.0
374095.0		429478.0		374095.0		55383.0
223483.0		244041.0		223483.0		20558.0
94916.0		101765.0		94916.0		6849.0
20102.0		21209.0		20102.0		1107.0
9705.0		9926.0		9705.0		221.0
4178.0		4296.0		4178.0		118.0
2107.0		2128.0		2107.0		21.0
2350.0		2379.0		2350.0		29.0
1.15<|#eta|<1.37
77086.0		100792.0		77086.0		23706.0
136524.0		172225.0		136524.0		35701.0
228464.0		280205.0		228464.0		51741.0
306025.0		372976.0		306025.0		66951.0
211772.0		239568.0		211772.0		27796.0
124071.0		136699.0		124071.0		12628.0
53599.0		57292.0		53599.0		3693.0
11112.0		11767.0		11112.0		655.0
5276.0		5411.0		5276.0		135.0
2403.0		2469.0		2403.0		66.0
1190.0		1213.0		1190.0		23.0
1277.0		1314.0		1277.0		37.0
1.52<|#eta|<1.81
97732.0		118965.0		97732.0		21233.0
158360.0		190841.0		158360.0		32481.0
236453.0		288987.0		236453.0		52534.0
310322.0		368565.0		310322.0		58243.0
228388.0		255295.0		228388.0		26907.0
135519.0		147273.0		135519.0		11754.0
55730.0		60984.0		55730.0		5254.0
11275.0		12044.0		11275.0		769.0
5380.0		5568.0		5380.0		188.0
2275.0		2346.0		2275.0		71.0
1189.0		1220.0		1189.0		31.0
1288.0		1317.0		1288.0		29.0
1.81<|#eta|<2.01
70650.0		77253.0		70650.0		6603.0
111107.0		123961.0		111107.0		12854.0
160676.0		176713.0		160676.0		16037.0
200387.0		220812.0		200387.0		20425.0
137919.0		147443.0		137919.0		9524.0
77817.0		82446.0		77817.0		4629.0
32367.0		34331.0		32367.0		1964.0
6445.0		6972.0		6445.0		527.0
2932.0		3009.0		2932.0		77.0
1189.0		1239.0		1189.0		50.0
581.0		609.0		581.0		28.0
526.0		549.0		526.0		23.0
2.01<|#eta|<2.37
123831.0		138377.0		123831.0		14546.0
192946.0		214201.0		192946.0		21255.0
257620.0		282456.0		257620.0		24836.0
295273.0		324092.0		295273.0		28819.0
192458.0		209451.0		192458.0		16993.0
104123.0		115298.0		104123.0		11175.0
43436.0		47173.0		43436.0		3737.0
8803.0		9469.0		8803.0		666.0
3862.0		4046.0		3862.0		184.0
1505.0		1609.0		1505.0		104.0
734.0		791.0		734.0		57.0
648.0		698.0		648.0		50.0
