0.00<|#eta|<0.60
280862.0		355753.0		280862.0		74891.0
516117.0		631542.0		516117.0		115425.0
804321.0		968210.0		804321.0		163895.0
1093610.0		1267390.0		1093610.0		173787.0
757133.0		847912.0		757133.0		90779.0
440471.0		480297.0		440471.0		39826.0
191850.0		205827.0		191850.0		13977.0
40809.0		43062.0		40809.0		2253.0
18607.0		19265.0		18607.0		658.0
8315.0		8522.0		8315.0		207.0
4180.0		4299.0		4180.0		119.0
4365.0		4662.0		4365.0		297.0
0.60<|#eta|<0.80
78096.0		98620.0		78096.0		20524.0
167453.0		203945.0		167453.0		36492.0
280437.0		328245.0		280437.0		47808.0
353017.0		404244.0		353017.0		51227.0
244847.0		271811.0		244847.0		26964.0
140989.0		153683.0		140989.0		12694.0
61370.0		65032.0		61370.0		3662.0
12833.0		13350.0		12833.0		517.0
5946.0		6064.0		5946.0		118.0
2625.0		2677.0		2625.0		52.0
1345.0		1382.0		1345.0		37.0
1449.0		1474.0		1449.0		25.0
0.80<|#eta|<1.15
141872.0		171975.0		141872.0		30103.0
267228.0		315206.0		267228.0		47978.0
451654.0		524724.0		451654.0		73070.0
580796.0		666298.0		580796.0		85502.0
380677.0		429478.0		380677.0		48801.0
223435.0		244041.0		223435.0		20606.0
95911.0		101765.0		95911.0		5854.0
20286.0		21209.0		20286.0		923.0
9718.0		9926.0		9718.0		208.0
4188.0		4296.0		4188.0		108.0
2114.0		2128.0		2114.0		14.0
2330.0		2379.0		2330.0		49.0
1.15<|#eta|<1.37
77827.0		100792.0		77827.0		22965.0
137346.0		172225.0		137346.0		34879.0
232049.0		280205.0		232049.0		48156.0
313445.0		372976.0		313445.0		59531.0
212608.0		239568.0		212608.0		26960.0
124171.0		136699.0		124171.0		12528.0
54011.0		57292.0		54011.0		3281.0
11288.0		11767.0		11288.0		479.0
5307.0		5411.0		5307.0		104.0
2427.0		2469.0		2427.0		42.0
1181.0		1213.0		1181.0		32.0
1256.0		1314.0		1256.0		58.0
1.52<|#eta|<1.81
97713.0		118965.0		97713.0		21252.0
157512.0		190841.0		157512.0		33329.0
240626.0		288987.0		240626.0		48361.0
313031.0		368565.0		313031.0		55534.0
228556.0		255295.0		228556.0		26739.0
135659.0		147273.0		135659.0		11614.0
56218.0		60984.0		56218.0		4766.0
11358.0		12044.0		11358.0		686.0
5400.0		5568.0		5400.0		168.0
2292.0		2346.0		2292.0		54.0
1189.0		1220.0		1189.0		31.0
1284.0		1317.0		1284.0		33.0
1.81<|#eta|<2.01
70225.0		77253.0		70225.0		7028.0
111039.0		123961.0		111039.0		12922.0
161938.0		176713.0		161938.0		14775.0
200859.0		220812.0		200859.0		19953.0
137937.0		147443.0		137937.0		9506.0
77811.0		82446.0		77811.0		4635.0
32535.0		34331.0		32535.0		1796.0
6523.0		6972.0		6523.0		449.0
2916.0		3009.0		2916.0		93.0
1191.0		1239.0		1191.0		48.0
576.0		609.0		576.0		33.0
523.0		549.0		523.0		26.0
2.01<|#eta|<2.37
123754.0		138377.0		123754.0		14623.0
192925.0		214201.0		192925.0		21276.0
258405.0		282456.0		258405.0		24051.0
293621.0		324092.0		293621.0		30471.0
191910.0		209451.0		191910.0		17541.0
103951.0		115298.0		103951.0		11347.0
43486.0		47173.0		43486.0		3687.0
8794.0		9469.0		8794.0		675.0
3852.0		4046.0		3852.0		194.0
1523.0		1609.0		1523.0		86.0
732.0		791.0		732.0		59.0
651.0		698.0		651.0		47.0
