0.00<|#eta|<0.60
283126.0		355753.0		283126.0		72627.0
519917.0		631542.0		519917.0		111625.0
818471.0		968210.0		818471.0		149745.0
1094780.0		1267390.0		1094780.0		172612.0
758952.0		847912.0		758952.0		88960.0
436576.0		480297.0		436576.0		43721.0
193381.0		205827.0		193381.0		12446.0
41067.0		43062.0		41067.0		1995.0
18636.0		19265.0		18636.0		629.0
8286.0		8522.0		8286.0		236.0
4168.0		4299.0		4168.0		131.0
4432.0		4662.0		4432.0		230.0
0.60<|#eta|<0.80
78487.0		98620.0		78487.0		20133.0
166872.0		203945.0		166872.0		37073.0
284528.0		328245.0		284528.0		43717.0
355034.0		404244.0		355034.0		49210.0
245489.0		271811.0		245489.0		26322.0
140621.0		153683.0		140621.0		13062.0
61290.0		65032.0		61290.0		3742.0
12841.0		13350.0		12841.0		509.0
5924.0		6064.0		5924.0		140.0
2639.0		2677.0		2639.0		38.0
1353.0		1382.0		1353.0		29.0
1439.0		1474.0		1439.0		35.0
0.80<|#eta|<1.15
140077.0		171975.0		140077.0		31898.0
265502.0		315206.0		265502.0		49704.0
453963.0		524724.0		453963.0		70761.0
586014.0		666298.0		586014.0		80284.0
382292.0		429478.0		382292.0		47186.0
220576.0		244041.0		220576.0		23465.0
95476.0		101765.0		95476.0		6289.0
20191.0		21209.0		20191.0		1018.0
9733.0		9926.0		9733.0		193.0
4211.0		4296.0		4211.0		85.0
2108.0		2128.0		2108.0		20.0
2344.0		2379.0		2344.0		35.0
1.15<|#eta|<1.37
76828.0		100792.0		76828.0		23964.0
136925.0		172225.0		136925.0		35300.0
233538.0		280205.0		233538.0		46667.0
316312.0		372976.0		316312.0		56664.0
214607.0		239568.0		214607.0		24961.0
121999.0		136699.0		121999.0		14700.0
53543.0		57292.0		53543.0		3749.0
11328.0		11767.0		11328.0		439.0
5300.0		5411.0		5300.0		111.0
2428.0		2469.0		2428.0		41.0
1188.0		1213.0		1188.0		25.0
1272.0		1314.0		1272.0		42.0
1.52<|#eta|<1.81
96895.0		118965.0		96895.0		22070.0
157714.0		190841.0		157714.0		33127.0
241705.0		288987.0		241705.0		47282.0
315418.0		368565.0		315418.0		53147.0
230139.0		255295.0		230139.0		25156.0
134270.0		147273.0		134270.0		13003.0
55995.0		60984.0		55995.0		4989.0
11381.0		12044.0		11381.0		663.0
5409.0		5568.0		5409.0		159.0
2272.0		2346.0		2272.0		74.0
1194.0		1220.0		1194.0		26.0
1277.0		1317.0		1277.0		40.0
1.81<|#eta|<2.01
70075.0		77253.0		70075.0		7178.0
111764.0		123961.0		111764.0		12197.0
162447.0		176713.0		162447.0		14266.0
201842.0		220812.0		201842.0		18970.0
138244.0		147443.0		138244.0		9199.0
77399.0		82446.0		77399.0		5047.0
32332.0		34331.0		32332.0		1999.0
6535.0		6972.0		6535.0		437.0
2920.0		3009.0		2920.0		89.0
1214.0		1239.0		1214.0		25.0
582.0		609.0		582.0		27.0
526.0		549.0		526.0		23.0
2.01<|#eta|<2.37
123802.0		138377.0		123802.0		14575.0
192633.0		214201.0		192633.0		21568.0
257831.0		282456.0		257831.0		24625.0
294407.0		324092.0		294407.0		29685.0
191821.0		209451.0		191821.0		17630.0
103811.0		115298.0		103811.0		11487.0
43442.0		47173.0		43442.0		3731.0
8808.0		9469.0		8808.0		661.0
3857.0		4046.0		3857.0		189.0
1522.0		1609.0		1522.0		87.0
733.0		791.0		733.0		58.0
664.0		698.0		664.0		34.0
