0.00<|#eta|<0.60
283292.0		355753.0		283292.0		72461.0
521497.0		631542.0		521497.0		110045.0
828911.0		968210.0		828911.0		139305.0
1091420.0		1267390.0		1091420.0		175972.0
757229.0		847912.0		757229.0		90683.0
437421.0		480297.0		437421.0		42876.0
193023.0		205827.0		193023.0		12804.0
41279.0		43062.0		41279.0		1783.0
18626.0		19265.0		18626.0		639.0
8318.0		8522.0		8318.0		204.0
4166.0		4299.0		4166.0		133.0
4390.0		4662.0		4390.0		272.0
0.60<|#eta|<0.80
77561.0		98620.0		77561.0		21059.0
166224.0		203945.0		166224.0		37721.0
281427.0		328245.0		281427.0		46818.0
353388.0		404244.0		353388.0		50856.0
245303.0		271811.0		245303.0		26508.0
141345.0		153683.0		141345.0		12338.0
61191.0		65032.0		61191.0		3841.0
12722.0		13350.0		12722.0		628.0
5911.0		6064.0		5911.0		153.0
2621.0		2677.0		2621.0		56.0
1349.0		1382.0		1349.0		33.0
1445.0		1474.0		1445.0		29.0
0.80<|#eta|<1.15
136408.0		171975.0		136408.0		35567.0
260212.0		315206.0		260212.0		54994.0
452916.0		524724.0		452916.0		71808.0
578505.0		666298.0		578505.0		87793.0
378270.0		429478.0		378270.0		51208.0
219825.0		244041.0		219825.0		24216.0
94638.0		101765.0		94638.0		7127.0
20024.0		21209.0		20024.0		1185.0
9719.0		9926.0		9719.0		207.0
4188.0		4296.0		4188.0		108.0
2112.0		2128.0		2112.0		16.0
2334.0		2379.0		2334.0		45.0
1.15<|#eta|<1.37
74781.0		100792.0		74781.0		26011.0
133289.0		172225.0		133289.0		38936.0
232502.0		280205.0		232502.0		47703.0
312604.0		372976.0		312604.0		60372.0
212890.0		239568.0		212890.0		26678.0
122378.0		136699.0		122378.0		14321.0
53330.0		57292.0		53330.0		3962.0
11214.0		11767.0		11214.0		553.0
5305.0		5411.0		5305.0		106.0
2407.0		2469.0		2407.0		62.0
1188.0		1213.0		1188.0		25.0
1262.0		1314.0		1262.0		52.0
1.52<|#eta|<1.81
95698.0		118965.0		95698.0		23267.0
155754.0		190841.0		155754.0		35087.0
239247.0		288987.0		239247.0		49740.0
313544.0		368565.0		313544.0		55021.0
228668.0		255295.0		228668.0		26627.0
134183.0		147273.0		134183.0		13090.0
55494.0		60984.0		55494.0		5490.0
11305.0		12044.0		11305.0		739.0
5386.0		5568.0		5386.0		182.0
2279.0		2346.0		2279.0		67.0
1190.0		1220.0		1190.0		30.0
1273.0		1317.0		1273.0		44.0
1.81<|#eta|<2.01
69552.0		77253.0		69552.0		7701.0
110964.0		123961.0		110964.0		12997.0
161744.0		176713.0		161744.0		14969.0
200944.0		220812.0		200944.0		19868.0
138480.0		147443.0		138480.0		8963.0
77461.0		82446.0		77461.0		4985.0
32294.0		34331.0		32294.0		2037.0
6445.0		6972.0		6445.0		527.0
2937.0		3009.0		2937.0		72.0
1189.0		1239.0		1189.0		50.0
583.0		609.0		583.0		26.0
526.0		549.0		526.0		23.0
2.01<|#eta|<2.37
123204.0		138377.0		123204.0		15173.0
192859.0		214201.0		192859.0		21342.0
257096.0		282456.0		257096.0		25360.0
293335.0		324092.0		293335.0		30757.0
191794.0		209451.0		191794.0		17657.0
103966.0		115298.0		103966.0		11332.0
43435.0		47173.0		43435.0		3738.0
8759.0		9469.0		8759.0		710.0
3862.0		4046.0		3862.0		184.0
1505.0		1609.0		1505.0		104.0
732.0		791.0		732.0		59.0
657.0		698.0		657.0		41.0
