0.00<|#eta|<0.60
284899.0		355753.0		284899.0		70854.0
521631.0		631542.0		521631.0		109911.0
820192.0		968210.0		820192.0		148024.0
1097110.0		1267390.0		1097110.0		170289.0
757403.0		847912.0		757403.0		90509.0
440471.0		480297.0		440471.0		39826.0
192005.0		205827.0		192005.0		13822.0
40898.0		43062.0		40898.0		2164.0
18580.0		19265.0		18580.0		685.0
8248.0		8522.0		8248.0		274.0
4191.0		4299.0		4191.0		108.0
4382.0		4662.0		4382.0		280.0
0.60<|#eta|<0.80
75568.0		98620.0		75568.0		23052.0
165425.0		203945.0		165425.0		38520.0
278853.0		328245.0		278853.0		49392.0
352943.0		404244.0		352943.0		51301.0
242291.0		271811.0		242291.0		29520.0
141573.0		153683.0		141573.0		12110.0
61388.0		65032.0		61388.0		3644.0
12817.0		13350.0		12817.0		533.0
5886.0		6064.0		5886.0		178.0
2618.0		2677.0		2618.0		59.0
1341.0		1382.0		1341.0		41.0
1446.0		1474.0		1446.0		28.0
0.80<|#eta|<1.15
136104.0		171975.0		136104.0		35871.0
259964.0		315206.0		259964.0		55242.0
447330.0		524724.0		447330.0		77394.0
571267.0		666298.0		571267.0		95031.0
378372.0		429478.0		378372.0		51106.0
223748.0		244041.0		223748.0		20293.0
95603.0		101765.0		95603.0		6162.0
20261.0		21209.0		20261.0		948.0
9731.0		9926.0		9731.0		195.0
4151.0		4296.0		4151.0		145.0
2096.0		2128.0		2096.0		32.0
2327.0		2379.0		2327.0		52.0
1.15<|#eta|<1.37
75613.0		100792.0		75613.0		25179.0
134592.0		172225.0		134592.0		37633.0
229604.0		280205.0		229604.0		50601.0
305640.0		372976.0		305640.0		67336.0
210825.0		239568.0		210825.0		28743.0
123548.0		136699.0		123548.0		13151.0
53825.0		57292.0		53825.0		3467.0
11307.0		11767.0		11307.0		460.0
5295.0		5411.0		5295.0		116.0
2414.0		2469.0		2414.0		55.0
1179.0		1213.0		1179.0		34.0
1250.0		1314.0		1250.0		64.0
1.52<|#eta|<1.81
96410.0		118965.0		96410.0		22555.0
155528.0		190841.0		155528.0		35313.0
236453.0		288987.0		236453.0		52534.0
309958.0		368565.0		309958.0		58607.0
227821.0		255295.0		227821.0		27474.0
135959.0		147273.0		135959.0		11314.0
56175.0		60984.0		56175.0		4809.0
11388.0		12044.0		11388.0		656.0
5407.0		5568.0		5407.0		161.0
2291.0		2346.0		2291.0		55.0
1185.0		1220.0		1185.0		35.0
1272.0		1317.0		1272.0		45.0
1.81<|#eta|<2.01
69385.0		77253.0		69385.0		7868.0
109575.0		123961.0		109575.0		14386.0
159771.0		176713.0		159771.0		16942.0
200543.0		220812.0		200543.0		20269.0
137804.0		147443.0		137804.0		9639.0
77936.0		82446.0		77936.0		4510.0
32409.0		34331.0		32409.0		1922.0
6506.0		6972.0		6506.0		466.0
2918.0		3009.0		2918.0		91.0
1183.0		1239.0		1183.0		56.0
578.0		609.0		578.0		31.0
525.0		549.0		525.0		24.0
2.01<|#eta|<2.37
123811.0		138377.0		123811.0		14566.0
193671.0		214201.0		193671.0		20530.0
257627.0		282456.0		257627.0		24829.0
294298.0		324092.0		294298.0		29794.0
191722.0		209451.0		191722.0		17729.0
103952.0		115298.0		103952.0		11346.0
43478.0		47173.0		43478.0		3695.0
8760.0		9469.0		8760.0		709.0
3849.0		4046.0		3849.0		197.0
1511.0		1609.0		1511.0		98.0
741.0		791.0		741.0		50.0
664.0		698.0		664.0		34.0
