0.00<|#eta|<0.60
280614.0		355753.0		280614.0		75139.0
520253.0		631542.0		520253.0		111289.0
829858.0		968210.0		829858.0		138358.0
1093800.0		1267390.0		1093800.0		173608.0
755630.0		847912.0		755630.0		92282.0
439743.0		480297.0		439743.0		40554.0
193101.0		205827.0		193101.0		12726.0
41275.0		43062.0		41275.0		1787.0
18596.0		19265.0		18596.0		669.0
8301.0		8522.0		8301.0		221.0
4172.0		4299.0		4172.0		127.0
4441.0		4662.0		4441.0		221.0
0.60<|#eta|<0.80
77474.0		98620.0		77474.0		21146.0
166949.0		203945.0		166949.0		36996.0
280951.0		328245.0		280951.0		47294.0
349456.0		404244.0		349456.0		54788.0
243992.0		271811.0		243992.0		27819.0
140323.0		153683.0		140323.0		13360.0
61403.0		65032.0		61403.0		3629.0
12719.0		13350.0		12719.0		631.0
5882.0		6064.0		5882.0		182.0
2618.0		2677.0		2618.0		59.0
1338.0		1382.0		1338.0		44.0
1438.0		1474.0		1438.0		36.0
0.80<|#eta|<1.15
136499.0		171975.0		136499.0		35476.0
259613.0		315206.0		259613.0		55593.0
443993.0		524724.0		443993.0		80731.0
577717.0		666298.0		577717.0		88581.0
376415.0		429478.0		376415.0		53063.0
220223.0		244041.0		220223.0		23818.0
94991.0		101765.0		94991.0		6774.0
19990.0		21209.0		19990.0		1219.0
9705.0		9926.0		9705.0		221.0
4161.0		4296.0		4161.0		135.0
2097.0		2128.0		2097.0		31.0
2324.0		2379.0		2324.0		55.0
1.15<|#eta|<1.37
75160.0		100792.0		75160.0		25632.0
133321.0		172225.0		133321.0		38904.0
227762.0		280205.0		227762.0		52443.0
307083.0		372976.0		307083.0		65893.0
211164.0		239568.0		211164.0		28404.0
122133.0		136699.0		122133.0		14566.0
53145.0		57292.0		53145.0		4147.0
11176.0		11767.0		11176.0		591.0
5293.0		5411.0		5293.0		118.0
2410.0		2469.0		2410.0		59.0
1189.0		1213.0		1189.0		24.0
1271.0		1314.0		1271.0		43.0
1.52<|#eta|<1.81
95115.0		118965.0		95115.0		23850.0
156079.0		190841.0		156079.0		34762.0
236879.0		288987.0		236879.0		52108.0
310090.0		368565.0		310090.0		58475.0
227818.0		255295.0		227818.0		27477.0
134364.0		147273.0		134364.0		12909.0
55516.0		60984.0		55516.0		5468.0
11262.0		12044.0		11262.0		782.0
5377.0		5568.0		5377.0		191.0
2292.0		2346.0		2292.0		54.0
1182.0		1220.0		1182.0		38.0
1281.0		1317.0		1281.0		36.0
1.81<|#eta|<2.01
69903.0		77253.0		69903.0		7350.0
110156.0		123961.0		110156.0		13805.0
161507.0		176713.0		161507.0		15206.0
200493.0		220812.0		200493.0		20319.0
137833.0		147443.0		137833.0		9610.0
77346.0		82446.0		77346.0		5100.0
32340.0		34331.0		32340.0		1991.0
6505.0		6972.0		6505.0		467.0
2900.0		3009.0		2900.0		109.0
1201.0		1239.0		1201.0		38.0
583.0		609.0		583.0		26.0
527.0		549.0		527.0		22.0
2.01<|#eta|<2.37
123911.0		138377.0		123911.0		14466.0
192984.0		214201.0		192984.0		21217.0
257640.0		282456.0		257640.0		24816.0
294379.0		324092.0		294379.0		29713.0
191821.0		209451.0		191821.0		17630.0
103887.0		115298.0		103887.0		11411.0
43471.0		47173.0		43471.0		3702.0
8810.0		9469.0		8810.0		659.0
3855.0		4046.0		3855.0		191.0
1522.0		1609.0		1522.0		87.0
735.0		791.0		735.0		56.0
666.0		698.0		666.0		32.0
