0.00<|#eta|<0.60
279715.0		355753.0		279715.0		76038.0
519427.0		631542.0		519427.0		112115.0
828466.0		968210.0		828466.0		139750.0
1092970.0		1267390.0		1092970.0		174424.0
756810.0		847912.0		756810.0		91102.0
439720.0		480297.0		439720.0		40577.0
192504.0		205827.0		192504.0		13323.0
41254.0		43062.0		41254.0		1808.0
18599.0		19265.0		18599.0		666.0
8306.0		8522.0		8306.0		216.0
4189.0		4299.0		4189.0		110.0
4421.0		4662.0		4421.0		241.0
0.60<|#eta|<0.80
76221.0		98620.0		76221.0		22399.0
166488.0		203945.0		166488.0		37457.0
278842.0		328245.0		278842.0		49403.0
350562.0		404244.0		350562.0		53682.0
244973.0		271811.0		244973.0		26838.0
141075.0		153683.0		141075.0		12608.0
61332.0		65032.0		61332.0		3700.0
12853.0		13350.0		12853.0		497.0
5895.0		6064.0		5895.0		169.0
2632.0		2677.0		2632.0		45.0
1340.0		1382.0		1340.0		42.0
1447.0		1474.0		1447.0		27.0
0.80<|#eta|<1.15
136817.0		171975.0		136817.0		35158.0
259188.0		315206.0		259188.0		56018.0
447111.0		524724.0		447111.0		77613.0
576707.0		666298.0		576707.0		89591.0
375244.0		429478.0		375244.0		54234.0
220146.0		244041.0		220146.0		23895.0
95028.0		101765.0		95028.0		6737.0
20183.0		21209.0		20183.0		1026.0
9714.0		9926.0		9714.0		212.0
4175.0		4296.0		4175.0		121.0
2106.0		2128.0		2106.0		22.0
2333.0		2379.0		2333.0		46.0
1.15<|#eta|<1.37
75429.0		100792.0		75429.0		25363.0
131330.0		172225.0		131330.0		40895.0
228366.0		280205.0		228366.0		51839.0
304815.0		372976.0		304815.0		68161.0
211432.0		239568.0		211432.0		28136.0
121727.0		136699.0		121727.0		14972.0
53171.0		57292.0		53171.0		4121.0
11184.0		11767.0		11184.0		583.0
5292.0		5411.0		5292.0		119.0
2425.0		2469.0		2425.0		44.0
1189.0		1213.0		1189.0		24.0
1263.0		1314.0		1263.0		51.0
1.52<|#eta|<1.81
95590.0		118965.0		95590.0		23375.0
155303.0		190841.0		155303.0		35538.0
236722.0		288987.0		236722.0		52265.0
310510.0		368565.0		310510.0		58055.0
227687.0		255295.0		227687.0		27608.0
134527.0		147273.0		134527.0		12746.0
55396.0		60984.0		55396.0		5588.0
11366.0		12044.0		11366.0		678.0
5385.0		5568.0		5385.0		183.0
2270.0		2346.0		2270.0		76.0
1186.0		1220.0		1186.0		34.0
1276.0		1317.0		1276.0		41.0
1.81<|#eta|<2.01
70162.0		77253.0		70162.0		7091.0
110474.0		123961.0		110474.0		13487.0
160440.0		176713.0		160440.0		16273.0
200453.0		220812.0		200453.0		20359.0
137854.0		147443.0		137854.0		9589.0
77465.0		82446.0		77465.0		4981.0
32237.0		34331.0		32237.0		2094.0
6469.0		6972.0		6469.0		503.0
2894.0		3009.0		2894.0		115.0
1189.0		1239.0		1189.0		50.0
582.0		609.0		582.0		27.0
527.0		549.0		527.0		22.0
2.01<|#eta|<2.37
123450.0		138377.0		123450.0		14927.0
192944.0		214201.0		192944.0		21257.0
257833.0		282456.0		257833.0		24623.0
294625.0		324092.0		294625.0		29467.0
192405.0		209451.0		192405.0		17046.0
103638.0		115298.0		103638.0		11660.0
43464.0		47173.0		43464.0		3709.0
8764.0		9469.0		8764.0		705.0
3864.0		4046.0		3864.0		182.0
1524.0		1609.0		1524.0		85.0
741.0		791.0		741.0		50.0
660.0		698.0		660.0		38.0
