0.00<|#eta|<0.60
283108.0		355753.0		283108.0		72645.0
515519.0		631542.0		515519.0		116023.0
821021.0		968210.0		821021.0		147195.0
1092810.0		1267390.0		1092810.0		174588.0
754950.0		847912.0		754950.0		92962.0
441162.0		480297.0		441162.0		39135.0
191752.0		205827.0		191752.0		14075.0
41334.0		43062.0		41334.0		1728.0
18465.0		19265.0		18465.0		800.0
8272.0		8522.0		8272.0		250.0
4171.0		4299.0		4171.0		128.0
4393.0		4662.0		4393.0		269.0
0.60<|#eta|<0.80
76631.0		98620.0		76631.0		21989.0
165939.0		203945.0		165939.0		38006.0
280317.0		328245.0		280317.0		47928.0
351015.0		404244.0		351015.0		53229.0
246465.0		271811.0		246465.0		25346.0
141877.0		153683.0		141877.0		11806.0
61184.0		65032.0		61184.0		3848.0
12832.0		13350.0		12832.0		518.0
5910.0		6064.0		5910.0		154.0
2628.0		2677.0		2628.0		49.0
1345.0		1382.0		1345.0		37.0
1444.0		1474.0		1444.0		30.0
0.80<|#eta|<1.15
136129.0		171975.0		136129.0		35846.0
259452.0		315206.0		259452.0		55754.0
447846.0		524724.0		447846.0		76878.0
574491.0		666298.0		574491.0		91807.0
376843.0		429478.0		376843.0		52635.0
223140.0		244041.0		223140.0		20901.0
95556.0		101765.0		95556.0		6209.0
20114.0		21209.0		20114.0		1095.0
9711.0		9926.0		9711.0		215.0
4170.0		4296.0		4170.0		126.0
2104.0		2128.0		2104.0		24.0
2332.0		2379.0		2332.0		47.0
1.15<|#eta|<1.37
76258.0		100792.0		76258.0		24534.0
132926.0		172225.0		132926.0		39299.0
228546.0		280205.0		228546.0		51659.0
308189.0		372976.0		308189.0		64787.0
211188.0		239568.0		211188.0		28380.0
124015.0		136699.0		124015.0		12684.0
53710.0		57292.0		53710.0		3582.0
11191.0		11767.0		11191.0		576.0
5301.0		5411.0		5301.0		110.0
2384.0		2469.0		2384.0		85.0
1185.0		1213.0		1185.0		28.0
1282.0		1314.0		1282.0		32.0
1.52<|#eta|<1.81
95876.0		118965.0		95876.0		23089.0
155093.0		190841.0		155093.0		35748.0
235983.0		288987.0		235983.0		53004.0
308424.0		368565.0		308424.0		60141.0
227683.0		255295.0		227683.0		27612.0
135706.0		147273.0		135706.0		11567.0
55785.0		60984.0		55785.0		5199.0
11262.0		12044.0		11262.0		782.0
5373.0		5568.0		5373.0		195.0
2273.0		2346.0		2273.0		73.0
1191.0		1220.0		1191.0		29.0
1280.0		1317.0		1280.0		37.0
1.81<|#eta|<2.01
70074.0		77253.0		70074.0		7179.0
110432.0		123961.0		110432.0		13529.0
160189.0		176713.0		160189.0		16524.0
200326.0		220812.0		200326.0		20486.0
137683.0		147443.0		137683.0		9760.0
77627.0		82446.0		77627.0		4819.0
32388.0		34331.0		32388.0		1943.0
6505.0		6972.0		6505.0		467.0
2922.0		3009.0		2922.0		87.0
1189.0		1239.0		1189.0		50.0
583.0		609.0		583.0		26.0
526.0		549.0		526.0		23.0
2.01<|#eta|<2.37
123666.0		138377.0		123666.0		14711.0
192922.0		214201.0		192922.0		21279.0
257467.0		282456.0		257467.0		24989.0
293958.0		324092.0		293958.0		30134.0
192220.0		209451.0		192220.0		17231.0
103962.0		115298.0		103962.0		11336.0
43461.0		47173.0		43461.0		3712.0
8806.0		9469.0		8806.0		663.0
3850.0		4046.0		3850.0		196.0
1504.0		1609.0		1504.0		105.0
736.0		791.0		736.0		55.0
655.0		698.0		655.0		43.0
