0.00<|#eta|<0.60
283520.0		355753.0		283520.0		72233.0
519410.0		631542.0		519410.0		112132.0
819199.0		968210.0		819199.0		149017.0
1097910.0		1267390.0		1097910.0		169484.0
755025.0		847912.0		755025.0		92887.0
438368.0		480297.0		438368.0		41929.0
192766.0		205827.0		192766.0		13061.0
41304.0		43062.0		41304.0		1758.0
18608.0		19265.0		18608.0		657.0
8296.0		8522.0		8296.0		226.0
4172.0		4299.0		4172.0		127.0
4451.0		4662.0		4451.0		211.0
0.60<|#eta|<0.80
78140.0		98620.0		78140.0		20480.0
165065.0		203945.0		165065.0		38880.0
278585.0		328245.0		278585.0		49660.0
351345.0		404244.0		351345.0		52899.0
244747.0		271811.0		244747.0		27064.0
141646.0		153683.0		141646.0		12037.0
61222.0		65032.0		61222.0		3810.0
12839.0		13350.0		12839.0		511.0
5874.0		6064.0		5874.0		190.0
2633.0		2677.0		2633.0		44.0
1353.0		1382.0		1353.0		29.0
1445.0		1474.0		1445.0		29.0
0.80<|#eta|<1.15
136147.0		171975.0		136147.0		35828.0
260969.0		315206.0		260969.0		54237.0
446029.0		524724.0		446029.0		78695.0
572851.0		666298.0		572851.0		93447.0
374229.0		429478.0		374229.0		55249.0
219790.0		244041.0		219790.0		24251.0
94884.0		101765.0		94884.0		6881.0
20029.0		21209.0		20029.0		1180.0
9704.0		9926.0		9704.0		222.0
4168.0		4296.0		4168.0		128.0
2100.0		2128.0		2100.0		28.0
2330.0		2379.0		2330.0		49.0
1.15<|#eta|<1.37
75569.0		100792.0		75569.0		25223.0
132924.0		172225.0		132924.0		39301.0
228912.0		280205.0		228912.0		51293.0
306695.0		372976.0		306695.0		66281.0
210769.0		239568.0		210769.0		28799.0
122098.0		136699.0		122098.0		14601.0
53267.0		57292.0		53267.0		4025.0
11141.0		11767.0		11141.0		626.0
5313.0		5411.0		5313.0		98.0
2406.0		2469.0		2406.0		63.0
1185.0		1213.0		1185.0		28.0
1263.0		1314.0		1263.0		51.0
1.52<|#eta|<1.81
94739.0		118965.0		94739.0		24226.0
155288.0		190841.0		155288.0		35553.0
237467.0		288987.0		237467.0		51520.0
309941.0		368565.0		309941.0		58624.0
227959.0		255295.0		227959.0		27336.0
134379.0		147273.0		134379.0		12894.0
55584.0		60984.0		55584.0		5400.0
11309.0		12044.0		11309.0		735.0
5370.0		5568.0		5370.0		198.0
2288.0		2346.0		2288.0		58.0
1187.0		1220.0		1187.0		33.0
1279.0		1317.0		1279.0		38.0
1.81<|#eta|<2.01
70195.0		77253.0		70195.0		7058.0
110795.0		123961.0		110795.0		13166.0
160482.0		176713.0		160482.0		16231.0
200268.0		220812.0		200268.0		20544.0
137704.0		147443.0		137704.0		9739.0
77527.0		82446.0		77527.0		4919.0
32256.0		34331.0		32256.0		2075.0
6454.0		6972.0		6454.0		518.0
2922.0		3009.0		2922.0		87.0
1190.0		1239.0		1190.0		49.0
587.0		609.0		587.0		22.0
524.0		549.0		524.0		25.0
2.01<|#eta|<2.37
123883.0		138377.0		123883.0		14494.0
192971.0		214201.0		192971.0		21230.0
258154.0		282456.0		258154.0		24302.0
294564.0		324092.0		294564.0		29528.0
192187.0		209451.0		192187.0		17264.0
103794.0		115298.0		103794.0		11504.0
43488.0		47173.0		43488.0		3685.0
8753.0		9469.0		8753.0		716.0
3843.0		4046.0		3843.0		203.0
1516.0		1609.0		1516.0		93.0
741.0		791.0		741.0		50.0
657.0		698.0		657.0		41.0
