0.00<|#eta|<0.60
283945.0		355753.0		283945.0		71808.0
521732.0		631542.0		521732.0		109810.0
822133.0		968210.0		822133.0		146083.0
1091540.0		1267390.0		1091540.0		175865.0
757578.0		847912.0		757578.0		90334.0
438592.0		480297.0		438592.0		41705.0
191839.0		205827.0		191839.0		13988.0
41195.0		43062.0		41195.0		1867.0
18544.0		19265.0		18544.0		721.0
8308.0		8522.0		8308.0		214.0
4196.0		4299.0		4196.0		103.0
4441.0		4662.0		4441.0		221.0
0.60<|#eta|<0.80
78750.0		98620.0		78750.0		19870.0
164015.0		203945.0		164015.0		39930.0
280822.0		328245.0		280822.0		47423.0
352949.0		404244.0		352949.0		51295.0
246241.0		271811.0		246241.0		25570.0
142050.0		153683.0		142050.0		11633.0
61097.0		65032.0		61097.0		3935.0
12762.0		13350.0		12762.0		588.0
5880.0		6064.0		5880.0		184.0
2627.0		2677.0		2627.0		50.0
1341.0		1382.0		1341.0		41.0
1439.0		1474.0		1439.0		35.0
0.80<|#eta|<1.15
140708.0		171975.0		140708.0		31267.0
267931.0		315206.0		267931.0		47275.0
449958.0		524724.0		449958.0		74766.0
583030.0		666298.0		583030.0		83268.0
378855.0		429478.0		378855.0		50623.0
222247.0		244041.0		222247.0		21794.0
95051.0		101765.0		95051.0		6714.0
20085.0		21209.0		20085.0		1124.0
9719.0		9926.0		9719.0		207.0
4179.0		4296.0		4179.0		117.0
2114.0		2128.0		2114.0		14.0
2346.0		2379.0		2346.0		33.0
1.15<|#eta|<1.37
76675.0		100792.0		76675.0		24117.0
135744.0		172225.0		135744.0		36481.0
232348.0		280205.0		232348.0		47857.0
312137.0		372976.0		312137.0		60839.0
213548.0		239568.0		213548.0		26020.0
123424.0		136699.0		123424.0		13275.0
53438.0		57292.0		53438.0		3854.0
11141.0		11767.0		11141.0		626.0
5295.0		5411.0		5295.0		116.0
2410.0		2469.0		2410.0		59.0
1190.0		1213.0		1190.0		23.0
1264.0		1314.0		1264.0		50.0
1.52<|#eta|<1.81
96922.0		118965.0		96922.0		22043.0
157464.0		190841.0		157464.0		33377.0
240289.0		288987.0		240289.0		48698.0
312269.0		368565.0		312269.0		56296.0
227962.0		255295.0		227962.0		27333.0
135665.0		147273.0		135665.0		11608.0
55655.0		60984.0		55655.0		5329.0
11300.0		12044.0		11300.0		744.0
5364.0		5568.0		5364.0		204.0
2277.0		2346.0		2277.0		69.0
1193.0		1220.0		1193.0		27.0
1284.0		1317.0		1284.0		33.0
1.81<|#eta|<2.01
70229.0		77253.0		70229.0		7024.0
110801.0		123961.0		110801.0		13160.0
162282.0		176713.0		162282.0		14431.0
202505.0		220812.0		202505.0		18307.0
138218.0		147443.0		138218.0		9225.0
77708.0		82446.0		77708.0		4738.0
32399.0		34331.0		32399.0		1932.0
6474.0		6972.0		6474.0		498.0
2890.0		3009.0		2890.0		119.0
1193.0		1239.0		1193.0		46.0
578.0		609.0		578.0		31.0
524.0		549.0		524.0		25.0
2.01<|#eta|<2.37
123581.0		138377.0		123581.0		14796.0
193279.0		214201.0		193279.0		20922.0
258130.0		282456.0		258130.0		24326.0
294145.0		324092.0		294145.0		29947.0
191935.0		209451.0		191935.0		17516.0
103787.0		115298.0		103787.0		11511.0
43387.0		47173.0		43387.0		3786.0
8755.0		9469.0		8755.0		714.0
3852.0		4046.0		3852.0		194.0
1519.0		1609.0		1519.0		90.0
734.0		791.0		734.0		57.0
656.0		698.0		656.0		42.0
