0.00<|#eta|<0.60
281249.0		355753.0		281249.0		74504.0
520198.0		631542.0		520198.0		111344.0
834262.0		968210.0		834262.0		133954.0
1090160.0		1267390.0		1090160.0		177246.0
756199.0		847912.0		756199.0		91713.0
437743.0		480297.0		437743.0		42554.0
193013.0		205827.0		193013.0		12814.0
40997.0		43062.0		40997.0		2065.0
18584.0		19265.0		18584.0		681.0
8290.0		8522.0		8290.0		232.0
4198.0		4299.0		4198.0		101.0
4438.0		4662.0		4438.0		224.0
0.60<|#eta|<0.80
78840.0		98620.0		78840.0		19780.0
168180.0		203945.0		168180.0		35765.0
280610.0		328245.0		280610.0		47635.0
352568.0		404244.0		352568.0		51676.0
245649.0		271811.0		245649.0		26162.0
140580.0		153683.0		140580.0		13103.0
61245.0		65032.0		61245.0		3787.0
12719.0		13350.0		12719.0		631.0
5911.0		6064.0		5911.0		153.0
2623.0		2677.0		2623.0		54.0
1346.0		1382.0		1346.0		36.0
1441.0		1474.0		1441.0		33.0
0.80<|#eta|<1.15
136619.0		171975.0		136619.0		35356.0
262222.0		315206.0		262222.0		52984.0
451639.0		524724.0		451639.0		73085.0
580921.0		666298.0		580921.0		85377.0
380508.0		429478.0		380508.0		48970.0
220399.0		244041.0		220399.0		23642.0
95627.0		101765.0		95627.0		6138.0
20279.0		21209.0		20279.0		930.0
9714.0		9926.0		9714.0		212.0
4201.0		4296.0		4201.0		95.0
2095.0		2128.0		2095.0		33.0
2341.0		2379.0		2341.0		38.0
1.15<|#eta|<1.37
75426.0		100792.0		75426.0		25366.0
134395.0		172225.0		134395.0		37830.0
231443.0		280205.0		231443.0		48762.0
312537.0		372976.0		312537.0		60439.0
212171.0		239568.0		212171.0		27397.0
121721.0		136699.0		121721.0		14978.0
53655.0		57292.0		53655.0		3637.0
11244.0		11767.0		11244.0		523.0
5310.0		5411.0		5310.0		101.0
2420.0		2469.0		2420.0		49.0
1186.0		1213.0		1186.0		27.0
1263.0		1314.0		1263.0		51.0
1.52<|#eta|<1.81
95648.0		118965.0		95648.0		23317.0
155290.0		190841.0		155290.0		35551.0
240899.0		288987.0		240899.0		48088.0
311945.0		368565.0		311945.0		56620.0
229054.0		255295.0		229054.0		26241.0
134250.0		147273.0		134250.0		13023.0
55792.0		60984.0		55792.0		5192.0
11325.0		12044.0		11325.0		719.0
5399.0		5568.0		5399.0		169.0
2283.0		2346.0		2283.0		63.0
1187.0		1220.0		1187.0		33.0
1267.0		1317.0		1267.0		50.0
1.81<|#eta|<2.01
69370.0		77253.0		69370.0		7883.0
110414.0		123961.0		110414.0		13547.0
162228.0		176713.0		162228.0		14485.0
200923.0		220812.0		200923.0		19889.0
138207.0		147443.0		138207.0		9236.0
77392.0		82446.0		77392.0		5054.0
32313.0		34331.0		32313.0		2018.0
6511.0		6972.0		6511.0		461.0
2893.0		3009.0		2893.0		116.0
1187.0		1239.0		1187.0		52.0
580.0		609.0		580.0		29.0
523.0		549.0		523.0		26.0
2.01<|#eta|<2.37
123323.0		138377.0		123323.0		15054.0
192540.0		214201.0		192540.0		21661.0
258246.0		282456.0		258246.0		24210.0
294415.0		324092.0		294415.0		29677.0
192240.0		209451.0		192240.0		17211.0
103817.0		115298.0		103817.0		11481.0
43463.0		47173.0		43463.0		3710.0
8749.0		9469.0		8749.0		720.0
3841.0		4046.0		3841.0		205.0
1523.0		1609.0		1523.0		86.0
740.0		791.0		740.0		51.0
653.0		698.0		653.0		45.0
