0.00<|#eta|<0.60
281047.0		355753.0		281047.0		74706.0
516143.0		631542.0		516143.0		115399.0
831072.0		968210.0		831072.0		137144.0
1094550.0		1267390.0		1094550.0		172851.0
754867.0		847912.0		754867.0		93045.0
439941.0		480297.0		439941.0		40356.0
192139.0		205827.0		192139.0		13688.0
41211.0		43062.0		41211.0		1851.0
18576.0		19265.0		18576.0		689.0
8304.0		8522.0		8304.0		218.0
4187.0		4299.0		4187.0		112.0
4423.0		4662.0		4423.0		239.0
0.60<|#eta|<0.80
78649.0		98620.0		78649.0		19971.0
165579.0		203945.0		165579.0		38366.0
280736.0		328245.0		280736.0		47509.0
353200.0		404244.0		353200.0		51044.0
245972.0		271811.0		245972.0		25839.0
141872.0		153683.0		141872.0		11811.0
61182.0		65032.0		61182.0		3850.0
12690.0		13350.0		12690.0		660.0
5873.0		6064.0		5873.0		191.0
2595.0		2677.0		2595.0		82.0
1350.0		1382.0		1350.0		32.0
1444.0		1474.0		1444.0		30.0
0.80<|#eta|<1.15
135549.0		171975.0		135549.0		36426.0
261214.0		315206.0		261214.0		53992.0
454115.0		524724.0		454115.0		70609.0
583041.0		666298.0		583041.0		83257.0
377564.0		429478.0		377564.0		51914.0
223751.0		244041.0		223751.0		20290.0
95550.0		101765.0		95550.0		6215.0
19985.0		21209.0		19985.0		1224.0
9698.0		9926.0		9698.0		228.0
4173.0		4296.0		4173.0		123.0
2107.0		2128.0		2107.0		21.0
2326.0		2379.0		2326.0		53.0
1.15<|#eta|<1.37
75016.0		100792.0		75016.0		25776.0
133108.0		172225.0		133108.0		39117.0
232399.0		280205.0		232399.0		47806.0
310395.0		372976.0		310395.0		62581.0
213773.0		239568.0		213773.0		25795.0
123538.0		136699.0		123538.0		13161.0
53625.0		57292.0		53625.0		3667.0
11200.0		11767.0		11200.0		567.0
5307.0		5411.0		5307.0		104.0
2422.0		2469.0		2422.0		47.0
1190.0		1213.0		1190.0		23.0
1272.0		1314.0		1272.0		42.0
1.52<|#eta|<1.81
96107.0		118965.0		96107.0		22858.0
154359.0		190841.0		154359.0		36482.0
238872.0		288987.0		238872.0		50115.0
313431.0		368565.0		313431.0		55134.0
229892.0		255295.0		229892.0		25403.0
135937.0		147273.0		135937.0		11336.0
55854.0		60984.0		55854.0		5130.0
11271.0		12044.0		11271.0		773.0
5374.0		5568.0		5374.0		194.0
2290.0		2346.0		2290.0		56.0
1178.0		1220.0		1178.0		42.0
1272.0		1317.0		1272.0		45.0
1.81<|#eta|<2.01
69999.0		77253.0		69999.0		7254.0
110880.0		123961.0		110880.0		13081.0
161200.0		176713.0		161200.0		15513.0
200483.0		220812.0		200483.0		20329.0
138391.0		147443.0		138391.0		9052.0
77709.0		82446.0		77709.0		4737.0
32384.0		34331.0		32384.0		1947.0
6479.0		6972.0		6479.0		493.0
2915.0		3009.0		2915.0		94.0
1188.0		1239.0		1188.0		51.0
580.0		609.0		580.0		29.0
525.0		549.0		525.0		24.0
2.01<|#eta|<2.37
123747.0		138377.0		123747.0		14630.0
193659.0		214201.0		193659.0		20542.0
257563.0		282456.0		257563.0		24893.0
293936.0		324092.0		293936.0		30156.0
192386.0		209451.0		192386.0		17065.0
103427.0		115298.0		103427.0		11871.0
43474.0		47173.0		43474.0		3699.0
8799.0		9469.0		8799.0		670.0
3840.0		4046.0		3840.0		206.0
1524.0		1609.0		1524.0		85.0
739.0		791.0		739.0		52.0
659.0		698.0		659.0		39.0
