0.00<|#eta|<0.60
282754.0		355753.0		282754.0		72999.0
515556.0		631542.0		515556.0		115986.0
826055.0		968210.0		826055.0		142161.0
1098030.0		1267390.0		1098030.0		169366.0
754838.0		847912.0		754838.0		93074.0
437909.0		480297.0		437909.0		42388.0
193976.0		205827.0		193976.0		11851.0
41331.0		43062.0		41331.0		1731.0
18604.0		19265.0		18604.0		661.0
8304.0		8522.0		8304.0		218.0
4190.0		4299.0		4190.0		109.0
4417.0		4662.0		4417.0		245.0
0.60<|#eta|<0.80
76715.0		98620.0		76715.0		21905.0
166777.0		203945.0		166777.0		37168.0
282882.0		328245.0		282882.0		45363.0
353387.0		404244.0		353387.0		50857.0
246868.0		271811.0		246868.0		24943.0
140907.0		153683.0		140907.0		12776.0
61055.0		65032.0		61055.0		3977.0
12738.0		13350.0		12738.0		612.0
5847.0		6064.0		5847.0		217.0
2631.0		2677.0		2631.0		46.0
1344.0		1382.0		1344.0		38.0
1449.0		1474.0		1449.0		25.0
0.80<|#eta|<1.15
135212.0		171975.0		135212.0		36763.0
259501.0		315206.0		259501.0		55705.0
452469.0		524724.0		452469.0		72255.0
579556.0		666298.0		579556.0		86742.0
380393.0		429478.0		380393.0		49085.0
220479.0		244041.0		220479.0		23562.0
94730.0		101765.0		94730.0		7035.0
20152.0		21209.0		20152.0		1057.0
9685.0		9926.0		9685.0		241.0
4154.0		4296.0		4154.0		142.0
2116.0		2128.0		2116.0		12.0
2314.0		2379.0		2314.0		65.0
1.15<|#eta|<1.37
75145.0		100792.0		75145.0		25647.0
132474.0		172225.0		132474.0		39751.0
232675.0		280205.0		232675.0		47530.0
312708.0		372976.0		312708.0		60268.0
213173.0		239568.0		213173.0		26395.0
122381.0		136699.0		122381.0		14318.0
53215.0		57292.0		53215.0		4077.0
11137.0		11767.0		11137.0		630.0
5299.0		5411.0		5299.0		112.0
2412.0		2469.0		2412.0		57.0
1183.0		1213.0		1183.0		30.0
1270.0		1314.0		1270.0		44.0
1.52<|#eta|<1.81
96194.0		118965.0		96194.0		22771.0
155748.0		190841.0		155748.0		35093.0
239220.0		288987.0		239220.0		49767.0
313085.0		368565.0		313085.0		55480.0
228985.0		255295.0		228985.0		26310.0
134139.0		147273.0		134139.0		13134.0
55667.0		60984.0		55667.0		5317.0
11322.0		12044.0		11322.0		722.0
5385.0		5568.0		5385.0		183.0
2276.0		2346.0		2276.0		70.0
1186.0		1220.0		1186.0		34.0
1278.0		1317.0		1278.0		39.0
1.81<|#eta|<2.01
69470.0		77253.0		69470.0		7783.0
110360.0		123961.0		110360.0		13601.0
161706.0		176713.0		161706.0		15007.0
200680.0		220812.0		200680.0		20132.0
138428.0		147443.0		138428.0		9015.0
77586.0		82446.0		77586.0		4860.0
32280.0		34331.0		32280.0		2051.0
6500.0		6972.0		6500.0		472.0
2914.0		3009.0		2914.0		95.0
1188.0		1239.0		1188.0		51.0
584.0		609.0		584.0		25.0
523.0		549.0		523.0		26.0
2.01<|#eta|<2.37
123373.0		138377.0		123373.0		15004.0
192981.0		214201.0		192981.0		21220.0
257526.0		282456.0		257526.0		24930.0
294743.0		324092.0		294743.0		29349.0
192416.0		209451.0		192416.0		17035.0
103832.0		115298.0		103832.0		11466.0
43421.0		47173.0		43421.0		3752.0
8785.0		9469.0		8785.0		684.0
3842.0		4046.0		3842.0		204.0
1518.0		1609.0		1518.0		91.0
730.0		791.0		730.0		61.0
652.0		698.0		652.0		46.0
