0.00<|#eta|<0.60
283001.0		355753.0		283001.0		72752.0
519789.0		631542.0		519789.0		111753.0
832438.0		968210.0		832438.0		135778.0
1094650.0		1267390.0		1094650.0		172756.0
756598.0		847912.0		756598.0		91314.0
440542.0		480297.0		440542.0		39755.0
192435.0		205827.0		192435.0		13392.0
41226.0		43062.0		41226.0		1836.0
18558.0		19265.0		18558.0		707.0
8299.0		8522.0		8299.0		223.0
4191.0		4299.0		4191.0		108.0
4403.0		4662.0		4403.0		259.0
0.60<|#eta|<0.80
78649.0		98620.0		78649.0		19971.0
167089.0		203945.0		167089.0		36856.0
281424.0		328245.0		281424.0		46821.0
353588.0		404244.0		353588.0		50656.0
245544.0		271811.0		245544.0		26267.0
141886.0		153683.0		141886.0		11797.0
61272.0		65032.0		61272.0		3760.0
12702.0		13350.0		12702.0		648.0
5888.0		6064.0		5888.0		176.0
2635.0		2677.0		2635.0		42.0
1354.0		1382.0		1354.0		28.0
1428.0		1474.0		1428.0		46.0
0.80<|#eta|<1.15
136627.0		171975.0		136627.0		35348.0
257449.0		315206.0		257449.0		57757.0
451110.0		524724.0		451110.0		73614.0
581965.0		666298.0		581965.0		84333.0
380575.0		429478.0		380575.0		48903.0
223460.0		244041.0		223460.0		20581.0
95568.0		101765.0		95568.0		6197.0
20105.0		21209.0		20105.0		1104.0
9696.0		9926.0		9696.0		230.0
4174.0		4296.0		4174.0		122.0
2113.0		2128.0		2113.0		15.0
2336.0		2379.0		2336.0		43.0
1.15<|#eta|<1.37
74596.0		100792.0		74596.0		26196.0
132322.0		172225.0		132322.0		39903.0
233359.0		280205.0		233359.0		46846.0
311307.0		372976.0		311307.0		61669.0
214335.0		239568.0		214335.0		25233.0
123572.0		136699.0		123572.0		13127.0
53440.0		57292.0		53440.0		3852.0
11212.0		11767.0		11212.0		555.0
5286.0		5411.0		5286.0		125.0
2399.0		2469.0		2399.0		70.0
1186.0		1213.0		1186.0		27.0
1267.0		1314.0		1267.0		47.0
1.52<|#eta|<1.81
96121.0		118965.0		96121.0		22844.0
155075.0		190841.0		155075.0		35766.0
240896.0		288987.0		240896.0		48091.0
313758.0		368565.0		313758.0		54807.0
228506.0		255295.0		228506.0		26789.0
135466.0		147273.0		135466.0		11807.0
56059.0		60984.0		56059.0		4925.0
11269.0		12044.0		11269.0		775.0
5368.0		5568.0		5368.0		200.0
2281.0		2346.0		2281.0		65.0
1175.0		1220.0		1175.0		45.0
1284.0		1317.0		1284.0		33.0
1.81<|#eta|<2.01
69615.0		77253.0		69615.0		7638.0
110272.0		123961.0		110272.0		13689.0
161122.0		176713.0		161122.0		15591.0
200826.0		220812.0		200826.0		19986.0
138530.0		147443.0		138530.0		8913.0
77854.0		82446.0		77854.0		4592.0
32337.0		34331.0		32337.0		1994.0
6439.0		6972.0		6439.0		533.0
2893.0		3009.0		2893.0		116.0
1189.0		1239.0		1189.0		50.0
578.0		609.0		578.0		31.0
526.0		549.0		526.0		23.0
2.01<|#eta|<2.37
123655.0		138377.0		123655.0		14722.0
192728.0		214201.0		192728.0		21473.0
257500.0		282456.0		257500.0		24956.0
293678.0		324092.0		293678.0		30414.0
192234.0		209451.0		192234.0		17217.0
103665.0		115298.0		103665.0		11633.0
43469.0		47173.0		43469.0		3704.0
8782.0		9469.0		8782.0		687.0
3854.0		4046.0		3854.0		192.0
1510.0		1609.0		1510.0		99.0
729.0		791.0		729.0		62.0
648.0		698.0		648.0		50.0
