0.00<|#eta|<0.60
280505.0		355753.0		280505.0		75248.0
519628.0		631542.0		519628.0		111914.0
826110.0		968210.0		826110.0		142106.0
1093610.0		1267390.0		1093610.0		173795.0
757712.0		847912.0		757712.0		90200.0
439166.0		480297.0		439166.0		41131.0
191822.0		205827.0		191822.0		14005.0
41007.0		43062.0		41007.0		2055.0
18644.0		19265.0		18644.0		621.0
8320.0		8522.0		8320.0		202.0
4197.0		4299.0		4197.0		102.0
4434.0		4662.0		4434.0		228.0
0.60<|#eta|<0.80
76884.0		98620.0		76884.0		21736.0
166046.0		203945.0		166046.0		37899.0
280768.0		328245.0		280768.0		47477.0
350562.0		404244.0		350562.0		53682.0
245039.0		271811.0		245039.0		26772.0
141977.0		153683.0		141977.0		11706.0
61372.0		65032.0		61372.0		3660.0
12788.0		13350.0		12788.0		562.0
5918.0		6064.0		5918.0		146.0
2592.0		2677.0		2592.0		85.0
1348.0		1382.0		1348.0		34.0
1440.0		1474.0		1440.0		34.0
0.80<|#eta|<1.15
134925.0		171975.0		134925.0		37050.0
255952.0		315206.0		255952.0		59254.0
446795.0		524724.0		446795.0		77929.0
577413.0		666298.0		577413.0		88885.0
375166.0		429478.0		375166.0		54312.0
222530.0		244041.0		222530.0		21511.0
95742.0		101765.0		95742.0		6023.0
20193.0		21209.0		20193.0		1016.0
9755.0		9926.0		9755.0		171.0
4165.0		4296.0		4165.0		131.0
2108.0		2128.0		2108.0		20.0
2338.0		2379.0		2338.0		41.0
1.15<|#eta|<1.37
75069.0		100792.0		75069.0		25723.0
132501.0		172225.0		132501.0		39724.0
228338.0		280205.0		228338.0		51867.0
307093.0		372976.0		307093.0		65883.0
210140.0		239568.0		210140.0		29428.0
123332.0		136699.0		123332.0		13367.0
53778.0		57292.0		53778.0		3514.0
11304.0		11767.0		11304.0		463.0
5304.0		5411.0		5304.0		107.0
2431.0		2469.0		2431.0		38.0
1192.0		1213.0		1192.0		21.0
1259.0		1314.0		1259.0		55.0
1.52<|#eta|<1.81
95271.0		118965.0		95271.0		23694.0
155814.0		190841.0		155814.0		35027.0
236414.0		288987.0		236414.0		52573.0
308662.0		368565.0		308662.0		59903.0
227725.0		255295.0		227725.0		27570.0
135441.0		147273.0		135441.0		11832.0
56003.0		60984.0		56003.0		4981.0
11353.0		12044.0		11353.0		691.0
5405.0		5568.0		5405.0		163.0
2289.0		2346.0		2289.0		57.0
1190.0		1220.0		1190.0		30.0
1279.0		1317.0		1279.0		38.0
1.81<|#eta|<2.01
69679.0		77253.0		69679.0		7574.0
109371.0		123961.0		109371.0		14590.0
161129.0		176713.0		161129.0		15584.0
200101.0		220812.0		200101.0		20711.0
137784.0		147443.0		137784.0		9659.0
77905.0		82446.0		77905.0		4541.0
32389.0		34331.0		32389.0		1942.0
6517.0		6972.0		6517.0		455.0
2920.0		3009.0		2920.0		89.0
1198.0		1239.0		1198.0		41.0
583.0		609.0		583.0		26.0
526.0		549.0		526.0		23.0
2.01<|#eta|<2.37
123739.0		138377.0		123739.0		14638.0
192732.0		214201.0		192732.0		21469.0
258270.0		282456.0		258270.0		24186.0
293953.0		324092.0		293953.0		30139.0
191908.0		209451.0		191908.0		17543.0
103931.0		115298.0		103931.0		11367.0
43403.0		47173.0		43403.0		3770.0
8809.0		9469.0		8809.0		660.0
3863.0		4046.0		3863.0		183.0
1519.0		1609.0		1519.0		90.0
739.0		791.0		739.0		52.0
655.0		698.0		655.0		43.0
