0.00<|#eta|<0.60
280820.0		355753.0		280820.0		74933.0
519636.0		631542.0		519636.0		111906.0
827464.0		968210.0		827464.0		140752.0
1095580.0		1267390.0		1095580.0		171803.0
756918.0		847912.0		756918.0		90994.0
439102.0		480297.0		439102.0		41195.0
191353.0		205827.0		191353.0		14474.0
41293.0		43062.0		41293.0		1769.0
18561.0		19265.0		18561.0		704.0
8286.0		8522.0		8286.0		236.0
4185.0		4299.0		4185.0		114.0
4400.0		4662.0		4400.0		262.0
0.60<|#eta|<0.80
78563.0		98620.0		78563.0		20057.0
167156.0		203945.0		167156.0		36789.0
280721.0		328245.0		280721.0		47524.0
352744.0		404244.0		352744.0		51500.0
245628.0		271811.0		245628.0		26183.0
142081.0		153683.0		142081.0		11602.0
61089.0		65032.0		61089.0		3943.0
12724.0		13350.0		12724.0		626.0
5909.0		6064.0		5909.0		155.0
2631.0		2677.0		2631.0		46.0
1346.0		1382.0		1346.0		36.0
1439.0		1474.0		1439.0		35.0
0.80<|#eta|<1.15
136127.0		171975.0		136127.0		35848.0
260942.0		315206.0		260942.0		54264.0
450558.0		524724.0		450558.0		74166.0
583599.0		666298.0		583599.0		82699.0
379602.0		429478.0		379602.0		49876.0
222391.0		244041.0		222391.0		21650.0
95077.0		101765.0		95077.0		6688.0
20002.0		21209.0		20002.0		1207.0
9679.0		9926.0		9679.0		247.0
4154.0		4296.0		4154.0		142.0
2112.0		2128.0		2112.0		16.0
2325.0		2379.0		2325.0		54.0
1.15<|#eta|<1.37
75282.0		100792.0		75282.0		25510.0
132594.0		172225.0		132594.0		39631.0
232307.0		280205.0		232307.0		47898.0
313198.0		372976.0		313198.0		59778.0
212664.0		239568.0		212664.0		26904.0
123272.0		136699.0		123272.0		13427.0
53472.0		57292.0		53472.0		3820.0
11170.0		11767.0		11170.0		597.0
5290.0		5411.0		5290.0		121.0
2410.0		2469.0		2410.0		59.0
1184.0		1213.0		1184.0		29.0
1243.0		1314.0		1243.0		71.0
1.52<|#eta|<1.81
95211.0		118965.0		95211.0		23754.0
155537.0		190841.0		155537.0		35304.0
240653.0		288987.0		240653.0		48334.0
314173.0		368565.0		314173.0		54392.0
228682.0		255295.0		228682.0		26613.0
135284.0		147273.0		135284.0		11989.0
55695.0		60984.0		55695.0		5289.0
11230.0		12044.0		11230.0		814.0
5375.0		5568.0		5375.0		193.0
2293.0		2346.0		2293.0		53.0
1189.0		1220.0		1189.0		31.0
1278.0		1317.0		1278.0		39.0
1.81<|#eta|<2.01
70244.0		77253.0		70244.0		7009.0
110543.0		123961.0		110543.0		13418.0
161413.0		176713.0		161413.0		15300.0
201203.0		220812.0		201203.0		19609.0
137903.0		147443.0		137903.0		9540.0
77785.0		82446.0		77785.0		4661.0
32368.0		34331.0		32368.0		1963.0
6505.0		6972.0		6505.0		467.0
2891.0		3009.0		2891.0		118.0
1185.0		1239.0		1185.0		54.0
578.0		609.0		578.0		31.0
526.0		549.0		526.0		23.0
2.01<|#eta|<2.37
123820.0		138377.0		123820.0		14557.0
192952.0		214201.0		192952.0		21249.0
257836.0		282456.0		257836.0		24620.0
293366.0		324092.0		293366.0		30726.0
192756.0		209451.0		192756.0		16695.0
103882.0		115298.0		103882.0		11416.0
43472.0		47173.0		43472.0		3701.0
8751.0		9469.0		8751.0		718.0
3847.0		4046.0		3847.0		199.0
1507.0		1609.0		1507.0		102.0
736.0		791.0		736.0		55.0
662.0		698.0		662.0		36.0
