0.00<|#eta|<0.60
284131.0		355753.0		284131.0		71622.0
517419.0		631542.0		517419.0		114123.0
821450.0		968210.0		821450.0		146766.0
1094150.0		1267390.0		1094150.0		173250.0
751542.0		847912.0		751542.0		96370.0
435271.0		480297.0		435271.0		45026.0
192378.0		205827.0		192378.0		13449.0
41241.0		43062.0		41241.0		1821.0
18524.0		19265.0		18524.0		741.0
8299.0		8522.0		8299.0		223.0
4215.0		4299.0		4215.0		84.0
4436.0		4662.0		4436.0		226.0
0.60<|#eta|<0.80
77977.0		98620.0		77977.0		20643.0
167453.0		203945.0		167453.0		36492.0
281003.0		328245.0		281003.0		47242.0
352609.0		404244.0		352609.0		51635.0
245059.0		271811.0		245059.0		26752.0
140301.0		153683.0		140301.0		13382.0
61124.0		65032.0		61124.0		3908.0
12733.0		13350.0		12733.0		617.0
5922.0		6064.0		5922.0		142.0
2620.0		2677.0		2620.0		57.0
1347.0		1382.0		1347.0		35.0
1436.0		1474.0		1436.0		38.0
0.80<|#eta|<1.15
139647.0		171975.0		139647.0		32328.0
269021.0		315206.0		269021.0		46185.0
460420.0		524724.0		460420.0		64304.0
590180.0		666298.0		590180.0		76118.0
381882.0		429478.0		381882.0		47596.0
219987.0		244041.0		219987.0		24054.0
94807.0		101765.0		94807.0		6958.0
20116.0		21209.0		20116.0		1093.0
9728.0		9926.0		9728.0		198.0
4174.0		4296.0		4174.0		122.0
2111.0		2128.0		2111.0		17.0
2343.0		2379.0		2343.0		36.0
1.15<|#eta|<1.37
77121.0		100792.0		77121.0		23671.0
136746.0		172225.0		136746.0		35479.0
234464.0		280205.0		234464.0		45741.0
317695.0		372976.0		317695.0		55281.0
215485.0		239568.0		215485.0		24083.0
121752.0		136699.0		121752.0		14947.0
53244.0		57292.0		53244.0		4048.0
11172.0		11767.0		11172.0		595.0
5299.0		5411.0		5299.0		112.0
2428.0		2469.0		2428.0		41.0
1190.0		1213.0		1190.0		23.0
1271.0		1314.0		1271.0		43.0
1.52<|#eta|<1.81
96988.0		118965.0		96988.0		21977.0
157885.0		190841.0		157885.0		32956.0
242843.0		288987.0		242843.0		46144.0
318512.0		368565.0		318512.0		50053.0
229941.0		255295.0		229941.0		25354.0
134007.0		147273.0		134007.0		13266.0
55476.0		60984.0		55476.0		5508.0
11335.0		12044.0		11335.0		709.0
5350.0		5568.0		5350.0		218.0
2284.0		2346.0		2284.0		62.0
1191.0		1220.0		1191.0		29.0
1280.0		1317.0		1280.0		37.0
1.81<|#eta|<2.01
70387.0		77253.0		70387.0		6866.0
109993.0		123961.0		109993.0		13968.0
162606.0		176713.0		162606.0		14107.0
202907.0		220812.0		202907.0		17905.0
138862.0		147443.0		138862.0		8581.0
77436.0		82446.0		77436.0		5010.0
32300.0		34331.0		32300.0		2031.0
6467.0		6972.0		6467.0		505.0
2890.0		3009.0		2890.0		119.0
1179.0		1239.0		1179.0		60.0
584.0		609.0		584.0		25.0
525.0		549.0		525.0		24.0
2.01<|#eta|<2.37
123426.0		138377.0		123426.0		14951.0
192682.0		214201.0		192682.0		21519.0
257548.0		282456.0		257548.0		24908.0
294041.0		324092.0		294041.0		30051.0
191763.0		209451.0		191763.0		17688.0
103856.0		115298.0		103856.0		11442.0
43369.0		47173.0		43369.0		3804.0
8749.0		9469.0		8749.0		720.0
3854.0		4046.0		3854.0		192.0
1524.0		1609.0		1524.0		85.0
737.0		791.0		737.0		54.0
642.0		698.0		642.0		56.0
