0.00<|#eta|<0.60
282734.0		355753.0		282734.0		73019.0
512247.0		631542.0		512247.0		119295.0
825095.0		968210.0		825095.0		143121.0
1095020.0		1267390.0		1095020.0		172388.0
756886.0		847912.0		756886.0		91026.0
437864.0		480297.0		437864.0		42433.0
192697.0		205827.0		192697.0		13130.0
41177.0		43062.0		41177.0		1885.0
18553.0		19265.0		18553.0		712.0
8288.0		8522.0		8288.0		234.0
4167.0		4299.0		4167.0		132.0
4424.0		4662.0		4424.0		238.0
0.60<|#eta|<0.80
78600.0		98620.0		78600.0		20020.0
166896.0		203945.0		166896.0		37049.0
279815.0		328245.0		279815.0		48430.0
351496.0		404244.0		351496.0		52748.0
244608.0		271811.0		244608.0		27203.0
141031.0		153683.0		141031.0		12652.0
60953.0		65032.0		60953.0		4079.0
12889.0		13350.0		12889.0		461.0
5887.0		6064.0		5887.0		177.0
2616.0		2677.0		2616.0		61.0
1352.0		1382.0		1352.0		30.0
1437.0		1474.0		1437.0		37.0
0.80<|#eta|<1.15
134327.0		171975.0		134327.0		37648.0
259319.0		315206.0		259319.0		55887.0
446353.0		524724.0		446353.0		78371.0
578035.0		666298.0		578035.0		88263.0
375728.0		429478.0		375728.0		53750.0
220279.0		244041.0		220279.0		23762.0
94950.0		101765.0		94950.0		6815.0
20034.0		21209.0		20034.0		1175.0
9663.0		9926.0		9663.0		263.0
4144.0		4296.0		4144.0		152.0
2100.0		2128.0		2100.0		28.0
2330.0		2379.0		2330.0		49.0
1.15<|#eta|<1.37
75657.0		100792.0		75657.0		25135.0
134281.0		172225.0		134281.0		37944.0
230207.0		280205.0		230207.0		49998.0
306955.0		372976.0		306955.0		66021.0
210315.0		239568.0		210315.0		29253.0
121950.0		136699.0		121950.0		14749.0
53482.0		57292.0		53482.0		3810.0
11091.0		11767.0		11091.0		676.0
5314.0		5411.0		5314.0		97.0
2411.0		2469.0		2411.0		58.0
1179.0		1213.0		1179.0		34.0
1262.0		1314.0		1262.0		52.0
1.52<|#eta|<1.81
96406.0		118965.0		96406.0		22559.0
154754.0		190841.0		154754.0		36087.0
238964.0		288987.0		238964.0		50023.0
308716.0		368565.0		308716.0		59849.0
226682.0		255295.0		226682.0		28613.0
134545.0		147273.0		134545.0		12728.0
55496.0		60984.0		55496.0		5488.0
11304.0		12044.0		11304.0		740.0
5354.0		5568.0		5354.0		214.0
2285.0		2346.0		2285.0		61.0
1174.0		1220.0		1174.0		46.0
1279.0		1317.0		1279.0		38.0
1.81<|#eta|<2.01
69977.0		77253.0		69977.0		7276.0
110944.0		123961.0		110944.0		13017.0
161509.0		176713.0		161509.0		15204.0
200447.0		220812.0		200447.0		20365.0
137596.0		147443.0		137596.0		9847.0
77491.0		82446.0		77491.0		4955.0
32180.0		34331.0		32180.0		2151.0
6459.0		6972.0		6459.0		513.0
2889.0		3009.0		2889.0		120.0
1194.0		1239.0		1194.0		45.0
578.0		609.0		578.0		31.0
527.0		549.0		527.0		22.0
2.01<|#eta|<2.37
123701.0		138377.0		123701.0		14676.0
193240.0		214201.0		193240.0		20961.0
257829.0		282456.0		257829.0		24627.0
294552.0		324092.0		294552.0		29540.0
191895.0		209451.0		191895.0		17556.0
103750.0		115298.0		103750.0		11548.0
43397.0		47173.0		43397.0		3776.0
8808.0		9469.0		8808.0		661.0
3855.0		4046.0		3855.0		191.0
1519.0		1609.0		1519.0		90.0
736.0		791.0		736.0		55.0
661.0		698.0		661.0		37.0
