0.00<|#eta|<0.60
279604.0		355753.0		279604.0		76149.0
517731.0		631542.0		517731.0		113811.0
818593.0		968210.0		818593.0		149623.0
1096830.0		1267390.0		1096830.0		170570.0
757321.0		847912.0		757321.0		90591.0
437270.0		480297.0		437270.0		43027.0
193236.0		205827.0		193236.0		12591.0
40707.0		43062.0		40707.0		2355.0
18565.0		19265.0		18565.0		700.0
8305.0		8522.0		8305.0		217.0
4180.0		4299.0		4180.0		119.0
4390.0		4662.0		4390.0		272.0
0.60<|#eta|<0.80
78352.0		98620.0		78352.0		20268.0
166860.0		203945.0		166860.0		37085.0
280750.0		328245.0		280750.0		47495.0
351790.0		404244.0		351790.0		52454.0
245914.0		271811.0		245914.0		25897.0
141164.0		153683.0		141164.0		12519.0
61415.0		65032.0		61415.0		3617.0
12820.0		13350.0		12820.0		530.0
5941.0		6064.0		5941.0		123.0
2615.0		2677.0		2615.0		62.0
1349.0		1382.0		1349.0		33.0
1431.0		1474.0		1431.0		43.0
0.80<|#eta|<1.15
141955.0		171975.0		141955.0		30020.0
266143.0		315206.0		266143.0		49063.0
452084.0		524724.0		452084.0		72640.0
581496.0		666298.0		581496.0		84802.0
378714.0		429478.0		378714.0		50764.0
220748.0		244041.0		220748.0		23293.0
95503.0		101765.0		95503.0		6262.0
20269.0		21209.0		20269.0		940.0
9757.0		9926.0		9757.0		169.0
4193.0		4296.0		4193.0		103.0
2097.0		2128.0		2097.0		31.0
2335.0		2379.0		2335.0		44.0
1.15<|#eta|<1.37
77351.0		100792.0		77351.0		23441.0
134928.0		172225.0		134928.0		37297.0
230988.0		280205.0		230988.0		49217.0
312059.0		372976.0		312059.0		60917.0
214907.0		239568.0		214907.0		24661.0
122282.0		136699.0		122282.0		14417.0
53936.0		57292.0		53936.0		3356.0
11313.0		11767.0		11313.0		454.0
5299.0		5411.0		5299.0		112.0
2440.0		2469.0		2440.0		29.0
1161.0		1213.0		1161.0		52.0
1269.0		1314.0		1269.0		45.0
1.52<|#eta|<1.81
97271.0		118965.0		97271.0		21694.0
156520.0		190841.0		156520.0		34321.0
240500.0		288987.0		240500.0		48487.0
313524.0		368565.0		313524.0		55041.0
228961.0		255295.0		228961.0		26334.0
134299.0		147273.0		134299.0		12974.0
56029.0		60984.0		56029.0		4955.0
11336.0		12044.0		11336.0		708.0
5411.0		5568.0		5411.0		157.0
2275.0		2346.0		2275.0		71.0
1184.0		1220.0		1184.0		36.0
1277.0		1317.0		1277.0		40.0
1.81<|#eta|<2.01
70302.0		77253.0		70302.0		6951.0
110689.0		123961.0		110689.0		13272.0
161137.0		176713.0		161137.0		15576.0
200246.0		220812.0		200246.0		20566.0
138440.0		147443.0		138440.0		9003.0
77451.0		82446.0		77451.0		4995.0
32424.0		34331.0		32424.0		1907.0
6496.0		6972.0		6496.0		476.0
2927.0		3009.0		2927.0		82.0
1190.0		1239.0		1190.0		49.0
576.0		609.0		576.0		33.0
525.0		549.0		525.0		24.0
2.01<|#eta|<2.37
123031.0		138377.0		123031.0		15346.0
192120.0		214201.0		192120.0		22081.0
258097.0		282456.0		258097.0		24359.0
294102.0		324092.0		294102.0		29990.0
192214.0		209451.0		192214.0		17237.0
103709.0		115298.0		103709.0		11589.0
43380.0		47173.0		43380.0		3793.0
8772.0		9469.0		8772.0		697.0
3863.0		4046.0		3863.0		183.0
1513.0		1609.0		1513.0		96.0
728.0		791.0		728.0		63.0
643.0		698.0		643.0		55.0
