0.00<|#eta|<0.60
281111.0		355753.0		281111.0		74642.0
519936.0		631542.0		519936.0		111606.0
830608.0		968210.0		830608.0		137608.0
1092000.0		1267390.0		1092000.0		175398.0
754517.0		847912.0		754517.0		93395.0
439660.0		480297.0		439660.0		40637.0
191953.0		205827.0		191953.0		13874.0
41203.0		43062.0		41203.0		1859.0
18557.0		19265.0		18557.0		708.0
8311.0		8522.0		8311.0		211.0
4168.0		4299.0		4168.0		131.0
4460.0		4662.0		4460.0		202.0
0.60<|#eta|<0.80
75504.0		98620.0		75504.0		23116.0
165837.0		203945.0		165837.0		38108.0
279916.0		328245.0		279916.0		48329.0
353553.0		404244.0		353553.0		50691.0
246094.0		271811.0		246094.0		25717.0
141357.0		153683.0		141357.0		12326.0
61003.0		65032.0		61003.0		4029.0
12857.0		13350.0		12857.0		493.0
5878.0		6064.0		5878.0		186.0
2614.0		2677.0		2614.0		63.0
1347.0		1382.0		1347.0		35.0
1440.0		1474.0		1440.0		34.0
0.80<|#eta|<1.15
136086.0		171975.0		136086.0		35889.0
260609.0		315206.0		260609.0		54597.0
451261.0		524724.0		451261.0		73463.0
581970.0		666298.0		581970.0		84328.0
377508.0		429478.0		377508.0		51970.0
222905.0		244041.0		222905.0		21136.0
95351.0		101765.0		95351.0		6414.0
20104.0		21209.0		20104.0		1105.0
9712.0		9926.0		9712.0		214.0
4154.0		4296.0		4154.0		142.0
2102.0		2128.0		2102.0		26.0
2328.0		2379.0		2328.0		51.0
1.15<|#eta|<1.37
75463.0		100792.0		75463.0		25329.0
132412.0		172225.0		132412.0		39813.0
232452.0		280205.0		232452.0		47753.0
312935.0		372976.0		312935.0		60041.0
213255.0		239568.0		213255.0		26313.0
123967.0		136699.0		123967.0		12732.0
53514.0		57292.0		53514.0		3778.0
11174.0		11767.0		11174.0		593.0
5291.0		5411.0		5291.0		120.0
2403.0		2469.0		2403.0		66.0
1190.0		1213.0		1190.0		23.0
1268.0		1314.0		1268.0		46.0
1.52<|#eta|<1.81
95148.0		118965.0		95148.0		23817.0
153863.0		190841.0		153863.0		36978.0
239652.0		288987.0		239652.0		49335.0
312973.0		368565.0		312973.0		55592.0
229617.0		255295.0		229617.0		25678.0
135598.0		147273.0		135598.0		11675.0
55876.0		60984.0		55876.0		5108.0
11286.0		12044.0		11286.0		758.0
5386.0		5568.0		5386.0		182.0
2291.0		2346.0		2291.0		55.0
1190.0		1220.0		1190.0		30.0
1270.0		1317.0		1270.0		47.0
1.81<|#eta|<2.01
69808.0		77253.0		69808.0		7445.0
110902.0		123961.0		110902.0		13059.0
161933.0		176713.0		161933.0		14780.0
200735.0		220812.0		200735.0		20077.0
138361.0		147443.0		138361.0		9082.0
77784.0		82446.0		77784.0		4662.0
32306.0		34331.0		32306.0		2025.0
6478.0		6972.0		6478.0		494.0
2896.0		3009.0		2896.0		113.0
1190.0		1239.0		1190.0		49.0
579.0		609.0		579.0		30.0
524.0		549.0		524.0		25.0
2.01<|#eta|<2.37
123188.0		138377.0		123188.0		15189.0
192439.0		214201.0		192439.0		21762.0
257941.0		282456.0		257941.0		24515.0
294249.0		324092.0		294249.0		29843.0
192229.0		209451.0		192229.0		17222.0
103766.0		115298.0		103766.0		11532.0
43479.0		47173.0		43479.0		3694.0
8756.0		9469.0		8756.0		713.0
3864.0		4046.0		3864.0		182.0
1512.0		1609.0		1512.0		97.0
737.0		791.0		737.0		54.0
659.0		698.0		659.0		39.0
