0.00<|#eta|<0.60
279950.0		355753.0		279950.0		75803.0
520885.0		631542.0		520885.0		110657.0
830104.0		968210.0		830104.0		138112.0
1098240.0		1267390.0		1098240.0		169170.0
755802.0		847912.0		755802.0		92110.0
439288.0		480297.0		439288.0		41009.0
191857.0		205827.0		191857.0		13970.0
41228.0		43062.0		41228.0		1834.0
18569.0		19265.0		18569.0		696.0
8316.0		8522.0		8316.0		206.0
4178.0		4299.0		4178.0		121.0
4412.0		4662.0		4412.0		250.0
0.60<|#eta|<0.80
75926.0		98620.0		75926.0		22694.0
167456.0		203945.0		167456.0		36489.0
279230.0		328245.0		279230.0		49015.0
353358.0		404244.0		353358.0		50886.0
244236.0		271811.0		244236.0		27575.0
142042.0		153683.0		142042.0		11641.0
61285.0		65032.0		61285.0		3747.0
12799.0		13350.0		12799.0		551.0
5917.0		6064.0		5917.0		147.0
2618.0		2677.0		2618.0		59.0
1353.0		1382.0		1353.0		29.0
1443.0		1474.0		1443.0		31.0
0.80<|#eta|<1.15
134747.0		171975.0		134747.0		37228.0
262385.0		315206.0		262385.0		52821.0
453029.0		524724.0		453029.0		71695.0
582225.0		666298.0		582225.0		84073.0
380822.0		429478.0		380822.0		48656.0
223252.0		244041.0		223252.0		20789.0
95461.0		101765.0		95461.0		6304.0
20148.0		21209.0		20148.0		1061.0
9706.0		9926.0		9706.0		220.0
4206.0		4296.0		4206.0		90.0
2100.0		2128.0		2100.0		28.0
2322.0		2379.0		2322.0		57.0
1.15<|#eta|<1.37
75525.0		100792.0		75525.0		25267.0
133676.0		172225.0		133676.0		38549.0
233123.0		280205.0		233123.0		47082.0
312106.0		372976.0		312106.0		60870.0
214557.0		239568.0		214557.0		25011.0
123467.0		136699.0		123467.0		13232.0
53711.0		57292.0		53711.0		3581.0
11218.0		11767.0		11218.0		549.0
5332.0		5411.0		5332.0		79.0
2417.0		2469.0		2417.0		52.0
1182.0		1213.0		1182.0		31.0
1266.0		1314.0		1266.0		48.0
1.52<|#eta|<1.81
95192.0		118965.0		95192.0		23773.0
155137.0		190841.0		155137.0		35704.0
238679.0		288987.0		238679.0		50308.0
312773.0		368565.0		312773.0		55792.0
228771.0		255295.0		228771.0		26524.0
135435.0		147273.0		135435.0		11838.0
56004.0		60984.0		56004.0		4980.0
11319.0		12044.0		11319.0		725.0
5370.0		5568.0		5370.0		198.0
2279.0		2346.0		2279.0		67.0
1184.0		1220.0		1184.0		36.0
1275.0		1317.0		1275.0		42.0
1.81<|#eta|<2.01
69944.0		77253.0		69944.0		7309.0
110553.0		123961.0		110553.0		13408.0
161925.0		176713.0		161925.0		14788.0
201302.0		220812.0		201302.0		19510.0
138262.0		147443.0		138262.0		9181.0
77760.0		82446.0		77760.0		4686.0
32343.0		34331.0		32343.0		1988.0
6514.0		6972.0		6514.0		458.0
2902.0		3009.0		2902.0		107.0
1189.0		1239.0		1189.0		50.0
581.0		609.0		581.0		28.0
525.0		549.0		525.0		24.0
2.01<|#eta|<2.37
123530.0		138377.0		123530.0		14847.0
192715.0		214201.0		192715.0		21486.0
257634.0		282456.0		257634.0		24822.0
294656.0		324092.0		294656.0		29436.0
191573.0		209451.0		191573.0		17878.0
103889.0		115298.0		103889.0		11409.0
43418.0		47173.0		43418.0		3755.0
8836.0		9469.0		8836.0		633.0
3847.0		4046.0		3847.0		199.0
1511.0		1609.0		1511.0		98.0
734.0		791.0		734.0		57.0
656.0		698.0		656.0		42.0
