0.00<|#eta|<0.60
281971.0		355753.0		281971.0		73782.0
513302.0		631542.0		513302.0		118240.0
828549.0		968210.0		828549.0		139667.0
1094940.0		1267390.0		1094940.0		172449.0
757710.0		847912.0		757710.0		90202.0
437090.0		480297.0		437090.0		43207.0
192908.0		205827.0		192908.0		12919.0
41327.0		43062.0		41327.0		1735.0
18566.0		19265.0		18566.0		699.0
8328.0		8522.0		8328.0		194.0
4177.0		4299.0		4177.0		122.0
4407.0		4662.0		4407.0		255.0
0.60<|#eta|<0.80
77459.0		98620.0		77459.0		21161.0
166236.0		203945.0		166236.0		37709.0
282333.0		328245.0		282333.0		45912.0
352873.0		404244.0		352873.0		51371.0
244240.0		271811.0		244240.0		27571.0
141005.0		153683.0		141005.0		12678.0
61226.0		65032.0		61226.0		3806.0
12591.0		13350.0		12591.0		759.0
5905.0		6064.0		5905.0		159.0
2616.0		2677.0		2616.0		61.0
1352.0		1382.0		1352.0		30.0
1447.0		1474.0		1447.0		27.0
0.80<|#eta|<1.15
136141.0		171975.0		136141.0		35834.0
261153.0		315206.0		261153.0		54053.0
452077.0		524724.0		452077.0		72647.0
581742.0		666298.0		581742.0		84556.0
379743.0		429478.0		379743.0		49735.0
219820.0		244041.0		219820.0		24221.0
95155.0		101765.0		95155.0		6610.0
20064.0		21209.0		20064.0		1145.0
9686.0		9926.0		9686.0		240.0
4171.0		4296.0		4171.0		125.0
2096.0		2128.0		2096.0		32.0
2324.0		2379.0		2324.0		55.0
1.15<|#eta|<1.37
74966.0		100792.0		74966.0		25826.0
134728.0		172225.0		134728.0		37497.0
231260.0		280205.0		231260.0		48945.0
314421.0		372976.0		314421.0		58555.0
212433.0		239568.0		212433.0		27135.0
121606.0		136699.0		121606.0		15093.0
53282.0		57292.0		53282.0		4010.0
11159.0		11767.0		11159.0		608.0
5268.0		5411.0		5268.0		143.0
2409.0		2469.0		2409.0		60.0
1182.0		1213.0		1182.0		31.0
1267.0		1314.0		1267.0		47.0
1.52<|#eta|<1.81
95496.0		118965.0		95496.0		23469.0
155178.0		190841.0		155178.0		35663.0
239349.0		288987.0		239349.0		49638.0
314409.0		368565.0		314409.0		54156.0
228845.0		255295.0		228845.0		26450.0
133951.0		147273.0		133951.0		13322.0
55563.0		60984.0		55563.0		5421.0
11279.0		12044.0		11279.0		765.0
5376.0		5568.0		5376.0		192.0
2282.0		2346.0		2282.0		64.0
1179.0		1220.0		1179.0		41.0
1278.0		1317.0		1278.0		39.0
1.81<|#eta|<2.01
69186.0		77253.0		69186.0		8067.0
110836.0		123961.0		110836.0		13125.0
161649.0		176713.0		161649.0		15064.0
201043.0		220812.0		201043.0		19769.0
138299.0		147443.0		138299.0		9144.0
77364.0		82446.0		77364.0		5082.0
32250.0		34331.0		32250.0		2081.0
6500.0		6972.0		6500.0		472.0
2898.0		3009.0		2898.0		111.0
1190.0		1239.0		1190.0		49.0
586.0		609.0		586.0		23.0
525.0		549.0		525.0		24.0
2.01<|#eta|<2.37
123136.0		138377.0		123136.0		15241.0
192425.0		214201.0		192425.0		21776.0
257318.0		282456.0		257318.0		25138.0
294306.0		324092.0		294306.0		29786.0
192541.0		209451.0		192541.0		16910.0
103750.0		115298.0		103750.0		11548.0
43470.0		47173.0		43470.0		3703.0
8799.0		9469.0		8799.0		670.0
3845.0		4046.0		3845.0		201.0
1526.0		1609.0		1526.0		83.0
734.0		791.0		734.0		57.0
661.0		698.0		661.0		37.0
