0.00<|#eta|<0.60
282842.0		355753.0		282842.0		72911.0
522836.0		631542.0		522836.0		108706.0
823016.0		968210.0		823016.0		145200.0
1099400.0		1267390.0		1099400.0		167997.0
760898.0		847912.0		760898.0		87014.0
439482.0		480297.0		439482.0		40815.0
192196.0		205827.0		192196.0		13631.0
41129.0		43062.0		41129.0		1933.0
18645.0		19265.0		18645.0		620.0
8312.0		8522.0		8312.0		210.0
4201.0		4299.0		4201.0		98.0
4440.0		4662.0		4440.0		222.0
0.60<|#eta|<0.80
77780.0		98620.0		77780.0		20840.0
166509.0		203945.0		166509.0		37436.0
279743.0		328245.0		279743.0		48502.0
352370.0		404244.0		352370.0		51874.0
243692.0		271811.0		243692.0		28119.0
140816.0		153683.0		140816.0		12867.0
61319.0		65032.0		61319.0		3713.0
12837.0		13350.0		12837.0		513.0
5933.0		6064.0		5933.0		131.0
2621.0		2677.0		2621.0		56.0
1346.0		1382.0		1346.0		36.0
1446.0		1474.0		1446.0		28.0
0.80<|#eta|<1.15
140629.0		171975.0		140629.0		31346.0
266095.0		315206.0		266095.0		49111.0
451269.0		524724.0		451269.0		73455.0
581665.0		666298.0		581665.0		84633.0
379878.0		429478.0		379878.0		49600.0
223118.0		244041.0		223118.0		20923.0
95543.0		101765.0		95543.0		6222.0
20203.0		21209.0		20203.0		1006.0
9739.0		9926.0		9739.0		187.0
4184.0		4296.0		4184.0		112.0
2111.0		2128.0		2111.0		17.0
2347.0		2379.0		2347.0		32.0
1.15<|#eta|<1.37
77295.0		100792.0		77295.0		23497.0
136203.0		172225.0		136203.0		36022.0
231564.0		280205.0		231564.0		48641.0
311612.0		372976.0		311612.0		61364.0
213058.0		239568.0		213058.0		26510.0
123900.0		136699.0		123900.0		12799.0
53875.0		57292.0		53875.0		3417.0
11266.0		11767.0		11266.0		501.0
5305.0		5411.0		5305.0		106.0
2440.0		2469.0		2440.0		29.0
1178.0		1213.0		1178.0		35.0
1268.0		1314.0		1268.0		46.0
1.52<|#eta|<1.81
97666.0		118965.0		97666.0		21299.0
157837.0		190841.0		157837.0		33004.0
239668.0		288987.0		239668.0		49319.0
313523.0		368565.0		313523.0		55042.0
228814.0		255295.0		228814.0		26481.0
135217.0		147273.0		135217.0		12056.0
56051.0		60984.0		56051.0		4933.0
11327.0		12044.0		11327.0		717.0
5389.0		5568.0		5389.0		179.0
2278.0		2346.0		2278.0		68.0
1192.0		1220.0		1192.0		28.0
1281.0		1317.0		1281.0		36.0
1.81<|#eta|<2.01
70596.0		77253.0		70596.0		6657.0
111241.0		123961.0		111241.0		12720.0
161819.0		176713.0		161819.0		14894.0
201873.0		220812.0		201873.0		18939.0
138018.0		147443.0		138018.0		9425.0
77894.0		82446.0		77894.0		4552.0
32422.0		34331.0		32422.0		1909.0
6472.0		6972.0		6472.0		500.0
2921.0		3009.0		2921.0		88.0
1189.0		1239.0		1189.0		50.0
580.0		609.0		580.0		29.0
525.0		549.0		525.0		24.0
2.01<|#eta|<2.37
123338.0		138377.0		123338.0		15039.0
193478.0		214201.0		193478.0		20723.0
257347.0		282456.0		257347.0		25109.0
294233.0		324092.0		294233.0		29859.0
192757.0		209451.0		192757.0		16694.0
103796.0		115298.0		103796.0		11502.0
43426.0		47173.0		43426.0		3747.0
8776.0		9469.0		8776.0		693.0
3852.0		4046.0		3852.0		194.0
1530.0		1609.0		1530.0		79.0
727.0		791.0		727.0		64.0
661.0		698.0		661.0		37.0
