0.00<|#eta|<0.60
283346.0		355753.0		283346.0		72407.0
515899.0		631542.0		515899.0		115643.0
830079.0		968210.0		830079.0		138137.0
1095820.0		1267390.0		1095820.0		171577.0
756445.0		847912.0		756445.0		91467.0
438895.0		480297.0		438895.0		41402.0
192791.0		205827.0		192791.0		13036.0
41351.0		43062.0		41351.0		1711.0
18526.0		19265.0		18526.0		739.0
8339.0		8522.0		8339.0		183.0
4147.0		4299.0		4147.0		152.0
4447.0		4662.0		4447.0		215.0
0.60<|#eta|<0.80
77078.0		98620.0		77078.0		21542.0
167202.0		203945.0		167202.0		36743.0
280226.0		328245.0		280226.0		48019.0
350279.0		404244.0		350279.0		53965.0
244523.0		271811.0		244523.0		27288.0
140776.0		153683.0		140776.0		12907.0
61484.0		65032.0		61484.0		3548.0
12843.0		13350.0		12843.0		507.0
5885.0		6064.0		5885.0		179.0
2630.0		2677.0		2630.0		47.0
1357.0		1382.0		1357.0		25.0
1439.0		1474.0		1439.0		35.0
0.80<|#eta|<1.15
136514.0		171975.0		136514.0		35461.0
260806.0		315206.0		260806.0		54400.0
453277.0		524724.0		453277.0		71447.0
578840.0		666298.0		578840.0		87458.0
380051.0		429478.0		380051.0		49427.0
219702.0		244041.0		219702.0		24339.0
95133.0		101765.0		95133.0		6632.0
20131.0		21209.0		20131.0		1078.0
9707.0		9926.0		9707.0		219.0
4167.0		4296.0		4167.0		129.0
2091.0		2128.0		2091.0		37.0
2339.0		2379.0		2339.0		40.0
1.15<|#eta|<1.37
73497.0		100792.0		73497.0		27295.0
133019.0		172225.0		133019.0		39206.0
230825.0		280205.0		230825.0		49380.0
312672.0		372976.0		312672.0		60304.0
212667.0		239568.0		212667.0		26901.0
121749.0		136699.0		121749.0		14950.0
53253.0		57292.0		53253.0		4039.0
11188.0		11767.0		11188.0		579.0
5289.0		5411.0		5289.0		122.0
2407.0		2469.0		2407.0		62.0
1179.0		1213.0		1179.0		34.0
1272.0		1314.0		1272.0		42.0
1.52<|#eta|<1.81
96566.0		118965.0		96566.0		22399.0
154852.0		190841.0		154852.0		35989.0
241278.0		288987.0		241278.0		47709.0
313182.0		368565.0		313182.0		55383.0
229920.0		255295.0		229920.0		25375.0
134394.0		147273.0		134394.0		12879.0
55607.0		60984.0		55607.0		5377.0
11305.0		12044.0		11305.0		739.0
5384.0		5568.0		5384.0		184.0
2270.0		2346.0		2270.0		76.0
1187.0		1220.0		1187.0		33.0
1286.0		1317.0		1286.0		31.0
1.81<|#eta|<2.01
70002.0		77253.0		70002.0		7251.0
110365.0		123961.0		110365.0		13596.0
162076.0		176713.0		162076.0		14637.0
201373.0		220812.0		201373.0		19439.0
137668.0		147443.0		137668.0		9775.0
77354.0		82446.0		77354.0		5092.0
32254.0		34331.0		32254.0		2077.0
6500.0		6972.0		6500.0		472.0
2905.0		3009.0		2905.0		104.0
1188.0		1239.0		1188.0		51.0
579.0		609.0		579.0		30.0
526.0		549.0		526.0		23.0
2.01<|#eta|<2.37
123554.0		138377.0		123554.0		14823.0
193210.0		214201.0		193210.0		20991.0
257812.0		282456.0		257812.0		24644.0
293691.0		324092.0		293691.0		30401.0
192079.0		209451.0		192079.0		17372.0
103748.0		115298.0		103748.0		11550.0
43558.0		47173.0		43558.0		3615.0
8766.0		9469.0		8766.0		703.0
3851.0		4046.0		3851.0		195.0
1516.0		1609.0		1516.0		93.0
724.0		791.0		724.0		67.0
671.0		698.0		671.0		27.0
