0.00<|#eta|<0.60
283179.0		355753.0		283179.0		72574.0
520567.0		631542.0		520567.0		110975.0
813421.0		968210.0		813421.0		154795.0
1097080.0		1267390.0		1097080.0		170325.0
757374.0		847912.0		757374.0		90538.0
438632.0		480297.0		438632.0		41665.0
193258.0		205827.0		193258.0		12569.0
41213.0		43062.0		41213.0		1849.0
18613.0		19265.0		18613.0		652.0
8317.0		8522.0		8317.0		205.0
4185.0		4299.0		4185.0		114.0
4456.0		4662.0		4456.0		206.0
0.60<|#eta|<0.80
79078.0		98620.0		79078.0		19542.0
167685.0		203945.0		167685.0		36260.0
278841.0		328245.0		278841.0		49404.0
350008.0		404244.0		350008.0		54236.0
245989.0		271811.0		245989.0		25822.0
141218.0		153683.0		141218.0		12465.0
61397.0		65032.0		61397.0		3635.0
12733.0		13350.0		12733.0		617.0
5842.0		6064.0		5842.0		222.0
2624.0		2677.0		2624.0		53.0
1352.0		1382.0		1352.0		30.0
1444.0		1474.0		1444.0		30.0
0.80<|#eta|<1.15
140390.0		171975.0		140390.0		31585.0
265857.0		315206.0		265857.0		49349.0
444174.0		524724.0		444174.0		80550.0
572195.0		666298.0		572195.0		94103.0
376263.0		429478.0		376263.0		53215.0
219540.0		244041.0		219540.0		24501.0
95202.0		101765.0		95202.0		6563.0
20077.0		21209.0		20077.0		1132.0
9692.0		9926.0		9692.0		234.0
4182.0		4296.0		4182.0		114.0
2114.0		2128.0		2114.0		14.0
2349.0		2379.0		2349.0		30.0
1.15<|#eta|<1.37
77261.0		100792.0		77261.0		23531.0
135810.0		172225.0		135810.0		36415.0
229266.0		280205.0		229266.0		50939.0
308051.0		372976.0		308051.0		64925.0
210937.0		239568.0		210937.0		28631.0
122216.0		136699.0		122216.0		14483.0
53241.0		57292.0		53241.0		4051.0
11185.0		11767.0		11185.0		582.0
5301.0		5411.0		5301.0		110.0
2404.0		2469.0		2404.0		65.0
1190.0		1213.0		1190.0		23.0
1272.0		1314.0		1272.0		42.0
1.52<|#eta|<1.81
97909.0		118965.0		97909.0		21056.0
156852.0		190841.0		156852.0		33989.0
236970.0		288987.0		236970.0		52017.0
309341.0		368565.0		309341.0		59224.0
227722.0		255295.0		227722.0		27573.0
133978.0		147273.0		133978.0		13295.0
55588.0		60984.0		55588.0		5396.0
11283.0		12044.0		11283.0		761.0
5341.0		5568.0		5341.0		227.0
2286.0		2346.0		2286.0		60.0
1191.0		1220.0		1191.0		29.0
1283.0		1317.0		1283.0		34.0
1.81<|#eta|<2.01
69891.0		77253.0		69891.0		7362.0
112123.0		123961.0		112123.0		11838.0
161996.0		176713.0		161996.0		14717.0
201181.0		220812.0		201181.0		19631.0
136705.0		147443.0		136705.0		10738.0
77303.0		82446.0		77303.0		5143.0
32254.0		34331.0		32254.0		2077.0
6457.0		6972.0		6457.0		515.0
2926.0		3009.0		2926.0		83.0
1189.0		1239.0		1189.0		50.0
582.0		609.0		582.0		27.0
525.0		549.0		525.0		24.0
2.01<|#eta|<2.37
123625.0		138377.0		123625.0		14752.0
192935.0		214201.0		192935.0		21266.0
258117.0		282456.0		258117.0		24339.0
293533.0		324092.0		293533.0		30559.0
191693.0		209451.0		191693.0		17758.0
103705.0		115298.0		103705.0		11593.0
43571.0		47173.0		43571.0		3602.0
8773.0		9469.0		8773.0		696.0
3842.0		4046.0		3842.0		204.0
1509.0		1609.0		1509.0		100.0
742.0		791.0		742.0		49.0
654.0		698.0		654.0		44.0
