0.00<|#eta|<0.60
281865.0		355753.0		281865.0		73888.0
516355.0		631542.0		516355.0		115187.0
828670.0		968210.0		828670.0		139546.0
1097670.0		1267390.0		1097670.0		169729.0
758579.0		847912.0		758579.0		89333.0
440143.0		480297.0		440143.0		40154.0
190965.0		205827.0		190965.0		14862.0
41296.0		43062.0		41296.0		1766.0
18544.0		19265.0		18544.0		721.0
8274.0		8522.0		8274.0		248.0
4183.0		4299.0		4183.0		116.0
4409.0		4662.0		4409.0		253.0
0.60<|#eta|<0.80
77523.0		98620.0		77523.0		21097.0
165722.0		203945.0		165722.0		38223.0
281474.0		328245.0		281474.0		46771.0
352205.0		404244.0		352205.0		52039.0
245936.0		271811.0		245936.0		25875.0
141864.0		153683.0		141864.0		11819.0
61311.0		65032.0		61311.0		3721.0
12684.0		13350.0		12684.0		666.0
5898.0		6064.0		5898.0		166.0
2637.0		2677.0		2637.0		40.0
1342.0		1382.0		1342.0		40.0
1441.0		1474.0		1441.0		33.0
0.80<|#eta|<1.15
136390.0		171975.0		136390.0		35585.0
258909.0		315206.0		258909.0		56297.0
449764.0		524724.0		449764.0		74960.0
584237.0		666298.0		584237.0		82061.0
380161.0		429478.0		380161.0		49317.0
223873.0		244041.0		223873.0		20168.0
95110.0		101765.0		95110.0		6655.0
20112.0		21209.0		20112.0		1097.0
9661.0		9926.0		9661.0		265.0
4179.0		4296.0		4179.0		117.0
2100.0		2128.0		2100.0		28.0
2338.0		2379.0		2338.0		41.0
1.15<|#eta|<1.37
75661.0		100792.0		75661.0		25131.0
133158.0		172225.0		133158.0		39067.0
232260.0		280205.0		232260.0		47945.0
313299.0		372976.0		313299.0		59677.0
214312.0		239568.0		214312.0		25256.0
124515.0		136699.0		124515.0		12184.0
53773.0		57292.0		53773.0		3519.0
11186.0		11767.0		11186.0		581.0
5270.0		5411.0		5270.0		141.0
2378.0		2469.0		2378.0		91.0
1190.0		1213.0		1190.0		23.0
1236.0		1314.0		1236.0		78.0
1.52<|#eta|<1.81
95855.0		118965.0		95855.0		23110.0
154962.0		190841.0		154962.0		35879.0
241034.0		288987.0		241034.0		47953.0
313211.0		368565.0		313211.0		55354.0
228889.0		255295.0		228889.0		26406.0
136328.0		147273.0		136328.0		10945.0
56128.0		60984.0		56128.0		4856.0
11299.0		12044.0		11299.0		745.0
5382.0		5568.0		5382.0		186.0
2283.0		2346.0		2283.0		63.0
1189.0		1220.0		1189.0		31.0
1278.0		1317.0		1278.0		39.0
1.81<|#eta|<2.01
70322.0		77253.0		70322.0		6931.0
110623.0		123961.0		110623.0		13338.0
161950.0		176713.0		161950.0		14763.0
201470.0		220812.0		201470.0		19342.0
138092.0		147443.0		138092.0		9351.0
77978.0		82446.0		77978.0		4468.0
32442.0		34331.0		32442.0		1889.0
6486.0		6972.0		6486.0		486.0
2903.0		3009.0		2903.0		106.0
1188.0		1239.0		1188.0		51.0
582.0		609.0		582.0		27.0
526.0		549.0		526.0		23.0
2.01<|#eta|<2.37
123474.0		138377.0		123474.0		14903.0
192646.0		214201.0		192646.0		21555.0
257314.0		282456.0		257314.0		25142.0
293751.0		324092.0		293751.0		30341.0
191747.0		209451.0		191747.0		17704.0
103829.0		115298.0		103829.0		11469.0
43392.0		47173.0		43392.0		3781.0
8730.0		9469.0		8730.0		739.0
3879.0		4046.0		3879.0		167.0
1526.0		1609.0		1526.0		83.0
736.0		791.0		736.0		55.0
667.0		698.0		667.0		31.0
