0.00<|#eta|<0.60
282260.0		355753.0		282260.0		73493.0
521951.0		631542.0		521951.0		109591.0
823494.0		968210.0		823494.0		144722.0
1090340.0		1267390.0		1090340.0		177063.0
756644.0		847912.0		756644.0		91268.0
439063.0		480297.0		439063.0		41234.0
192813.0		205827.0		192813.0		13014.0
41263.0		43062.0		41263.0		1799.0
18570.0		19265.0		18570.0		695.0
8312.0		8522.0		8312.0		210.0
4208.0		4299.0		4208.0		91.0
4382.0		4662.0		4382.0		280.0
0.60<|#eta|<0.80
77097.0		98620.0		77097.0		21523.0
166781.0		203945.0		166781.0		37164.0
280720.0		328245.0		280720.0		47525.0
350820.0		404244.0		350820.0		53424.0
246510.0		271811.0		246510.0		25301.0
141043.0		153683.0		141043.0		12640.0
61417.0		65032.0		61417.0		3615.0
12592.0		13350.0		12592.0		758.0
5922.0		6064.0		5922.0		142.0
2628.0		2677.0		2628.0		49.0
1355.0		1382.0		1355.0		27.0
1441.0		1474.0		1441.0		33.0
0.80<|#eta|<1.15
136419.0		171975.0		136419.0		35556.0
262146.0		315206.0		262146.0		53060.0
444306.0		524724.0		444306.0		80418.0
573169.0		666298.0		573169.0		93129.0
376272.0		429478.0		376272.0		53206.0
219936.0		244041.0		219936.0		24105.0
94684.0		101765.0		94684.0		7081.0
20019.0		21209.0		20019.0		1190.0
9680.0		9926.0		9680.0		246.0
4160.0		4296.0		4160.0		136.0
2104.0		2128.0		2104.0		24.0
2333.0		2379.0		2333.0		46.0
1.15<|#eta|<1.37
74208.0		100792.0		74208.0		26584.0
132062.0		172225.0		132062.0		40163.0
226754.0		280205.0		226754.0		53451.0
307288.0		372976.0		307288.0		65688.0
210140.0		239568.0		210140.0		29428.0
121626.0		136699.0		121626.0		15073.0
53202.0		57292.0		53202.0		4090.0
11160.0		11767.0		11160.0		607.0
5308.0		5411.0		5308.0		103.0
2387.0		2469.0		2387.0		82.0
1183.0		1213.0		1183.0		30.0
1265.0		1314.0		1265.0		49.0
1.52<|#eta|<1.81
95314.0		118965.0		95314.0		23651.0
155102.0		190841.0		155102.0		35739.0
236945.0		288987.0		236945.0		52042.0
309959.0		368565.0		309959.0		58606.0
227986.0		255295.0		227986.0		27309.0
133946.0		147273.0		133946.0		13327.0
55548.0		60984.0		55548.0		5436.0
11303.0		12044.0		11303.0		741.0
5379.0		5568.0		5379.0		189.0
2273.0		2346.0		2273.0		73.0
1188.0		1220.0		1188.0		32.0
1278.0		1317.0		1278.0		39.0
1.81<|#eta|<2.01
70070.0		77253.0		70070.0		7183.0
110527.0		123961.0		110527.0		13434.0
161195.0		176713.0		161195.0		15518.0
201007.0		220812.0		201007.0		19805.0
137876.0		147443.0		137876.0		9567.0
77498.0		82446.0		77498.0		4948.0
32276.0		34331.0		32276.0		2055.0
6457.0		6972.0		6457.0		515.0
2906.0		3009.0		2906.0		103.0
1185.0		1239.0		1185.0		54.0
584.0		609.0		584.0		25.0
524.0		549.0		524.0		25.0
2.01<|#eta|<2.37
123362.0		138377.0		123362.0		15015.0
192803.0		214201.0		192803.0		21398.0
257929.0		282456.0		257929.0		24527.0
294637.0		324092.0		294637.0		29455.0
191914.0		209451.0		191914.0		17537.0
103586.0		115298.0		103586.0		11712.0
43420.0		47173.0		43420.0		3753.0
8787.0		9469.0		8787.0		682.0
3846.0		4046.0		3846.0		200.0
1513.0		1609.0		1513.0		96.0
736.0		791.0		736.0		55.0
661.0		698.0		661.0		37.0
