0.00<|#eta|<0.60
281181.0		355753.0		281181.0		74572.0
519229.0		631542.0		519229.0		112313.0
830125.0		968210.0		830125.0		138091.0
1093110.0		1267390.0		1093110.0		174279.0
754179.0		847912.0		754179.0		93733.0
439214.0		480297.0		439214.0		41083.0
192739.0		205827.0		192739.0		13088.0
41146.0		43062.0		41146.0		1916.0
18572.0		19265.0		18572.0		693.0
8329.0		8522.0		8329.0		193.0
4206.0		4299.0		4206.0		93.0
4411.0		4662.0		4411.0		251.0
0.60<|#eta|<0.80
75860.0		98620.0		75860.0		22760.0
166313.0		203945.0		166313.0		37632.0
278267.0		328245.0		278267.0		49978.0
348510.0		404244.0		348510.0		55734.0
244827.0		271811.0		244827.0		26984.0
140555.0		153683.0		140555.0		13128.0
61087.0		65032.0		61087.0		3945.0
12746.0		13350.0		12746.0		604.0
5875.0		6064.0		5875.0		189.0
2612.0		2677.0		2612.0		65.0
1351.0		1382.0		1351.0		31.0
1437.0		1474.0		1437.0		37.0
0.80<|#eta|<1.15
135176.0		171975.0		135176.0		36799.0
262344.0		315206.0		262344.0		52862.0
445757.0		524724.0		445757.0		78967.0
571129.0		666298.0		571129.0		95169.0
375493.0		429478.0		375493.0		53985.0
219995.0		244041.0		219995.0		24046.0
94699.0		101765.0		94699.0		7066.0
20072.0		21209.0		20072.0		1137.0
9721.0		9926.0		9721.0		205.0
4168.0		4296.0		4168.0		128.0
2077.0		2128.0		2077.0		51.0
2322.0		2379.0		2322.0		57.0
1.15<|#eta|<1.37
75599.0		100792.0		75599.0		25193.0
132671.0		172225.0		132671.0		39554.0
229411.0		280205.0		229411.0		50794.0
305982.0		372976.0		305982.0		66994.0
211279.0		239568.0		211279.0		28289.0
121644.0		136699.0		121644.0		15055.0
53258.0		57292.0		53258.0		4034.0
11210.0		11767.0		11210.0		557.0
5297.0		5411.0		5297.0		114.0
2383.0		2469.0		2383.0		86.0
1183.0		1213.0		1183.0		30.0
1269.0		1314.0		1269.0		45.0
1.52<|#eta|<1.81
96558.0		118965.0		96558.0		22407.0
155480.0		190841.0		155480.0		35361.0
236802.0		288987.0		236802.0		52185.0
309635.0		368565.0		309635.0		58930.0
227843.0		255295.0		227843.0		27452.0
134197.0		147273.0		134197.0		13076.0
55476.0		60984.0		55476.0		5508.0
11316.0		12044.0		11316.0		728.0
5374.0		5568.0		5374.0		194.0
2284.0		2346.0		2284.0		62.0
1174.0		1220.0		1174.0		46.0
1282.0		1317.0		1282.0		35.0
1.81<|#eta|<2.01
69472.0		77253.0		69472.0		7781.0
109618.0		123961.0		109618.0		14343.0
161270.0		176713.0		161270.0		15443.0
200962.0		220812.0		200962.0		19850.0
137082.0		147443.0		137082.0		10361.0
77305.0		82446.0		77305.0		5141.0
32246.0		34331.0		32246.0		2085.0
6490.0		6972.0		6490.0		482.0
2920.0		3009.0		2920.0		89.0
1181.0		1239.0		1181.0		58.0
582.0		609.0		582.0		27.0
525.0		549.0		525.0		24.0
2.01<|#eta|<2.37
123843.0		138377.0		123843.0		14534.0
192448.0		214201.0		192448.0		21753.0
257269.0		282456.0		257269.0		25187.0
294814.0		324092.0		294814.0		29278.0
192076.0		209451.0		192076.0		17375.0
103668.0		115298.0		103668.0		11630.0
43474.0		47173.0		43474.0		3699.0
8802.0		9469.0		8802.0		667.0
3851.0		4046.0		3851.0		195.0
1509.0		1609.0		1509.0		100.0
737.0		791.0		737.0		54.0
658.0		698.0		658.0		40.0
