0.00<|#eta|<0.60
284889.0		355753.0		284889.0		70864.0
519230.0		631542.0		519230.0		112312.0
825410.0		968210.0		825410.0		142806.0
1096380.0		1267390.0		1096380.0		171012.0
758882.0		847912.0		758882.0		89030.0
438990.0		480297.0		438990.0		41307.0
192181.0		205827.0		192181.0		13646.0
41212.0		43062.0		41212.0		1850.0
18593.0		19265.0		18593.0		672.0
8301.0		8522.0		8301.0		221.0
4172.0		4299.0		4172.0		127.0
4452.0		4662.0		4452.0		210.0
0.60<|#eta|<0.80
78738.0		98620.0		78738.0		19882.0
166639.0		203945.0		166639.0		37306.0
279030.0		328245.0		279030.0		49215.0
351297.0		404244.0		351297.0		52947.0
244762.0		271811.0		244762.0		27049.0
140586.0		153683.0		140586.0		13097.0
61076.0		65032.0		61076.0		3956.0
12779.0		13350.0		12779.0		571.0
5868.0		6064.0		5868.0		196.0
2624.0		2677.0		2624.0		53.0
1348.0		1382.0		1348.0		34.0
1450.0		1474.0		1450.0		24.0
0.80<|#eta|<1.15
140405.0		171975.0		140405.0		31570.0
266556.0		315206.0		266556.0		48650.0
450920.0		524724.0		450920.0		73804.0
579613.0		666298.0		579613.0		86685.0
378413.0		429478.0		378413.0		51065.0
222859.0		244041.0		222859.0		21182.0
95471.0		101765.0		95471.0		6294.0
20092.0		21209.0		20092.0		1117.0
9702.0		9926.0		9702.0		224.0
4165.0		4296.0		4165.0		131.0
2116.0		2128.0		2116.0		12.0
2335.0		2379.0		2335.0		44.0
1.15<|#eta|<1.37
76088.0		100792.0		76088.0		24704.0
136852.0		172225.0		136852.0		35373.0
230900.0		280205.0		230900.0		49305.0
310697.0		372976.0		310697.0		62279.0
214474.0		239568.0		214474.0		25094.0
123883.0		136699.0		123883.0		12816.0
53571.0		57292.0		53571.0		3721.0
11225.0		11767.0		11225.0		542.0
5282.0		5411.0		5282.0		129.0
2411.0		2469.0		2411.0		58.0
1188.0		1213.0		1188.0		25.0
1276.0		1314.0		1276.0		38.0
1.52<|#eta|<1.81
97446.0		118965.0		97446.0		21519.0
156477.0		190841.0		156477.0		34364.0
240012.0		288987.0		240012.0		48975.0
313404.0		368565.0		313404.0		55161.0
229073.0		255295.0		229073.0		26222.0
135673.0		147273.0		135673.0		11600.0
55988.0		60984.0		55988.0		4996.0
11337.0		12044.0		11337.0		707.0
5382.0		5568.0		5382.0		186.0
2279.0		2346.0		2279.0		67.0
1191.0		1220.0		1191.0		29.0
1279.0		1317.0		1279.0		38.0
1.81<|#eta|<2.01
70026.0		77253.0		70026.0		7227.0
111713.0		123961.0		111713.0		12248.0
160666.0		176713.0		160666.0		16047.0
201868.0		220812.0		201868.0		18944.0
137758.0		147443.0		137758.0		9685.0
77896.0		82446.0		77896.0		4550.0
32325.0		34331.0		32325.0		2006.0
6461.0		6972.0		6461.0		511.0
2920.0		3009.0		2920.0		89.0
1189.0		1239.0		1189.0		50.0
580.0		609.0		580.0		29.0
525.0		549.0		525.0		24.0
2.01<|#eta|<2.37
123861.0		138377.0		123861.0		14516.0
193133.0		214201.0		193133.0		21068.0
257803.0		282456.0		257803.0		24653.0
294570.0		324092.0		294570.0		29522.0
192195.0		209451.0		192195.0		17256.0
103746.0		115298.0		103746.0		11552.0
43445.0		47173.0		43445.0		3728.0
8755.0		9469.0		8755.0		714.0
3840.0		4046.0		3840.0		206.0
1509.0		1609.0		1509.0		100.0
735.0		791.0		735.0		56.0
645.0		698.0		645.0		53.0
