0.00<|#eta|<0.60
283216.0		355753.0		283216.0		72537.0
521105.0		631542.0		521105.0		110437.0
824474.0		968210.0		824474.0		143742.0
1096980.0		1267390.0		1096980.0		170423.0
753472.0		847912.0		753472.0		94440.0
437960.0		480297.0		437960.0		42337.0
192779.0		205827.0		192779.0		13048.0
41188.0		43062.0		41188.0		1874.0
18630.0		19265.0		18630.0		635.0
8310.0		8522.0		8310.0		212.0
4190.0		4299.0		4190.0		109.0
4453.0		4662.0		4453.0		209.0
0.60<|#eta|<0.80
79421.0		98620.0		79421.0		19199.0
166869.0		203945.0		166869.0		37076.0
285047.0		328245.0		285047.0		43198.0
351264.0		404244.0		351264.0		52980.0
246785.0		271811.0		246785.0		25026.0
141168.0		153683.0		141168.0		12515.0
61165.0		65032.0		61165.0		3867.0
12658.0		13350.0		12658.0		692.0
5864.0		6064.0		5864.0		200.0
2634.0		2677.0		2634.0		43.0
1345.0		1382.0		1345.0		37.0
1453.0		1474.0		1453.0		21.0
0.80<|#eta|<1.15
140228.0		171975.0		140228.0		31747.0
265917.0		315206.0		265917.0		49289.0
453802.0		524724.0		453802.0		70922.0
587050.0		666298.0		587050.0		79248.0
381373.0		429478.0		381373.0		48105.0
220015.0		244041.0		220015.0		24026.0
95245.0		101765.0		95245.0		6520.0
20023.0		21209.0		20023.0		1186.0
9729.0		9926.0		9729.0		197.0
4186.0		4296.0		4186.0		110.0
2112.0		2128.0		2112.0		16.0
2357.0		2379.0		2357.0		22.0
1.15<|#eta|<1.37
77108.0		100792.0		77108.0		23684.0
138136.0		172225.0		138136.0		34089.0
234036.0		280205.0		234036.0		46169.0
315977.0		372976.0		315977.0		56999.0
213833.0		239568.0		213833.0		25735.0
122059.0		136699.0		122059.0		14640.0
53144.0		57292.0		53144.0		4148.0
11199.0		11767.0		11199.0		568.0
5279.0		5411.0		5279.0		132.0
2411.0		2469.0		2411.0		58.0
1189.0		1213.0		1189.0		24.0
1271.0		1314.0		1271.0		43.0
1.52<|#eta|<1.81
97029.0		118965.0		97029.0		21936.0
157201.0		190841.0		157201.0		33640.0
241531.0		288987.0		241531.0		47456.0
316211.0		368565.0		316211.0		52354.0
229414.0		255295.0		229414.0		25881.0
133960.0		147273.0		133960.0		13313.0
55616.0		60984.0		55616.0		5368.0
11296.0		12044.0		11296.0		748.0
5369.0		5568.0		5369.0		199.0
2291.0		2346.0		2291.0		55.0
1188.0		1220.0		1188.0		32.0
1281.0		1317.0		1281.0		36.0
1.81<|#eta|<2.01
70039.0		77253.0		70039.0		7214.0
111986.0		123961.0		111986.0		11975.0
161573.0		176713.0		161573.0		15140.0
201450.0		220812.0		201450.0		19362.0
138359.0		147443.0		138359.0		9084.0
77348.0		82446.0		77348.0		5098.0
32219.0		34331.0		32219.0		2112.0
6466.0		6972.0		6466.0		506.0
2917.0		3009.0		2917.0		92.0
1197.0		1239.0		1197.0		42.0
583.0		609.0		583.0		26.0
527.0		549.0		527.0		22.0
2.01<|#eta|<2.37
123654.0		138377.0		123654.0		14723.0
193508.0		214201.0		193508.0		20693.0
257792.0		282456.0		257792.0		24664.0
294384.0		324092.0		294384.0		29708.0
191875.0		209451.0		191875.0		17576.0
103836.0		115298.0		103836.0		11462.0
43417.0		47173.0		43417.0		3756.0
8799.0		9469.0		8799.0		670.0
3854.0		4046.0		3854.0		192.0
1508.0		1609.0		1508.0		101.0
738.0		791.0		738.0		53.0
647.0		698.0		647.0		51.0
