0.00<|#eta|<0.60
281514.0		355753.0		281514.0		74239.0
522994.0		631542.0		522994.0		108548.0
823637.0		968210.0		823637.0		144579.0
1091650.0		1267390.0		1091650.0		175749.0
750236.0		847912.0		750236.0		97676.0
435962.0		480297.0		435962.0		44335.0
193049.0		205827.0		193049.0		12778.0
41174.0		43062.0		41174.0		1888.0
18610.0		19265.0		18610.0		655.0
8317.0		8522.0		8317.0		205.0
4190.0		4299.0		4190.0		109.0
4436.0		4662.0		4436.0		226.0
0.60<|#eta|<0.80
77943.0		98620.0		77943.0		20677.0
168661.0		203945.0		168661.0		35284.0
284258.0		328245.0		284258.0		43987.0
354446.0		404244.0		354446.0		49798.0
243709.0		271811.0		243709.0		28102.0
141202.0		153683.0		141202.0		12481.0
61277.0		65032.0		61277.0		3755.0
12787.0		13350.0		12787.0		563.0
5893.0		6064.0		5893.0		171.0
2637.0		2677.0		2637.0		40.0
1333.0		1382.0		1333.0		49.0
1441.0		1474.0		1441.0		33.0
0.80<|#eta|<1.15
140773.0		171975.0		140773.0		31202.0
267015.0		315206.0		267015.0		48191.0
457466.0		524724.0		457466.0		67258.0
587479.0		666298.0		587479.0		78819.0
381843.0		429478.0		381843.0		47635.0
219428.0		244041.0		219428.0		24613.0
95109.0		101765.0		95109.0		6656.0
20142.0		21209.0		20142.0		1067.0
9677.0		9926.0		9677.0		249.0
4182.0		4296.0		4182.0		114.0
2108.0		2128.0		2108.0		20.0
2346.0		2379.0		2346.0		33.0
1.15<|#eta|<1.37
76977.0		100792.0		76977.0		23815.0
137572.0		172225.0		137572.0		34653.0
234307.0		280205.0		234307.0		45898.0
317405.0		372976.0		317405.0		55571.0
214519.0		239568.0		214519.0		25049.0
121538.0		136699.0		121538.0		15161.0
53260.0		57292.0		53260.0		4032.0
11168.0		11767.0		11168.0		599.0
5321.0		5411.0		5321.0		90.0
2385.0		2469.0		2385.0		84.0
1189.0		1213.0		1189.0		24.0
1270.0		1314.0		1270.0		44.0
1.52<|#eta|<1.81
96592.0		118965.0		96592.0		22373.0
157913.0		190841.0		157913.0		32928.0
242751.0		288987.0		242751.0		46236.0
317370.0		368565.0		317370.0		51195.0
229996.0		255295.0		229996.0		25299.0
133954.0		147273.0		133954.0		13319.0
55728.0		60984.0		55728.0		5256.0
11298.0		12044.0		11298.0		746.0
5387.0		5568.0		5387.0		181.0
2281.0		2346.0		2281.0		65.0
1190.0		1220.0		1190.0		30.0
1279.0		1317.0		1279.0		38.0
1.81<|#eta|<2.01
70237.0		77253.0		70237.0		7016.0
111037.0		123961.0		111037.0		12924.0
162484.0		176713.0		162484.0		14229.0
202517.0		220812.0		202517.0		18295.0
138783.0		147443.0		138783.0		8660.0
77456.0		82446.0		77456.0		4990.0
32221.0		34331.0		32221.0		2110.0
6481.0		6972.0		6481.0		491.0
2890.0		3009.0		2890.0		119.0
1185.0		1239.0		1185.0		54.0
580.0		609.0		580.0		29.0
526.0		549.0		526.0		23.0
2.01<|#eta|<2.37
123857.0		138377.0		123857.0		14520.0
192775.0		214201.0		192775.0		21426.0
258683.0		282456.0		258683.0		23773.0
294107.0		324092.0		294107.0		29985.0
192032.0		209451.0		192032.0		17419.0
103930.0		115298.0		103930.0		11368.0
43419.0		47173.0		43419.0		3754.0
8787.0		9469.0		8787.0		682.0
3858.0		4046.0		3858.0		188.0
1499.0		1609.0		1499.0		110.0
741.0		791.0		741.0		50.0
665.0		698.0		665.0		33.0
