0.00<|#eta|<0.60
284237.0		355753.0		284237.0		71516.0
517992.0		631542.0		517992.0		113550.0
826888.0		968210.0		826888.0		141328.0
1091020.0		1267390.0		1091020.0		176372.0
749736.0		847912.0		749736.0		98176.0
434687.0		480297.0		434687.0		45610.0
193336.0		205827.0		193336.0		12491.0
41303.0		43062.0		41303.0		1759.0
18647.0		19265.0		18647.0		618.0
8328.0		8522.0		8328.0		194.0
4183.0		4299.0		4183.0		116.0
4419.0		4662.0		4419.0		243.0
0.60<|#eta|<0.80
76859.0		98620.0		76859.0		21761.0
165708.0		203945.0		165708.0		38237.0
279824.0		328245.0		279824.0		48421.0
352200.0		404244.0		352200.0		52044.0
245059.0		271811.0		245059.0		26752.0
140827.0		153683.0		140827.0		12856.0
60930.0		65032.0		60930.0		4102.0
12760.0		13350.0		12760.0		590.0
5870.0		6064.0		5870.0		194.0
2643.0		2677.0		2643.0		34.0
1341.0		1382.0		1341.0		41.0
1434.0		1474.0		1434.0		40.0
0.80<|#eta|<1.15
136072.0		171975.0		136072.0		35903.0
258543.0		315206.0		258543.0		56663.0
456165.0		524724.0		456165.0		68559.0
585357.0		666298.0		585357.0		80941.0
381788.0		429478.0		381788.0		47690.0
219388.0		244041.0		219388.0		24653.0
94892.0		101765.0		94892.0		6873.0
20044.0		21209.0		20044.0		1165.0
9715.0		9926.0		9715.0		211.0
4215.0		4296.0		4215.0		81.0
2103.0		2128.0		2103.0		25.0
2325.0		2379.0		2325.0		54.0
1.15<|#eta|<1.37
74627.0		100792.0		74627.0		26165.0
134394.0		172225.0		134394.0		37831.0
234669.0		280205.0		234669.0		45536.0
315611.0		372976.0		315611.0		57365.0
214341.0		239568.0		214341.0		25227.0
121179.0		136699.0		121179.0		15520.0
53359.0		57292.0		53359.0		3933.0
11190.0		11767.0		11190.0		577.0
5273.0		5411.0		5273.0		138.0
2399.0		2469.0		2399.0		70.0
1189.0		1213.0		1189.0		24.0
1267.0		1314.0		1267.0		47.0
1.52<|#eta|<1.81
95316.0		118965.0		95316.0		23649.0
154385.0		190841.0		154385.0		36456.0
242060.0		288987.0		242060.0		46927.0
315581.0		368565.0		315581.0		52984.0
229237.0		255295.0		229237.0		26058.0
134004.0		147273.0		134004.0		13269.0
55542.0		60984.0		55542.0		5442.0
11331.0		12044.0		11331.0		713.0
5378.0		5568.0		5378.0		190.0
2287.0		2346.0		2287.0		59.0
1185.0		1220.0		1185.0		35.0
1281.0		1317.0		1281.0		36.0
1.81<|#eta|<2.01
69923.0		77253.0		69923.0		7330.0
110917.0		123961.0		110917.0		13044.0
162608.0		176713.0		162608.0		14105.0
202295.0		220812.0		202295.0		18517.0
138828.0		147443.0		138828.0		8615.0
77424.0		82446.0		77424.0		5022.0
32288.0		34331.0		32288.0		2043.0
6469.0		6972.0		6469.0		503.0
2911.0		3009.0		2911.0		98.0
1196.0		1239.0		1196.0		43.0
581.0		609.0		581.0		28.0
522.0		549.0		522.0		27.0
2.01<|#eta|<2.37
123016.0		138377.0		123016.0		15361.0
192868.0		214201.0		192868.0		21333.0
257904.0		282456.0		257904.0		24552.0
294510.0		324092.0		294510.0		29582.0
191943.0		209451.0		191943.0		17508.0
103916.0		115298.0		103916.0		11382.0
43430.0		47173.0		43430.0		3743.0
8816.0		9469.0		8816.0		653.0
3850.0		4046.0		3850.0		196.0
1523.0		1609.0		1523.0		86.0
737.0		791.0		737.0		54.0
673.0		698.0		673.0		25.0
