0.00<|#eta|<0.60
280119.0		355753.0		280119.0		75634.0
517431.0		631542.0		517431.0		114111.0
823492.0		968210.0		823492.0		144724.0
1097060.0		1267390.0		1097060.0		170341.0
755560.0		847912.0		755560.0		92352.0
439201.0		480297.0		439201.0		41096.0
191680.0		205827.0		191680.0		14147.0
40876.0		43062.0		40876.0		2186.0
18499.0		19265.0		18499.0		766.0
8288.0		8522.0		8288.0		234.0
4163.0		4299.0		4163.0		136.0
4397.0		4662.0		4397.0		265.0
0.60<|#eta|<0.80
78007.0		98620.0		78007.0		20613.0
168829.0		203945.0		168829.0		35116.0
281888.0		328245.0		281888.0		46357.0
351497.0		404244.0		351497.0		52747.0
245677.0		271811.0		245677.0		26134.0
141208.0		153683.0		141208.0		12475.0
61596.0		65032.0		61596.0		3436.0
12709.0		13350.0		12709.0		641.0
5881.0		6064.0		5881.0		183.0
2617.0		2677.0		2617.0		60.0
1348.0		1382.0		1348.0		34.0
1440.0		1474.0		1440.0		34.0
0.80<|#eta|<1.15
141891.0		171975.0		141891.0		30084.0
265200.0		315206.0		265200.0		50006.0
451765.0		524724.0		451765.0		72959.0
580354.0		666298.0		580354.0		85944.0
379275.0		429478.0		379275.0		50203.0
222918.0		244041.0		222918.0		21123.0
95440.0		101765.0		95440.0		6325.0
20185.0		21209.0		20185.0		1024.0
9718.0		9926.0		9718.0		208.0
4191.0		4296.0		4191.0		105.0
2101.0		2128.0		2101.0		27.0
2325.0		2379.0		2325.0		54.0
1.15<|#eta|<1.37
76343.0		100792.0		76343.0		24449.0
135351.0		172225.0		135351.0		36874.0
231574.0		280205.0		231574.0		48631.0
312488.0		372976.0		312488.0		60488.0
213237.0		239568.0		213237.0		26331.0
123865.0		136699.0		123865.0		12834.0
53809.0		57292.0		53809.0		3483.0
11252.0		11767.0		11252.0		515.0
5292.0		5411.0		5292.0		119.0
2424.0		2469.0		2424.0		45.0
1181.0		1213.0		1181.0		32.0
1263.0		1314.0		1263.0		51.0
1.52<|#eta|<1.81
97120.0		118965.0		97120.0		21845.0
157067.0		190841.0		157067.0		33774.0
239215.0		288987.0		239215.0		49772.0
314204.0		368565.0		314204.0		54361.0
228435.0		255295.0		228435.0		26860.0
135525.0		147273.0		135525.0		11748.0
55953.0		60984.0		55953.0		5031.0
11347.0		12044.0		11347.0		697.0
5399.0		5568.0		5399.0		169.0
2284.0		2346.0		2284.0		62.0
1192.0		1220.0		1192.0		28.0
1275.0		1317.0		1275.0		42.0
1.81<|#eta|<2.01
70252.0		77253.0		70252.0		7001.0
111252.0		123961.0		111252.0		12709.0
161750.0		176713.0		161750.0		14963.0
200614.0		220812.0		200614.0		20198.0
138398.0		147443.0		138398.0		9045.0
77822.0		82446.0		77822.0		4624.0
32401.0		34331.0		32401.0		1930.0
6469.0		6972.0		6469.0		503.0
2921.0		3009.0		2921.0		88.0
1189.0		1239.0		1189.0		50.0
569.0		609.0		569.0		40.0
524.0		549.0		524.0		25.0
2.01<|#eta|<2.37
123713.0		138377.0		123713.0		14664.0
193265.0		214201.0		193265.0		20936.0
257985.0		282456.0		257985.0		24471.0
293236.0		324092.0		293236.0		30856.0
192547.0		209451.0		192547.0		16904.0
103786.0		115298.0		103786.0		11512.0
43471.0		47173.0		43471.0		3702.0
8781.0		9469.0		8781.0		688.0
3859.0		4046.0		3859.0		187.0
1517.0		1609.0		1517.0		92.0
741.0		791.0		741.0		50.0
648.0		698.0		648.0		50.0
