0.00<|#eta|<0.60
279287.0		355753.0		279287.0		76466.0
521049.0		631542.0		521049.0		110493.0
814523.0		968210.0		814523.0		153693.0
1093960.0		1267390.0		1093960.0		173439.0
756319.0		847912.0		756319.0		91593.0
434658.0		480297.0		434658.0		45639.0
192450.0		205827.0		192450.0		13377.0
40756.0		43062.0		40756.0		2306.0
18537.0		19265.0		18537.0		728.0
8299.0		8522.0		8299.0		223.0
4178.0		4299.0		4178.0		121.0
4412.0		4662.0		4412.0		250.0
0.60<|#eta|<0.80
79344.0		98620.0		79344.0		19276.0
167493.0		203945.0		167493.0		36452.0
283988.0		328245.0		283988.0		44257.0
354411.0		404244.0		354411.0		49833.0
245952.0		271811.0		245952.0		25859.0
140825.0		153683.0		140825.0		12858.0
61416.0		65032.0		61416.0		3616.0
12655.0		13350.0		12655.0		695.0
5921.0		6064.0		5921.0		143.0
2602.0		2677.0		2602.0		75.0
1343.0		1382.0		1343.0		39.0
1428.0		1474.0		1428.0		46.0
0.80<|#eta|<1.15
141221.0		171975.0		141221.0		30754.0
263200.0		315206.0		263200.0		52006.0
458787.0		524724.0		458787.0		65937.0
591096.0		666298.0		591096.0		75202.0
385172.0		429478.0		385172.0		44306.0
219022.0		244041.0		219022.0		25019.0
95195.0		101765.0		95195.0		6570.0
20042.0		21209.0		20042.0		1167.0
9705.0		9926.0		9705.0		221.0
4168.0		4296.0		4168.0		128.0
2101.0		2128.0		2101.0		27.0
2346.0		2379.0		2346.0		33.0
1.15<|#eta|<1.37
77559.0		100792.0		77559.0		23233.0
137322.0		172225.0		137322.0		34903.0
234336.0		280205.0		234336.0		45869.0
318214.0		372976.0		318214.0		54762.0
215484.0		239568.0		215484.0		24084.0
121151.0		136699.0		121151.0		15548.0
53587.0		57292.0		53587.0		3705.0
11271.0		11767.0		11271.0		496.0
5290.0		5411.0		5290.0		121.0
2443.0		2469.0		2443.0		26.0
1188.0		1213.0		1188.0		25.0
1261.0		1314.0		1261.0		53.0
1.52<|#eta|<1.81
97648.0		118965.0		97648.0		21317.0
157755.0		190841.0		157755.0		33086.0
244834.0		288987.0		244834.0		44153.0
318253.0		368565.0		318253.0		50312.0
231177.0		255295.0		231177.0		24118.0
133701.0		147273.0		133701.0		13572.0
55674.0		60984.0		55674.0		5310.0
11302.0		12044.0		11302.0		742.0
5390.0		5568.0		5390.0		178.0
2277.0		2346.0		2277.0		69.0
1187.0		1220.0		1187.0		33.0
1284.0		1317.0		1284.0		33.0
1.81<|#eta|<2.01
70117.0		77253.0		70117.0		7136.0
111423.0		123961.0		111423.0		12538.0
164149.0		176713.0		164149.0		12564.0
203373.0		220812.0		203373.0		17439.0
139161.0		147443.0		139161.0		8282.0
77237.0		82446.0		77237.0		5209.0
32387.0		34331.0		32387.0		1944.0
6514.0		6972.0		6514.0		458.0
2920.0		3009.0		2920.0		89.0
1188.0		1239.0		1188.0		51.0
578.0		609.0		578.0		31.0
526.0		549.0		526.0		23.0
2.01<|#eta|<2.37
123803.0		138377.0		123803.0		14574.0
192004.0		214201.0		192004.0		22197.0
258542.0		282456.0		258542.0		23914.0
293964.0		324092.0		293964.0		30128.0
191924.0		209451.0		191924.0		17527.0
103989.0		115298.0		103989.0		11309.0
43359.0		47173.0		43359.0		3814.0
8784.0		9469.0		8784.0		685.0
3854.0		4046.0		3854.0		192.0
1527.0		1609.0		1527.0		82.0
739.0		791.0		739.0		52.0
648.0		698.0		648.0		50.0
