0.00<|#eta|<0.60
281063.0		355753.0		281063.0		74690.0
518018.0		631542.0		518018.0		113524.0
820188.0		968210.0		820188.0		148028.0
1092280.0		1267390.0		1092280.0		175108.0
755708.0		847912.0		755708.0		92204.0
440202.0		480297.0		440202.0		40095.0
191212.0		205827.0		191212.0		14615.0
41339.0		43062.0		41339.0		1723.0
18576.0		19265.0		18576.0		689.0
8296.0		8522.0		8296.0		226.0
4199.0		4299.0		4199.0		100.0
4424.0		4662.0		4424.0		238.0
0.60<|#eta|<0.80
79348.0		98620.0		79348.0		19272.0
169517.0		203945.0		169517.0		34428.0
282156.0		328245.0		282156.0		46089.0
350747.0		404244.0		350747.0		53497.0
243615.0		271811.0		243615.0		28196.0
141803.0		153683.0		141803.0		11880.0
61467.0		65032.0		61467.0		3565.0
12817.0		13350.0		12817.0		533.0
5875.0		6064.0		5875.0		189.0
2605.0		2677.0		2605.0		72.0
1344.0		1382.0		1344.0		38.0
1444.0		1474.0		1444.0		30.0
0.80<|#eta|<1.15
137257.0		171975.0		137257.0		34718.0
259567.0		315206.0		259567.0		55639.0
444194.0		524724.0		444194.0		80530.0
575341.0		666298.0		575341.0		90957.0
377077.0		429478.0		377077.0		52401.0
223988.0		244041.0		223988.0		20053.0
95133.0		101765.0		95133.0		6632.0
19949.0		21209.0		19949.0		1260.0
9692.0		9926.0		9692.0		234.0
4140.0		4296.0		4140.0		156.0
2107.0		2128.0		2107.0		21.0
2326.0		2379.0		2326.0		53.0
1.15<|#eta|<1.37
75972.0		100792.0		75972.0		24820.0
133668.0		172225.0		133668.0		38557.0
228827.0		280205.0		228827.0		51378.0
306445.0		372976.0		306445.0		66531.0
211377.0		239568.0		211377.0		28191.0
124791.0		136699.0		124791.0		11908.0
53577.0		57292.0		53577.0		3715.0
11183.0		11767.0		11183.0		584.0
5295.0		5411.0		5295.0		116.0
2403.0		2469.0		2403.0		66.0
1182.0		1213.0		1182.0		31.0
1261.0		1314.0		1261.0		53.0
1.52<|#eta|<1.81
96272.0		118965.0		96272.0		22693.0
155219.0		190841.0		155219.0		35622.0
236847.0		288987.0		236847.0		52140.0
308686.0		368565.0		308686.0		59879.0
227842.0		255295.0		227842.0		27453.0
136410.0		147273.0		136410.0		10863.0
55785.0		60984.0		55785.0		5199.0
11285.0		12044.0		11285.0		759.0
5356.0		5568.0		5356.0		212.0
2288.0		2346.0		2288.0		58.0
1186.0		1220.0		1186.0		34.0
1277.0		1317.0		1277.0		40.0
1.81<|#eta|<2.01
69843.0		77253.0		69843.0		7410.0
110496.0		123961.0		110496.0		13465.0
161717.0		176713.0		161717.0		14996.0
200504.0		220812.0		200504.0		20308.0
137959.0		147443.0		137959.0		9484.0
78126.0		82446.0		78126.0		4320.0
32473.0		34331.0		32473.0		1858.0
6475.0		6972.0		6475.0		497.0
2907.0		3009.0		2907.0		102.0
1180.0		1239.0		1180.0		59.0
578.0		609.0		578.0		31.0
526.0		549.0		526.0		23.0
2.01<|#eta|<2.37
123210.0		138377.0		123210.0		15167.0
193156.0		214201.0		193156.0		21045.0
258232.0		282456.0		258232.0		24224.0
294567.0		324092.0		294567.0		29525.0
191955.0		209451.0		191955.0		17496.0
103774.0		115298.0		103774.0		11524.0
43434.0		47173.0		43434.0		3739.0
8785.0		9469.0		8785.0		684.0
3831.0		4046.0		3831.0		215.0
1511.0		1609.0		1511.0		98.0
723.0		791.0		723.0		68.0
649.0		698.0		649.0		49.0
