0.00<|#eta|<0.60
283353.0		355753.0		283353.0		72400.0
522590.0		631542.0		522590.0		108952.0
824190.0		968210.0		824190.0		144026.0
1094990.0		1267390.0		1094990.0		172399.0
756582.0		847912.0		756582.0		91330.0
436592.0		480297.0		436592.0		43705.0
192876.0		205827.0		192876.0		12951.0
41128.0		43062.0		41128.0		1934.0
18557.0		19265.0		18557.0		708.0
8310.0		8522.0		8310.0		212.0
4205.0		4299.0		4205.0		94.0
4492.0		4662.0		4492.0		170.0
0.60<|#eta|<0.80
77907.0		98620.0		77907.0		20713.0
169006.0		203945.0		169006.0		34939.0
282241.0		328245.0		282241.0		46004.0
354011.0		404244.0		354011.0		50233.0
245841.0		271811.0		245841.0		25970.0
141481.0		153683.0		141481.0		12202.0
61215.0		65032.0		61215.0		3817.0
12722.0		13350.0		12722.0		628.0
5878.0		6064.0		5878.0		186.0
2615.0		2677.0		2615.0		62.0
1354.0		1382.0		1354.0		28.0
1448.0		1474.0		1448.0		26.0
0.80<|#eta|<1.15
140992.0		171975.0		140992.0		30983.0
268396.0		315206.0		268396.0		46810.0
452590.0		524724.0		452590.0		72134.0
587072.0		666298.0		587072.0		79226.0
383000.0		429478.0		383000.0		46478.0
220269.0		244041.0		220269.0		23772.0
95208.0		101765.0		95208.0		6557.0
20084.0		21209.0		20084.0		1125.0
9711.0		9926.0		9711.0		215.0
4155.0		4296.0		4155.0		141.0
2116.0		2128.0		2116.0		12.0
2341.0		2379.0		2341.0		38.0
1.15<|#eta|<1.37
77011.0		100792.0		77011.0		23781.0
136039.0		172225.0		136039.0		36186.0
233871.0		280205.0		233871.0		46334.0
316040.0		372976.0		316040.0		56936.0
215148.0		239568.0		215148.0		24420.0
121622.0		136699.0		121622.0		15077.0
53110.0		57292.0		53110.0		4182.0
11159.0		11767.0		11159.0		608.0
5285.0		5411.0		5285.0		126.0
2434.0		2469.0		2434.0		35.0
1189.0		1213.0		1189.0		24.0
1280.0		1314.0		1280.0		34.0
1.52<|#eta|<1.81
96537.0		118965.0		96537.0		22428.0
156755.0		190841.0		156755.0		34086.0
241191.0		288987.0		241191.0		47796.0
316719.0		368565.0		316719.0		51846.0
230114.0		255295.0		230114.0		25181.0
134131.0		147273.0		134131.0		13142.0
55380.0		60984.0		55380.0		5604.0
11315.0		12044.0		11315.0		729.0
5328.0		5568.0		5328.0		240.0
2286.0		2346.0		2286.0		60.0
1190.0		1220.0		1190.0		30.0
1282.0		1317.0		1282.0		35.0
1.81<|#eta|<2.01
70484.0		77253.0		70484.0		6769.0
110504.0		123961.0		110504.0		13457.0
162555.0		176713.0		162555.0		14158.0
201691.0		220812.0		201691.0		19121.0
138348.0		147443.0		138348.0		9095.0
77296.0		82446.0		77296.0		5150.0
32227.0		34331.0		32227.0		2104.0
6495.0		6972.0		6495.0		477.0
2902.0		3009.0		2902.0		107.0
1188.0		1239.0		1188.0		51.0
579.0		609.0		579.0		30.0
526.0		549.0		526.0		23.0
2.01<|#eta|<2.37
123151.0		138377.0		123151.0		15226.0
192244.0		214201.0		192244.0		21957.0
258195.0		282456.0		258195.0		24261.0
294152.0		324092.0		294152.0		29940.0
192276.0		209451.0		192276.0		17175.0
103769.0		115298.0		103769.0		11529.0
43467.0		47173.0		43467.0		3706.0
8776.0		9469.0		8776.0		693.0
3838.0		4046.0		3838.0		208.0
1506.0		1609.0		1506.0		103.0
734.0		791.0		734.0		57.0
664.0		698.0		664.0		34.0
