0.00<|#eta|<0.60
284961.0		355753.0		284961.0		70792.0
519096.0		631542.0		519096.0		112446.0
829238.0		968210.0		829238.0		138978.0
1093460.0		1267390.0		1093460.0		173948.0
758335.0		847912.0		758335.0		89577.0
437608.0		480297.0		437608.0		42689.0
193294.0		205827.0		193294.0		12533.0
41428.0		43062.0		41428.0		1634.0
18571.0		19265.0		18571.0		694.0
8339.0		8522.0		8339.0		183.0
4191.0		4299.0		4191.0		108.0
4407.0		4662.0		4407.0		255.0
0.60<|#eta|<0.80
77388.0		98620.0		77388.0		21232.0
167187.0		203945.0		167187.0		36758.0
281517.0		328245.0		281517.0		46728.0
353655.0		404244.0		353655.0		50589.0
245068.0		271811.0		245068.0		26743.0
141068.0		153683.0		141068.0		12615.0
61070.0		65032.0		61070.0		3962.0
12769.0		13350.0		12769.0		581.0
5871.0		6064.0		5871.0		193.0
2627.0		2677.0		2627.0		50.0
1349.0		1382.0		1349.0		33.0
1441.0		1474.0		1441.0		33.0
0.80<|#eta|<1.15
137330.0		171975.0		137330.0		34645.0
261341.0		315206.0		261341.0		53865.0
451357.0		524724.0		451357.0		73367.0
582210.0		666298.0		582210.0		84088.0
379345.0		429478.0		379345.0		50133.0
218683.0		244041.0		218683.0		25358.0
94661.0		101765.0		94661.0		7104.0
20084.0		21209.0		20084.0		1125.0
9674.0		9926.0		9674.0		252.0
4189.0		4296.0		4189.0		107.0
2105.0		2128.0		2105.0		23.0
2330.0		2379.0		2330.0		49.0
1.15<|#eta|<1.37
75155.0		100792.0		75155.0		25637.0
134793.0		172225.0		134793.0		37432.0
231968.0		280205.0		231968.0		48237.0
312519.0		372976.0		312519.0		60457.0
213227.0		239568.0		213227.0		26341.0
121814.0		136699.0		121814.0		14885.0
53221.0		57292.0		53221.0		4071.0
11200.0		11767.0		11200.0		567.0
5305.0		5411.0		5305.0		106.0
2403.0		2469.0		2403.0		66.0
1185.0		1213.0		1185.0		28.0
1264.0		1314.0		1264.0		50.0
1.52<|#eta|<1.81
95500.0		118965.0		95500.0		23465.0
152670.0		190841.0		152670.0		38171.0
239707.0		288987.0		239707.0		49280.0
312905.0		368565.0		312905.0		55660.0
227995.0		255295.0		227995.0		27300.0
133932.0		147273.0		133932.0		13341.0
55597.0		60984.0		55597.0		5387.0
11301.0		12044.0		11301.0		743.0
5349.0		5568.0		5349.0		219.0
2283.0		2346.0		2283.0		63.0
1186.0		1220.0		1186.0		34.0
1283.0		1317.0		1283.0		34.0
1.81<|#eta|<2.01
69848.0		77253.0		69848.0		7405.0
109569.0		123961.0		109569.0		14392.0
161946.0		176713.0		161946.0		14767.0
201049.0		220812.0		201049.0		19763.0
137834.0		147443.0		137834.0		9609.0
77329.0		82446.0		77329.0		5117.0
32321.0		34331.0		32321.0		2010.0
6464.0		6972.0		6464.0		508.0
2906.0		3009.0		2906.0		103.0
1200.0		1239.0		1200.0		39.0
580.0		609.0		580.0		29.0
524.0		549.0		524.0		25.0
2.01<|#eta|<2.37
123882.0		138377.0		123882.0		14495.0
192368.0		214201.0		192368.0		21833.0
257464.0		282456.0		257464.0		24992.0
293064.0		324092.0		293064.0		31028.0
191839.0		209451.0		191839.0		17612.0
103867.0		115298.0		103867.0		11431.0
43506.0		47173.0		43506.0		3667.0
8750.0		9469.0		8750.0		719.0
3861.0		4046.0		3861.0		185.0
1509.0		1609.0		1509.0		100.0
733.0		791.0		733.0		58.0
650.0		698.0		650.0		48.0
