0.00<|#eta|<0.60
278328.0		355753.0		278328.0		77425.0
520995.0		631542.0		520995.0		110547.0
811882.0		968210.0		811882.0		156334.0
1092040.0		1267390.0		1092040.0		175364.0
756514.0		847912.0		756514.0		91398.0
439349.0		480297.0		439349.0		40948.0
192575.0		205827.0		192575.0		13252.0
41008.0		43062.0		41008.0		2054.0
18554.0		19265.0		18554.0		711.0
8302.0		8522.0		8302.0		220.0
4179.0		4299.0		4179.0		120.0
4460.0		4662.0		4460.0		202.0
0.60<|#eta|<0.80
77610.0		98620.0		77610.0		21010.0
167335.0		203945.0		167335.0		36610.0
276527.0		328245.0		276527.0		51718.0
349589.0		404244.0		349589.0		54655.0
246644.0		271811.0		246644.0		25167.0
140104.0		153683.0		140104.0		13579.0
61194.0		65032.0		61194.0		3838.0
12773.0		13350.0		12773.0		577.0
5911.0		6064.0		5911.0		153.0
2587.0		2677.0		2587.0		90.0
1357.0		1382.0		1357.0		25.0
1448.0		1474.0		1448.0		26.0
0.80<|#eta|<1.15
142564.0		171975.0		142564.0		29411.0
264374.0		315206.0		264374.0		50832.0
447042.0		524724.0		447042.0		77682.0
572118.0		666298.0		572118.0		94180.0
377472.0		429478.0		377472.0		52006.0
219703.0		244041.0		219703.0		24338.0
94956.0		101765.0		94956.0		6809.0
20142.0		21209.0		20142.0		1067.0
9724.0		9926.0		9724.0		202.0
4164.0		4296.0		4164.0		132.0
2105.0		2128.0		2105.0		23.0
2328.0		2379.0		2328.0		51.0
1.15<|#eta|<1.37
77467.0		100792.0		77467.0		23325.0
135806.0		172225.0		135806.0		36419.0
228573.0		280205.0		228573.0		51632.0
306819.0		372976.0		306819.0		66157.0
210605.0		239568.0		210605.0		28963.0
121612.0		136699.0		121612.0		15087.0
53464.0		57292.0		53464.0		3828.0
11230.0		11767.0		11230.0		537.0
5282.0		5411.0		5282.0		129.0
2415.0		2469.0		2415.0		54.0
1187.0		1213.0		1187.0		26.0
1263.0		1314.0		1263.0		51.0
1.52<|#eta|<1.81
97914.0		118965.0		97914.0		21051.0
157834.0		190841.0		157834.0		33007.0
236998.0		288987.0		236998.0		51989.0
309590.0		368565.0		309590.0		58975.0
227813.0		255295.0		227813.0		27482.0
134353.0		147273.0		134353.0		12920.0
55716.0		60984.0		55716.0		5268.0
11301.0		12044.0		11301.0		743.0
5388.0		5568.0		5388.0		180.0
2267.0		2346.0		2267.0		79.0
1189.0		1220.0		1189.0		31.0
1275.0		1317.0		1275.0		42.0
1.81<|#eta|<2.01
70562.0		77253.0		70562.0		6691.0
111914.0		123961.0		111914.0		12047.0
159911.0		176713.0		159911.0		16802.0
200702.0		220812.0		200702.0		20110.0
137741.0		147443.0		137741.0		9702.0
77369.0		82446.0		77369.0		5077.0
32264.0		34331.0		32264.0		2067.0
6452.0		6972.0		6452.0		520.0
2911.0		3009.0		2911.0		98.0
1188.0		1239.0		1188.0		51.0
582.0		609.0		582.0		27.0
523.0		549.0		523.0		26.0
2.01<|#eta|<2.37
123715.0		138377.0		123715.0		14662.0
193146.0		214201.0		193146.0		21055.0
258030.0		282456.0		258030.0		24426.0
293855.0		324092.0		293855.0		30237.0
192725.0		209451.0		192725.0		16726.0
103863.0		115298.0		103863.0		11435.0
43525.0		47173.0		43525.0		3648.0
8787.0		9469.0		8787.0		682.0
3851.0		4046.0		3851.0		195.0
1510.0		1609.0		1510.0		99.0
742.0		791.0		742.0		49.0
646.0		698.0		646.0		52.0
