0 < |eta| < 0.6
690013.5100000001	833777.2300000001   850709.8200000001  180430.97
1258037.19	1490674.7200000002   1555351.3699999999  292615.70399999997
1805412.7200000002	2081617.92   2234276.09  347378.29900000006
2256661.45	2559872.53   2787488.92  381425.108
1574448.9900000002	1769846.4   1951895.05  247292.01599999995
1064554.8200000003	1193238.6799999997   1325483.21  162861.557
529384.9610000001	586567.42   661707.54  73331.045
115051.86	127265.93600000002   144453.383  15205.1716
45830.753000000004	50471.25280000002   56695.92009999999  5841.94481
18705.8538	20487.0707   23281.0704  2256.564603
9246.066200000003	10084.397500000001   11454.341  1084.6623859999997
9433.209599999998	10393.961299999999   11590.25223  1188.483195588
0.6 < |eta| < 0.8
190645.07499999998	232070.18399999998   235115.25  51833.59820000001
391912.436	470180.12   483795.42600000004  98563.52200000003
604360.88	703747.8499999999   749421.4400000001  125180.005
717723.7499999999	825625.7700000001   888491.9999999999  135800.477
505081.52099999995	572416.11   625936.67  84991.222
339463.794	384984.1810000001   422688.869  57683.27389999998
168795.38	187925.96600000001   210885.92500000005  24369.7046
37257.49519999999	40929.181099999994   46456.919299999994  4524.98492
14646.4751	15905.398600000002   18236.9518  1579.4053619999997
6052.93559	6552.43814   7679.644090000001  619.6807199
2945.1657199999995	3175.6039100000003   3608.17578  285.662844
2969.2883699999993	3211.44549   3739.69348  303.38144
0.8 < |eta| < 1.15
321626.4210000001	412213.497   397490.20399999997  114053.33699999997
610116.26	743608.4000000001   756774.2200000001  167169.98
974525.26	1143348.65   1206653.89  211660.184
1201069.18	1392317.53   1486226.7199999997  237796.82
813045.12	930097.8300000001   1008288.2499999999  146567.793
555092.1560000001	627104.36   691117.7099999998  90574.829
269742.637	301019.297   338088.695  39504.2301
59009.71909999999	65507.92149999999   73568.289  8090.360890000001
24049.611599999997	26654.973700000002   30082.264199999998  3376.726479
9673.09971	10734.84577   12070.46493  1321.757889
4472.784299999999	4923.19118   5419.04335  597.4715566
4865.39294	5407.36634   6057.72123  662.7973350000001
1.15 < |eta| < 1.37
205603.12400000004	250682.536   254861.25200000007  56360.75909999999
358145.477	421493.918   443921.827  78969.49899999998
541973.284	627135.26   671011.8099999997  106418.361
705102.76	806200.5   874244.6899999998  126110.30100000002
483228.743	541612.2450000001   598381.173  72699.1555
325457.50399999996	362852.938   405216.48399999994  47134.769100000005
158090.64499999996	174571.87900000004   197976.36599999998  20905.505100000006
33559.3518	36770.10970000001   41628.1775  4046.2337899999993
14189.698199999999	15363.7394   17672.628800000002  1463.773568
5566.502290000001	6069.586990000001   6927.66491  640.9941079999999
2831.363369999999	3047.6077499999997   3565.6184200000002  231.1248367
2812.82789	3036.23423   3398.58094  284.937611
1.52 < |eta| < 1.81
229107.43799999997	288637.12700000004   283499.987  74323.4757
388857.86699999997	476278.5420000001   480997.07  109485.551
566887.599	658863.2899999999   700282.67  114336.07500000001
711100.67	823093.9400000001   878592.9500000002  139508.07600000003
514466.418	579134.907   637249.7999999999  81225.58100000002
352739.17500000005	390643.4919999999   439087.79900000006  47629.9653
168349.79599999997	183908.18699999998   209650.289  19429.707800000007
35911.71109999999	39221.7497   44785.97249999999  4187.55165
14505.217299999997	15659.4998   17765.188800000004  1475.7939554880002
5960.561369999999	6367.900689999999   7414.45406  481.9189150000001
2990.1783400000004	3193.0345999999995   3727.05861  239.49235290000004
2991.81654	3180.75322   3606.9175299999997  239.339118
1.81 < |eta| < 2.01
147161.88199999998	188975.70999999996   181746.72800000003  52394.5622
243894.56699999995	303771.39200000005   300772.638  74852.66600000001
334194.80200000014	397142.63300000003   412050.66399999993  79116.89799999999
414730.537	488898.6760000001   510817.343  93403.226
279030.1919999999	328558.89499999996   343562.981  61874.108100000005
184002.07100000003	212316.76400000005   229011.607  36264.9434
89924.234	102272.79999999999   112483.481  15676.832400000001
19822.073900000003	22250.0235   24672.4612  3113.710571
7940.099699999999	8904.28069   9815.53029  1230.7339407000002
3151.37835	3486.20882   3924.17348  395.926441588
1578.27536	1763.04466   1952.9534919999999  232.88436
1487.6808419999998	1662.524303   1869.3090410000002  225.88426299999998
2.01 < |eta| < 2.37
261401.14500000002	323088.49100000004   321007.611  77032.77900000001
417231.82	510320.836   514029.636  116116.614
535423.2619999999	639906.1199999999   661625.7799999999  130894.017
638557.1900000001	744038.88   785285.1  132130.189
431371.85	497335.49700000003   532599.2209999999  82358.78500000002
276559.8	314894.18999999994   342790.877  48417.956999999995
130814.85499999998	148079.827   162194.588  21690.108800000005
27726.956599999998	31084.485300000004   34376.4618  4108.91402
11256.470100000002	12498.492599999998   13779.274280000001  1515.8744450000002
4446.528719999998	4915.6935300000005   5478.66892  621.9390249999999
1965.2038799999998	2157.70771   2425.0990399999996  222.843881
1938.296158	2141.8418319999996   2373.814915  248.688521