0 < |eta| < 0.6
456709.802	570202.597   295463.632  73430.53700000001
801578.6900000001	974255.24   517727.79099999997  111504.71600000001
1202751.09	1402072.85   775633.44  128474.68799999998
1534660.5	1745775.12   987658.4599999998  135952.39399999997
1062599.7599999998	1189693.8400000003   684396.2899999999  81865.223
679829.7000000001	758210.9500000001   439871.8660000001  50691.40770000001
313760.008	344480.041   203038.172  19896.799700000003
70465.31300000001	76737.484   45498.6369  4057.80133
31651.456899999997	34427.036100000005   20428.5196  1785.09212
13428.7636	14577.140499999998   8662.762199999997  743.148689
6796.7651000000005	7420.5477999999985   4371.15426  397.45104000000003
7253.314660000001	7907.621160000001   4654.990460000002  419.28471899999994
0.6 < |eta| < 0.8
134625.722	168100.84299999996   87147.34700000001  21666.612699999998
257201.594	315164.5950000001   166120.41699999996  37452.60079999999
398068.8819999999	470785.29099999997   256587.845  46966.504600000015
486900.76700000005	558354.8690000001   313474.16699999996  45972.322400000005
340731.6859999999	382790.86699999997   219341.644  27088.5293
217632.91	243324.95400000003   140696.459  16603.6054
99860.51099999998	109390.22500000002   64648.35799999999  6141.28662
22702.294599999994	24573.648199999996   14636.150000000001  1205.2914100000003
10074.6502	10796.986599999998   6492.646389999999  468.207835
4218.96649	4565.512320000001   2715.0392199999997  221.97422000000003
2084.3660699999996	2261.7717700000003   1339.9320200000002  113.61514999999999
2259.2297499999995	2423.2812999999996   1447.0765600000002  105.933059
0.8 < |eta| < 1.15
219901.29299999998	296464.00399999996   142279.283  49594.0656
399687.16	504131.29800000007   258214.12  67416.68300000002
624834.18	766019.7200000002   402757.708  90967.54100000001
785796.86	926404.7099999998   505239.497  90423.471
523863.457	609172.9400000001   337126.85500000004  54884.305
343345.8859999999	387945.347   222345.88700000002  28816.224100000003
154811.367	172408.86800000002   100131.16499999998  11362.731000000002
35268.2848	39138.1465   22743.664600000004  2497.10589
15972.2993	17607.7313   10279.147300000002  1056.90414
6931.565600000001	7576.9726   4452.8277800000005  420.093485
3297.5945199999996	3639.6919500000004   2115.42604  220.76128000000003
3649.2313999999997	4006.5876299999995   2329.3130400000005  228.84769999999997
1.15 < |eta| < 1.37
140593.734	176268.65399999998   90902.68700000003  23088.15299999999
236392.52100000004	281893.87600000005   152587.09800000003  29389.549300000006
362374.1600000001	419318.247   233398.57100000005  36680.338599999995
463689.105	529504.589   298595.68100000004  42331.869
309186.703	349619.6280000001   198930.22800000003  26004.2192
198567.998	221478.622   128188.78999999998  14786.670999999998
89674.8	98293.326   57944.583000000006  5574.8301
20091.440599999998	21865.5135   12958.2013  1138.57804
9267.737399999998	9995.804999999998   5966.619639999998  467.803489
3932.8264500000005	4218.33095   2520.9641499999993  181.54176400000003
2014.42164	2186.10604   1295.45544  109.97625
2092.6338100000003	2243.3308099999995   1338.71932  95.82498
1.52 < |eta| < 1.81
155160.943	204485.607   100292.979  31897.583700000003
249055.65099999998	315756.004   160622.51  43003.2418
367408.8499999999	437609.72   236435.95500000002  45193.00029999999
452611.236	534803.8760000002   290608.92600000004  52817.872800000005
321879.858	366211.35000000003   206888.95299999998  28498.435800000003
213510.905	236353.056   139719.891  14701.673300000002
95373.547	103464.269   61465.141  5202.846840000001
20879.2782	22795.785000000003   13415.4941  1236.425118
9461.0391	10180.839300000003   6067.7013400000005  460.1214100000001
4138.8475	4364.57983   2647.92294  144.343949
2088.8173100000004	2200.0934100000004   1336.29322  71.56546900000001
2151.13221	2264.95244   1375.10894  72.374119
1.81 < |eta| < 2.01
99046.30799999998	129829.828   64677.8406  19874.9284
158718.7	199232.74800000002   102308.405  26175.1415
222681.048	266773.31600000005   143483.206  28388.441699999996
272510.128	318335.798   174905.23500000002  29491.7429
179569.017	207476.96   115361.69899999998  17913.190500000004
111066.65699999999	127464.233   71865.466  10581.986499999999
51116.3792	57360.84490000001   32940.5423  4101.862759999999
11486.263999999997	12868.645799999997   7369.2207  886.2797689999998
5208.373610000001	5772.385319999999   3338.5098900000003  358.63598500000006
2130.78415	2346.97781   1366.2133600000002  138.278965
1105.7693900000002	1208.1449499999999   705.5466190000001  65.90491499999999
1096.8673500000002	1203.69225   698.2686200000002  68.735209
2.01 < |eta| < 2.37
176089.648	223305.87600000002   113573.57599999999  30472.742700000003
272298.233	334646.71300000005   175362.91  40149.84709999999
356183.362	421093.1099999999   229509.73600000003  41763.1087
408537.25700000004	475344.84900000005   262036.96600000001  42826.0768
270790.8560000001	308936.731   173776.968  24458.6552
163455.673	188073.65899999999   105095.304  15830.206999999999
72937.42100000002	82905.79499999998   46925.51510000001  6409.3034
16320.1023	18227.0889   10464.732200000002  1221.46584
7281.2934000000005	8067.859100000001   4654.18098  501.766898
2938.3335399999996	3286.7888999999996   1878.0858900000003  222.37844500000006
1349.9418199999998	1489.83212   864.0418900000002  88.95139
1393.18106	1519.7175200000001   889.11001  81.269255