0 < |eta| < 0.6
0.010118290292162489
0.0030255951305409408
0.0029288984907098145
0.0025730677111866582
0.0026364048061523968
0.003432871052657135
0.0018866087417118691
0.0028371756229170655
0.004499167011079982
0.0018422234855056576
0.006272243570561291
0.010356151880127774
0.6 < |eta| < 0.8
0.005045555072030603
0.0020574637745447025
0.0014096386062870097
0.0015126157982736574
0.0024291157042345985
0.0015705446466206154
0.0012825208061000373
0.0006430908263244363
0.0046606577624295755
0.0060807550075888004
0.001437908321230884
0.007945716901888469
0.8 < |eta| < 1.15
0.006703167792471653
0.0028904814872149306
0.0024084370658214514
0.002734210743955833
0.0019786308053592726
0.001878773666420763
0.0009981579765422001
0.0022376799376500668
0.0010977484089228417
0.0010360904852355635
0.0003581661891117749
0.0010038976698947552
1.15 < |eta| < 1.37
0.0024257609391967
0.002839438396007748
0.00442647832999056
0.009730629158991512
0.008401765661018317
0.003534528597597998
0.0005841797741422955
0.0007597488665488934
0.0007566953469462323
0.00043594746065749783
0.0008151086814829092
0.0007958433102830961
1.52 < |eta| < 1.81
0.003992428638817223
0.0012527858565789436
0.0009135917545865196
0.0008992255604205313
0.0009879247251760816
0.0011144235770716967
0.0002051797094408679
0.0008092723561886462
0.0005027082341495116
0.00029850746268655914
0.0008498879581569443
0.0011396011396009875
1.81 < |eta| < 2.01
0.005269037813673454
0.017846459539116823
0.02756416913415759
0.002881920215180655
0.000544273089118345
0.000589524142342204
0.00109686282226009
0.0004250420704792878
0.0004986287708801385
0.0
0.009520756709348478
0.0033275613232309257
2.01 < |eta| < 2.37
0.010944592301213937
0.001101954519729179
0.001134982760329378
0.00258121439226059
0.0035739200322109275
0.006308732851598536
0.001960265827747369
0.0008032630908858295
0.00852717482136306
0.01081848161017036
0.04382118359126918
0.014496910683098212
