0 < |eta| < 0.6
453023.754	570202.597   293082.64400000003  75811.614
796554.5399999999	974255.24   514478.118  114754.318
1198746.56	1402072.85   773057.9099999999  131050.23200000003
1528388.31	1745775.12   983623.3000000002  139987.656
1056245.47	1189693.8400000003   680307.31  85954.15699999998
675652.08	758210.9500000001   437173.48199999996  53389.8768
311883.624	344480.041   201827.28499999997  21107.7542
69983.954	76737.484   45189.2939  4367.11088
31401.5922	34427.036100000005   20268.788899999996  1944.8015699999999
13330.844799999999	14577.140499999998   8600.4965  805.41474
6719.826100000001	7420.5477999999985   4321.421259999999  447.18314000000004
7216.435660000001	7907.621160000001   4631.537060000001  442.735649
0.6 < |eta| < 0.8
134553.304	168100.84299999996   87097.21399999999  21716.721699999995
256878.525	315164.5950000001   165912.616  37660.4074
396926.97699999996	470785.29099999997   255853.397  47700.75320000001
485490.28799999994	558354.8690000001   312563.784  46882.832700000006
339699.946	382790.86699999997   218681.75199999995  27748.794199999997
216408.004	243324.95400000003   139904.70100000003  17395.274
99180.138	109390.22500000002   64208.46  6581.19387
22562.4087	24573.648199999996   14545.5847  1295.8610400000002
10019.9652	10796.986599999998   6457.873790000001  502.9799850000001
4176.363090000001	4565.512320000001   2687.94932  249.06404
2067.19827	2261.7717700000003   1329.01442  124.53210999999999
2240.78795	2423.2812999999996   1435.3522600000003  117.658379
0.8 < |eta| < 1.15
219601.21699999998	296464.00399999996   142085.769  49787.335900000005
399152.98699999996	504131.29800000007   257871.40300000002  67759.54699999999
616684.3099999999	766019.7200000002   397504.4270000001  96220.922
779485.69	926404.7099999998   501185.153  94477.65500000001
520682.699	609172.9400000001   335076.15699999995  56935.045
341978.0569999999	387945.347   221464.072  29698.057099999998
154059.06200000003	172408.86800000002   99636.91999999998  11856.967600000002
34987.231100000005	39138.1465   22562.5259  2678.2474399999996
15833.675400000002	17607.7313   10191.002999999999  1145.04707
6890.870899999999	7576.9726   4426.951250000001  445.97008
3265.804219999999	3639.6919500000004   2095.20924  240.97753999999998
3624.43083	4006.5876299999995   2312.73882  245.425275
1.15 < |eta| < 1.37
140203.27199999997	176268.65399999998   90652.019  23338.809599999997
236055.629	281893.87600000005   152371.20200000002  29605.453699999995
361050.87799999997	419318.247   232546.53900000005  37532.24459999999
461635.9470000001	529504.589   297275.736  43651.9788
307746.475	349619.6280000001   198006.233  26928.1081
197636.45099999997	221478.622   127589.866  15385.4736
89382.318	98293.326   57758.609  5760.8178
20012.5916	21865.5135   12908.065299999998  1188.7143399999998
9241.667399999998	9995.804999999998   5950.042939999999  484.380969
3911.8408500000005	4218.33095   2506.8127499999996  195.69326400000003
1997.25294	2186.10604   1284.5402399999998  120.89311
2081.8242100000007	2243.3308099999995   1331.8463200000003  102.69841999999998
1.52 < |eta| < 1.81
153749.334	204485.607   99380.00400000002  32810.5449
247230.90799999997	315756.004   159446.64  44179.020899999996
366008.004	437609.72   235526.69900000002  46102.3006
450359.207	534803.8760000002   289167.23500000004  54259.6511
320057.5530000001	366211.35000000003   205717.755  29669.340399999997
212784.097	236353.056   139253.76599999997  15167.8729
95026.35499999998	103464.269   61241.148  5426.845139999999
20707.5912	22795.785000000003   13305.511100000002  1346.3999179999998
9378.375199999999	10180.839300000003   6014.330610000001  513.4922549999999
4119.7725	4364.57983   2635.79324  156.473719
2076.7346100000004	2200.0934100000004   1328.6100199999998  79.24763999999999
2142.8666100000005	2264.95244   1369.85274  77.63033899999999
1.81 < |eta| < 2.01
98875.28	129829.828   64567.4239  19985.3224
157976.664	199232.74800000002   101826.04199999999  26657.4704
222380.92900000003	266773.31600000005   143290.58299999998  28580.915999999997
271709.7320000001	318335.798   174488.65  29908.308499999996
179228.01000000004	207476.96   115143.47700000003  18131.533399999997
110380.50200000001	127464.233   71422.729  11024.7251
50792.0745	57360.84490000001   32732.6985  4309.68651
11364.189	12868.645799999997   7291.5907  963.9101689999999
5176.58001	5772.385319999999   3317.4842900000003  379.660855
2109.1642500000003	2346.97781   1352.46636  152.026115
1096.86759	1208.1449499999999   699.8860190000001  71.565455
1090.50865	1203.69225   694.2255200000001  72.77843899999999
2.01 < |eta| < 2.37
174824.349	223305.87600000002   112757.66300000002  31288.656999999996
270973.49700000003	334646.71300000005   174510.15300000002  41002.55740000001
354191.844	421093.1099999999   228235.51099999997  43037.54350000001
406364.3470000001	475344.84900000005   260639.052  44223.8214
269549.27400000003	308936.731   172981.62900000004  25253.940099999996
161153.03000000003	188073.65899999999   103611.845  17313.697099999998
72488.48899999999	82905.79499999998   46637.60070000001  6697.182200000001
16217.7427	18227.0889   10398.826200000001  1287.3701199999998
7239.3254	8067.859100000001   4627.49468  528.4522380000001
2917.3491799999997	3286.7888999999996   1864.7453600000001  235.72124000000005
1342.3114199999998	1489.83212   859.1900899999999  93.80322
1381.73576	1519.7175200000001   881.8323099999999  88.547145