0.00<|#eta|<0.60
0.0029811109742470254
0.001572580574920046
0.0006749900239655382
0.0002453260306005678
0.00020316514932949836
0.00028965464374874905
0.00043378718674613737
0.00043739249756025167
0.00048327691381322424
0.0001169428847915821
0.0002640399839233254
0.0005129524631330984
0.60<|#eta|<0.80
0.0029974907899812386
0.0013693310550328963
0.0004771238640801645
0.00019124087924038413
0.00010461208099843411
0.0002794857178745058
0.00041209332005243127
0.000690639748651023
0.0006868979599383707
0.0006060342424176746
0.00031098922846406474
0.0005556670319664114
0.80<|#eta|<1.15
0.0030876958878982563
0.0013487985153668447
0.0006797664030369077
0.0003586316776080789
9.32058221547738e-05
0.00032353383891514653
0.00039297062258603077
0.0007374327589608765
0.0004254985331806349
0.000765303102856496
0.0014186958564561536
0.00026661114214343584
1.15<|#eta|<1.37
0.003497722704347561
0.0013133498506141539
0.0007951704334712151
0.00029000696312642127
0.00026907811012777394
0.00024330093341817793
0.00030028355202937895
0.000521775777226452
0.0014807840501798175
0.000896758258312591
0.000697900026457754
0.0012338235129913944
1.52<|#eta|<1.81
0.007788823977711301
0.004575331799163251
0.0016751297471142568
0.000702133294038898
0.0004220684635751759
0.0005667487140375016
0.0005387256302171739
0.0006728156789916895
0.001165989419277258
0.0008024420526300258
0.0007311040543944713
0.0017490017490020549
1.81<|#eta|<2.01
0.0015963040152848773
0.0010813074002016254
0.0006255574064846225
0.00037380158449629164
0.0002941449064672863
0.00022531025066307997
0.000404603826689387
0.00041575763845136393
0.00016920498814343432
0.0001565866746657818
0.0012911568339364354
0.0007899582101413838
2.01<|#eta|<2.37
0.00230974120812677
0.0012282036511261918
0.0004835157780538335
0.00026122185844057455
0.0002779855152374999
0.0002572943817984452
0.0002274010689080619
0.0009887062796090085
0.00019996528838106542
0.001522833212620922
4.776428210306882e-05
0.0020679915852925834
