0 < |eta| < 0.6
384604	490621
721205	887685
1136346	1334812
1467848	1681530
1022371	1153037
632988	712004
268890	298203
57574	63631
25893	28515
11404	12408
5565	6126
6043	6649
0.6 < |eta| < 0.8
120881	154467
238611	298036
377991	454674
465125	540794
326264	370033
200015	226085
84188	93583
18175	19976
8099	8826
3317	3671
1796	1973
1812	1987
0.8 < |eta| < 1.15
200008	275259
375997	481454
594335	744579
752542	901644
498392	588327
313626	358330
129582	146281
28001	31657
12681	14247
5551	6224
2641	2986
3018	3378
1.15 < |eta| < 1.37
130042	165529
225204	270730
349341	407744
444288	512022
293664	333219
181743	204194
73452	81415
15691	17397
7209	7949
3183	3455
1668	1851
1717	1888
1.52 < |eta| < 1.81
143167	191317
235631	301050
355708	422222
431497	505765
319417	356686
207468	225785
81478	87993
16364	18082
7453	8051
3404	3603
1693	1787
1779	1871
1.81 < |eta| < 2.01
87880	117709
143075	184868
207218	253033
256580	303553
180367	209401
109306	127089
43202	49128
8728	9944
3842	4299
1617	1781
773	849
820	910
2.01 < |eta| < 2.37
160905	207909
255707	316541
341042	404254
388689	452485
266013	302563
155389	180171
59228	67921
11591	13255
5137	5739
2055	2294
993	1117
987	1102
