0 < |eta| < 0.6
349635	440347
664404	812970
1071808	1256031
1415415	1619713
973007	1096430
578167	649461
249537	276019
52777	58103
24091	26440
10623	11515
5230	5744
5661	6207
0.6 < |eta| < 0.8
108486	136864
220458	273782
357338	428964
448123	520528
310439	351795
182485	206056
77978	86471
16676	18267
7518	8159
3096	3426
1676	1840
1730	1892
0.8 < |eta| < 1.15
179876	244040
344243	437905
561412	701463
725450	868296
473473	558424
286544	326893
120113	135238
25745	28986
11784	13201
5188	5791
2485	2792
2819	3150
1.15 < |eta| < 1.37
116030	145641
204087	243860
328383	382313
428503	493293
278599	315757
165790	185955
67893	75105
14399	15904
6717	7358
3001	3244
1574	1735
1632	1777
1.52 < |eta| < 1.81
127786	166070
213605	268773
332139	392532
414639	484942
303561	338293
188365	204470
74878	80528
14984	16486
6931	7443
3178	3350
1583	1664
1669	1755
1.81 < |eta| < 2.01
80228	106158
131767	169222
194453	236929
246742	291557
171884	199304
99973	116118
40004	45411
8011	9112
3585	4011
1495	1649
714	786
767	850
2.01 < |eta| < 2.37
147733	189500
236856	291912
320690	379404
373249	434155
253334	287891
142519	165000
54776	62730
10633	12134
4790	5342
1917	2128
924	1039
930	1037
