0 < |eta| < 0.6
0.010186585514098234
0.004985178514627098
0.002144080342374566
0.0009319569300226815
0.0007905907629719433
0.00142870783682425
0.00275820041679109
0.0038908741341979747
0.004301194360974536
0.0034460630420497518
0.0025666793769006935
0.00430077056776812
0.6 < |eta| < 0.8
0.009505559963454036
0.004206813624389016
0.0016017762472937402
0.0008550618605964733
0.0007614921258086715
0.0011603733114298187
0.0027597776581769207
0.0036964576124524084
0.005118635512148528
0.0005908366095906947
0.0002180917449887687
0.001615624349250222
0.8 < |eta| < 1.15
0.010154290193387872
0.0050161150942132915
0.001953134594543493
0.00092733347313112
0.0007942469046412493
0.0016057882522980682
0.002476381800509353
0.0045047528890849176
0.0038263807782159542
0.005068425223034412
0.00400159037919845
0.00457872950686089
1.15 < |eta| < 1.37
0.01178288358776447
0.005318771901630548
0.0022047904811349772
0.0010318973108903728
0.001173374924334225
0.0015041742458498097
0.002552660497751491
0.004260483272963689
0.006933641358602305
0.0015652930790486241
0.006372453910960085
0.007281246769951677
1.52 < |eta| < 1.81
0.024504038811002382
0.013337562183972085
0.00419847010175034
0.0020017010061307294
0.0019022845022022006
0.003344441490007677
0.004863709809115879
0.005124954099483436
0.005332681512879911
0.005632894616359629
0.003444706858683144
0.0002106767207438187
1.81 < |eta| < 2.01
0.008194363477532773
0.004146008102937526
0.0016595937093292212
0.0010779449150506437
0.0013787988648460425
0.001021852618239616
0.001847244836838069
0.002650854847671247
0.0006991249486956175
0.001085334472901156
0.005938994646986218
0.0075800446760982965
2.01 < |eta| < 2.37
0.006084783747524747
0.003757155910005805
0.0017443871793367816
0.0007524513471907079
0.0006626689306463707
0.0016065514686742777
0.0011074187465284213
0.0017408139452377291
0.003025000955853119
0.005470001456239992
0.0014191585401395201
2.976296772505549e-05
