0 < |eta| < 0.6
0.01268607891453788
0.005770669957260055
0.002283399614170123
0.0010186074172358062
0.0008375076581832452
0.0014591444660039254
0.002767970512795981
0.004265848286262308
0.003638476299520632
0.004031678572389286
0.002390311892519148
0.0036633792443442337
0.6 < |eta| < 0.8
0.01306474424995141
0.005518797483820004
0.001894807160927714
0.0008895673020148376
0.0008064397087000907
0.0011173538529778426
0.0025639725518397105
0.003693158056979118
0.004484531835796557
0.0001260769531880035
0.0006711494867680523
0.0027077075840518106
0.8 < |eta| < 1.15
0.0135267299039461
0.0062898842860704685
0.0024070135394107517
0.0009219971807071792
0.0008229871979765768
0.0016065799174693751
0.0027291947604678457
0.004421377449161823
0.0030211428019972786
0.004649676819567072
0.0064158345299778485
0.0017254978651283226
1.15 < |eta| < 1.37
0.014571988488487952
0.006316260497597037
0.002481608475418451
0.0010200922718756056
0.0011468094755233693
0.001837385439086292
0.0021088551469472527
0.0041438477160932186
0.00702148752602505
0.004350317489936972
0.006939922711746149
0.010169627783583879
1.52 < |eta| < 1.81
0.0287298729062323
0.015331610381584149
0.004280226300757306
0.002038805873331606
0.002027571664301564
0.002910825899917646
0.004670506045343581
0.004740917400905209
0.006463204725580263
0.004523780837497937
0.004550694479109385
0.00019259885031697177
1.81 < |eta| < 2.01
0.011389954195353824
0.0056973068842866015
0.002046497348830889
0.0011235621493003167
0.0011884714496246396
0.0010708491366804296
0.0018329734299042943
0.0017475495497787374
0.0001106947835434191
0.0015342591922633542
0.002449505347734693
0.0014445271779598423
2.01 < |eta| < 2.37
0.006894224861959564
0.004238401806863412
0.0018400070867097273
0.0007660724124328722
0.0008485730698573057
0.0015616084760869953
0.001404174060060659
0.002209213137399635
0.0018154018425821095
0.005881964084523239
0.000381580383763791
0.0013304046573091588
