0 < |eta| < 0.6
675598	791545
1283677	1488651
1957122	2207308
2525255	2808023
1709115	1874096
1029975	1127264
438006	473419
73213	78963
22162	23952
6885	7423
2630	2811
2001	2171
0.6 < |eta| < 0.8
183982	219509
402723	475728
648167	744329
794549	897632
539203	598839
322838	357108
138571	150662
23206	25140
7100	7612
2122	2257
833	883
626	664
0.8 < |eta| < 1.15
302782	383409
604992	731438
1032876	1197925
1300633	1494309
858210	969389
521948	583662
220496	243050
37023	40686
11415	12569
3533	3886
1343	1485
1019	1097
1.15 < |eta| < 1.37
196331	234002
352619	407746
575178	652776
760088	854488
499395	552714
304960	335582
125995	138271
20668	22508
6408	6941
2022	2177
813	855
584	630
1.52 < |eta| < 1.81
211338	258396
378700	447618
589575	671873
767298	862486
547972	598657
338073	364059
140949	150019
23083	24480
6980	7378
2218	2305
879	917
648	673
1.81 < |eta| < 2.01
131015	166300
235399	287019
344368	403010
441215	511306
292703	336422
173142	195954
73272	81998
11960	13192
3525	3907
1121	1205
447	496
282	316
2.01 < |eta| < 2.37
243180	297250
417906	500777
568728	661686
688781	781508
454731	507664
262902	290856
106883	117882
17215	18898
4905	5381
1419	1565
566	609
338	367
