0 < |eta| < 0.6
0.00786280672841122
0.008159076229310003
0.007425892630993247
0.00601462760476934
0.004550693845812526
0.0034750202330781077
0.0019810018673378504
0.00011830819284242011
0.0009361702127659299
0.0013778171439818854
0.0017543859649122862
0.0016274864376130127
0.6 < |eta| < 0.8
0.007349786710484807
0.007286444942729786
0.005456810186694416
0.004360197456353521
0.0031187298934099994
0.0029767009522122523
0.001208718368620132
0.0004397537379067229
0.0004181184668989868
0.0003271180896303738
0.0012586532410321372
0.0011318619128466434
0.8 < |eta| < 1.15
0.011607955342873844
0.008735997324862077
0.007565855211055017
0.005652242839042199
0.00457498037885562
0.0032327814639731
0.001017841670942654
0.00039676241866370976
0.001368925393566034
0.002138413685847662
0.003992015968063867
0.004596888260254617
1.15 < |eta| < 1.37
0.009345216470460938
0.006970574700197685
0.005653430784335112
0.005852143544570865
0.004324024814922667
0.003047117464497262
0.002319194385108303
0.001460600306726123
0.00030590394616092365
0.0013750429700928324
0.0
0.0
1.52 < |eta| < 1.81
0.008412161224999215
0.0069719364909315296
0.006720822543543448
0.005244457682651804
0.003559655128692829
0.0032911095341598973
0.001934263285706117
0.0009082652134423386
0.000608735352305545
0.0006837606837607479
0.0
0.0019035532994924331
1.81 < |eta| < 2.01
0.00848379377855124
0.005696666967055952
0.005579426090544626
0.004784009262580602
0.003550811458446823
0.003662967497334302
0.0014472141128327731
0.0
0.0005656108597285048
0.0074123989218328745
0.00712250712250706
0.0013495276653171517
2.01 < |eta| < 2.37
0.002398356067153884
0.0013909437387239487
0.0004774802446039228
0.000528632253743444
0.0012387936817710443
0.0014904172468563903
0.0025480489225393477
0.0027661198016024624
0.00021308331557645666
0.002148227712137518
0.0022050716648290836
0.005470459518599591
