0 < |eta| < 0.6
391729	484711
730918	877215
1139151	1319121
1468097	1661621
1024539	1139494
633382	703642
268662	294658
57698	62936
25917	28142
11386	12253
5576	6052
6012	6573
0.6 < |eta| < 0.8
120999	152694
239721	294550
379154	449492
463519	534447
323732	365691
199274	223371
84111	92498
18159	19721
8064	8709
3360	3632
1816	1953
1806	1969
0.8 < |eta| < 1.15
200248	272096
374177	475826
608865	735813
751500	891133
502442	581310
311654	354157
129264	144601
28118	31346
12720	14108
5514	6154
2643	2955
2999	3329
1.15 < |eta| < 1.37
130406	163705
225004	267476
347074	403038
443092	506009
293308	329381
181859	201818
72913	80476
15612	17204
7142	7835
3159	3418
1657	1836
1704	1866
1.52 < |eta| < 1.81
146135	189065
239312	297492
353362	417339
432044	499720
316351	352328
205518	223094
80698	86936
16382	17864
7471	7958
3370	3567
1673	1767
1758	1848
1.81 < |eta| < 2.01
88118	116328
142703	182665
206841	249985
254044	299934
178427	206917
108786	125653
43027	48553
8797	9837
3806	4242
1615	1768
770	839
812	901
2.01 < |eta| < 2.37
162821	205441
255867	312780
338977	399528
387255	447175
263246	298920
157085	178036
59047	67130
11626	13089
5105	5682
2048	2268
983	1106
983	1093
