0 < |eta| < 0.6
391174	484711
730578	877215
1137872	1319121
1465418	1661621
1023169	1139494
632940	703642
268542	294658
57675	62936
25915	28142
11385	12253
5576	6052
6012	6573
0.6 < |eta| < 0.8
120986	152694
239676	294550
379224	449492
463342	534447
323711	365691
198430	223371
84048	92498
18168	19721
8069	8709
3362	3632
1816	1953
1806	1969
0.8 < |eta| < 1.15
200531	272096
374573	475826
609236	735813
751950	891133
502782	581310
311771	354157
129292	144601
28120	31346
12724	14108
5515	6154
2645	2955
2998	3329
1.15 < |eta| < 1.37
130738	163705
225460	267476
347389	403038
443475	506009
293557	329381
181878	201818
72904	80476
15591	17204
7136	7835
3158	3418
1657	1836
1704	1866
1.52 < |eta| < 1.81
144838	189065
236977	297492
350901	417339
429556	499720
314852	352328
205357	223094
80515	86936
16384	17864
7469	7958
3379	3567
1674	1767
1762	1848
1.81 < |eta| < 2.01
79905	116328
127700	182665
191992	249985
234074	299934
168451	206917
100706	125653
40575	48553
8584	9837
3733	4242
1615	1768
770	839
813	901
2.01 < |eta| < 2.37
149698	205441
242524	312780
324250	399528
380901	447175
258967	298920
156344	178036
58516	67130
11307	13089
5077	5682
2002	2268
985	1106
984	1093
