0 < |eta| < 0.6
392894	484711
733207	877215
1142360	1319121
1472078	1661621
1027086	1139494
634707	703642
269019	294658
57741	62936
25937	28142
11387	12253
5576	6052
6013	6573
0.6 < |eta| < 0.8
121764	152694
241101	294550
380919	449492
465304	534447
324776	365691
199730	223371
84198	92498
18172	19721
8070	8709
3362	3632
1816	1953
1806	1969
0.8 < |eta| < 1.15
202243	272096
377239	475826
613038	735813
754765	891133
504139	581310
312536	354157
129430	144601
28135	31346
12730	14108
5514	6154
2644	2955
2998	3329
1.15 < |eta| < 1.37
131397	163705
226143	267476
348678	403038
444434	506009
294104	329381
182157	201818
72978	80476
15617	17204
7142	7835
3159	3418
1657	1836
1704	1866
1.52 < |eta| < 1.81
146800	189065
240521	297492
354722	417339
434060	499720
317512	352328
206209	223094
80908	86936
16470	17864
7500	7958
3383	3567
1675	1767
1762	1848
1.81 < |eta| < 2.01
88562	116328
143334	182665
207600	249985
254813	299934
178903	206917
109056	125653
43086	48553
8810	9837
3812	4242
1616	1768
771	839
813	901
2.01 < |eta| < 2.37
163677	205441
257150	312780
340388	399528
388964	447175
264232	298920
157721	178036
59301	67130
11649	13089
5115	5682
2048	2268
985	1106
986	1093
