0 < |eta| < 0.6
321681	435047
624467	803351
1015963	1241283
1337674	1600517
930980	1083556
545995	641825
243376	272758
51218	57487
24228	26089
10854	11371
5350	5673
5728	6137
0.6 < |eta| < 0.8
99086	135285
210162	270584
342079	424050
442451	514404
304932	347677
180719	203572
78129	85458
17109	18037
7550	8056
3219	3392
1723	1823
1773	1874
0.8 < |eta| < 1.15
175682	241261
338744	432810
579025	693171
740105	858205
495305	551758
292250	323082
125031	133685
26769	28711
12514	13074
5525	5722
2685	2762
3004	3105
1.15 < |eta| < 1.37
103265	144023
188701	240960
315730	377935
422889	487499
277634	312107
166385	183780
68917	74237
14696	15727
6865	7254
3069	3211
1659	1722
1635	1757
1.52 < |eta| < 1.81
124076	164116
215122	265594
322746	388052
409975	479133
298094	334139
184139	202052
73366	79566
15180	16287
7000	7354
3198	3317
1588	1646
1680	1735
1.81 < |eta| < 2.01
76081	104912
130396	167231
183401	234077
235878	288071
158863	196930
91944	114812
36189	44866
7117	9016
3284	3961
1434	1638
687	777
741	841
2.01 < |eta| < 2.37
129948	187265
211904	288452
290693	374970
306709	429049
219950	284405
114876	163053
45060	62000
9080	11981
4101	5291
1604	2103
701	1029
816	1028
