0 < |eta| < 0.6
356026	435047
673244	803351
1074481	1241283
1415591	1600517
975040	1083556
578438	641825
249334	272758
52910	57487
24111	26089
10607	11371
5239	5673
5634	6137
0.6 < |eta| < 0.8
108566	135285
221495	270584
358403	424050
446551	514404
308044	347677
181789	203572
77886	85458
16662	18037
7487	8056
3139	3392
1694	1823
1723	1874
0.8 < |eta| < 1.15
180046	241261
342543	432810
574957	693171
724490	858205
477286	551758
284723	323082
119785	133685
25861	28711
11822	13074
5150	5722
2485	2762
2803	3105
1.15 < |eta| < 1.37
116292	144023
203895	240960
326251	377935
427336	487499
278252	312107
165870	183780
67397	74237
14325	15727
6654	7254
2979	3211
1565	1722
1619	1757
1.52 < |eta| < 1.81
130243	164116
216704	265594
330003	388052
415138	479133
300620	334139
186604	202052
74159	79566
15003	16287
6936	7354
3146	3317
1564	1646
1651	1735
1.81 < |eta| < 2.01
80433	104912
131430	167231
194107	234077
244308	288071
170027	196930
99505	114812
39832	44866
8074	9016
3556	3961
1494	1638
711	777
760	841
2.01 < |eta| < 2.37
149444	187265
236969	288452
318744	374970
371832	429049
250679	284405
144063	163053
54615	62000
10665	11981
4761	5291
1911	2103
915	1029
926	1028
