0 < |eta| < 0.6
336409	435047
662329	803351
1071043	1241283
1411539	1600517
980053	1083556
582389	641825
255882	272758
54389	57487
25000	26089
10990	11371
5426	5673
5849	6137
0.6 < |eta| < 0.8
104417	135285
223369	270584
365529	424050
463586	514404
318164	347677
188605	203572
80853	85458
17369	18037
7737	8056
3253	3392
1748	1823
1801	1874
0.8 < |eta| < 1.15
182057	241261
351644	432810
597388	693171
762352	858205
506261	551758
299259	323082
127073	133685
27375	28711
12661	13074
5576	5722
2697	2762
3017	3105
1.15 < |eta| < 1.37
107096	144023
195138	240960
325860	377935
436103	487499
285944	312107
170729	183780
70167	74237
14970	15727
6958	7254
3093	3211
1670	1722
1660	1757
1.52 < |eta| < 1.81
127657	164116
222288	265594
334216	388052
424676	479133
306647	334139
187753	202052
74921	79566
15391	16287
7078	7354
3214	3317
1597	1646
1683	1735
1.81 < |eta| < 2.01
83005	104912
140181	167231
201921	234077
260130	288071
177944	196930
105552	114812
41679	44866
8431	9016
3743	3961
1568	1638
736	777
796	841
2.01 < |eta| < 2.37
146163	187265
242906	288452
328504	374970
378676	429049
259232	284405
149661	163053
56848	62000
11051	11981
4921	5291
1992	2103
943	1029
937	1028
