0 < |eta| < 0.6
340878	435047
626132	803351
1010486	1241283
1349244	1600517
932638	1083556
546745	641825
234580	272758
49484	57487
22399	26089
9803	11371
4808	5673
5039	6137
0.6 < |eta| < 0.8
106181	135285
211084	270584
340617	424050
426943	514404
294363	347677
170079	203572
73144	85458
15665	18037
7073	8056
2956	3392
1560	1823
1609	1874
0.8 < |eta| < 1.15
174816	241261
331201	432810
557437	693171
701916	858205
460635	551758
274199	323082
113743	133685
24276	28711
11103	13074
4821	5722
2311	2762
2604	3105
1.15 < |eta| < 1.37
111703	144023
194675	240960
311372	377935
406212	487499
264859	312107
157909	183780
64026	74237
13535	15727
6307	7254
2832	3211
1413	1722
1540	1757
1.52 < |eta| < 1.81
126939	164116
210369	265594
319259	388052
404311	479133
294392	334139
183997	202052
73124	79566
14897	16287
6860	7354
3128	3317
1558	1646
1635	1735
1.81 < |eta| < 2.01
67793	104912
111017	167231
165221	234077
204357	288071
137345	196930
77040	114812
30702	44866
5983	9016
2391	3961
947	1638
441	777
432	841
2.01 < |eta| < 2.37
120081	187265
169600	288452
235690	374970
277649	429049
187662	284405
105590	163053
39496	62000
7547	11981
3085	5291
1172	2103
452	1029
649	1028
