0 < |eta| < 0.6
369493	484711
716925	877215
1132618	1319121
1461043	1661621
1028077	1139494
636674	703642
275471	294658
59289	62936
26867	28142
11809	12253
5770	6052
6245	6573
0.6 < |eta| < 0.8
116095	152694
240944	294550
385434	449492
479821	534447
333624	365691
206391	223371
87217	92498
18906	19721
8333	8709
3482	3632
1871	1953
1889	1969
0.8 < |eta| < 1.15
202216	272096
383015	475826
631071	735813
789196	891133
532210	581310
327031	354157
137006	144601
29555	31346
13577	14108
5967	6154
2871	2955
3226	3329
1.15 < |eta| < 1.37
118895	163705
213082	267476
344632	403038
450629	506009
300619	329381
186836	201818
75743	80476
16291	17204
7470	7835
3288	3418
1772	1836
1748	1866
1.52 < |eta| < 1.81
143019	189065
245076	297492
356703	417339
440774	499720
322131	352328
206161	223094
81318	86936
16769	17864
7607	7958
3440	3567
1712	1767
1789	1848
1.81 < |eta| < 2.01
91064	116328
152204	182665
214875	249985
270127	299934
186249	206917
115207	125653
44914	48553
9147	9837
3995	4242
1692	1768
791	839
848	901
2.01 < |eta| < 2.37
158754	205441
261497	312780
348494	399528
393212	447175
271753	298920
162835	178036
61293	67130
11981	13089
5261	5682
2138	2268
1013	1106
988	1093
