0 < |eta| < 0.6
370848	484711
719569	877215
1135731	1319121
1463990	1661621
1029820	1139494
637674	703642
275748	294658
59324	62936
26876	28142
11810	12253
5770	6052
6245	6573
0.6 < |eta| < 0.8
116760	152694
242135	294550
386850	449492
481229	534447
334370	365691
206775	223371
87329	92498
18919	19721
8336	8709
3481	3632
1872	1953
1889	1969
0.8 < |eta| < 1.15
203206	272096
384673	475826
632939	735813
790835	891133
532965	581310
327593	354157
137164	144601
29787	31346
13620	14108
5970	6154
2873	2955
3230	3329
1.15 < |eta| < 1.37
120275	163705
215496	267476
346691	403038
452203	506009
301469	329381
187244	201818
75903	80476
16315	17204
7472	7835
3289	3418
1771	1836
1752	1866
1.52 < |eta| < 1.81
143700	189065
245954	297492
357961	417339
442034	499720
322762	352328
206769	223094
81518	86936
16816	17864
7619	7958
3442	3567
1714	1767
1791	1848
1.81 < |eta| < 2.01
91320	116328
152519	182665
215280	249985
270564	299934
186699	206917
115430	125653
45011	48553
9180	9837
4002	4242
1693	1768
796	839
848	901
2.01 < |eta| < 2.37
159328	205441
262439	312780
349437	399528
394371	447175
272304	298920
163242	178036
61479	67130
12039	13089
5274	5682
2138	2268
1014	1106
994	1093
