0 < |eta| < 0.6
354494	484711
678398	877215
1077200	1319121
1387358	1661621
978191	1139494
597908	703642
262292	294658
55864	62936
26047	28142
11663	12253
5692	6052
6118	6573
0.6 < |eta| < 0.8
110715	152694
227771	294550
361970	449492
459261	534447
320514	365691
198089	223371
84365	92498
18637	19721
8137	8709
3446	3632
1845	1953
1860	1969
0.8 < |eta| < 1.15
195984	272096
370447	475826
613394	735813
767715	891133
521392	581310
319904	354157
134961	144601
29123	31346
13462	14108
5913	6154
2861	2955
3217	3329
1.15 < |eta| < 1.37
115866	163705
208303	267476
335900	403038
438466	506009
292685	329381
182437	201818
74542	80476
16019	17204
7371	7835
3264	3418
1758	1836
1723	1866
1.52 < |eta| < 1.81
139435	189065
237621	297492
345493	417339
426644	499720
313650	352328
202695	223094
79793	86936
16578	17864
7530	7958
3422	3567
1702	1767
1788	1848
1.81 < |eta| < 2.01
83539	116328
141738	182665
195515	249985
245354	299934
166654	206917
100594	125653
39111	48553
7755	9837
3514	4242
1548	1768
745	839
788	901
2.01 < |eta| < 2.37
141614	205441
228809	312780
309109	399528
319423	447175
231030	298920
125271	178036
48747	67130
9908	13089
4397	5682
1722	2268
760	1106
869	1093
