0 < |eta| < 0.6
656527.99	833777.2300000001	 807102.6099999999		224038.33799999996
1207986.4100000001	1490674.7200000002	 1490181.58		357787.754
1784209.8699999999	2081617.92	 2205047.2		376607.8990000001
2204923.39	2559872.53	 2719027.6600000006		449886.432
1564900.6099999999	1769846.4	 1938203.08		260983.2290000001
1060199.8399999999	1193238.6799999997	 1318699.3800000001		169647.096
523369.99900000007	586567.42	 654169.4700000001		80868.98099999999
112739.619	127265.93600000002	 141260.97499999998		18397.212199999998
45795.68350000001	50471.25280000002	 56605.542799999996		5932.32618
18672.014300000006	20487.0707	 23253.723599999998		2283.91116
8879.758199999998	10084.397500000001	 10981.3877		1557.618132
9282.514	10393.961299999999	 11389.13148		1389.5980605880002
0.6 < |eta| < 0.8
186592.089	232070.18399999998	 229775.37400000004		57173.5923
397784.45599999995	470180.12	 490568.5519999999		91790.33299999998
611693.8099999999	703747.8499999999	 758129.2000000001		116472.32800000002
733635.36	825625.7700000001	 908015.48		116276.90300000002
523206.239	572416.11	 648478.4999999999		62449.3455
354126.43	384984.1810000001	 441065.573		39306.4773
165814.46399999998	187925.96600000001	 207058.64299999995		28197.0256
38195.2322	40929.181099999994	 47569.83219999999		3412.074053
14358.0682	15905.398600000002	 17907.169700000006		1909.18676
6136.57896	6552.43814	 7783.45153		515.8737918999999
3000.44651	3175.6039100000003	 3652.505080000001		241.332618
2966.7731000000003	3211.44549	 3737.4811899999995		305.5892
0.8 < |eta| < 1.15
333532.47599999997	412213.497	 411791.70399999997		99751.779
628446.9900000001	743608.4000000001	 779373.6200000001		144570.29299999998
1010407.7799999999	1143348.65	 1250837.1500000001		167476.15000000002
1254465.1300000001	1392317.53	 1552264.6400000001		171757.82700000002
858702.8300000001	930097.8300000001	 1065464.9300000004		89391.364
579376.3239999999	627104.36	 721665.9800000001		60026.6597
282624.27800000005	301019.297	 354387.85399999993		23204.8659
60740.1371	65507.92149999999	 75766.367		5892.288619999999
24998.9362	26654.973700000002	 31288.746600000002		2170.2790736
10155.84222	10734.84577	 12648.117589999998		744.1210990000002
4609.55164	4923.19118	 5600.3133100000005		416.20104669999995
4992.77412	5407.36634	 6224.0894899999985		496.42822100000006
1.15 < |eta| < 1.37
199312.94300000003	250682.536	 246469.80399999997		64752.40699999999
360212.64099999995	421493.918	 445576.92899999995		77314.50300000001
561893.178	627135.26	 694991.4499999998		82438.582
727685.4300000002	806200.5	 901128.3799999999		99226.316
497803.82499999995	541612.2450000001	 616132.1190000002		54948.1374
332416.6970000001	362852.938	 413603.379		38748.02379999999
160733.72400000002	174571.87900000004	 201259.52099999998		17622.189999999995
33845.4254	36770.10970000001	 41915.9331		3758.4860300000005
14311.209199999998	15363.7394	 17807.5744		1328.8121270000001
5760.68623	6069.586990000001	 7197.10071		371.557834
2867.2479099999996	3047.6077499999997	 3582.69051		214.053739
2818.80525	3036.23423	 3418.45923		265.058645
1.52 < |eta| < 1.81
226975.12900000002	288637.12700000004	 280811.633		77011.7922
387207.571	476278.5420000001	 478664.3040000001		111818.12499999997
567386.0589999999	658863.2899999999	 700254.5699999998		114363.81599999999
721154.66	823093.9400000001	 890666.09		127434.90999999999
519533.28699999995	579134.907	 643265.1899999998		75210.0072
351592.828	390643.4919999999	 437347.21400000004		49370.494399999996
167053.319	183908.18699999998	 207968.839		21111.3302
35983.2916	39221.7497	 44816.74109999999		4156.770160000001
14547.877799999998	15659.4998	 17877.686500000003		1363.2975419999998
5935.02755	6367.900689999999	 7394.599489999999		501.77461500000015
2961.7826999999997	3193.0345999999995	 3698.74125		267.80957689999997
2956.9687	3180.75322	 3570.218259999999		276.03613300000006
1.81 < |eta| < 2.01
148853.285	188975.70999999996	 183903.242		50237.97460000001
255671.784	303771.39200000005	 315277.26		60348.06750000001
347410.2970000001	397142.63300000003	 428094.775		63072.69239999999
439779.34400000004	488898.6760000001	 542241.0519999999		61979.65749999999
297450.89199999993	328558.89499999996	 366634.5570000001		38802.6412
193642.168	212316.76400000005	 241111.93199999997		24164.862
92672.671	102272.79999999999	 115967.446		12192.792539999997
20097.973	22250.0235	 24971.081700000006		2815.083174000001
7972.35774	8904.28069	 9906.62239		1139.6415017
3179.8254300000003	3486.20882	 3937.1819499999997		382.915363588
1611.2245899999998	1763.04466	 1997.1724519999998		188.666007
1477.7360319999998	1662.524303	 1855.5353610000002		239.65767300000002
2.01 < |eta| < 2.37
257128.367	323088.49100000004	 315796.941		82243.31039999999
411262.237	510320.836	 506970.26699999993		123175.82599999999
543266.731	639906.1199999999	 671355.4199999997		121164.33099999999
636231.3300000002	744038.88	 782989.7799999999		134425.68699999998
441669.632	497335.49700000003	 545572.3690000001		69385.864
274213.06899999996	314894.18999999994	 340150.299		51058.61140000001
131512.36700000003	148079.827	 163280.82899999997		20603.9336
27658.3605	31084.485300000004	 34323.5061		4161.87494
11086.415900000002	12498.492599999998	 13527.82188		1767.337687
4332.376539999999	4915.6935300000005	 5331.51601		769.0914570000001
1884.8517500000003	2157.70771	 2313.894230000001		334.0501559
1859.1897780000004	2141.8418319999996	 2272.241605		350.26276199999995