0 < |eta| < 0.6
352662	440347
670117	812970
1077667	1256031
1422399	1619713
979624	1096430
581078	649461
250502	276019
52984	58103
24170	26440
10656	11515
5230	5744
5668	6207
0.6 < |eta| < 0.8
108964	136864
222010	273782
359594	428964
450667	520528
311897	351795
183540	206056
78506	86471
16729	18267
7538	8159
3124	3426
1692	1840
1733	1892
0.8 < |eta| < 1.15
181197	244040
346475	437905
569610	701463
730534	868296
476009	558424
287364	326893
120482	135238
25837	28986
11865	13201
5203	5791
2500	2792
2812	3150
1.15 < |eta| < 1.37
116827	145641
204743	243860
330266	382313
430700	493293
279638	315757
166394	185955
68050	75105
14444	15904
6757	7358
3005	3244
1592	1735
1638	1777
1.52 < |eta| < 1.81
129123	166070
215724	268773
334345	392532
417921	484942
305554	338293
189079	204470
75096	80528
15148	16486
6989	7443
3175	3350
1580	1664
1670	1755
1.81 < |eta| < 2.01
80740	106158
133118	169222
195567	236929
248107	291557
172774	199304
100802	116118
40341	45411
8137	9112
3627	4011
1515	1649
718	786
770	850
2.01 < |eta| < 2.37
145557	189500
237746	291912
321525	379404
370383	434155
250885	287891
142336	165000
54476	62730
10613	12134
4767	5342
1903	2128
924	1039
922	1037
