0 < |eta| < 0.6
324624	440347
635286	812970
1031832	1256031
1322133	1619713
903389	1096430
535920	649461
243128	276019
49703	58103
22811	26440
10100	11515
4847	5744
5087	6207
0.6 < |eta| < 0.8
98277	136864
212082	273782
347652	428964
452600	520528
301155	351795
181336	206056
76440	86471
16790	18267
7100	8159
2637	3426
1651	1840
1574	1892
0.8 < |eta| < 1.15
188472	244040
348674	437905
579446	701463
714341	868296
499903	558424
296716	326893
121126	135238
25549	28986
12282	13201
5246	5791
2640	2792
2905	3150
1.15 < |eta| < 1.37
104395	145641
188329	243860
316141	382313
428450	493293
281697	315757
169933	185955
68889	75105
14768	15904
6827	7358
3068	3244
1639	1735
1622	1777
1.52 < |eta| < 1.81
124758	166070
213486	268773
322539	392532
412947	484942
300444	338293
181315	204470
73630	80528
15008	16486
6978	7443
3120	3350
1568	1664
1647	1755
1.81 < |eta| < 2.01
75202	106158
131493	169222
180772	236929
229041	291557
157712	199304
89540	116118
32237	45411
7381	9112
3402	4011
1217	1649
526	786
651	850
2.01 < |eta| < 2.37
128798	189500
210967	291912
302471	379404
335077	434155
222014	287891
129018	165000
50459	62730
9522	12134
3793	5342
1592	2128
646	1039
741	1037
