0 < |eta| < 0.6
301645.0			385383.0
604312.0			729487.0
1005889.0			1163445.0
1358715.0			1539413.0
930196.0			1027618.0
526914.0			580008.0
235932.0			250858.0
49437.0			52038.0
23125.0			24036.0
10169.0			10489.0
5082.0			5294.0
5454.0			5701.0
0.6 < |eta| < 0.8
92038.0			117876.0
204541.0			246618.0
344179.0			398608.0
445823.0			494361.0
301932.0			329663.0
170375.0			183773.0
74353.0			78418.0
15813.0			16353.0
7137.0			7403.0
3025.0			3152.0
1624.0			1693.0
1715.0			1779.0
0.8 < |eta| < 1.15
160706.0			210426.0
318161.0			389794.0
561360.0			650529.0
733481.0			825277.0
479252.0			522206.0
270624.0			292007.0
116897.0			122769.0
24774.0			26076.0
11678.0			12040.0
5181.0			5290.0
2521.0			2569.0
2804.0			2881.0
1.15 < |eta| < 1.37
93860.0			124341.0
174656.0			214444.0
304887.0			352832.0
419653.0			468989.0
270159.0			294833.0
154092.0			165742.0
64343.0			67998.0
13617.0			14250.0
6443.0			6673.0
2896.0			3004.0
1569.0			1608.0
1568.0			1648.0
1.52 < |eta| < 1.81
111591.0			139167.0
198587.0			233696.0
310395.0			358765.0
407217.0			458546.0
290479.0			315950.0
168684.0			181010.0
68291.0			72196.0
13959.0			14710.0
6536.0			6750.0
2986.0			3067.0
1480.0			1525.0
1575.0			1622.0
1.81 < |eta| < 2.01
74649.0			93496.0
127806.0			151797.0
188516.0			218169.0
249630.0			276208.0
169107.0			186943.0
95634.0			103971.0
38336.0			41179.0
7675.0			8195.0
3484.0			3680.0
1443.0			1508.0
676.0			715.0
744.0			781.0
2.01 < |eta| < 2.37
132956.0			169089.0
223213.0			264124.0
307409.0			350412.0
362480.0			410923.0
245865.0			269890.0
135890.0			148070.0
52153.0			56870.0
10046.0			10873.0
4569.0			4900.0
1846.0			1938.0
872.0			952.0
879.0			963.0
