0 < |eta| < 0.6
320487.0			385383.0
615906.0			729487.0
1010213.0			1163445.0
1363452.0			1539413.0
925834.0			1027618.0
523572.0			580008.0
230021.0			250858.0
48123.0			52038.0
22305.0			24036.0
9830.0			10489.0
4902.0			5294.0
5257.0			5701.0
0.6 < |eta| < 0.8
96621.0			117876.0
204276.0			246618.0
338834.0			398608.0
430740.0			494361.0
292987.0			329663.0
164501.0			183773.0
71703.0			78418.0
15172.0			16353.0
6915.0			7403.0
2920.0			3152.0
1571.0			1693.0
1641.0			1779.0
0.8 < |eta| < 1.15
160527.0			210426.0
311959.0			389794.0
542377.0			650529.0
698500.0			825277.0
452604.0			522206.0
257954.0			292007.0
110322.0			122769.0
23605.0			26076.0
10933.0			12040.0
4786.0			5290.0
2328.0			2569.0
2605.0			2881.0
1.15 < |eta| < 1.37
102869.0			124341.0
183572.0			214444.0
306638.0			352832.0
412484.0			468989.0
263750.0			294833.0
149997.0			165742.0
61924.0			67998.0
13041.0			14250.0
6166.0			6673.0
2796.0			3004.0
1473.0			1608.0
1534.0			1648.0
1.52 < |eta| < 1.81
114718.0			139167.0
194795.0			233696.0
307507.0			358765.0
399786.0			458546.0
285834.0			315950.0
168130.0			181010.0
67764.0			72196.0
13707.0			14710.0
6426.0			6750.0
2936.0			3067.0
1457.0			1525.0
1550.0			1622.0
1.81 < |eta| < 2.01
72897.0			93496.0
120356.0			151797.0
181616.0			218169.0
234754.0			276208.0
161725.0			186943.0
90293.0			103971.0
36662.0			41179.0
7358.0			8195.0
3310.0			3680.0
1374.0			1508.0
651.0			715.0
708.0			781.0
2.01 < |eta| < 2.37
136385.0			169089.0
218567.0			264124.0
299060.0			350412.0
357252.0			410923.0
238545.0			269890.0
131397.0			148070.0
50372.0			56870.0
9720.0			10873.0
4423.0			4900.0
1774.0			1938.0
849.0			952.0
873.0			963.0
