0 < |eta| < 0.6
320478.0			385383.0
615787.0			729487.0
1010199.0			1163445.0
1363306.0			1539413.0
925809.0			1027618.0
523570.0			580008.0
230094.0			250858.0
48147.0			52038.0
22338.0			24036.0
9833.0			10489.0
4897.0			5294.0
5259.0			5701.0
0.6 < |eta| < 0.8
96437.0			117876.0
203961.0			246618.0
338606.0			398608.0
430523.0			494361.0
292943.0			329663.0
164397.0			183773.0
71761.0			78418.0
15167.0			16353.0
6913.0			7403.0
2916.0			3152.0
1577.0			1693.0
1643.0			1779.0
0.8 < |eta| < 1.15
160373.0			210426.0
311704.0			389794.0
542046.0			650529.0
698145.0			825277.0
452465.0			522206.0
257948.0			292007.0
110386.0			122769.0
23617.0			26076.0
10933.0			12040.0
4790.0			5290.0
2332.0			2569.0
2604.0			2881.0
1.15 < |eta| < 1.37
102634.0			124341.0
183261.0			214444.0
306403.0			352832.0
412319.0			468989.0
263522.0			294833.0
150134.0			165742.0
61880.0			67998.0
13048.0			14250.0
6180.0			6673.0
2802.0			3004.0
1483.0			1608.0
1537.0			1648.0
1.52 < |eta| < 1.81
114629.0			139167.0
194634.0			233696.0
307357.0			358765.0
399514.0			458546.0
285665.0			315950.0
168071.0			181010.0
67732.0			72196.0
13689.0			14710.0
6422.0			6750.0
2932.0			3067.0
1457.0			1525.0
1546.0			1622.0
1.81 < |eta| < 2.01
72987.0			93496.0
122788.0			151797.0
184872.0			218169.0
235128.0			276208.0
161673.0			186943.0
90264.0			103971.0
36671.0			41179.0
7361.0			8195.0
3308.0			3680.0
1385.0			1508.0
656.0			715.0
712.0			781.0
2.01 < |eta| < 2.37
136327.0			169089.0
218496.0			264124.0
298890.0			350412.0
357194.0			410923.0
238439.0			269890.0
131347.0			148070.0
50355.0			56870.0
9729.0			10873.0
4434.0			4900.0
1775.0			1938.0
850.0			952.0
868.0			963.0
