0 < |eta| < 0.6
320753.0			385383.0
616117.0			729487.0
1010441.0			1163445.0
1363805.0			1539413.0
925993.0			1027618.0
523621.0			580008.0
230013.0			250858.0
48127.0			52038.0
22301.0			24036.0
9828.0			10489.0
4902.0			5294.0
5256.0			5701.0
0.6 < |eta| < 0.8
96505.0			117876.0
203996.0			246618.0
338568.0			398608.0
430499.0			494361.0
293020.0			329663.0
164482.0			183773.0
71702.0			78418.0
15170.0			16353.0
6919.0			7403.0
2919.0			3152.0
1572.0			1693.0
1640.0			1779.0
0.8 < |eta| < 1.15
160458.0			210426.0
311916.0			389794.0
542286.0			650529.0
698592.0			825277.0
452630.0			522206.0
258000.0			292007.0
110357.0			122769.0
23609.0			26076.0
10927.0			12040.0
4786.0			5290.0
2328.0			2569.0
2606.0			2881.0
1.15 < |eta| < 1.37
102687.0			124341.0
183288.0			214444.0
306291.0			352832.0
412287.0			468989.0
263632.0			294833.0
150000.0			165742.0
61908.0			67998.0
13013.0			14250.0
6168.0			6673.0
2798.0			3004.0
1473.0			1608.0
1533.0			1648.0
1.52 < |eta| < 1.81
114604.0			139167.0
194690.0			233696.0
307417.0			358765.0
399606.0			458546.0
285683.0			315950.0
168090.0			181010.0
67736.0			72196.0
13684.0			14710.0
6425.0			6750.0
2933.0			3067.0
1457.0			1525.0
1548.0			1622.0
1.81 < |eta| < 2.01
72863.0			93496.0
120465.0			151797.0
181813.0			218169.0
234837.0			276208.0
161888.0			186943.0
90274.0			103971.0
36645.0			41179.0
7356.0			8195.0
3318.0			3680.0
1373.0			1508.0
651.0			715.0
707.0			781.0
2.01 < |eta| < 2.37
136345.0			169089.0
218455.0			264124.0
298909.0			350412.0
357116.0			410923.0
238493.0			269890.0
131338.0			148070.0
50330.0			56870.0
9711.0			10873.0
4425.0			4900.0
1774.0			1938.0
849.0			952.0
872.0			963.0
