0 < |eta| < 0.6
301724.0			385383.0
604387.0			729487.0
1005873.0			1163445.0
1358678.0			1539413.0
930270.0			1027618.0
526779.0			580008.0
235951.0			250858.0
49448.0			52038.0
23145.0			24036.0
10163.0			10489.0
5077.0			5294.0
5455.0			5701.0
0.6 < |eta| < 0.8
92027.0			117876.0
204508.0			246618.0
344211.0			398608.0
445897.0			494361.0
301956.0			329663.0
170303.0			183773.0
74399.0			78418.0
15810.0			16353.0
7135.0			7403.0
3028.0			3152.0
1627.0			1693.0
1714.0			1779.0
0.8 < |eta| < 1.15
160689.0			210426.0
318268.0			389794.0
561435.0			650529.0
733553.0			825277.0
479244.0			522206.0
270604.0			292007.0
116882.0			122769.0
24774.0			26076.0
11679.0			12040.0
5183.0			5290.0
2522.0			2569.0
2798.0			2881.0
1.15 < |eta| < 1.37
93814.0			124341.0
174586.0			214444.0
304918.0			352832.0
419650.0			468989.0
270146.0			294833.0
154171.0			165742.0
64319.0			67998.0
13605.0			14250.0
6458.0			6673.0
2897.0			3004.0
1570.0			1608.0
1567.0			1648.0
1.52 < |eta| < 1.81
111553.0			139167.0
198543.0			233696.0
310354.0			358765.0
407205.0			458546.0
290500.0			315950.0
168668.0			181010.0
68292.0			72196.0
13960.0			14710.0
6537.0			6750.0
2983.0			3067.0
1479.0			1525.0
1571.0			1622.0
1.81 < |eta| < 2.01
74653.0			93496.0
128709.0			151797.0
190299.0			218169.0
249787.0			276208.0
169139.0			186943.0
95627.0			103971.0
38330.0			41179.0
7666.0			8195.0
3486.0			3680.0
1444.0			1508.0
677.0			715.0
746.0			781.0
2.01 < |eta| < 2.37
132967.0			169089.0
223210.0			264124.0
307381.0			350412.0
362518.0			410923.0
245888.0			269890.0
135890.0			148070.0
52149.0			56870.0
10060.0			10873.0
4570.0			4900.0
1847.0			1938.0
874.0			952.0
873.0			963.0
