0 < |eta| < 0.6
320456.0			385383.0
615714.0			729487.0
1010083.0			1163445.0
1363221.0			1539413.0
925748.0			1027618.0
523528.0			580008.0
230070.0			250858.0
48141.0			52038.0
22336.0			24036.0
9830.0			10489.0
4897.0			5294.0
5259.0			5701.0
0.6 < |eta| < 0.8
96425.0			117876.0
203932.0			246618.0
338553.0			398608.0
430481.0			494361.0
292916.0			329663.0
164358.0			183773.0
71749.0			78418.0
15167.0			16353.0
6912.0			7403.0
2915.0			3152.0
1577.0			1693.0
1642.0			1779.0
0.8 < |eta| < 1.15
160346.0			210426.0
311690.0			389794.0
542023.0			650529.0
698116.0			825277.0
452451.0			522206.0
257906.0			292007.0
110355.0			122769.0
23610.0			26076.0
10930.0			12040.0
4787.0			5290.0
2332.0			2569.0
2602.0			2881.0
1.15 < |eta| < 1.37
102606.0			124341.0
183223.0			214444.0
306341.0			352832.0
412252.0			468989.0
263491.0			294833.0
150097.0			165742.0
61869.0			67998.0
13044.0			14250.0
6180.0			6673.0
2802.0			3004.0
1484.0			1608.0
1537.0			1648.0
1.52 < |eta| < 1.81
114607.0			139167.0
194609.0			233696.0
307318.0			358765.0
399481.0			458546.0
285650.0			315950.0
168061.0			181010.0
67731.0			72196.0
13691.0			14710.0
6422.0			6750.0
2932.0			3067.0
1457.0			1525.0
1546.0			1622.0
1.81 < |eta| < 2.01
72961.0			93496.0
122774.0			151797.0
184845.0			218169.0
235097.0			276208.0
161647.0			186943.0
90243.0			103971.0
36663.0			41179.0
7359.0			8195.0
3307.0			3680.0
1385.0			1508.0
654.0			715.0
712.0			781.0
2.01 < |eta| < 2.37
136292.0			169089.0
218463.0			264124.0
298834.0			350412.0
357142.0			410923.0
238409.0			269890.0
131321.0			148070.0
50342.0			56870.0
9726.0			10873.0
4432.0			4900.0
1775.0			1938.0
849.0			952.0
867.0			963.0
