0 < |eta| < 0.6
301740.0			385383.0
604431.0			729487.0
1005930.0			1163445.0
1358757.0			1539413.0
930316.0			1027618.0
526861.0			580008.0
235989.0			250858.0
49450.0			52038.0
23145.0			24036.0
10163.0			10489.0
5077.0			5294.0
5455.0			5701.0
0.6 < |eta| < 0.8
92036.0			117876.0
204532.0			246618.0
344279.0			398608.0
445964.0			494361.0
301985.0			329663.0
170321.0			183773.0
74416.0			78418.0
15809.0			16353.0
7135.0			7403.0
3028.0			3152.0
1627.0			1693.0
1714.0			1779.0
0.8 < |eta| < 1.15
160710.0			210426.0
318269.0			389794.0
561424.0			650529.0
733557.0			825277.0
479250.0			522206.0
270621.0			292007.0
116887.0			122769.0
24773.0			26076.0
11681.0			12040.0
5183.0			5290.0
2522.0			2569.0
2798.0			2881.0
1.15 < |eta| < 1.37
93835.0			124341.0
174601.0			214444.0
304963.0			352832.0
419696.0			468989.0
270156.0			294833.0
154169.0			165742.0
64318.0			67998.0
13605.0			14250.0
6459.0			6673.0
2897.0			3004.0
1570.0			1608.0
1567.0			1648.0
1.52 < |eta| < 1.81
111550.0			139167.0
198549.0			233696.0
310365.0			358765.0
407214.0			458546.0
290506.0			315950.0
168676.0			181010.0
68293.0			72196.0
13960.0			14710.0
6537.0			6750.0
2983.0			3067.0
1480.0			1525.0
1571.0			1622.0
1.81 < |eta| < 2.01
74692.0			93496.0
129092.0			151797.0
191016.0			218169.0
249937.0			276208.0
169150.0			186943.0
95638.0			103971.0
38338.0			41179.0
7670.0			8195.0
3486.0			3680.0
1445.0			1508.0
677.0			715.0
746.0			781.0
2.01 < |eta| < 2.37
132977.0			169089.0
223225.0			264124.0
307410.0			350412.0
362547.0			410923.0
245910.0			269890.0
135915.0			148070.0
52160.0			56870.0
10063.0			10873.0
4570.0			4900.0
1847.0			1938.0
874.0			952.0
875.0			963.0
