0 < |eta| < 0.6
302215.0			385383.0
605237.0			729487.0
1007235.0			1163445.0
1360087.0			1539413.0
931133.0			1027618.0
527329.0			580008.0
236025.0			250858.0
49443.0			52038.0
23131.0			24036.0
10168.0			10489.0
5082.0			5294.0
5454.0			5701.0
0.6 < |eta| < 0.8
92230.0			117876.0
204939.0			246618.0
344614.0			398608.0
446271.0			494361.0
302064.0			329663.0
170449.0			183773.0
74383.0			78418.0
15820.0			16353.0
7141.0			7403.0
3028.0			3152.0
1624.0			1693.0
1713.0			1779.0
0.8 < |eta| < 1.15
161009.0			210426.0
318609.0			389794.0
561980.0			650529.0
733963.0			825277.0
479490.0			522206.0
270689.0			292007.0
116883.0			122769.0
24780.0			26076.0
11679.0			12040.0
5180.0			5290.0
2521.0			2569.0
2799.0			2881.0
1.15 < |eta| < 1.37
94147.0			124341.0
175094.0			214444.0
305342.0			352832.0
420103.0			468989.0
270349.0			294833.0
154174.0			165742.0
64363.0			67998.0
13610.0			14250.0
6442.0			6673.0
2895.0			3004.0
1570.0			1608.0
1564.0			1648.0
1.52 < |eta| < 1.81
111674.0			139167.0
198721.0			233696.0
310646.0			358765.0
407562.0			458546.0
290617.0			315950.0
168730.0			181010.0
68318.0			72196.0
13963.0			14710.0
6531.0			6750.0
2986.0			3067.0
1479.0			1525.0
1581.0			1622.0
1.81 < |eta| < 2.01
74675.0			93496.0
127867.0			151797.0
188560.0			218169.0
249717.0			276208.0
169125.0			186943.0
95684.0			103971.0
38359.0			41179.0
7676.0			8195.0
3481.0			3680.0
1443.0			1508.0
676.0			715.0
744.0			781.0
2.01 < |eta| < 2.37
133110.0			169089.0
223369.0			264124.0
307636.0			350412.0
362554.0			410923.0
245970.0			269890.0
135950.0			148070.0
52172.0			56870.0
10054.0			10873.0
4567.0			4900.0
1846.0			1938.0
873.0			952.0
880.0			963.0
