0 < |eta| < 0.6
332443	421071
636997	780038
1045574	1211759
1365757	1579165
946077	1061963
556913	623303
239414	266448
49783	55837
23302	25519
10259	11175
4894	5573
5339	6007
0.6 < |eta| < 0.8
103369	130327
221522	262832
359226	414456
449247	506864
311441	340511
181678	197592
73727	83370
16331	17545
7083	7866
3080	3321
1668	1781
1675	1837
0.8 < |eta| < 1.15
186066	231946
350420	418198
592790	676205
755121	845344
495069	539723
289207	313664
121796	130432
25704	27883
11889	12743
5273	5610
2517	2713
2782	3071
1.15 < |eta| < 1.37
109291	137757
198154	231595
329006	367178
433266	479613
280382	304564
162609	177757
66233	72208
13989	15266
6525	7064
2956	3127
1562	1679
1567	1721
1.52 < |eta| < 1.81
124444	155035
209882	252692
326702	373359
417953	469281
299829	325029
179271	193792
71357	76959
14590	15709
6703	7131
3015	3221
1504	1604
1592	1694
1.81 < |eta| < 2.01
78136	101014
134093	161998
195886	227808
252725	283114
174253	192741
101390	111143
39613	43673
7870	8724
3447	3871
1445	1598
685	759
722	823
2.01 < |eta| < 2.37
142241	181372
226991	280542
310819	365449
362679	421671
249966	278823
138055	158411
53415	60387
10363	11696
4490	5149
1783	2065
837	1012
809	1006
