0 < |eta| < 0.6
347758	421071
660186	780038
1051869	1211759
1392237	1579165
946435	1061963
555751	623303
240302	266448
50341	55837
23099	25519
10275	11175
5103	5573
5452	6007
0.6 < |eta| < 0.8
106765	130327
217844	262832
353010	414456
437834	506864
299617	340511
173903	197592
74669	83370
15866	17545
7215	7866
3020	3321
1636	1781
1670	1837
0.8 < |eta| < 1.15
180982	231946
343095	418198
574154	676205
722950	845344
468404	539723
276612	313664
116262	130432
24930	27883
11416	12743
4970	5610
2423	2713
2741	3071
1.15 < |eta| < 1.37
113921	137757
197570	231595
317969	367178
419898	479613
273223	304564
159774	177757
65226	72208
13791	15266
6450	7064
2869	3127
1540	1679
1582	1721
1.52 < |eta| < 1.81
126652	155035
211288	252692
326159	373359
412582	469281
296967	325029
179662	193792
71549	76959
14491	15709
6665	7131
3029	3221
1513	1604
1610	1694
1.81 < |eta| < 2.01
78457	101014
128878	161998
189235	227808
238371	283114
163799	192741
95976	111143
38165	43673
7730	8724
3413	3871
1447	1598
670	759
731	823
2.01 < |eta| < 2.37
143858	181372
230278	280542
306291	365449
359033	421671
240180	278823
138100	158411
52494	60387
10118	11696
4507	5149
1843	2065
887	1012
878	1006
