0 < |eta| < 0.6
0.001740797028068176
0.001592570704677892
0.0012988267292445527
0.000998805723439649
0.001561510016052099
0.0007965102807488997
0.0007210964413286686
0.0011426238233245508
0.001672366536230267
0.002201998443872281
0.0027943436380549443
0.0029339154221386843
0.6 < |eta| < 0.8
0.002427802496479774
0.0030105199036599244
0.001959067332778808
0.0015440094182612818
0.0016740559473623921
0.0021941823739664045
0.0011710160939391032
0.0016478289864395167
0.0023783905280960497
0.004718927015660833
0.00571270098211907
0.0050861678789368495
0.8 < |eta| < 1.15
0.002576787219948765
0.002676294843778633
0.0019042751054713736
0.0014578226902366115
0.001482636508607724
0.001034513392035422
0.0010492312951874158
0.001600121185582895
0.0020188327223585904
0.003694407518156287
0.004819341571819264
0.004025921513981134
1.15 < |eta| < 1.37
0.002492624935911189
0.0031596354137014963
0.002112597086054695
0.001802083638528357
0.0020156301082177312
0.0012254807963206326
0.001427036976477258
0.0022373902046067097
0.0027459296601707837
0.004366158682756648
0.007477229170937984
0.004598758007046151
1.52 < |eta| < 1.81
0.002760201504088997
0.002946043380467485
0.0023081091917639377
0.0016652201193913313
0.0017619518149143505
0.0010063625326225231
0.0009241230593306768
0.002220000105709579
0.0022753114018324253
0.003572709023161385
0.003842639735877844
0.0037473418395061377
1.81 < |eta| < 2.01
0.003920618094194729
0.0045348474712970524
0.0026098693123966163
0.002761083721120889
0.0025433089176434883
0.0022105852039599264
0.0020978855764302185
0.0029611963816311613
0.005584053174466498
0.007706670911914403
0.010563200368011989
0.010344551775844375
2.01 < |eta| < 2.37
0.0021680513288880503
0.0028419748409070824
0.0017943626602933568
0.001687191287348273
0.0016451146346242514
0.0013302331749206558
0.0014502128089229542
0.0025690411219107326
0.003197178967898046
0.0057313363194670085
0.007361622651086353
0.00817236973878069
