0 < |eta| < 0.6
380048	490621
689141	887685
1085317	1334812
1417054	1681530
992367	1153037
606636	712004
256025	298203
54569	63631
24411	28515
10661	12408
5179	6126
5441	6649
0.6 < |eta| < 0.8
119281	154467
230248	298036
363670	454674
447612	540794
312670	370033
188032	226085
79855	93583
17280	19976
7713	8826
3196	3671
1689	1973
1700	1987
0.8 < |eta| < 1.15
197194	275259
366984	481454
598673	744579
738173	901644
491709	588327
304212	358330
124261	146281
26647	31657
12068	14247
5224	6224
2482	2986
2833	3378
1.15 < |eta| < 1.37
126207	165529
217048	270730
334142	407744
425855	512022
282251	333219
175153	204194
70032	81415
14898	17397
6869	7949
3035	3455
1507	1851
1639	1888
1.52 < |eta| < 1.81
142400	191317
232022	301050
342840	422222
422067	505765
311364	356686
204360	225785
80190	87993
16328	18082
7427	8051
3367	3603
1684	1787
1757	1871
1.81 < |eta| < 2.01
68941	117709
110890	184868
167650	253033
201613	303553
139766	209401
80511	127089
32220	49128
6498	9944
2570	4299
1041	1781
480	849
465	910
2.01 < |eta| < 2.37
123536	207909
178525	316541
246267	404254
289587	452485
197521	302563
115915	180171
42817	67921
8170	13255
3329	5739
1262	2294
496	1117
691	1102
