0 < |eta| < 0.6
306927.0			390073.0
613683.0			738255.0
1021256.0			1177250.0
1378515.0			1557896.0
943261.0			1039823.0
534189.0			586918.0
238946.0			253835.0
49970.0			52575.0
23464.0			24365.0
10297.0			10622.0
5138.0			5362.0
5521.0			5765.0
0.6 < |eta| < 0.8
93428.0			119261.0
207549.0			249528.0
349007.0			403254.0
452022.0			500262.0
306058.0			333557.0
172649.0			186027.0
75376.0			79359.0
16010.0			16558.0
7225.0			7492.0
3065.0			3181.0
1643.0			1707.0
1729.0			1797.0
0.8 < |eta| < 1.15
163363.0			212821.0
323068.0			394356.0
569632.0			658347.0
743381.0			834948.0
485671.0			528521.0
274043.0			295456.0
118331.0			124195.0
24988.0			26315.0
11801.0			12155.0
5253.0			5358.0
2552.0			2598.0
2833.0			2922.0
1.15 < |eta| < 1.37
95421.0			125753.0
177126.0			216990.0
309033.0			356882.0
425741.0			474564.0
273744.0			298295.0
156156.0			167716.0
65107.0			68795.0
13751.0			14411.0
6557.0			6767.0
2928.0			3033.0
1579.0			1619.0
1591.0			1666.0
1.52 < |eta| < 1.81
112979.0			140823.0
201245.0			236496.0
314381.0			362842.0
412914.0			464119.0
294418.0			319900.0
170825.0			183155.0
69141.0			73063.0
14132.0			14890.0
6607.0			6835.0
3013.0			3097.0
1492.0			1541.0
1592.0			1639.0
1.81 < |eta| < 2.01
75464.0			94607.0
130515.0			153576.0
192999.0			220825.0
253124.0			279561.0
171527.0			189207.0
96851.0			105147.0
38861.0			41694.0
7758.0			8280.0
3536.0			3723.0
1455.0			1517.0
683.0			723.0
762.0			790.0
2.01 < |eta| < 2.37
134966.0			171091.0
226273.0			267283.0
311443.0			354554.0
367336.0			415825.0
249214.0			273219.0
137714.0			149829.0
52872.0			57539.0
10202.0			11013.0
4625.0			4945.0
1869.0			1962.0
885.0			961.0
884.0			972.0
