0 < |eta| < 0.6
330308.0			405326.0
626760.0			757071.0
1029160.0			1204165.0
1380121.0			1577155.0
912428.0			1018526.0
515068.0			572083.0
226279.0			246340.0
47064.0			50715.0
21968.0			23500.0
9550.0			10161.0
4789.0			5130.0
5150.0			5530.0
0.6 < |eta| < 0.8
100141.0			123541.0
209206.0			255543.0
348016.0			411046.0
438341.0			505023.0
288390.0			325453.0
162706.0			180737.0
70635.0			76941.0
14797.0			15918.0
6711.0			7175.0
2864.0			3057.0
1477.0			1589.0
1636.0			1767.0
0.8 < |eta| < 1.15
168214.0			220883.0
326423.0			406708.0
563653.0			675535.0
710629.0			838959.0
439249.0			507106.0
250095.0			283038.0
107059.0			118879.0
22847.0			25204.0
10639.0			11688.0
4643.0			5144.0
2281.0			2505.0
2560.0			2828.0
1.15 < |eta| < 1.37
106667.0			129371.0
189948.0			221646.0
318308.0			366680.0
419111.0			475894.0
254441.0			285151.0
144241.0			159495.0
59799.0			65540.0
12550.0			13693.0
6041.0			6538.0
2712.0			2909.0
1410.0			1541.0
1485.0			1590.0
1.52 < |eta| < 1.81
118360.0			144196.0
198900.0			238958.0
314886.0			366473.0
408251.0			470020.0
285233.0			315480.0
165402.0			178967.0
66322.0			70828.0
13286.0			14313.0
6248.0			6571.0
2803.0			2925.0
1405.0			1466.0
1505.0			1576.0
1.81 < |eta| < 2.01
75631.0			96537.0
124326.0			155354.0
186158.0			222962.0
241333.0			281563.0
159159.0			183620.0
88737.0			101284.0
35764.0			40077.0
7067.0			7867.0
3207.0			3536.0
1343.0			1484.0
637.0			702.0
678.0			741.0
2.01 < |eta| < 2.37
141413.0			174703.0
225555.0			271039.0
306734.0			358130.0
364546.0			418060.0
232676.0			262352.0
126971.0			142913.0
48772.0			54944.0
9397.0			10484.0
4282.0			4693.0
1707.0			1862.0
818.0			907.0
826.0			914.0
