0 < |eta| < 0.6
312062.0			405326.0
611379.0			757071.0
1040503.0			1204165.0
1390767.0			1577155.0
920658.0			1018526.0
522670.0			572083.0
232493.0			246340.0
48389.0			50715.0
22748.0			23500.0
9866.0			10161.0
4951.0			5130.0
5321.0			5530.0
0.6 < |eta| < 0.8
94378.0			123541.0
207282.0			255543.0
348961.0			411046.0
448798.0			505023.0
297569.0			325453.0
167002.0			180737.0
72880.0			76941.0
15321.0			15918.0
6924.0			7175.0
2956.0			3057.0
1535.0			1589.0
1705.0			1767.0
0.8 < |eta| < 1.15
168146.0			220883.0
332143.0			406708.0
582481.0			675535.0
747024.0			838959.0
466831.0			507106.0
263984.0			283038.0
113727.0			118879.0
24021.0			25204.0
11390.0			11688.0
5056.0			5144.0
2464.0			2505.0
2759.0			2828.0
1.15 < |eta| < 1.37
97297.0			129371.0
179286.0			221646.0
319001.0			366680.0
427669.0			475894.0
261082.0			285151.0
148389.0			159495.0
62180.0			65540.0
13097.0			13693.0
6334.0			6538.0
2830.0			2909.0
1505.0			1541.0
1518.0			1590.0
1.52 < |eta| < 1.81
115490.0			144196.0
202928.0			238958.0
317053.0			366473.0
416318.0			470020.0
289057.0			315480.0
166671.0			178967.0
67130.0			70828.0
13634.0			14313.0
6370.0			6571.0
2857.0			2925.0
1433.0			1466.0
1542.0			1576.0
1.81 < |eta| < 2.01
77037.0			96537.0
130826.0			155354.0
193775.0			222962.0
254815.0			281563.0
168217.0			183620.0
94258.0			101284.0
37762.0			40077.0
7428.0			7867.0
3377.0			3536.0
1431.0			1484.0
670.0			702.0
720.0			741.0
2.01 < |eta| < 2.37
139066.0			174703.0
230835.0			271039.0
317067.0			358130.0
376245.0			418060.0
240016.0			262352.0
131905.0			142913.0
50903.0			54944.0
9797.0			10484.0
4452.0			4693.0
1772.0			1862.0
839.0			907.0
842.0			914.0
