0 < |eta| < 0.6
312140.0			405326.0
611400.0			757071.0
1040521.0			1204165.0
1390952.0			1577155.0
920774.0			1018526.0
522774.0			572083.0
232500.0			246340.0
48388.0			50715.0
22748.0			23500.0
9866.0			10161.0
4951.0			5130.0
5321.0			5530.0
0.6 < |eta| < 0.8
94448.0			123541.0
207349.0			255543.0
349059.0			411046.0
448832.0			505023.0
297583.0			325453.0
167022.0			180737.0
72885.0			76941.0
15322.0			15918.0
6924.0			7175.0
2956.0			3057.0
1535.0			1589.0
1705.0			1767.0
0.8 < |eta| < 1.15
168235.0			220883.0
332169.0			406708.0
582526.0			675535.0
747251.0			838959.0
466942.0			507106.0
264056.0			283038.0
113743.0			118879.0
24022.0			25204.0
11390.0			11688.0
5056.0			5144.0
2464.0			2505.0
2759.0			2828.0
1.15 < |eta| < 1.37
97337.0			129371.0
179816.0			221646.0
319714.0			366680.0
427822.0			475894.0
261127.0			285151.0
148422.0			159495.0
62184.0			65540.0
13099.0			13693.0
6335.0			6538.0
2830.0			2909.0
1505.0			1541.0
1519.0			1590.0
1.52 < |eta| < 1.81
115521.0			144196.0
202951.0			238958.0
317094.0			366473.0
416354.0			470020.0
289072.0			315480.0
166676.0			178967.0
67131.0			70828.0
13634.0			14313.0
6370.0			6571.0
2857.0			2925.0
1433.0			1466.0
1542.0			1576.0
1.81 < |eta| < 2.01
77505.0			96537.0
130890.0			155354.0
193836.0			222962.0
254839.0			281563.0
168243.0			183620.0
94278.0			101284.0
37768.0			40077.0
7431.0			7867.0
3377.0			3536.0
1431.0			1484.0
670.0			702.0
720.0			741.0
2.01 < |eta| < 2.37
139060.0			174703.0
230791.0			271039.0
317015.0			358130.0
376216.0			418060.0
239989.0			262352.0
131894.0			142913.0
50904.0			54944.0
9797.0			10484.0
4452.0			4693.0
1772.0			1862.0
839.0			907.0
842.0			914.0
