0 < |eta| < 0.6
330325.0			405326.0
626780.0			757071.0
1029165.0			1204165.0
1380165.0			1577155.0
912450.0			1018526.0
515095.0			572083.0
226289.0			246340.0
47064.0			50715.0
21968.0			23500.0
9550.0			10161.0
4789.0			5130.0
5150.0			5530.0
0.6 < |eta| < 0.8
100137.0			123541.0
209195.0			255543.0
348026.0			411046.0
438341.0			505023.0
288382.0			325453.0
162713.0			180737.0
70635.0			76941.0
14797.0			15918.0
6711.0			7175.0
2864.0			3057.0
1477.0			1589.0
1636.0			1767.0
0.8 < |eta| < 1.15
168238.0			220883.0
326438.0			406708.0
563670.0			675535.0
710707.0			838959.0
439297.0			507106.0
250136.0			283038.0
107065.0			118879.0
22849.0			25204.0
10639.0			11688.0
4643.0			5144.0
2281.0			2505.0
2560.0			2828.0
1.15 < |eta| < 1.37
106643.0			129371.0
190008.0			221646.0
318357.0			366680.0
419070.0			475894.0
254399.0			285151.0
144244.0			159495.0
59801.0			65540.0
12551.0			13693.0
6044.0			6538.0
2712.0			2909.0
1410.0			1541.0
1485.0			1590.0
1.52 < |eta| < 1.81
118364.0			144196.0
198899.0			238958.0
314890.0			366473.0
408234.0			470020.0
285233.0			315480.0
165397.0			178967.0
66310.0			70828.0
13287.0			14313.0
6252.0			6571.0
2801.0			2925.0
1405.0			1466.0
1505.0			1576.0
1.81 < |eta| < 2.01
75720.0			96537.0
124378.0			155354.0
186195.0			222962.0
241377.0			281563.0
159192.0			183620.0
88753.0			101284.0
35780.0			40077.0
7068.0			7867.0
3207.0			3536.0
1343.0			1484.0
637.0			702.0
678.0			741.0
2.01 < |eta| < 2.37
141438.0			174703.0
225552.0			271039.0
306736.0			358130.0
364532.0			418060.0
232671.0			262352.0
126970.0			142913.0
48769.0			54944.0
9399.0			10484.0
4282.0			4693.0
1707.0			1862.0
818.0			907.0
826.0			914.0
