0 < |eta| < 0.6
312090.0			405326.0
611379.0			757071.0
1040486.0			1204165.0
1390849.0			1577155.0
920708.0			1018526.0
522712.0			572083.0
232494.0			246340.0
48389.0			50715.0
22748.0			23500.0
9866.0			10161.0
4951.0			5130.0
5321.0			5530.0
0.6 < |eta| < 0.8
94417.0			123541.0
207307.0			255543.0
348982.0			411046.0
448796.0			505023.0
297566.0			325453.0
167000.0			180737.0
72882.0			76941.0
15324.0			15918.0
6924.0			7175.0
2954.0			3057.0
1535.0			1589.0
1706.0			1767.0
0.8 < |eta| < 1.15
168189.0			220883.0
332156.0			406708.0
582494.0			675535.0
747127.0			838959.0
466884.0			507106.0
264026.0			283038.0
113741.0			118879.0
24022.0			25204.0
11390.0			11688.0
5056.0			5144.0
2464.0			2505.0
2759.0			2828.0
1.15 < |eta| < 1.37
97307.0			129371.0
179548.0			221646.0
319337.0			366680.0
427568.0			475894.0
261055.0			285151.0
148400.0			159495.0
62181.0			65540.0
13098.0			13693.0
6334.0			6538.0
2830.0			2909.0
1504.0			1541.0
1518.0			1590.0
1.52 < |eta| < 1.81
115475.0			144196.0
202909.0			238958.0
317052.0			366473.0
416314.0			470020.0
289058.0			315480.0
166674.0			178967.0
67128.0			70828.0
13633.0			14313.0
6371.0			6571.0
2857.0			2925.0
1433.0			1466.0
1542.0			1576.0
1.81 < |eta| < 2.01
77257.0			96537.0
130841.0			155354.0
193771.0			222962.0
254811.0			281563.0
168205.0			183620.0
94265.0			101284.0
37761.0			40077.0
7427.0			7867.0
3377.0			3536.0
1431.0			1484.0
669.0			702.0
719.0			741.0
2.01 < |eta| < 2.37
138992.0			174703.0
230776.0			271039.0
317003.0			358130.0
376207.0			418060.0
239983.0			262352.0
131898.0			142913.0
50901.0			54944.0
9797.0			10484.0
4452.0			4693.0
1772.0			1862.0
839.0			907.0
842.0			914.0
