0 < |eta| < 0.6
330316.0			405326.0
626753.0			757071.0
1029174.0			1204165.0
1380174.0			1577155.0
912454.0			1018526.0
515093.0			572083.0
226289.0			246340.0
47064.0			50715.0
21967.0			23500.0
9550.0			10161.0
4790.0			5130.0
5151.0			5530.0
0.6 < |eta| < 0.8
100145.0			123541.0
209216.0			255543.0
348036.0			411046.0
438345.0			505023.0
288389.0			325453.0
162714.0			180737.0
70638.0			76941.0
14798.0			15918.0
6713.0			7175.0
2861.0			3057.0
1477.0			1589.0
1636.0			1767.0
0.8 < |eta| < 1.15
168233.0			220883.0
326447.0			406708.0
563666.0			675535.0
710715.0			838959.0
439295.0			507106.0
250131.0			283038.0
107058.0			118879.0
22848.0			25204.0
10639.0			11688.0
4643.0			5144.0
2281.0			2505.0
2560.0			2828.0
1.15 < |eta| < 1.37
106670.0			129371.0
190016.0			221646.0
318368.0			366680.0
419078.0			475894.0
254412.0			285151.0
144237.0			159495.0
59802.0			65540.0
12548.0			13693.0
6044.0			6538.0
2713.0			2909.0
1410.0			1541.0
1485.0			1590.0
1.52 < |eta| < 1.81
118367.0			144196.0
198899.0			238958.0
314887.0			366473.0
408254.0			470020.0
285242.0			315480.0
165401.0			178967.0
66322.0			70828.0
13288.0			14313.0
6248.0			6571.0
2803.0			2925.0
1405.0			1466.0
1505.0			1576.0
1.81 < |eta| < 2.01
75720.0			96537.0
124357.0			155354.0
186164.0			222962.0
241380.0			281563.0
159190.0			183620.0
88755.0			101284.0
35782.0			40077.0
7067.0			7867.0
3206.0			3536.0
1343.0			1484.0
637.0			702.0
678.0			741.0
2.01 < |eta| < 2.37
141452.0			174703.0
225565.0			271039.0
306741.0			358130.0
364557.0			418060.0
232670.0			262352.0
126971.0			142913.0
48773.0			54944.0
9398.0			10484.0
4282.0			4693.0
1707.0			1862.0
818.0			907.0
826.0			914.0
