0.00<|#eta|<0.60
0.00014448336093747096
0.00015028372482216314
0.0001411963493581181
0.00015258980744532432
0.0001433744427480216
0.0002446912338366401
0.000321135766826684
0.0001522790052552653
0.0001641462579895283
0.0001659485522616041
0.0
0.001438911182432228
0.60<|#eta|<0.80
0.00050811072059896
0.00033118036315214647
0.00022465778993843765
0.00046662885956382834
0.0003530140926979363
0.0003544320147679888
0.000298963926916323
0.00029011111207553143
0.0004039396013824162
0.0
0.0010233093794306356
0.0
0.80<|#eta|<1.15
0.00034164107158756655
0.00025613132861607526
0.00021794140079736327
0.00011791787083501726
0.00015381597720874992
0.00027891274130561897
0.00017850834888793172
0.0004448102754517824
0.0
0.0003291931011110062
0.0
0.0
1.15<|#eta|<1.37
0.0024067374766813107
0.00011771307843063983
0.00021406945278585745
0.003724305777717545
0.003111229062570737
0.005183471212009225
0.004218923597091697
0.002688755336034085
0.0002613590024715354
0.0004050222762251865
0.0
0.0013181512995197415
1.52<|#eta|<1.81
0.00038894583453150474
0.00042954923799224667
0.0002636469827196309
0.0001604018965865965
0.00010348690584320774
0.00018988044589449216
0.00020083052462801406
0.00035226176412473146
0.0003110723433133185
0.0006028190802954211
0.0
0.0
1.81<|#eta|<2.01
0.0008723850437132375
0.0005123690356870614
0.002411452214320403
0.02817011316496318
0.021257282792920322
0.007347372877085802
0.0003409367600920364
0.0005555053565988537
0.0003323363243602495
0.0
0.0
0.0
2.01<|#eta|<2.37
0.0002944354739221664
0.0002478711855212549
0.0001863999572476621
0.00023634136158956804
0.0002409528315633308
0.00040309285637643105
0.0003450876687109201
0.0004722923175626599
0.0007815812308868473
0.002709073302387035
0.0012642225031606058
0.0
