0 < |eta| < 0.6
348781	440347
663792	812970
1071013	1256031
1413302	1619713
972108	1096430
576566	649461
248777	276019
52531	58103
23964	26440
10593	11515
5167	5744
5634	6207
0.6 < |eta| < 0.8
108434	136864
220765	273782
357611	428964
448111	520528
310564	351795
182143	206056
77896	86471
16615	18267
7496	8159
3097	3426
1676	1840
1725	1892
0.8 < |eta| < 1.15
179864	244040
344454	437905
561237	701463
724622	868296
472484	558424
285889	326893
119873	135238
25655	28986
11769	13201
5175	5791
2481	2792
2799	3150
1.15 < |eta| < 1.37
116245	145641
204160	243860
328772	382313
428537	493293
278452	315757
165614	185955
67806	75105
14368	15904
6731	7358
2992	3244
1583	1735
1633	1777
1.52 < |eta| < 1.81
127578	166070
213642	268773
332355	392532
415332	484942
303918	338293
188410	204470
74837	80528
14992	16486
6927	7443
3160	3350
1575	1664
1664	1755
1.81 < |eta| < 2.01
80187	106158
131820	169222
194519	236929
246726	291557
172146	199304
99863	116118
40005	45411
8036	9112
3585	4011
1501	1649
709	786
765	850
2.01 < |eta| < 2.37
144168	189500
236227	291912
319626	379404
368157	434155
249750	287891
140015	165000
54105	62730
10507	12134
4722	5342
1895	2128
915	1039
917	1037
