0 < |eta| < 0.6
329579	440347
657371	812970
1060860	1256031
1383697	1619713
950257	1096430
562200	649461
249357	276019
50914	58103
23353	26440
10241	11515
4935	5744
5343	6207
0.6 < |eta| < 0.8
101743	136864
221205	273782
362359	428964
463015	520528
307480	351795
185676	206056
77798	86471
16845	18267
7125	8159
2737	3426
1625	1840
1591	1892
0.8 < |eta| < 1.15
177657	244040
351167	437905
593804	701463
714468	868296
505237	558424
300129	326893
120820	135238
25888	28986
12188	13201
5237	5791
2610	2792
2881	3150
1.15 < |eta| < 1.37
106610	145641
191821	243860
322505	382313
434975	493293
284067	315757
171222	185955
69214	75105
14723	15904
6809	7358
3047	3244
1643	1735
1606	1777
1.52 < |eta| < 1.81
126825	166070
219628	268773
331907	392532
423416	484942
306678	338293
184121	204470
74863	80528
15095	16486
7019	7443
3145	3350
1563	1664
1640	1755
1.81 < |eta| < 2.01
80676	106158
139649	169222
200126	236929
256868	291557
175759	199304
103007	116118
39778	45411
8216	9112
3670	4011
1482	1649
670	786
763	850
2.01 < |eta| < 2.37
142473	189500
228659	291912
323146	379404
374525	434155
247819	287891
143517	165000
54921	62730
10596	12134
4427	5342
1816	2128
829	1039
842	1037
