0 < |eta| < 0.6
0.0015224539290364823
0.0015150856254692634
0.001146676087553454
0.0008578848246392751
0.0009943064333208622
0.0006216074393481111
0.0006759688514929369
0.0010281180072395694
0.0016835947308499154
0.0018979389694679656
0.0029457764350558618
0.0026943966406533025
0.6 < |eta| < 0.8
0.002757828112037139
0.0029786984804009964
0.0019077123440276443
0.0015711393354868586
0.001607067593637555
0.0011485968921649725
0.0011689860138596507
0.0015349782307438869
0.002638750838040876
0.00371433588076738
0.005787614677253473
0.005635029267350628
0.8 < |eta| < 1.15
0.0022117692554248954
0.0023700065833499352
0.001425488240826008
0.0013970587037371368
0.001462063541205436
0.0010116002951743855
0.0009131414595425316
0.0014768479901828768
0.0019244000343208272
0.0035526526859609004
0.004634123186620539
0.0037056975048683207
1.15 < |eta| < 1.37
0.0026522151118445426
0.002974578842708829
0.001786467594232696
0.0016637370560477678
0.001840181814128283
0.0013434709043830622
0.001077708624673144
0.002078239720160199
0.0031011508547576262
0.004405064221474943
0.0069178652423138726
0.005045106261280453
1.52 < |eta| < 1.81
0.0022319771176863962
0.002506084531777008
0.0017841070484855574
0.0017960604215004024
0.001556609439144915
0.0010815914222608919
0.0009615374160715435
0.0018781339841438798
0.002555129818712039
0.0036918925850861974
0.0037859269552171847
0.0037911772820900416
1.81 < |eta| < 2.01
0.00353518904415022
0.003950612870608634
0.002491500627840006
0.0019574024747413747
0.002531448083517099
0.0017483997893005818
0.002108675977959169
0.0032529422054825624
0.00535802483767432
0.007408158551881072
0.01040446908029047
0.010011421663649564
2.01 < |eta| < 2.37
0.002182075495504284
0.002660060737411904
0.0017834176287185274
0.0016267347480211959
0.0014941895858497343
0.0011017361036359456
0.0012840972728785428
0.0027157157881555127
0.0027948831658987164
0.005437602603497139
0.006573517981330129
0.007663260565042167
