0.00<|#eta|<0.60
646588.0	791545.0
1248022.0	1488651.0
1956700.0	2207308.0
2515456.0	2808023.0
1713912.0	1874096.0
1036480.0	1127264.0
443072.0	473419.0
75190.0	78963.0
22961.0	23952.0
7200.0	7423.0
2738.0	2811.0
2122.0	2171.0
0.60<|#eta|<1.37
679943.0	836920.0
1382613.0	1614912.0
2317240.0	2595030.0
2959426.0	3246429.0
1972614.0	2120942.0
1191232.0	1276352.0
503486.0	531983.0
83909.0	88334.0
26271.0	27122.0
8130.0	8320.0
3151.0	3223.0
2340.0	2391.0
1.52<|#eta|<1.81
211535.0	258396.0
378411.0	447618.0
594105.0	671873.0
777656.0	862486.0
556052.0	598657.0
339271.0	364059.0
141698.0	150019.0
23427.0	24480.0
7117.0	7378.0
2238.0	2305.0
893.0	917.0
660.0	673.0
1.81<|#eta|<2.37
371506.0	463550.0
663908.0	787796.0
938399.0	1064696.0
1168350.0	1292814.0
779870.0	844086.0
450333.0	486810.0
186922.0	199880.0
30242.0	32090.0
8858.0	9288.0
2642.0	2770.0
1071.0	1105.0
656.0	683.0
