0 < |eta| < 0.6
374038	458122
698796	834862
1112268	1285106
1449688	1638617
965756	1072633
569897	631219
244817	267413
51559	55943
23572	25477
10264	11014
5087	5502
5470	5939
0.6 < |eta| < 0.8
113820	141954
229231	280777
369387	437356
455385	525056
303454	342869
178348	199750
76367	83761
16184	17515
7256	7819
3055	3281
1592	1717
1695	1847
0.8 < |eta| < 1.15
188841	253924
357528	452607
596909	720407
735298	872221
462823	535726
275147	312499
115774	129260
24949	27735
11471	12672
4977	5546
2425	2682
2742	3041
1.15 < |eta| < 1.37
121458	150528
211497	250202
339619	393287
433576	494621
268420	301657
159138	176514
64765	71416
13753	15125
6508	7109
2888	3117
1500	1653
1562	1692
1.52 < |eta| < 1.81
134127	169094
221355	271411
337126	396746
424651	490867
298470	333146
183154	199060
72433	77873
14586	15817
6753	7142
3014	3166
1510	1583
1607	1686
1.81 < |eta| < 2.01
83340	108379
135070	171508
198818	239534
249380	293555
166761	193227
96882	111609
38733	43598
7768	8671
3431	3814
1457	1606
687	753
733	805
2.01 < |eta| < 2.37
155159	193722
244142	296414
327162	383662
379389	436219
243859	276187
139101	157111
52791	59744
10303	11564
4598	5062
1832	2012
879	978
884	979
