0 < |eta| < 0.6
354359	458122
686731	834862
1107610	1285106
1441154	1638617
967767	1072633
574598	631219
250650	267413
52925	55943
24420	25477
10623	11014
5269	5502
5661	5939
0.6 < |eta| < 0.8
109812	141954
230255	280777
375194	437356
470928	525056
312573	342869
184574	199750
79052	83761
16833	17515
7486	7819
3149	3281
1649	1717
1775	1847
0.8 < |eta| < 1.15
191792	253924
366552	452607
618061	720407
775320	872221
490637	535726
289067	312499
122572	129260
26184	27735
12227	12672
5392	5546
2617	2682
2949	3041
1.15 < |eta| < 1.37
116054	150528
207853	250202
345960	393287
442717	494621
274923	301657
163480	176514
67243	71416
14362	15125
6804	7109
2996	3117
1599	1653
1594	1692
1.52 < |eta| < 1.81
133459	169094
226934	271411
341780	396746
433190	490867
304194	333146
184304	199060
73157	77873
14903	15817
6859	7142
3070	3166
1540	1583
1632	1686
1.81 < |eta| < 2.01
86173	108379
143301	171508
206913	239534
264715	293555
175345	193227
103114	111609
40748	43598
8086	8671
3602	3814
1535	1606
714	753
767	805
2.01 < |eta| < 2.37
152958	193722
251378	296414
337457	383662
390140	436219
251693	276187
143946	157111
54822	59744
10626	11564
4743	5062
1902	2012
894	978
889	979
