0 < |eta| < 0.6
307246.0			405326.0
608094.0			757071.0
1031272.0			1204165.0
1380613.0			1577155.0
911380.0			1018526.0
514521.0			572083.0
230522.0			246340.0
48019.0			50715.0
22430.0			23500.0
9812.0			10161.0
4894.0			5130.0
5266.0			5530.0
0.6 < |eta| < 0.8
92993.0			123541.0
206430.0			255543.0
348055.0			411046.0
448569.0			505023.0
295158.0			325453.0
165431.0			180737.0
72529.0			76941.0
15305.0			15918.0
6895.0			7175.0
2938.0			3057.0
1518.0			1589.0
1703.0			1767.0
0.8 < |eta| < 1.15
164149.0			220883.0
325583.0			406708.0
574531.0			675535.0
737230.0			838959.0
461312.0			507106.0
259410.0			283038.0
112680.0			118879.0
23742.0			25204.0
11291.0			11688.0
5019.0			5144.0
2454.0			2505.0
2738.0			2828.0
1.15 < |eta| < 1.37
95732.0			129371.0
178412.0			221646.0
309271.0			366680.0
422340.0			475894.0
258055.0			285151.0
146910.0			159495.0
61599.0			65540.0
13042.0			13693.0
6285.0			6538.0
2793.0			2909.0
1498.0			1541.0
1494.0			1590.0
1.52 < |eta| < 1.81
113175.0			144196.0
200228.0			238958.0
312317.0			366473.0
411705.0			470020.0
287251.0			315480.0
164968.0			178967.0
66549.0			70828.0
13543.0			14313.0
6331.0			6571.0
2851.0			2925.0
1429.0			1466.0
1526.0			1576.0
1.81 < |eta| < 2.01
75569.0			96537.0
129020.0			155354.0
190321.0			222962.0
251892.0			281563.0
164339.0			183620.0
92349.0			101284.0
37045.0			40077.0
7331.0			7867.0
3336.0			3536.0
1414.0			1484.0
664.0			702.0
711.0			741.0
2.01 < |eta| < 2.37
137150.0			174703.0
228769.0			271039.0
313991.0			358130.0
368882.0			418060.0
238654.0			262352.0
131079.0			142913.0
50314.0			54944.0
9689.0			10484.0
4416.0			4693.0
1768.0			1862.0
829.0			907.0
830.0			914.0
