0 < |eta| < 0.6
327665.0			405326.0
623096.0			757071.0
1023315.0			1204165.0
1373413.0			1577155.0
907722.0			1018526.0
512648.0			572083.0
225617.0			246340.0
46977.0			50715.0
21904.0			23500.0
9538.0			10161.0
4787.0			5130.0
5140.0			5530.0
0.6 < |eta| < 0.8
99746.0			123541.0
208081.0			255543.0
346552.0			411046.0
437365.0			505023.0
288000.0			325453.0
161545.0			180737.0
70362.0			76941.0
14784.0			15918.0
6706.0			7175.0
2851.0			3057.0
1474.0			1589.0
1635.0			1767.0
0.8 < |eta| < 1.15
162933.0			220883.0
316291.0			406708.0
551384.0			675535.0
698033.0			838959.0
432822.0			507106.0
247469.0			283038.0
106262.0			118879.0
22719.0			25204.0
10633.0			11688.0
4664.0			5144.0
2293.0			2505.0
2571.0			2828.0
1.15 < |eta| < 1.37
101563.0			129371.0
181712.0			221646.0
310707.0			366680.0
406621.0			475894.0
249249.0			285151.0
142275.0			159495.0
59087.0			65540.0
12426.0			13693.0
6035.0			6538.0
2726.0			2909.0
1412.0			1541.0
1491.0			1590.0
1.52 < |eta| < 1.81
113569.0			144196.0
192530.0			238958.0
305317.0			366473.0
399702.0			470020.0
278710.0			315480.0
163324.0			178967.0
65797.0			70828.0
13228.0			14313.0
6235.0			6571.0
2811.0			2925.0
1407.0			1466.0
1504.0			1576.0
1.81 < |eta| < 2.01
74520.0			96537.0
122285.0			155354.0
184860.0			222962.0
238646.0			281563.0
157888.0			183620.0
88005.0			101284.0
35756.0			40077.0
7065.0			7867.0
3198.0			3536.0
1351.0			1484.0
639.0			702.0
680.0			741.0
2.01 < |eta| < 2.37
141090.0			174703.0
224273.0			271039.0
306039.0			358130.0
363951.0			418060.0
231841.0			262352.0
126754.0			142913.0
48665.0			54944.0
9384.0			10484.0
4280.0			4693.0
1702.0			1862.0
817.0			907.0
826.0			914.0
