0 < |eta| < 0.6
307228.0			405326.0
608015.0			757071.0
1031167.0			1204165.0
1380516.0			1577155.0
911283.0			1018526.0
514404.0			572083.0
230491.0			246340.0
48016.0			50715.0
22429.0			23500.0
9812.0			10161.0
4893.0			5130.0
5266.0			5530.0
0.6 < |eta| < 0.8
92963.0			123541.0
206391.0			255543.0
347966.0			411046.0
448495.0			505023.0
295120.0			325453.0
165397.0			180737.0
72507.0			76941.0
15304.0			15918.0
6894.0			7175.0
2938.0			3057.0
1517.0			1589.0
1703.0			1767.0
0.8 < |eta| < 1.15
164100.0			220883.0
325580.0			406708.0
574532.0			675535.0
737209.0			838959.0
461308.0			507106.0
259384.0			283038.0
112667.0			118879.0
23743.0			25204.0
11287.0			11688.0
5019.0			5144.0
2454.0			2505.0
2736.0			2828.0
1.15 < |eta| < 1.37
95715.0			129371.0
178392.0			221646.0
309246.0			366680.0
422307.0			475894.0
258034.0			285151.0
146895.0			159495.0
61595.0			65540.0
13041.0			13693.0
6286.0			6538.0
2793.0			2909.0
1498.0			1541.0
1494.0			1590.0
1.52 < |eta| < 1.81
113162.0			144196.0
200210.0			238958.0
312293.0			366473.0
411670.0			470020.0
287234.0			315480.0
164957.0			178967.0
66545.0			70828.0
13542.0			14313.0
6330.0			6571.0
2851.0			2925.0
1429.0			1466.0
1526.0			1576.0
1.81 < |eta| < 2.01
75565.0			96537.0
128999.0			155354.0
190278.0			222962.0
251872.0			281563.0
164326.0			183620.0
92333.0			101284.0
37043.0			40077.0
7330.0			7867.0
3335.0			3536.0
1414.0			1484.0
664.0			702.0
712.0			741.0
2.01 < |eta| < 2.37
137133.0			174703.0
228754.0			271039.0
313965.0			358130.0
368846.0			418060.0
238621.0			262352.0
131059.0			142913.0
50306.0			54944.0
9688.0			10484.0
4416.0			4693.0
1768.0			1862.0
829.0			907.0
830.0			914.0
