0 < |eta| < 0.6
307212.0			405326.0
608006.0			757071.0
1031159.0			1204165.0
1380505.0			1577155.0
911286.0			1018526.0
514403.0			572083.0
230491.0			246340.0
48016.0			50715.0
22429.0			23500.0
9812.0			10161.0
4893.0			5130.0
5266.0			5530.0
0.6 < |eta| < 0.8
92959.0			123541.0
206387.0			255543.0
347958.0			411046.0
448484.0			505023.0
295114.0			325453.0
165397.0			180737.0
72507.0			76941.0
15307.0			15918.0
6894.0			7175.0
2938.0			3057.0
1517.0			1589.0
1704.0			1767.0
0.8 < |eta| < 1.15
164099.0			220883.0
325580.0			406708.0
574528.0			675535.0
737205.0			838959.0
461305.0			507106.0
259386.0			283038.0
112667.0			118879.0
23742.0			25204.0
11289.0			11688.0
5019.0			5144.0
2454.0			2505.0
2736.0			2828.0
1.15 < |eta| < 1.37
95707.0			129371.0
178378.0			221646.0
309234.0			366680.0
422297.0			475894.0
258034.0			285151.0
146889.0			159495.0
61592.0			65540.0
13041.0			13693.0
6286.0			6538.0
2793.0			2909.0
1498.0			1541.0
1494.0			1590.0
1.52 < |eta| < 1.81
113152.0			144196.0
200199.0			238958.0
312285.0			366473.0
411663.0			470020.0
287238.0			315480.0
164957.0			178967.0
66542.0			70828.0
13542.0			14313.0
6330.0			6571.0
2851.0			2925.0
1429.0			1466.0
1526.0			1576.0
1.81 < |eta| < 2.01
75554.0			96537.0
128992.0			155354.0
190275.0			222962.0
251876.0			281563.0
164319.0			183620.0
92334.0			101284.0
37039.0			40077.0
7332.0			7867.0
3335.0			3536.0
1414.0			1484.0
666.0			702.0
712.0			741.0
2.01 < |eta| < 2.37
137130.0			174703.0
228752.0			271039.0
313964.0			358130.0
368845.0			418060.0
238619.0			262352.0
131063.0			142913.0
50306.0			54944.0
9688.0			10484.0
4416.0			4693.0
1768.0			1862.0
829.0			907.0
830.0			914.0
