0 < |eta| < 0.6
327637.0			405326.0
622970.0			757071.0
1023079.0			1204165.0
1373264.0			1577155.0
907618.0			1018526.0
512530.0			572083.0
225574.0			246340.0
46964.0			50715.0
21897.0			23500.0
9537.0			10161.0
4782.0			5130.0
5140.0			5530.0
0.6 < |eta| < 0.8
99718.0			123541.0
208020.0			255543.0
346454.0			411046.0
437273.0			505023.0
287924.0			325453.0
161462.0			180737.0
70340.0			76941.0
14777.0			15918.0
6703.0			7175.0
2850.0			3057.0
1471.0			1589.0
1635.0			1767.0
0.8 < |eta| < 1.15
162864.0			220883.0
316274.0			406708.0
551359.0			675535.0
698016.0			838959.0
432788.0			507106.0
247399.0			283038.0
106206.0			118879.0
22709.0			25204.0
10629.0			11688.0
4662.0			5144.0
2293.0			2505.0
2571.0			2828.0
1.15 < |eta| < 1.37
101480.0			129371.0
181630.0			221646.0
310605.0			366680.0
406519.0			475894.0
249179.0			285151.0
142217.0			159495.0
59064.0			65540.0
12422.0			13693.0
6031.0			6538.0
2725.0			2909.0
1412.0			1541.0
1490.0			1590.0
1.52 < |eta| < 1.81
113539.0			144196.0
192504.0			238958.0
305259.0			366473.0
399638.0			470020.0
278677.0			315480.0
163315.0			178967.0
65793.0			70828.0
13227.0			14313.0
6234.0			6571.0
2811.0			2925.0
1407.0			1466.0
1504.0			1576.0
1.81 < |eta| < 2.01
74475.0			96537.0
122233.0			155354.0
184765.0			222962.0
238578.0			281563.0
157830.0			183620.0
87958.0			101284.0
35730.0			40077.0
7062.0			7867.0
3196.0			3536.0
1350.0			1484.0
638.0			702.0
681.0			741.0
2.01 < |eta| < 2.37
141022.0			174703.0
224175.0			271039.0
305926.0			358130.0
363864.0			418060.0
231787.0			262352.0
126713.0			142913.0
48641.0			54944.0
9379.0			10484.0
4278.0			4693.0
1702.0			1862.0
816.0			907.0
826.0			914.0
