0 < |eta| < 0.6
0.004354573983031103
0.0046820979388019586
0.0032989433508073145
0.002315295677593827
0.0025151975955967536
0.0014379284878012395
0.0012006219628427916
0.001469824357199247
0.0017491781682758968
0.001847201975899161
0.003923390098604477
0.002527500966736389
0.6 < |eta| < 0.8
0.007190065495543091
0.008032937692693835
0.005115606818272163
0.0032710230555448123
0.0034134126653969457
0.0025651676456909245
0.0025733233591377614
0.002979652356390969
0.0028842090133016115
0.005927424690457773
0.005633998900365951
0.003465009046842583
0.8 < |eta| < 1.15
0.004402052727979121
0.004637429634703797
0.0034866809887093837
0.0024571122022042603
0.002186921318761629
0.002542249035133152
0.0010697153980089764
0.0016629857318938993
0.0021141519430956483
0.001996264150578251
0.0023000248655208966
0.002397573331324711
1.15 < |eta| < 1.37
0.008295332252186665
0.014768304759420701
0.011250583163785601
0.0024841787410637634
0.0025333575543007793
0.0018232842171769252
0.0012483799760267904
0.0014587294945733774
0.002658450935740818
0.0033768220705041254
0.004521132627735336
0.007126448785991181
1.52 < |eta| < 1.81
0.005170422953128472
0.003129483530154464
0.003415235301964827
0.0020106648468618893
0.0022496000886238652
0.001201834228478332
0.0010796775362343894
0.0014029877469640614
0.0019325836023331793
0.0019154263774208893
0.0025075891391123212
0.003370979768472151
1.81 < |eta| < 2.01
0.005876074062471316
0.00610825846115275
0.00341737320281052
0.002880680714973897
0.003114651464606181
0.0017719464991438594
0.0015531550474807095
0.0034772759888278865
0.004199907247813437
0.00516850753960325
0.007451487161631559
0.012287810669519393
2.01 < |eta| < 2.37
0.00341676315251399
0.003047284067997167
0.0022848595587606165
0.002218359815540709
0.0027104802524250504
0.0012621716444412025
0.001526298048570258
0.0023153353468656013
0.003114588428009329
0.005811337522292266
0.009196834219279646
0.009927212607447276
