0 < |eta| < 0.6
363690	490621
713110	887685
1123021	1334812
1433006	1681530
997220	1153037
615131	712004
268487	298203
55571	63631
25093	28515
11017	12408
5293	6126
5730	6649
0.6 < |eta| < 0.8
113605	154467
239191	298036
383011	454674
480003	540794
322640	370033
203486	226085
83778	93583
18350	19976
7676	8826
2937	3671
1730	1973
1682	1987
0.8 < |eta| < 1.15
198239	275259
383496	481454
628159	744579
741353	901644
531749	588327
328512	358330
130297	146281
28140	31657
13056	14247
5589	6224
2763	2986
3094	3378
1.15 < |eta| < 1.37
119394	165529
211286	270730
342279	407744
450343	512022
299123	333219
187468	204194
74874	81415
16056	17397
7302	7949
3231	3455
1736	1851
1681	1888
1.52 < |eta| < 1.81
142958	191317
242755	301050
355020	422222
439749	505765
322247	356686
202574	225785
81387	87993
16459	18082
7547	8051
3391	3603
1684	1787
1745	1871
1.81 < |eta| < 2.01
88532	117709
151583	184868
212965	253033
266712	303553
183927	209401
112477	127089
42880	49128
8925	9944
3918	4299
1613	1781
730	849
806	910
2.01 < |eta| < 2.37
156064	207909
246395	316541
343322	404254
390112	452485
260694	302563
156752	180171
59451	67921
11555	13255
4776	5739
1966	2294
921	1117
906	1102
