0 < |eta| < 0.6
388781	490621
728045	887685
1143400	1334812
1477481	1681530
1030643	1153037
637815	712004
270728	298203
58008	63631
26087	28515
11486	12408
5617	6126
6084	6649
0.6 < |eta| < 0.8
121487	154467
240026	298036
380167	454674
467768	540794
327760	370033
201510	226085
84862	93583
18301	19976
8139	8826
3354	3671
1806	1973
1821	1987
0.8 < |eta| < 1.15
201516	275259
378172	481454
603074	744579
758817	901644
502037	588327
315295	358330
130302	146281
28204	31657
12789	14247
5578	6224
2661	2986
3032	3378
1.15 < |eta| < 1.37
130758	165529
225875	270730
350890	407744
446605	512022
295062	333219
182556	204194
73741	81415
15786	17397
7236	7949
3192	3455
1674	1851
1727	1888
1.52 < |eta| < 1.81
144923	191317
238009	301050
357897	422222
434256	505765
321168	356686
208198	225785
81755	87993
16531	18082
7524	8051
3413	3603
1697	1787
1781	1871
1.81 < |eta| < 2.01
88427	117709
144516	184868
208326	253033
257978	303553
181065	209401
110276	127089
43564	49128
8848	9944
3883	4299
1633	1781
781	849
823	910
2.01 < |eta| < 2.37
162302	207909
257396	316541
343027	404254
390842	452485
267021	302563
157517	180171
59577	67921
11694	13255
5165	5739
2062	2294
997	1117
991	1102
