0 < |eta| < 0.6
369347	490621
721608	887685
1141680	1334812
1459787	1681530
1022003	1153037
634616	712004
275353	298203
58162	63631
26560	28515
11673	12408
5729	6126
6147	6649
0.6 < |eta| < 0.8
115200	154467
242113	298036
387886	454674
483513	540794
329744	370033
207569	226085
86444	93583
18872	19976
8160	8826
3255	3671
1856	1973
1851	1987
0.8 < |eta| < 1.15
202291	275259
386760	481454
633950	744579
769595	901644
537755	588327
332362	358330
134997	146281
28379	31657
13529	14247
5892	6224
2863	2986
3235	3378
1.15 < |eta| < 1.37
121386	165529
216669	270730
349579	407744
455052	512022
303052	333219
189133	204194
76078	81415
16352	17397
7470	7949
3303	3455
1768	1851
1756	1888
1.52 < |eta| < 1.81
145412	191317
244140	301050
360189	422222
445370	505765
325443	356686
206744	225785
82143	87993
16867	18082
7683	8051
3458	3603
1720	1787
1812	1871
1.81 < |eta| < 2.01
90545	117709
153895	184868
216746	253033
271057	303553
187971	209401
115252	127089
44663	49128
9217	9944
4049	4299
1666	1781
782	849
857	910
2.01 < |eta| < 2.37
159111	207909
255345	316541
349908	404254
399390	452485
269778	302563
161506	180171
61449	67921
12068	13255
5145	5739
2108	2294
995	1117
992	1102
