0 < |eta| < 0.6
335101	440347
664271	812970
1076666	1256031
1407515	1619713
972619	1096430
579636	649461
255521	276019
53318	58103
24722	26440
10862	11515
5386	5744
5758	6207
0.6 < |eta| < 0.8
103077	136864
223371	273782
366570	428964
465800	520528
313729	351795
189362	206056
80063	86471
17325	18267
7577	8159
3037	3426
1731	1840
1765	1892
0.8 < |eta| < 1.15
181263	244040
353565	437905
598422	701463
741905	868296
510821	558424
303631	326893
125084	135238
26094	28986
12575	13201
5506	5791
2686	2792
3022	3150
1.15 < |eta| < 1.37
108095	145641
196216	243860
328560	382313
438872	493293
287496	315757
172464	185955
70334	75105
15006	15904
6956	7358
3105	3244
1668	1735
1665	1777
1.52 < |eta| < 1.81
129201	166070
220774	268773
336265	392532
427924	484942
309220	338293
187766	204470
75492	80528
15444	16486
7140	7443
3232	3350
1604	1664
1701	1755
1.81 < |eta| < 2.01
82348	106158
141460	169222
203312	236929
260632	291557
179165	199304
105389	116118
41359	45411
8465	9112
3783	4011
1541	1649
721	786
805	850
2.01 < |eta| < 2.37
145990	189500
236406	291912
328956	379404
383502	434155
256863	287891
148108	165000
56813	62730
11079	12134
4800	5342
1965	2128
924	1039
935	1037
