0 < |eta| < 0.6
333715	440347
661626	812970
1069206	1256031
1395627	1619713
960552	1096430
570111	649461
251963	276019
51905	58103
23933	26440
10527	11515
5139	5744
5548	6207
0.6 < |eta| < 0.8
102601	136864
222507	273782
364457	428964
464683	520528
310307	351795
187291	206056
78743	86471
17033	18267
7297	8159
2849	3426
1677	1840
1663	1892
0.8 < |eta| < 1.15
179917	244040
352911	437905
596686	701463
726046	868296
508075	558424
301822	326893
122443	135238
26000	28986
12376	13201
5344	5791
2653	2792
2932	3150
1.15 < |eta| < 1.37
107469	145641
194069	243860
325853	382313
437481	493293
285871	315757
171817	185955
69668	75105
14844	15904
6870	7358
3074	3244
1652	1735
1639	1777
1.52 < |eta| < 1.81
127897	166070
220318	268773
333832	392532
425333	484942
307724	338293
185695	204470
75127	80528
15249	16486
7067	7443
3175	3350
1577	1664
1668	1755
1.81 < |eta| < 2.01
81746	106158
142202	169222
205280	236929
258983	291557
177255	199304
104036	116118
40473	45411
8311	9112
3720	4011
1514	1649
696	786
785	850
2.01 < |eta| < 2.37
144780	189500
231683	291912
325550	379404
378612	434155
251730	287891
145851	165000
55738	62730
10783	12134
4576	5342
1890	2128
891	1039
877	1037
