0 < |eta| < 0.6
299599.0			390073.0
604515.0			738255.0
1004662.0			1177250.0
1343809.0			1557896.0
911789.0			1039823.0
516049.0			586918.0
232408.0			253835.0
47170.0			52575.0
22156.0			24365.0
9748.0			10622.0
4810.0			5362.0
5178.0			5765.0
0.6 < |eta| < 0.8
90545.0			119261.0
203858.0			249528.0
343262.0			403254.0
447019.0			500262.0
294467.0			333557.0
169294.0			186027.0
72490.0			79359.0
15502.0			16558.0
6736.0			7492.0
2644.0			3181.0
1555.0			1707.0
1582.0			1797.0
0.8 < |eta| < 1.15
159071.0			212821.0
319797.0			394356.0
561279.0			658347.0
698927.0			834948.0
481278.0			528521.0
273273.0			295456.0
112753.0			124195.0
23724.0			26315.0
11441.0			12155.0
4972.0			5358.0
2478.0			2598.0
2732.0			2922.0
1.15 < |eta| < 1.37
94287.0			125753.0
173829.0			216990.0
304980.0			356882.0
421362.0			474564.0
270400.0			298295.0
155213.0			167716.0
63992.0			68795.0
13512.0			14411.0
6365.0			6767.0
2879.0			3033.0
1552.0			1619.0
1549.0			1666.0
1.52 < |eta| < 1.81
111915.0			140823.0
197017.0			236496.0
310103.0			362842.0
408005.0			464119.0
291597.0			319900.0
166951.0			183155.0
68519.0			73063.0
13849.0			14890.0
6526.0			6835.0
2953.0			3097.0
1466.0			1541.0
1558.0			1639.0
1.81 < |eta| < 2.01
73618.0			94607.0
129633.0			153576.0
191658.0			220825.0
248628.0			279561.0
168537.0			189207.0
94318.0			105147.0
37238.0			41694.0
7573.0			8280.0
3456.0			3723.0
1391.0			1517.0
638.0			723.0
735.0			790.0
2.01 < |eta| < 2.37
131762.0			171091.0
213143.0			267283.0
304848.0			354554.0
362933.0			415825.0
239081.0			273219.0
132682.0			149829.0
51192.0			57539.0
9808.0			11013.0
4252.0			4945.0
1755.0			1962.0
823.0			961.0
823.0			972.0
