0.00<|#eta|<0.60
283512.0		355753.0		283512.0		72241.0
510948.0		631542.0		510948.0		120594.0
778621.0		968210.0		778621.0		189595.0
1027180.0		1267390.0		1027180.0		240214.0
715293.0		847912.0		715293.0		132619.0
411113.0		480297.0		411113.0		69184.0
179599.0		205827.0		179599.0		26228.0
37898.0		43062.0		37898.0		5164.0
18122.0		19265.0		18122.0		1143.0
7912.0		8522.0		7912.0		610.0
3968.0		4299.0		3968.0		331.0
4309.0		4662.0		4309.0		353.0
0.60<|#eta|<0.80
75508.0		98620.0		75508.0		23112.0
163787.0		203945.0		163787.0		40158.0
262167.0		328245.0		262167.0		66078.0
327183.0		404244.0		327183.0		77061.0
228054.0		271811.0		228054.0		43757.0
130196.0		153683.0		130196.0		23487.0
57079.0		65032.0		57079.0		7953.0
11984.0		13350.0		11984.0		1366.0
5674.0		6064.0		5674.0		390.0
2479.0		2677.0		2479.0		198.0
1320.0		1382.0		1320.0		62.0
1393.0		1474.0		1393.0		81.0
0.80<|#eta|<1.15
124469.0		171975.0		124469.0		47506.0
225567.0		315206.0		225567.0		89639.0
375717.0		524724.0		375717.0		149007.0
492677.0		666298.0		492677.0		173621.0
331794.0		429478.0		331794.0		97684.0
191786.0		244041.0		191786.0		52255.0
84096.0		101765.0		84096.0		17669.0
17215.0		21209.0		17215.0		3994.0
8888.0		9926.0		8888.0		1038.0
3916.0		4296.0		3916.0		380.0
1983.0		2128.0		1983.0		145.0
2177.0		2379.0		2177.0		202.0
1.15<|#eta|<1.37
69137.0		100792.0		69137.0		31655.0
122548.0		172225.0		122548.0		49677.0
194027.0		280205.0		194027.0		86178.0
273992.0		372976.0		273992.0		98984.0
184723.0		239568.0		184723.0		54845.0
110069.0		136699.0		110069.0		26630.0
46865.0		57292.0		46865.0		10427.0
9875.0		11767.0		9875.0		1892.0
4595.0		5411.0		4595.0		816.0
2148.0		2469.0		2148.0		321.0
1086.0		1213.0		1086.0		127.0
1147.0		1314.0		1147.0		167.0
1.52<|#eta|<1.81
92683.0		118965.0		92683.0		26282.0
149537.0		190841.0		149537.0		41304.0
224477.0		288987.0		224477.0		64510.0
288241.0		368565.0		288241.0		80324.0
209154.0		255295.0		209154.0		46141.0
122863.0		147273.0		122863.0		24410.0
51663.0		60984.0		51663.0		9321.0
10289.0		12044.0		10289.0		1755.0
4819.0		5568.0		4819.0		749.0
2104.0		2346.0		2104.0		242.0
1141.0		1220.0		1141.0		79.0
1243.0		1317.0		1243.0		74.0
1.81<|#eta|<2.01
61751.0		77253.0		61751.0		15502.0
98686.0		123961.0		98686.0		25275.0
146951.0		176713.0		146951.0		29762.0
192008.0		220812.0		192008.0		28804.0
129813.0		147443.0		129813.0		17630.0
70893.0		82446.0		70893.0		11553.0
30247.0		34331.0		30247.0		4084.0
5952.0		6972.0		5952.0		1020.0
2666.0		3009.0		2666.0		343.0
1111.0		1239.0		1111.0		128.0
543.0		609.0		543.0		66.0
505.0		549.0		505.0		44.0
2.01<|#eta|<2.37
118736.0		138377.0		118736.0		19641.0
186879.0		214201.0		186879.0		27322.0
250075.0		282456.0		250075.0		32381.0
281693.0		324092.0		281693.0		42399.0
185765.0		209451.0		185765.0		23686.0
102143.0		115298.0		102143.0		13155.0
40900.0		47173.0		40900.0		6273.0
8342.0		9469.0		8342.0		1127.0
3627.0		4046.0		3627.0		419.0
1455.0		1609.0		1455.0		154.0
752.0		791.0		752.0		39.0
628.0		698.0		628.0		70.0
