0.00<|#eta|<0.60
283514.0		355753.0		283514.0		72239.0
510947.0		631542.0		510947.0		120595.0
778631.0		968210.0		778631.0		189585.0
1027190.0		1267390.0		1027190.0		240204.0
715295.0		847912.0		715295.0		132617.0
411117.0		480297.0		411117.0		69180.0
179609.0		205827.0		179609.0		26218.0
37901.0		43062.0		37901.0		5161.0
18123.0		19265.0		18123.0		1142.0
7912.0		8522.0		7912.0		610.0
3968.0		4299.0		3968.0		331.0
4308.0		4662.0		4308.0		354.0
0.60<|#eta|<0.80
75507.0		98620.0		75507.0		23113.0
163784.0		203945.0		163784.0		40161.0
262169.0		328245.0		262169.0		66076.0
327190.0		404244.0		327190.0		77054.0
228055.0		271811.0		228055.0		43756.0
130205.0		153683.0		130205.0		23478.0
57086.0		65032.0		57086.0		7946.0
11983.0		13350.0		11983.0		1367.0
5673.0		6064.0		5673.0		391.0
2480.0		2677.0		2480.0		197.0
1320.0		1382.0		1320.0		62.0
1393.0		1474.0		1393.0		81.0
0.80<|#eta|<1.15
124465.0		171975.0		124465.0		47510.0
225568.0		315206.0		225568.0		89638.0
375711.0		524724.0		375711.0		149013.0
492675.0		666298.0		492675.0		173623.0
331792.0		429478.0		331792.0		97686.0
191788.0		244041.0		191788.0		52253.0
84094.0		101765.0		84094.0		17671.0
17215.0		21209.0		17215.0		3994.0
8888.0		9926.0		8888.0		1038.0
3916.0		4296.0		3916.0		380.0
1985.0		2128.0		1985.0		143.0
2177.0		2379.0		2177.0		202.0
1.15<|#eta|<1.37
69131.0		100792.0		69131.0		31661.0
122547.0		172225.0		122547.0		49678.0
194027.0		280205.0		194027.0		86178.0
273981.0		372976.0		273981.0		98995.0
184717.0		239568.0		184717.0		54851.0
110063.0		136699.0		110063.0		26636.0
46863.0		57292.0		46863.0		10429.0
9875.0		11767.0		9875.0		1892.0
4595.0		5411.0		4595.0		816.0
2148.0		2469.0		2148.0		321.0
1086.0		1213.0		1086.0		127.0
1146.0		1314.0		1146.0		168.0
1.52<|#eta|<1.81
92679.0		118965.0		92679.0		26286.0
149524.0		190841.0		149524.0		41317.0
224478.0		288987.0		224478.0		64509.0
288226.0		368565.0		288226.0		80339.0
209140.0		255295.0		209140.0		46155.0
122839.0		147273.0		122839.0		24434.0
51654.0		60984.0		51654.0		9330.0
10287.0		12044.0		10287.0		1757.0
4819.0		5568.0		4819.0		749.0
2104.0		2346.0		2104.0		242.0
1142.0		1220.0		1142.0		78.0
1244.0		1317.0		1244.0		73.0
1.81<|#eta|<2.01
61743.0		77253.0		61743.0		15510.0
98688.0		123961.0		98688.0		25273.0
146372.0		176713.0		146372.0		30341.0
185968.0		220812.0		185968.0		34844.0
122147.0		147443.0		122147.0		25296.0
70222.0		82446.0		70222.0		12224.0
30250.0		34331.0		30250.0		4081.0
5952.0		6972.0		5952.0		1020.0
2666.0		3009.0		2666.0		343.0
1112.0		1239.0		1112.0		127.0
543.0		609.0		543.0		66.0
505.0		549.0		505.0		44.0
2.01<|#eta|<2.37
118727.0		138377.0		118727.0		19650.0
186879.0		214201.0		186879.0		27322.0
250071.0		282456.0		250071.0		32385.0
281696.0		324092.0		281696.0		42396.0
185764.0		209451.0		185764.0		23687.0
102143.0		115298.0		102143.0		13155.0
40901.0		47173.0		40901.0		6272.0
8342.0		9469.0		8342.0		1127.0
3629.0		4046.0		3629.0		417.0
1455.0		1609.0		1455.0		154.0
752.0		791.0		752.0		39.0
628.0		698.0		628.0		70.0
