0.00<|#eta|<0.60
283518.0		355753.0		283518.0		72235.0
510987.0		631542.0		510987.0		120555.0
778645.0		968210.0		778645.0		189571.0
1027200.0		1267390.0		1027200.0		240193.0
715301.0		847912.0		715301.0		132611.0
411120.0		480297.0		411120.0		69177.0
179605.0		205827.0		179605.0		26222.0
37901.0		43062.0		37901.0		5161.0
18122.0		19265.0		18122.0		1143.0
7913.0		8522.0		7913.0		609.0
3968.0		4299.0		3968.0		331.0
4309.0		4662.0		4309.0		353.0
0.60<|#eta|<0.80
75510.0		98620.0		75510.0		23110.0
163790.0		203945.0		163790.0		40155.0
262170.0		328245.0		262170.0		66075.0
327195.0		404244.0		327195.0		77049.0
228057.0		271811.0		228057.0		43754.0
130199.0		153683.0		130199.0		23484.0
57079.0		65032.0		57079.0		7953.0
11984.0		13350.0		11984.0		1366.0
5674.0		6064.0		5674.0		390.0
2479.0		2677.0		2479.0		198.0
1320.0		1382.0		1320.0		62.0
1393.0		1474.0		1393.0		81.0
0.80<|#eta|<1.15
124479.0		171975.0		124479.0		47496.0
225575.0		315206.0		225575.0		89631.0
375738.0		524724.0		375738.0		148986.0
492702.0		666298.0		492702.0		173596.0
331803.0		429478.0		331803.0		97675.0
191804.0		244041.0		191804.0		52237.0
84103.0		101765.0		84103.0		17662.0
17218.0		21209.0		17218.0		3991.0
8889.0		9926.0		8889.0		1037.0
3916.0		4296.0		3916.0		380.0
1984.0		2128.0		1984.0		144.0
2177.0		2379.0		2177.0		202.0
1.15<|#eta|<1.37
69161.0		100792.0		69161.0		31631.0
122559.0		172225.0		122559.0		49666.0
194039.0		280205.0		194039.0		86166.0
274002.0		372976.0		274002.0		98974.0
184729.0		239568.0		184729.0		54839.0
110073.0		136699.0		110073.0		26626.0
46872.0		57292.0		46872.0		10420.0
9877.0		11767.0		9877.0		1890.0
4595.0		5411.0		4595.0		816.0
2149.0		2469.0		2149.0		320.0
1086.0		1213.0		1086.0		127.0
1147.0		1314.0		1147.0		167.0
1.52<|#eta|<1.81
92694.0		118965.0		92694.0		26271.0
149553.0		190841.0		149553.0		41288.0
224503.0		288987.0		224503.0		64484.0
288257.0		368565.0		288257.0		80308.0
209163.0		255295.0		209163.0		46132.0
122868.0		147273.0		122868.0		24405.0
51665.0		60984.0		51665.0		9319.0
10289.0		12044.0		10289.0		1755.0
4820.0		5568.0		4820.0		748.0
2104.0		2346.0		2104.0		242.0
1142.0		1220.0		1142.0		78.0
1244.0		1317.0		1244.0		73.0
1.81<|#eta|<2.01
61753.0		77253.0		61753.0		15500.0
98694.0		123961.0		98694.0		25267.0
146373.0		176713.0		146373.0		30340.0
185969.0		220812.0		185969.0		34843.0
122150.0		147443.0		122150.0		25293.0
70227.0		82446.0		70227.0		12219.0
30250.0		34331.0		30250.0		4081.0
5953.0		6972.0		5953.0		1019.0
2666.0		3009.0		2666.0		343.0
1111.0		1239.0		1111.0		128.0
543.0		609.0		543.0		66.0
505.0		549.0		505.0		44.0
2.01<|#eta|<2.37
118737.0		138377.0		118737.0		19640.0
186880.0		214201.0		186880.0		27321.0
250078.0		282456.0		250078.0		32378.0
281695.0		324092.0		281695.0		42397.0
185765.0		209451.0		185765.0		23686.0
102144.0		115298.0		102144.0		13154.0
40902.0		47173.0		40902.0		6271.0
8342.0		9469.0		8342.0		1127.0
3629.0		4046.0		3629.0		417.0
1455.0		1609.0		1455.0		154.0
752.0		791.0		752.0		39.0
628.0		698.0		628.0		70.0
