0 < |eta| < 0.6
0.00012686045437189855
0.0001419316220080962
0.00014241447353110278
8.564177397861361e-05
8.915578853948379e-05
0.0001608633186112017
0.00016840520023297855
0.00013373420059398716
0.00028226593960470656
0.00022006377103634685
0.0006465155536754814
0.0009220650114996292
0.6 < |eta| < 0.8
0.00032052500583975397
0.00020861620839174555
0.00021908871128623782
0.00010971298477252817
0.00014707005858011698
0.00037185872509880964
0.00039314496724126473
0.00027383458622565356
0.0006968641114983409
0.001821316441881032
0.002814434207048187
0.0
0.8 < |eta| < 1.15
0.0003657305528921775
0.00011371628863793776
7.623227924284419e-05
0.00022133132872398178
0.0002227109048370345
0.0002958109609160515
0.00019529415231025384
0.00019028057146929634
0.00037293796573754256
0.002102770961584771
0.0005645563123246038
0.001457958142014721
1.15 < |eta| < 1.37
0.000551036535873451
0.0006438148393322752
0.0005280655954635454
0.00023435004806237318
0.000301961373330296
0.0002515740637354339
0.000282579480888867
0.00041312015259568105
0.0012043450403811285
0.0008420384127821501
0.0
0.0008894424920585502
1.52 < |eta| < 1.81
0.0002867773465024785
0.00015741881731358266
0.00010454927954133498
0.00011583045477909654
0.0001110325845576557
0.00013879365858930935
0.00022099276899667817
0.0002880671854689595
0.0008608817911264659
0.0008374323906950463
0.0
0.0
1.81 < |eta| < 2.01
0.0019530793837947208
0.0005606768209750091
0.00038288938869248485
0.00026790483359882366
0.0003288879021213807
0.0005235604274540515
0.000633209947872808
0.0004756142604262639
0.0020196347365788532
0.0
0.0014245014245014564
0.0026990553306343035
2.01 < |eta| < 2.37
0.00045842058923260587
0.00024018655320837083
0.00023868704671256593
0.00017920862385247075
0.00019625488903242679
0.00023934325605768093
0.0003001678527678064
0.0005310725260234278
0.000602690629607106
0.0
0.0
0.0
