0 < |eta| < 0.6
325260.0			390073.0
624296.0			738255.0
1023867.0			1177250.0
1381932.0			1557896.0
937923.0			1039823.0
530620.0			586918.0
233034.0			253835.0
48654.0			52575.0
22654.0			24365.0
9960.0			10622.0
4958.0			5362.0
5321.0			5765.0
0.6 < |eta| < 0.8
97828.0			119261.0
206843.0			249528.0
343184.0			403254.0
436348.0			500262.0
296897.0			333557.0
166628.0			186027.0
72684.0			79359.0
15353.0			16558.0
6998.0			7492.0
2949.0			3181.0
1590.0			1707.0
1662.0			1797.0
0.8 < |eta| < 1.15
162776.0			212821.0
316270.0			394356.0
549621.0			658347.0
707436.0			834948.0
458510.0			528521.0
261246.0			295456.0
111785.0			124195.0
23857.0			26315.0
11045.0			12155.0
4862.0			5358.0
2367.0			2598.0
2642.0			2922.0
1.15 < |eta| < 1.37
104083.0			125753.0
185682.0			216990.0
310406.0			356882.0
417756.0			474564.0
266933.0			298295.0
151977.0			167716.0
62624.0			68795.0
13168.0			14411.0
6281.0			6767.0
2826.0			3033.0
1492.0			1619.0
1553.0			1666.0
1.52 < |eta| < 1.81
116019.0			140823.0
197231.0			236496.0
311235.0			362842.0
405032.0			464119.0
289604.0			319900.0
170210.0			183155.0
68546.0			73063.0
13873.0			14890.0
6508.0			6835.0
2956.0			3097.0
1471.0			1541.0
1560.0			1639.0
1.81 < |eta| < 2.01
74015.0			94607.0
124623.0			153576.0
187683.0			220825.0
238330.0			279561.0
164066.0			189207.0
91442.0			105147.0
37203.0			41694.0
7471.0			8280.0
3362.0			3723.0
1392.0			1517.0
660.0			723.0
714.0			790.0
2.01 < |eta| < 2.37
138480.0			171091.0
221481.0			267283.0
302866.0			354554.0
362102.0			415825.0
241765.0			273219.0
133159.0			149829.0
51076.0			57539.0
9859.0			11013.0
4478.0			4945.0
1805.0			1962.0
860.0			961.0
874.0			972.0
