user.zgao.33986780._000107.hist-output.root
user.zgao.33986780._000107.hist-output.root
/afs/cern.ch/user/z/zgao/eos/con1_fudge/user.zgao.tp-example_zmass-361106-EGAM1-e3601_s3681_r13145_p4940_20230707_110900_hist/user.zgao.33986780._000107.hist-output.root
