0.00<|#eta|<0.60
335482.0		413109.0		335482.0		77627.0
628818.0		766305.0		628818.0		137487.0
987140.0		1205480.0		987140.0		218331.0
1301400.0		1582460.0		1301400.0		281055.0
903340.0		1055180.0		903340.0		151837.0
510914.0		592638.0		510914.0		81724.0
224988.0		254812.0		224988.0		29824.0
47167.0		52638.0		47167.0		5471.0
23245.0		24393.0		23245.0		1148.0
9938.0		10622.0		9938.0		684.0
4997.0		5357.0		4997.0		360.0
5334.0		5770.0		5334.0		436.0
0.60<|#eta|<0.80
96834.0		124486.0		96834.0		27652.0
209877.0		255996.0		209877.0		46119.0
331450.0		409638.0		331450.0		78188.0
418837.0		505608.0		418837.0		86771.0
288078.0		337397.0		288078.0		49319.0
161229.0		187491.0		161229.0		26262.0
70851.0		79655.0		70851.0		8804.0
14893.0		16589.0		14893.0		1696.0
7048.0		7493.0		7048.0		445.0
2970.0		3177.0		2970.0		207.0
1598.0		1696.0		1598.0		98.0
1700.0		1805.0		1700.0		105.0
0.80<|#eta|<1.15
159659.0		216726.0		159659.0		57067.0
288862.0		397139.0		288862.0		108277.0
480740.0		658748.0		480740.0		178008.0
649146.0		835279.0		649146.0		186133.0
429071.0		531503.0		429071.0		102432.0
235951.0		296729.0		235951.0		60778.0
102954.0		124301.0		102954.0		21347.0
21435.0		26414.0		21435.0		4979.0
10849.0		12159.0		10849.0		1310.0
4845.0		5385.0		4845.0		540.0
2413.0		2605.0		2413.0		192.0
2702.0		2950.0		2702.0		248.0
1.15<|#eta|<1.37
89761.0		125895.0		89761.0		36134.0
158244.0		215988.0		158244.0		57744.0
256734.0		353321.0		256734.0		96587.0
351635.0		470819.0		351635.0		119184.0
236367.0		297354.0		236367.0		60987.0
137247.0		167375.0		137247.0		30128.0
57534.0		68548.0		57534.0		11014.0
12155.0		14362.0		12155.0		2207.0
5812.0		6789.0		5812.0		977.0
2699.0		3039.0		2699.0		340.0
1441.0		1615.0		1441.0		174.0
1465.0		1665.0		1465.0		200.0
1.52<|#eta|<1.81
114721.0		143951.0		114721.0		29230.0
192642.0		239433.0		192642.0		46791.0
288757.0		364819.0		288757.0		76062.0
371288.0		464536.0		371288.0		93248.0
267311.0		320284.0		267311.0		52973.0
154984.0		183135.0		154984.0		28151.0
62216.0		72997.0		62216.0		10781.0
12743.0		14878.0		12743.0		2135.0
6037.0		6830.0		6037.0		793.0
2885.0		3108.0		2885.0		223.0
1456.0		1525.0		1456.0		69.0
1549.0		1642.0		1549.0		93.0
1.81<|#eta|<2.01
78038.0		96191.0		78038.0		18153.0
127406.0		154677.0		127406.0		27271.0
185182.0		221049.0		185182.0		35867.0
239310.0		279129.0		239310.0		39819.0
159891.0		189350.0		159891.0		29459.0
90739.0		105134.0		90739.0		14395.0
36909.0		41669.0		36909.0		4760.0
7323.0		8300.0		7323.0		977.0
3354.0		3708.0		3354.0		354.0
1364.0		1516.0		1364.0		152.0
663.0		723.0		663.0		60.0
748.0		797.0		748.0		49.0
2.01<|#eta|<2.37
148792.0		171938.0		148792.0		23146.0
237408.0		266840.0		237408.0		29432.0
314310.0		352631.0		314310.0		38321.0
363544.0		412847.0		363544.0		49303.0
245337.0		272757.0		245337.0		27420.0
134223.0		149605.0		134223.0		15382.0
50673.0		57403.0		50673.0		6730.0
9615.0		10987.0		9615.0		1372.0
4560.0		4956.0		4560.0		396.0
1830.0		1956.0		1830.0		126.0
897.0		967.0		897.0		70.0
871.0		974.0		871.0		103.0
