0.00<|#eta|<0.60
335871.0		413109.0		335871.0		77238.0
629958.0		766305.0		629958.0		136347.0
985370.0		1205480.0		985370.0		220107.0
1298270.0		1582460.0		1298270.0		284188.0
902548.0		1055180.0		902548.0		152627.0
508631.0		592638.0		508631.0		84007.0
225193.0		254812.0		225193.0		29619.0
47070.0		52638.0		47070.0		5568.0
23175.0		24393.0		23175.0		1218.0
9942.0		10622.0		9942.0		680.0
4975.0		5357.0		4975.0		382.0
5322.0		5770.0		5322.0		448.0
0.60<|#eta|<0.80
96977.0		124486.0		96977.0		27509.0
210145.0		255996.0		210145.0		45851.0
331853.0		409638.0		331853.0		77785.0
418348.0		505608.0		418348.0		87260.0
288806.0		337397.0		288806.0		48591.0
160992.0		187491.0		160992.0		26499.0
70683.0		79655.0		70683.0		8972.0
14874.0		16589.0		14874.0		1715.0
7051.0		7493.0		7051.0		442.0
2955.0		3177.0		2955.0		222.0
1569.0		1696.0		1569.0		127.0
1689.0		1805.0		1689.0		116.0
0.80<|#eta|<1.15
159674.0		216726.0		159674.0		57052.0
288373.0		397139.0		288373.0		108766.0
483150.0		658748.0		483150.0		175598.0
647177.0		835279.0		647177.0		188102.0
428206.0		531503.0		428206.0		103297.0
236815.0		296729.0		236815.0		59914.0
103063.0		124301.0		103063.0		21238.0
21527.0		26414.0		21527.0		4887.0
10773.0		12159.0		10773.0		1386.0
4834.0		5385.0		4834.0		551.0
2369.0		2605.0		2369.0		236.0
2692.0		2950.0		2692.0		258.0
1.15<|#eta|<1.37
89571.0		125895.0		89571.0		36324.0
158843.0		215988.0		158843.0		57145.0
257625.0		353321.0		257625.0		95696.0
353592.0		470819.0		353592.0		117227.0
234355.0		297354.0		234355.0		62999.0
136956.0		167375.0		136956.0		30419.0
57575.0		68548.0		57575.0		10973.0
12142.0		14362.0		12142.0		2220.0
5806.0		6789.0		5806.0		983.0
2764.0		3039.0		2764.0		275.0
1450.0		1615.0		1450.0		165.0
1458.0		1665.0		1458.0		207.0
1.52<|#eta|<1.81
114486.0		143951.0		114486.0		29465.0
191199.0		239433.0		191199.0		48234.0
288579.0		364819.0		288579.0		76240.0
369719.0		464536.0		369719.0		94817.0
266549.0		320284.0		266549.0		53735.0
155091.0		183135.0		155091.0		28044.0
62719.0		72997.0		62719.0		10278.0
12854.0		14878.0		12854.0		2024.0
6054.0		6830.0		6054.0		776.0
2878.0		3108.0		2878.0		230.0
1443.0		1525.0		1443.0		82.0
1565.0		1642.0		1565.0		77.0
1.81<|#eta|<2.01
77475.0		96191.0		77475.0		18716.0
127067.0		154677.0		127067.0		27610.0
184795.0		221049.0		184795.0		36254.0
239944.0		279129.0		239944.0		39185.0
159920.0		189350.0		159920.0		29430.0
90276.0		105134.0		90276.0		14858.0
37257.0		41669.0		37257.0		4412.0
7358.0		8300.0		7358.0		942.0
3323.0		3708.0		3323.0		385.0
1365.0		1516.0		1365.0		151.0
670.0		723.0		670.0		53.0
748.0		797.0		748.0		49.0
2.01<|#eta|<2.37
148441.0		171938.0		148441.0		23497.0
236945.0		266840.0		236945.0		29895.0
315848.0		352631.0		315848.0		36783.0
364169.0		412847.0		364169.0		48678.0
244634.0		272757.0		244634.0		28123.0
134355.0		149605.0		134355.0		15250.0
50638.0		57403.0		50638.0		6765.0
9547.0		10987.0		9547.0		1440.0
4527.0		4956.0		4527.0		429.0
1833.0		1956.0		1833.0		123.0
900.0		967.0		900.0		67.0
874.0		974.0		874.0		100.0
