0.00<|#eta|<0.60
335241.0		413109.0		335241.0		77868.0
630562.0		766305.0		630562.0		135743.0
985560.0		1205480.0		985560.0		219917.0
1303920.0		1582460.0		1303920.0		278534.0
903366.0		1055180.0		903366.0		151805.0
511712.0		592638.0		511712.0		80926.0
224315.0		254812.0		224315.0		30497.0
46962.0		52638.0		46962.0		5676.0
23136.0		24393.0		23136.0		1257.0
9883.0		10622.0		9883.0		739.0
4973.0		5357.0		4973.0		384.0
5354.0		5770.0		5354.0		416.0
0.60<|#eta|<0.80
97105.0		124486.0		97105.0		27381.0
210335.0		255996.0		210335.0		45661.0
330456.0		409638.0		330456.0		79182.0
420650.0		505608.0		420650.0		84958.0
287848.0		337397.0		287848.0		49549.0
161287.0		187491.0		161287.0		26204.0
70675.0		79655.0		70675.0		8980.0
14967.0		16589.0		14967.0		1622.0
7063.0		7493.0		7063.0		430.0
2944.0		3177.0		2944.0		233.0
1584.0		1696.0		1584.0		112.0
1710.0		1805.0		1710.0		95.0
0.80<|#eta|<1.15
160160.0		216726.0		160160.0		56566.0
289868.0		397139.0		289868.0		107271.0
480868.0		658748.0		480868.0		177880.0
649668.0		835279.0		649668.0		185611.0
426928.0		531503.0		426928.0		104575.0
236241.0		296729.0		236241.0		60488.0
103090.0		124301.0		103090.0		21211.0
21442.0		26414.0		21442.0		4972.0
10853.0		12159.0		10853.0		1306.0
4816.0		5385.0		4816.0		569.0
2388.0		2605.0		2388.0		217.0
2670.0		2950.0		2670.0		280.0
1.15<|#eta|<1.37
88776.0		125895.0		88776.0		37119.0
158047.0		215988.0		158047.0		57941.0
258526.0		353321.0		258526.0		94795.0
352257.0		470819.0		352257.0		118562.0
234861.0		297354.0		234861.0		62493.0
137476.0		167375.0		137476.0		29899.0
57407.0		68548.0		57407.0		11141.0
12132.0		14362.0		12132.0		2230.0
5813.0		6789.0		5813.0		976.0
2756.0		3039.0		2756.0		283.0
1435.0		1615.0		1435.0		180.0
1473.0		1665.0		1473.0		192.0
1.52<|#eta|<1.81
114928.0		143951.0		114928.0		29023.0
193258.0		239433.0		193258.0		46175.0
288083.0		364819.0		288083.0		76736.0
370461.0		464536.0		370461.0		94075.0
267427.0		320284.0		267427.0		52857.0
155019.0		183135.0		155019.0		28116.0
62323.0		72997.0		62323.0		10674.0
12771.0		14878.0		12771.0		2107.0
6060.0		6830.0		6060.0		770.0
2873.0		3108.0		2873.0		235.0
1456.0		1525.0		1456.0		69.0
1565.0		1642.0		1565.0		77.0
1.81<|#eta|<2.01
77829.0		96191.0		77829.0		18362.0
126664.0		154677.0		126664.0		28013.0
184759.0		221049.0		184759.0		36290.0
240725.0		279129.0		240725.0		38404.0
159935.0		189350.0		159935.0		29415.0
90559.0		105134.0		90559.0		14575.0
37156.0		41669.0		37156.0		4513.0
7297.0		8300.0		7297.0		1003.0
3315.0		3708.0		3315.0		393.0
1393.0		1516.0		1393.0		123.0
647.0		723.0		647.0		76.0
744.0		797.0		744.0		53.0
2.01<|#eta|<2.37
148289.0		171938.0		148289.0		23649.0
239126.0		266840.0		239126.0		27714.0
316293.0		352631.0		316293.0		36338.0
363406.0		412847.0		363406.0		49441.0
244748.0		272757.0		244748.0		28009.0
134382.0		149605.0		134382.0		15223.0
50553.0		57403.0		50553.0		6850.0
9584.0		10987.0		9584.0		1403.0
4518.0		4956.0		4518.0		438.0
1847.0		1956.0		1847.0		109.0
897.0		967.0		897.0		70.0
861.0		974.0		861.0		113.0
