0.00<|#eta|<0.60
335585.0		413109.0		335585.0		77524.0
629446.0		766305.0		629446.0		136859.0
987910.0		1205480.0		987910.0		217569.0
1302200.0		1582460.0		1302200.0		280263.0
902889.0		1055180.0		902889.0		152286.0
510913.0		592638.0		510913.0		81725.0
224365.0		254812.0		224365.0		30447.0
47126.0		52638.0		47126.0		5512.0
23187.0		24393.0		23187.0		1206.0
9901.0		10622.0		9901.0		721.0
4982.0		5357.0		4982.0		375.0
5316.0		5770.0		5316.0		454.0
0.60<|#eta|<0.80
97542.0		124486.0		97542.0		26944.0
209575.0		255996.0		209575.0		46421.0
331885.0		409638.0		331885.0		77753.0
418406.0		505608.0		418406.0		87202.0
289574.0		337397.0		289574.0		47823.0
161177.0		187491.0		161177.0		26314.0
70646.0		79655.0		70646.0		9009.0
14874.0		16589.0		14874.0		1715.0
6991.0		7493.0		6991.0		502.0
2957.0		3177.0		2957.0		220.0
1592.0		1696.0		1592.0		104.0
1697.0		1805.0		1697.0		108.0
0.80<|#eta|<1.15
161144.0		216726.0		161144.0		55582.0
288663.0		397139.0		288663.0		108476.0
482329.0		658748.0		482329.0		176419.0
650888.0		835279.0		650888.0		184391.0
428144.0		531503.0		428144.0		103359.0
236371.0		296729.0		236371.0		60358.0
102733.0		124301.0		102733.0		21568.0
21518.0		26414.0		21518.0		4896.0
10861.0		12159.0		10861.0		1298.0
4832.0		5385.0		4832.0		553.0
2358.0		2605.0		2358.0		247.0
2708.0		2950.0		2708.0		242.0
1.15<|#eta|<1.37
90631.0		125895.0		90631.0		35264.0
157684.0		215988.0		157684.0		58304.0
258768.0		353321.0		258768.0		94553.0
353719.0		470819.0		353719.0		117100.0
234795.0		297354.0		234795.0		62559.0
137330.0		167375.0		137330.0		30045.0
57539.0		68548.0		57539.0		11009.0
12133.0		14362.0		12133.0		2229.0
5815.0		6789.0		5815.0		974.0
2728.0		3039.0		2728.0		311.0
1414.0		1615.0		1414.0		201.0
1451.0		1665.0		1451.0		214.0
1.52<|#eta|<1.81
114426.0		143951.0		114426.0		29525.0
191429.0		239433.0		191429.0		48004.0
289675.0		364819.0		289675.0		75144.0
369258.0		464536.0		369258.0		95278.0
267360.0		320284.0		267360.0		52924.0
154931.0		183135.0		154931.0		28204.0
62308.0		72997.0		62308.0		10689.0
12759.0		14878.0		12759.0		2119.0
6024.0		6830.0		6024.0		806.0
2882.0		3108.0		2882.0		226.0
1448.0		1525.0		1448.0		77.0
1566.0		1642.0		1566.0		76.0
1.81<|#eta|<2.01
77531.0		96191.0		77531.0		18660.0
126212.0		154677.0		126212.0		28465.0
183648.0		221049.0		183648.0		37401.0
241214.0		279129.0		241214.0		37915.0
160708.0		189350.0		160708.0		28642.0
90557.0		105134.0		90557.0		14577.0
37010.0		41669.0		37010.0		4659.0
7293.0		8300.0		7293.0		1007.0
3344.0		3708.0		3344.0		364.0
1386.0		1516.0		1386.0		130.0
656.0		723.0		656.0		67.0
750.0		797.0		750.0		47.0
2.01<|#eta|<2.37
148796.0		171938.0		148796.0		23142.0
236582.0		266840.0		236582.0		30258.0
315109.0		352631.0		315109.0		37522.0
365502.0		412847.0		365502.0		47345.0
244716.0		272757.0		244716.0		28041.0
133876.0		149605.0		133876.0		15729.0
50512.0		57403.0		50512.0		6891.0
9511.0		10987.0		9511.0		1476.0
4538.0		4956.0		4538.0		418.0
1833.0		1956.0		1833.0		123.0
912.0		967.0		912.0		55.0
848.0		974.0		848.0		126.0
