0.00<|#eta|<0.60
334601.0		413109.0		334601.0		78508.0
627130.0		766305.0		627130.0		139175.0
985490.0		1205480.0		985490.0		219986.0
1302580.0		1582460.0		1302580.0		279868.0
902698.0		1055180.0		902698.0		152477.0
509729.0		592638.0		509729.0		82909.0
224777.0		254812.0		224777.0		30035.0
46968.0		52638.0		46968.0		5670.0
23239.0		24393.0		23239.0		1154.0
9901.0		10622.0		9901.0		721.0
5001.0		5357.0		5001.0		356.0
5331.0		5770.0		5331.0		439.0
0.60<|#eta|<0.80
97912.0		124486.0		97912.0		26574.0
210200.0		255996.0		210200.0		45796.0
330271.0		409638.0		330271.0		79367.0
419460.0		505608.0		419460.0		86148.0
287897.0		337397.0		287897.0		49500.0
160828.0		187491.0		160828.0		26663.0
70726.0		79655.0		70726.0		8929.0
14908.0		16589.0		14908.0		1681.0
7010.0		7493.0		7010.0		483.0
2935.0		3177.0		2935.0		242.0
1581.0		1696.0		1581.0		115.0
1686.0		1805.0		1686.0		119.0
0.80<|#eta|<1.15
159675.0		216726.0		159675.0		57051.0
288880.0		397139.0		288880.0		108259.0
480624.0		658748.0		480624.0		178124.0
650719.0		835279.0		650719.0		184560.0
428662.0		531503.0		428662.0		102841.0
236572.0		296729.0		236572.0		60157.0
102986.0		124301.0		102986.0		21315.0
21445.0		26414.0		21445.0		4969.0
10848.0		12159.0		10848.0		1311.0
4853.0		5385.0		4853.0		532.0
2380.0		2605.0		2380.0		225.0
2687.0		2950.0		2687.0		263.0
1.15<|#eta|<1.37
89563.0		125895.0		89563.0		36332.0
158079.0		215988.0		158079.0		57909.0
257992.0		353321.0		257992.0		95329.0
354170.0		470819.0		354170.0		116649.0
234393.0		297354.0		234393.0		62961.0
136975.0		167375.0		136975.0		30400.0
57487.0		68548.0		57487.0		11061.0
12150.0		14362.0		12150.0		2212.0
5738.0		6789.0		5738.0		1051.0
2689.0		3039.0		2689.0		350.0
1453.0		1615.0		1453.0		162.0
1451.0		1665.0		1451.0		214.0
1.52<|#eta|<1.81
114498.0		143951.0		114498.0		29453.0
192625.0		239433.0		192625.0		46808.0
289634.0		364819.0		289634.0		75185.0
369992.0		464536.0		369992.0		94544.0
267514.0		320284.0		267514.0		52770.0
155471.0		183135.0		155471.0		27664.0
62290.0		72997.0		62290.0		10707.0
12779.0		14878.0		12779.0		2099.0
6034.0		6830.0		6034.0		796.0
2867.0		3108.0		2867.0		241.0
1453.0		1525.0		1453.0		72.0
1556.0		1642.0		1556.0		86.0
1.81<|#eta|<2.01
78015.0		96191.0		78015.0		18176.0
126521.0		154677.0		126521.0		28156.0
185524.0		221049.0		185524.0		35525.0
240971.0		279129.0		240971.0		38158.0
160612.0		189350.0		160612.0		28738.0
90542.0		105134.0		90542.0		14592.0
36908.0		41669.0		36908.0		4761.0
7274.0		8300.0		7274.0		1026.0
3360.0		3708.0		3360.0		348.0
1364.0		1516.0		1364.0		152.0
650.0		723.0		650.0		73.0
733.0		797.0		733.0		64.0
2.01<|#eta|<2.37
148749.0		171938.0		148749.0		23189.0
237423.0		266840.0		237423.0		29417.0
314948.0		352631.0		314948.0		37683.0
364427.0		412847.0		364427.0		48420.0
244079.0		272757.0		244079.0		28678.0
134093.0		149605.0		134093.0		15512.0
50680.0		57403.0		50680.0		6723.0
9523.0		10987.0		9523.0		1464.0
4541.0		4956.0		4541.0		415.0
1837.0		1956.0		1837.0		119.0
897.0		967.0		897.0		70.0
854.0		974.0		854.0		120.0
