0.00<|#eta|<0.60
335180.0		413109.0		335180.0		77929.0
631661.0		766305.0		631661.0		134644.0
985920.0		1205480.0		985920.0		219571.0
1303470.0		1582460.0		1303470.0		278995.0
903940.0		1055180.0		903940.0		151233.0
510080.0		592638.0		510080.0		82558.0
224169.0		254812.0		224169.0		30643.0
47073.0		52638.0		47073.0		5565.0
23190.0		24393.0		23190.0		1203.0
9896.0		10622.0		9896.0		726.0
4978.0		5357.0		4978.0		379.0
5348.0		5770.0		5348.0		422.0
0.60<|#eta|<0.80
97153.0		124486.0		97153.0		27333.0
209812.0		255996.0		209812.0		46184.0
331225.0		409638.0		331225.0		78413.0
419824.0		505608.0		419824.0		85784.0
287260.0		337397.0		287260.0		50137.0
160551.0		187491.0		160551.0		26940.0
70645.0		79655.0		70645.0		9010.0
14997.0		16589.0		14997.0		1592.0
7009.0		7493.0		7009.0		484.0
2940.0		3177.0		2940.0		237.0
1582.0		1696.0		1582.0		114.0
1701.0		1805.0		1701.0		104.0
0.80<|#eta|<1.15
160561.0		216726.0		160561.0		56165.0
288634.0		397139.0		288634.0		108505.0
481562.0		658748.0		481562.0		177186.0
649371.0		835279.0		649371.0		185908.0
425883.0		531503.0		425883.0		105620.0
235500.0		296729.0		235500.0		61229.0
103530.0		124301.0		103530.0		20771.0
21448.0		26414.0		21448.0		4966.0
10830.0		12159.0		10830.0		1329.0
4798.0		5385.0		4798.0		587.0
2381.0		2605.0		2381.0		224.0
2697.0		2950.0		2697.0		253.0
1.15<|#eta|<1.37
89875.0		125895.0		89875.0		36020.0
158559.0		215988.0		158559.0		57429.0
258521.0		353321.0		258521.0		94800.0
352908.0		470819.0		352908.0		117911.0
235587.0		297354.0		235587.0		61767.0
137825.0		167375.0		137825.0		29550.0
57580.0		68548.0		57580.0		10968.0
12151.0		14362.0		12151.0		2211.0
5823.0		6789.0		5823.0		966.0
2716.0		3039.0		2716.0		323.0
1441.0		1615.0		1441.0		174.0
1451.0		1665.0		1451.0		214.0
1.52<|#eta|<1.81
114115.0		143951.0		114115.0		29836.0
191767.0		239433.0		191767.0		47666.0
288381.0		364819.0		288381.0		76438.0
369441.0		464536.0		369441.0		95095.0
266658.0		320284.0		266658.0		53626.0
154846.0		183135.0		154846.0		28289.0
62606.0		72997.0		62606.0		10391.0
12802.0		14878.0		12802.0		2076.0
6068.0		6830.0		6068.0		762.0
2864.0		3108.0		2864.0		244.0
1448.0		1525.0		1448.0		77.0
1558.0		1642.0		1558.0		84.0
1.81<|#eta|<2.01
78395.0		96191.0		78395.0		17796.0
127437.0		154677.0		127437.0		27240.0
184622.0		221049.0		184622.0		36427.0
238956.0		279129.0		238956.0		40173.0
161336.0		189350.0		161336.0		28014.0
91048.0		105134.0		91048.0		14086.0
37193.0		41669.0		37193.0		4476.0
7346.0		8300.0		7346.0		954.0
3337.0		3708.0		3337.0		371.0
1381.0		1516.0		1381.0		135.0
655.0		723.0		655.0		68.0
748.0		797.0		748.0		49.0
2.01<|#eta|<2.37
147847.0		171938.0		147847.0		24091.0
237010.0		266840.0		237010.0		29830.0
314380.0		352631.0		314380.0		38251.0
363062.0		412847.0		363062.0		49785.0
244138.0		272757.0		244138.0		28619.0
134169.0		149605.0		134169.0		15436.0
50367.0		57403.0		50367.0		7036.0
9623.0		10987.0		9623.0		1364.0
4558.0		4956.0		4558.0		398.0
1828.0		1956.0		1828.0		128.0
903.0		967.0		903.0		64.0
848.0		974.0		848.0		126.0
