0.00<|#eta|<0.60
334876.0		413109.0		334876.0		78233.0
629171.0		766305.0		629171.0		137134.0
988800.0		1205480.0		988800.0		216690.0
1301420.0		1582460.0		1301420.0		281043.0
903542.0		1055180.0		903542.0		151629.0
511673.0		592638.0		511673.0		80965.0
224624.0		254812.0		224624.0		30188.0
47292.0		52638.0		47292.0		5346.0
23225.0		24393.0		23225.0		1168.0
9910.0		10622.0		9910.0		712.0
4980.0		5357.0		4980.0		377.0
5308.0		5770.0		5308.0		462.0
0.60<|#eta|<0.80
97407.0		124486.0		97407.0		27079.0
209795.0		255996.0		209795.0		46201.0
331389.0		409638.0		331389.0		78249.0
420784.0		505608.0		420784.0		84824.0
288395.0		337397.0		288395.0		49002.0
161202.0		187491.0		161202.0		26289.0
70781.0		79655.0		70781.0		8874.0
14850.0		16589.0		14850.0		1739.0
7084.0		7493.0		7084.0		409.0
2955.0		3177.0		2955.0		222.0
1583.0		1696.0		1583.0		113.0
1711.0		1805.0		1711.0		94.0
0.80<|#eta|<1.15
161412.0		216726.0		161412.0		55314.0
288397.0		397139.0		288397.0		108742.0
479598.0		658748.0		479598.0		179150.0
649379.0		835279.0		649379.0		185900.0
427317.0		531503.0		427317.0		104186.0
235883.0		296729.0		235883.0		60846.0
102945.0		124301.0		102945.0		21356.0
21493.0		26414.0		21493.0		4921.0
10799.0		12159.0		10799.0		1360.0
4832.0		5385.0		4832.0		553.0
2364.0		2605.0		2364.0		241.0
2681.0		2950.0		2681.0		269.0
1.15<|#eta|<1.37
90297.0		125895.0		90297.0		35598.0
158330.0		215988.0		158330.0		57658.0
256526.0		353321.0		256526.0		96795.0
353422.0		470819.0		353422.0		117397.0
234596.0		297354.0		234596.0		62758.0
137345.0		167375.0		137345.0		30030.0
57451.0		68548.0		57451.0		11097.0
12091.0		14362.0		12091.0		2271.0
5869.0		6789.0		5869.0		920.0
2732.0		3039.0		2732.0		307.0
1460.0		1615.0		1460.0		155.0
1469.0		1665.0		1469.0		196.0
1.52<|#eta|<1.81
114942.0		143951.0		114942.0		29009.0
192236.0		239433.0		192236.0		47197.0
287779.0		364819.0		287779.0		77040.0
370181.0		464536.0		370181.0		94355.0
267525.0		320284.0		267525.0		52759.0
155085.0		183135.0		155085.0		28050.0
62711.0		72997.0		62711.0		10286.0
12779.0		14878.0		12779.0		2099.0
6068.0		6830.0		6068.0		762.0
2854.0		3108.0		2854.0		254.0
1447.0		1525.0		1447.0		78.0
1571.0		1642.0		1571.0		71.0
1.81<|#eta|<2.01
77663.0		96191.0		77663.0		18528.0
126852.0		154677.0		126852.0		27825.0
185824.0		221049.0		185824.0		35225.0
240368.0		279129.0		240368.0		38761.0
159706.0		189350.0		159706.0		29644.0
90581.0		105134.0		90581.0		14553.0
36902.0		41669.0		36902.0		4767.0
7298.0		8300.0		7298.0		1002.0
3324.0		3708.0		3324.0		384.0
1382.0		1516.0		1382.0		134.0
659.0		723.0		659.0		64.0
741.0		797.0		741.0		56.0
2.01<|#eta|<2.37
148860.0		171938.0		148860.0		23078.0
237011.0		266840.0		237011.0		29829.0
315482.0		352631.0		315482.0		37149.0
363271.0		412847.0		363271.0		49576.0
244939.0		272757.0		244939.0		27818.0
134181.0		149605.0		134181.0		15424.0
50509.0		57403.0		50509.0		6894.0
9606.0		10987.0		9606.0		1381.0
4498.0		4956.0		4498.0		458.0
1868.0		1956.0		1868.0		88.0
894.0		967.0		894.0		73.0
864.0		974.0		864.0		110.0
