0.00<|#eta|<0.60
336646.0		413109.0		336646.0		76463.0
629921.0		766305.0		629921.0		136384.0
988280.0		1205480.0		988280.0		217210.0
1304720.0		1582460.0		1304720.0		277746.0
903130.0		1055180.0		903130.0		152045.0
511358.0		592638.0		511358.0		81280.0
224520.0		254812.0		224520.0		30292.0
47116.0		52638.0		47116.0		5522.0
23180.0		24393.0		23180.0		1213.0
9927.0		10622.0		9927.0		695.0
4983.0		5357.0		4983.0		374.0
5331.0		5770.0		5331.0		439.0
0.60<|#eta|<0.80
97270.0		124486.0		97270.0		27216.0
212020.0		255996.0		212020.0		43976.0
330315.0		409638.0		330315.0		79323.0
418676.0		505608.0		418676.0		86932.0
288684.0		337397.0		288684.0		48713.0
160840.0		187491.0		160840.0		26651.0
70699.0		79655.0		70699.0		8956.0
14921.0		16589.0		14921.0		1668.0
7072.0		7493.0		7072.0		421.0
2978.0		3177.0		2978.0		199.0
1587.0		1696.0		1587.0		109.0
1716.0		1805.0		1716.0		89.0
0.80<|#eta|<1.15
159845.0		216726.0		159845.0		56881.0
288932.0		397139.0		288932.0		108207.0
479157.0		658748.0		479157.0		179591.0
648784.0		835279.0		648784.0		186495.0
426810.0		531503.0		426810.0		104693.0
236080.0		296729.0		236080.0		60649.0
102812.0		124301.0		102812.0		21489.0
21493.0		26414.0		21493.0		4921.0
10846.0		12159.0		10846.0		1313.0
4844.0		5385.0		4844.0		541.0
2386.0		2605.0		2386.0		219.0
2700.0		2950.0		2700.0		250.0
1.15<|#eta|<1.37
89417.0		125895.0		89417.0		36478.0
157743.0		215988.0		157743.0		58245.0
258517.0		353321.0		258517.0		94804.0
352544.0		470819.0		352544.0		118275.0
234421.0		297354.0		234421.0		62933.0
136857.0		167375.0		136857.0		30518.0
57792.0		68548.0		57792.0		10756.0
12209.0		14362.0		12209.0		2153.0
5814.0		6789.0		5814.0		975.0
2709.0		3039.0		2709.0		330.0
1426.0		1615.0		1426.0		189.0
1443.0		1665.0		1443.0		222.0
1.52<|#eta|<1.81
115020.0		143951.0		115020.0		28931.0
191213.0		239433.0		191213.0		48220.0
289790.0		364819.0		289790.0		75029.0
371723.0		464536.0		371723.0		92813.0
266606.0		320284.0		266606.0		53678.0
155425.0		183135.0		155425.0		27710.0
62361.0		72997.0		62361.0		10636.0
12778.0		14878.0		12778.0		2100.0
6044.0		6830.0		6044.0		786.0
2876.0		3108.0		2876.0		232.0
1448.0		1525.0		1448.0		77.0
1554.0		1642.0		1554.0		88.0
1.81<|#eta|<2.01
78488.0		96191.0		78488.0		17703.0
126443.0		154677.0		126443.0		28234.0
185353.0		221049.0		185353.0		35696.0
240492.0		279129.0		240492.0		38637.0
159731.0		189350.0		159731.0		29619.0
90562.0		105134.0		90562.0		14572.0
37024.0		41669.0		37024.0		4645.0
7359.0		8300.0		7359.0		941.0
3333.0		3708.0		3333.0		375.0
1379.0		1516.0		1379.0		137.0
659.0		723.0		659.0		64.0
734.0		797.0		734.0		63.0
2.01<|#eta|<2.37
147975.0		171938.0		147975.0		23963.0
238716.0		266840.0		238716.0		28124.0
314398.0		352631.0		314398.0		38233.0
363322.0		412847.0		363322.0		49525.0
244358.0		272757.0		244358.0		28399.0
134119.0		149605.0		134119.0		15486.0
50457.0		57403.0		50457.0		6946.0
9647.0		10987.0		9647.0		1340.0
4535.0		4956.0		4535.0		421.0
1825.0		1956.0		1825.0		131.0
902.0		967.0		902.0		65.0
856.0		974.0		856.0		118.0
