0.00<|#eta|<0.60
335001.0		413109.0		335001.0		78108.0
630069.0		766305.0		630069.0		136236.0
984690.0		1205480.0		984690.0		220782.0
1301710.0		1582460.0		1301710.0		280747.0
903608.0		1055180.0		903608.0		151563.0
511640.0		592638.0		511640.0		80998.0
224536.0		254812.0		224536.0		30276.0
47102.0		52638.0		47102.0		5536.0
23167.0		24393.0		23167.0		1226.0
9901.0		10622.0		9901.0		721.0
4993.0		5357.0		4993.0		364.0
5315.0		5770.0		5315.0		455.0
0.60<|#eta|<0.80
96954.0		124486.0		96954.0		27532.0
209554.0		255996.0		209554.0		46442.0
329927.0		409638.0		329927.0		79711.0
418955.0		505608.0		418955.0		86653.0
288265.0		337397.0		288265.0		49132.0
160432.0		187491.0		160432.0		27059.0
70847.0		79655.0		70847.0		8808.0
14966.0		16589.0		14966.0		1623.0
7028.0		7493.0		7028.0		465.0
2950.0		3177.0		2950.0		227.0
1599.0		1696.0		1599.0		97.0
1702.0		1805.0		1702.0		103.0
0.80<|#eta|<1.15
160613.0		216726.0		160613.0		56113.0
289323.0		397139.0		289323.0		107816.0
481589.0		658748.0		481589.0		177159.0
648337.0		835279.0		648337.0		186942.0
428457.0		531503.0		428457.0		103046.0
235520.0		296729.0		235520.0		61209.0
103045.0		124301.0		103045.0		21256.0
21457.0		26414.0		21457.0		4957.0
10867.0		12159.0		10867.0		1292.0
4822.0		5385.0		4822.0		563.0
2393.0		2605.0		2393.0		212.0
2689.0		2950.0		2689.0		261.0
1.15<|#eta|<1.37
90294.0		125895.0		90294.0		35601.0
157926.0		215988.0		157926.0		58062.0
257515.0		353321.0		257515.0		95806.0
355822.0		470819.0		355822.0		114997.0
234580.0		297354.0		234580.0		62774.0
136871.0		167375.0		136871.0		30504.0
57662.0		68548.0		57662.0		10886.0
12161.0		14362.0		12161.0		2201.0
5819.0		6789.0		5819.0		970.0
2726.0		3039.0		2726.0		313.0
1422.0		1615.0		1422.0		193.0
1465.0		1665.0		1465.0		200.0
1.52<|#eta|<1.81
113999.0		143951.0		113999.0		29952.0
192401.0		239433.0		192401.0		47032.0
289628.0		364819.0		289628.0		75191.0
370594.0		464536.0		370594.0		93942.0
267262.0		320284.0		267262.0		53022.0
154710.0		183135.0		154710.0		28425.0
62420.0		72997.0		62420.0		10577.0
12768.0		14878.0		12768.0		2110.0
6073.0		6830.0		6073.0		757.0
2883.0		3108.0		2883.0		225.0
1440.0		1525.0		1440.0		85.0
1578.0		1642.0		1578.0		64.0
1.81<|#eta|<2.01
77533.0		96191.0		77533.0		18658.0
126981.0		154677.0		126981.0		27696.0
185291.0		221049.0		185291.0		35758.0
240686.0		279129.0		240686.0		38443.0
159627.0		189350.0		159627.0		29723.0
90546.0		105134.0		90546.0		14588.0
36928.0		41669.0		36928.0		4741.0
7312.0		8300.0		7312.0		988.0
3356.0		3708.0		3356.0		352.0
1384.0		1516.0		1384.0		132.0
659.0		723.0		659.0		64.0
752.0		797.0		752.0		45.0
2.01<|#eta|<2.37
148705.0		171938.0		148705.0		23233.0
237834.0		266840.0		237834.0		29006.0
315060.0		352631.0		315060.0		37571.0
363892.0		412847.0		363892.0		48955.0
245053.0		272757.0		245053.0		27704.0
134261.0		149605.0		134261.0		15344.0
50390.0		57403.0		50390.0		7013.0
9613.0		10987.0		9613.0		1374.0
4535.0		4956.0		4535.0		421.0
1837.0		1956.0		1837.0		119.0
900.0		967.0		900.0		67.0
862.0		974.0		862.0		112.0
