0.00<|#eta|<0.60
335985.0		413109.0		335985.0		77124.0
629112.0		766305.0		629112.0		137193.0
989430.0		1205480.0		989430.0		216056.0
1303460.0		1582460.0		1303460.0		278988.0
903466.0		1055180.0		903466.0		151710.0
511260.0		592638.0		511260.0		81378.0
224996.0		254812.0		224996.0		29816.0
47138.0		52638.0		47138.0		5500.0
23215.0		24393.0		23215.0		1178.0
9908.0		10622.0		9908.0		714.0
4999.0		5357.0		4999.0		358.0
5392.0		5770.0		5392.0		378.0
0.60<|#eta|<0.80
97439.0		124486.0		97439.0		27047.0
212676.0		255996.0		212676.0		43320.0
330220.0		409638.0		330220.0		79418.0
417365.0		505608.0		417365.0		88243.0
288590.0		337397.0		288590.0		48807.0
160794.0		187491.0		160794.0		26697.0
70818.0		79655.0		70818.0		8837.0
14916.0		16589.0		14916.0		1673.0
7058.0		7493.0		7058.0		435.0
2962.0		3177.0		2962.0		215.0
1598.0		1696.0		1598.0		98.0
1705.0		1805.0		1705.0		100.0
0.80<|#eta|<1.15
159823.0		216726.0		159823.0		56903.0
289238.0		397139.0		289238.0		107901.0
482643.0		658748.0		482643.0		176105.0
648823.0		835279.0		648823.0		186456.0
427600.0		531503.0		427600.0		103903.0
236108.0		296729.0		236108.0		60621.0
102738.0		124301.0		102738.0		21563.0
21573.0		26414.0		21573.0		4841.0
10904.0		12159.0		10904.0		1255.0
4809.0		5385.0		4809.0		576.0
2393.0		2605.0		2393.0		212.0
2678.0		2950.0		2678.0		272.0
1.15<|#eta|<1.37
90030.0		125895.0		90030.0		35865.0
158405.0		215988.0		158405.0		57583.0
257921.0		353321.0		257921.0		95400.0
356230.0		470819.0		356230.0		114589.0
234971.0		297354.0		234971.0		62383.0
137722.0		167375.0		137722.0		29653.0
57673.0		68548.0		57673.0		10875.0
12168.0		14362.0		12168.0		2194.0
5799.0		6789.0		5799.0		990.0
2741.0		3039.0		2741.0		298.0
1460.0		1615.0		1460.0		155.0
1471.0		1665.0		1471.0		194.0
1.52<|#eta|<1.81
114878.0		143951.0		114878.0		29073.0
192348.0		239433.0		192348.0		47085.0
289595.0		364819.0		289595.0		75224.0
371694.0		464536.0		371694.0		92842.0
266812.0		320284.0		266812.0		53472.0
155322.0		183135.0		155322.0		27813.0
62354.0		72997.0		62354.0		10643.0
12742.0		14878.0		12742.0		2136.0
6037.0		6830.0		6037.0		793.0
2893.0		3108.0		2893.0		215.0
1450.0		1525.0		1450.0		75.0
1577.0		1642.0		1577.0		65.0
1.81<|#eta|<2.01
78139.0		96191.0		78139.0		18052.0
126787.0		154677.0		126787.0		27890.0
184735.0		221049.0		184735.0		36314.0
240184.0		279129.0		240184.0		38945.0
159713.0		189350.0		159713.0		29637.0
90748.0		105134.0		90748.0		14386.0
37020.0		41669.0		37020.0		4649.0
7312.0		8300.0		7312.0		988.0
3363.0		3708.0		3363.0		345.0
1382.0		1516.0		1382.0		134.0
649.0		723.0		649.0		74.0
735.0		797.0		735.0		62.0
2.01<|#eta|<2.37
148399.0		171938.0		148399.0		23539.0
238644.0		266840.0		238644.0		28196.0
314693.0		352631.0		314693.0		37938.0
363857.0		412847.0		363857.0		48990.0
244523.0		272757.0		244523.0		28234.0
133959.0		149605.0		133959.0		15646.0
50531.0		57403.0		50531.0		6872.0
9550.0		10987.0		9550.0		1437.0
4504.0		4956.0		4504.0		452.0
1825.0		1956.0		1825.0		131.0
896.0		967.0		896.0		71.0
866.0		974.0		866.0		108.0
