0.00<|#eta|<0.60
336024.0		413109.0		336024.0		77085.0
631091.0		766305.0		631091.0		135214.0
987930.0		1205480.0		987930.0		217542.0
1302430.0		1582460.0		1302430.0		280022.0
901653.0		1055180.0		901653.0		153522.0
510525.0		592638.0		510525.0		82113.0
224502.0		254812.0		224502.0		30310.0
47255.0		52638.0		47255.0		5383.0
23221.0		24393.0		23221.0		1172.0
9899.0		10622.0		9899.0		723.0
5009.0		5357.0		5009.0		348.0
5354.0		5770.0		5354.0		416.0
0.60<|#eta|<0.80
97084.0		124486.0		97084.0		27402.0
209248.0		255996.0		209248.0		46748.0
332236.0		409638.0		332236.0		77402.0
417349.0		505608.0		417349.0		88259.0
286873.0		337397.0		286873.0		50524.0
161240.0		187491.0		161240.0		26251.0
70498.0		79655.0		70498.0		9157.0
14883.0		16589.0		14883.0		1706.0
7029.0		7493.0		7029.0		464.0
2938.0		3177.0		2938.0		239.0
1566.0		1696.0		1566.0		130.0
1690.0		1805.0		1690.0		115.0
0.80<|#eta|<1.15
160172.0		216726.0		160172.0		56554.0
288819.0		397139.0		288819.0		108320.0
480543.0		658748.0		480543.0		178205.0
646599.0		835279.0		646599.0		188680.0
426810.0		531503.0		426810.0		104693.0
236348.0		296729.0		236348.0		60381.0
102869.0		124301.0		102869.0		21432.0
21639.0		26414.0		21639.0		4775.0
10788.0		12159.0		10788.0		1371.0
4851.0		5385.0		4851.0		534.0
2384.0		2605.0		2384.0		221.0
2682.0		2950.0		2682.0		268.0
1.15<|#eta|<1.37
89678.0		125895.0		89678.0		36217.0
157559.0		215988.0		157559.0		58429.0
257606.0		353321.0		257606.0		95715.0
354261.0		470819.0		354261.0		116558.0
233869.0		297354.0		233869.0		63485.0
137503.0		167375.0		137503.0		29872.0
57360.0		68548.0		57360.0		11188.0
12210.0		14362.0		12210.0		2152.0
5796.0		6789.0		5796.0		993.0
2712.0		3039.0		2712.0		327.0
1452.0		1615.0		1452.0		163.0
1465.0		1665.0		1465.0		200.0
1.52<|#eta|<1.81
114332.0		143951.0		114332.0		29619.0
190396.0		239433.0		190396.0		49037.0
290058.0		364819.0		290058.0		74761.0
369062.0		464536.0		369062.0		95474.0
267643.0		320284.0		267643.0		52641.0
154777.0		183135.0		154777.0		28358.0
62213.0		72997.0		62213.0		10784.0
12823.0		14878.0		12823.0		2055.0
6066.0		6830.0		6066.0		764.0
2873.0		3108.0		2873.0		235.0
1440.0		1525.0		1440.0		85.0
1566.0		1642.0		1566.0		76.0
1.81<|#eta|<2.01
78331.0		96191.0		78331.0		17860.0
127142.0		154677.0		127142.0		27535.0
184555.0		221049.0		184555.0		36494.0
240914.0		279129.0		240914.0		38215.0
159413.0		189350.0		159413.0		29937.0
90913.0		105134.0		90913.0		14221.0
37308.0		41669.0		37308.0		4361.0
7272.0		8300.0		7272.0		1028.0
3355.0		3708.0		3355.0		353.0
1366.0		1516.0		1366.0		150.0
647.0		723.0		647.0		76.0
745.0		797.0		745.0		52.0
2.01<|#eta|<2.37
149064.0		171938.0		149064.0		22874.0
236772.0		266840.0		236772.0		30068.0
315470.0		352631.0		315470.0		37161.0
363973.0		412847.0		363973.0		48874.0
244578.0		272757.0		244578.0		28179.0
134255.0		149605.0		134255.0		15350.0
50454.0		57403.0		50454.0		6949.0
9542.0		10987.0		9542.0		1445.0
4514.0		4956.0		4514.0		442.0
1811.0		1956.0		1811.0		145.0
894.0		967.0		894.0		73.0
874.0		974.0		874.0		100.0
