0.00<|#eta|<0.60
336249.0		413109.0		336249.0		76860.0
629577.0		766305.0		629577.0		136728.0
989420.0		1205480.0		989420.0		216065.0
1301450.0		1582460.0		1301450.0		280993.0
902258.0		1055180.0		902258.0		152917.0
509835.0		592638.0		509835.0		82803.0
224314.0		254812.0		224314.0		30498.0
47257.0		52638.0		47257.0		5381.0
23149.0		24393.0		23149.0		1244.0
9882.0		10622.0		9882.0		740.0
4982.0		5357.0		4982.0		375.0
5348.0		5770.0		5348.0		422.0
0.60<|#eta|<0.80
97150.0		124486.0		97150.0		27336.0
209844.0		255996.0		209844.0		46152.0
332075.0		409638.0		332075.0		77563.0
419998.0		505608.0		419998.0		85610.0
288282.0		337397.0		288282.0		49115.0
160715.0		187491.0		160715.0		26776.0
70716.0		79655.0		70716.0		8939.0
14954.0		16589.0		14954.0		1635.0
7009.0		7493.0		7009.0		484.0
2986.0		3177.0		2986.0		191.0
1591.0		1696.0		1591.0		105.0
1702.0		1805.0		1702.0		103.0
0.80<|#eta|<1.15
159090.0		216726.0		159090.0		57636.0
288444.0		397139.0		288444.0		108695.0
482914.0		658748.0		482914.0		175834.0
647637.0		835279.0		647637.0		187642.0
428970.0		531503.0		428970.0		102533.0
236197.0		296729.0		236197.0		60532.0
102820.0		124301.0		102820.0		21481.0
21568.0		26414.0		21568.0		4846.0
10842.0		12159.0		10842.0		1317.0
4853.0		5385.0		4853.0		532.0
2369.0		2605.0		2369.0		236.0
2708.0		2950.0		2708.0		242.0
1.15<|#eta|<1.37
89554.0		125895.0		89554.0		36341.0
157844.0		215988.0		157844.0		58144.0
259456.0		353321.0		259456.0		93865.0
354244.0		470819.0		354244.0		116575.0
233243.0		297354.0		233243.0		64111.0
137827.0		167375.0		137827.0		29548.0
57695.0		68548.0		57695.0		10853.0
12220.0		14362.0		12220.0		2142.0
5801.0		6789.0		5801.0		988.0
2690.0		3039.0		2690.0		349.0
1443.0		1615.0		1443.0		172.0
1470.0		1665.0		1470.0		195.0
1.52<|#eta|<1.81
114462.0		143951.0		114462.0		29489.0
192460.0		239433.0		192460.0		46973.0
286364.0		364819.0		286364.0		78455.0
371787.0		464536.0		371787.0		92749.0
266198.0		320284.0		266198.0		54086.0
155384.0		183135.0		155384.0		27751.0
62538.0		72997.0		62538.0		10459.0
12814.0		14878.0		12814.0		2064.0
6103.0		6830.0		6103.0		727.0
2850.0		3108.0		2850.0		258.0
1448.0		1525.0		1448.0		77.0
1572.0		1642.0		1572.0		70.0
1.81<|#eta|<2.01
78575.0		96191.0		78575.0		17616.0
126336.0		154677.0		126336.0		28341.0
183951.0		221049.0		183951.0		37098.0
239623.0		279129.0		239623.0		39506.0
160010.0		189350.0		160010.0		29340.0
90791.0		105134.0		90791.0		14343.0
37064.0		41669.0		37064.0		4605.0
7353.0		8300.0		7353.0		947.0
3329.0		3708.0		3329.0		379.0
1383.0		1516.0		1383.0		133.0
662.0		723.0		662.0		61.0
758.0		797.0		758.0		39.0
2.01<|#eta|<2.37
148702.0		171938.0		148702.0		23236.0
237471.0		266840.0		237471.0		29369.0
316186.0		352631.0		316186.0		36445.0
364358.0		412847.0		364358.0		48489.0
244123.0		272757.0		244123.0		28634.0
134043.0		149605.0		134043.0		15562.0
50529.0		57403.0		50529.0		6874.0
9571.0		10987.0		9571.0		1416.0
4562.0		4956.0		4562.0		394.0
1827.0		1956.0		1827.0		129.0
892.0		967.0		892.0		75.0
828.0		974.0		828.0		146.0
