0.00<|#eta|<0.60
336192.0		413109.0		336192.0		76917.0
631119.0		766305.0		631119.0		135186.0
990550.0		1205480.0		990550.0		214924.0
1303100.0		1582460.0		1303100.0		279366.0
902211.0		1055180.0		902211.0		152964.0
510845.0		592638.0		510845.0		81793.0
224827.0		254812.0		224827.0		29985.0
47103.0		52638.0		47103.0		5535.0
23134.0		24393.0		23134.0		1259.0
9918.0		10622.0		9918.0		704.0
4980.0		5357.0		4980.0		377.0
5343.0		5770.0		5343.0		427.0
0.60<|#eta|<0.80
97033.0		124486.0		97033.0		27453.0
210682.0		255996.0		210682.0		45314.0
332194.0		409638.0		332194.0		77444.0
416993.0		505608.0		416993.0		88615.0
287397.0		337397.0		287397.0		50000.0
161018.0		187491.0		161018.0		26473.0
70631.0		79655.0		70631.0		9024.0
14802.0		16589.0		14802.0		1787.0
7078.0		7493.0		7078.0		415.0
2946.0		3177.0		2946.0		231.0
1584.0		1696.0		1584.0		112.0
1703.0		1805.0		1703.0		102.0
0.80<|#eta|<1.15
160795.0		216726.0		160795.0		55931.0
290093.0		397139.0		290093.0		107046.0
482253.0		658748.0		482253.0		176495.0
648742.0		835279.0		648742.0		186537.0
428382.0		531503.0		428382.0		103121.0
235574.0		296729.0		235574.0		61155.0
103083.0		124301.0		103083.0		21218.0
21569.0		26414.0		21569.0		4845.0
10873.0		12159.0		10873.0		1286.0
4856.0		5385.0		4856.0		529.0
2386.0		2605.0		2386.0		219.0
2711.0		2950.0		2711.0		239.0
1.15<|#eta|<1.37
89444.0		125895.0		89444.0		36451.0
159358.0		215988.0		159358.0		56630.0
258417.0		353321.0		258417.0		94904.0
353489.0		470819.0		353489.0		117330.0
234841.0		297354.0		234841.0		62513.0
136869.0		167375.0		136869.0		30506.0
57556.0		68548.0		57556.0		10992.0
12142.0		14362.0		12142.0		2220.0
5797.0		6789.0		5797.0		992.0
2707.0		3039.0		2707.0		332.0
1445.0		1615.0		1445.0		170.0
1455.0		1665.0		1455.0		210.0
1.52<|#eta|<1.81
114395.0		143951.0		114395.0		29556.0
192372.0		239433.0		192372.0		47061.0
288034.0		364819.0		288034.0		76785.0
369849.0		464536.0		369849.0		94687.0
267972.0		320284.0		267972.0		52312.0
155233.0		183135.0		155233.0		27902.0
62098.0		72997.0		62098.0		10899.0
12790.0		14878.0		12790.0		2088.0
6030.0		6830.0		6030.0		800.0
2883.0		3108.0		2883.0		225.0
1451.0		1525.0		1451.0		74.0
1564.0		1642.0		1564.0		78.0
1.81<|#eta|<2.01
78729.0		96191.0		78729.0		17462.0
126467.0		154677.0		126467.0		28210.0
183976.0		221049.0		183976.0		37073.0
240644.0		279129.0		240644.0		38485.0
160454.0		189350.0		160454.0		28896.0
90462.0		105134.0		90462.0		14672.0
36990.0		41669.0		36990.0		4679.0
7287.0		8300.0		7287.0		1013.0
3340.0		3708.0		3340.0		368.0
1391.0		1516.0		1391.0		125.0
654.0		723.0		654.0		69.0
744.0		797.0		744.0		53.0
2.01<|#eta|<2.37
147551.0		171938.0		147551.0		24387.0
237910.0		266840.0		237910.0		28930.0
315849.0		352631.0		315849.0		36782.0
363932.0		412847.0		363932.0		48915.0
243786.0		272757.0		243786.0		28971.0
134091.0		149605.0		134091.0		15514.0
50680.0		57403.0		50680.0		6723.0
9567.0		10987.0		9567.0		1420.0
4554.0		4956.0		4554.0		402.0
1821.0		1956.0		1821.0		135.0
899.0		967.0		899.0		68.0
860.0		974.0		860.0		114.0
