0.00<|#eta|<0.60
334792.0		413109.0		334792.0		78317.0
629601.0		766305.0		629601.0		136704.0
988120.0		1205480.0		988120.0		217365.0
1305860.0		1582460.0		1305860.0		276581.0
903344.0		1055180.0		903344.0		151833.0
511458.0		592638.0		511458.0		81180.0
224786.0		254812.0		224786.0		30026.0
47178.0		52638.0		47178.0		5460.0
23200.0		24393.0		23200.0		1193.0
9891.0		10622.0		9891.0		731.0
4968.0		5357.0		4968.0		389.0
5360.0		5770.0		5360.0		410.0
0.60<|#eta|<0.80
96932.0		124486.0		96932.0		27554.0
209567.0		255996.0		209567.0		46429.0
331294.0		409638.0		331294.0		78344.0
420168.0		505608.0		420168.0		85440.0
287739.0		337397.0		287739.0		49658.0
160707.0		187491.0		160707.0		26784.0
70770.0		79655.0		70770.0		8885.0
14930.0		16589.0		14930.0		1659.0
7063.0		7493.0		7063.0		430.0
2933.0		3177.0		2933.0		244.0
1589.0		1696.0		1589.0		107.0
1710.0		1805.0		1710.0		95.0
0.80<|#eta|<1.15
160537.0		216726.0		160537.0		56189.0
290681.0		397139.0		290681.0		106458.0
483752.0		658748.0		483752.0		174996.0
648192.0		835279.0		648192.0		187087.0
427401.0		531503.0		427401.0		104102.0
235453.0		296729.0		235453.0		61276.0
103049.0		124301.0		103049.0		21252.0
21465.0		26414.0		21465.0		4949.0
10823.0		12159.0		10823.0		1336.0
4775.0		5385.0		4775.0		610.0
2404.0		2605.0		2404.0		201.0
2700.0		2950.0		2700.0		250.0
1.15<|#eta|<1.37
90002.0		125895.0		90002.0		35893.0
157907.0		215988.0		157907.0		58081.0
258325.0		353321.0		258325.0		94996.0
352599.0		470819.0		352599.0		118220.0
234878.0		297354.0		234878.0		62476.0
137286.0		167375.0		137286.0		30089.0
57545.0		68548.0		57545.0		11003.0
12152.0		14362.0		12152.0		2210.0
5909.0		6789.0		5909.0		880.0
2740.0		3039.0		2740.0		299.0
1432.0		1615.0		1432.0		183.0
1460.0		1665.0		1460.0		205.0
1.52<|#eta|<1.81
114107.0		143951.0		114107.0		29844.0
192588.0		239433.0		192588.0		46845.0
288881.0		364819.0		288881.0		75938.0
369873.0		464536.0		369873.0		94663.0
266945.0		320284.0		266945.0		53339.0
155246.0		183135.0		155246.0		27889.0
62431.0		72997.0		62431.0		10566.0
12905.0		14878.0		12905.0		1973.0
6062.0		6830.0		6062.0		768.0
2871.0		3108.0		2871.0		237.0
1459.0		1525.0		1459.0		66.0
1572.0		1642.0		1572.0		70.0
1.81<|#eta|<2.01
78062.0		96191.0		78062.0		18129.0
127106.0		154677.0		127106.0		27571.0
184844.0		221049.0		184844.0		36205.0
240197.0		279129.0		240197.0		38932.0
160325.0		189350.0		160325.0		29025.0
90154.0		105134.0		90154.0		14980.0
37037.0		41669.0		37037.0		4632.0
7302.0		8300.0		7302.0		998.0
3381.0		3708.0		3381.0		327.0
1367.0		1516.0		1367.0		149.0
646.0		723.0		646.0		77.0
745.0		797.0		745.0		52.0
2.01<|#eta|<2.37
148162.0		171938.0		148162.0		23776.0
237465.0		266840.0		237465.0		29375.0
314749.0		352631.0		314749.0		37882.0
363798.0		412847.0		363798.0		49049.0
245263.0		272757.0		245263.0		27494.0
134106.0		149605.0		134106.0		15499.0
50376.0		57403.0		50376.0		7027.0
9576.0		10987.0		9576.0		1411.0
4549.0		4956.0		4549.0		407.0
1839.0		1956.0		1839.0		117.0
898.0		967.0		898.0		69.0
861.0		974.0		861.0		113.0
