0.00<|#eta|<0.60
337070.0		413109.0		337070.0		76039.0
630299.0		766305.0		630299.0		136006.0
983830.0		1205480.0		983830.0		221651.0
1303260.0		1582460.0		1303260.0		279191.0
900889.0		1055180.0		900889.0		154286.0
512146.0		592638.0		512146.0		80492.0
224873.0		254812.0		224873.0		29939.0
47054.0		52638.0		47054.0		5584.0
23195.0		24393.0		23195.0		1198.0
9875.0		10622.0		9875.0		747.0
5012.0		5357.0		5012.0		345.0
5356.0		5770.0		5356.0		414.0
0.60<|#eta|<0.80
96713.0		124486.0		96713.0		27773.0
210079.0		255996.0		210079.0		45917.0
330903.0		409638.0		330903.0		78735.0
418419.0		505608.0		418419.0		87189.0
289577.0		337397.0		289577.0		47820.0
160841.0		187491.0		160841.0		26650.0
70901.0		79655.0		70901.0		8754.0
14928.0		16589.0		14928.0		1661.0
7022.0		7493.0		7022.0		471.0
2981.0		3177.0		2981.0		196.0
1607.0		1696.0		1607.0		89.0
1698.0		1805.0		1698.0		107.0
0.80<|#eta|<1.15
160137.0		216726.0		160137.0		56589.0
289482.0		397139.0		289482.0		107657.0
483056.0		658748.0		483056.0		175692.0
649195.0		835279.0		649195.0		186084.0
429265.0		531503.0		429265.0		102238.0
234951.0		296729.0		234951.0		61778.0
103039.0		124301.0		103039.0		21262.0
21551.0		26414.0		21551.0		4863.0
10762.0		12159.0		10762.0		1397.0
4799.0		5385.0		4799.0		586.0
2381.0		2605.0		2381.0		224.0
2672.0		2950.0		2672.0		278.0
1.15<|#eta|<1.37
88961.0		125895.0		88961.0		36934.0
158115.0		215988.0		158115.0		57873.0
257604.0		353321.0		257604.0		95717.0
354117.0		470819.0		354117.0		116702.0
235830.0		297354.0		235830.0		61524.0
137279.0		167375.0		137279.0		30096.0
57653.0		68548.0		57653.0		10895.0
12198.0		14362.0		12198.0		2164.0
5820.0		6789.0		5820.0		969.0
2752.0		3039.0		2752.0		287.0
1418.0		1615.0		1418.0		197.0
1456.0		1665.0		1456.0		209.0
1.52<|#eta|<1.81
114629.0		143951.0		114629.0		29322.0
191568.0		239433.0		191568.0		47865.0
290015.0		364819.0		290015.0		74804.0
371218.0		464536.0		371218.0		93318.0
267864.0		320284.0		267864.0		52420.0
154353.0		183135.0		154353.0		28782.0
62061.0		72997.0		62061.0		10936.0
12775.0		14878.0		12775.0		2103.0
6056.0		6830.0		6056.0		774.0
2892.0		3108.0		2892.0		216.0
1446.0		1525.0		1446.0		79.0
1573.0		1642.0		1573.0		69.0
1.81<|#eta|<2.01
78344.0		96191.0		78344.0		17847.0
127446.0		154677.0		127446.0		27231.0
185307.0		221049.0		185307.0		35742.0
240075.0		279129.0		240075.0		39054.0
159916.0		189350.0		159916.0		29434.0
90251.0		105134.0		90251.0		14883.0
37035.0		41669.0		37035.0		4634.0
7331.0		8300.0		7331.0		969.0
3334.0		3708.0		3334.0		374.0
1364.0		1516.0		1364.0		152.0
639.0		723.0		639.0		84.0
750.0		797.0		750.0		47.0
2.01<|#eta|<2.37
148126.0		171938.0		148126.0		23812.0
237275.0		266840.0		237275.0		29565.0
315553.0		352631.0		315553.0		37078.0
364471.0		412847.0		364471.0		48376.0
244023.0		272757.0		244023.0		28734.0
134421.0		149605.0		134421.0		15184.0
50480.0		57403.0		50480.0		6923.0
9562.0		10987.0		9562.0		1425.0
4524.0		4956.0		4524.0		432.0
1849.0		1956.0		1849.0		107.0
892.0		967.0		892.0		75.0
850.0		974.0		850.0		124.0
