0.00<|#eta|<0.60
335858.0		413109.0		335858.0		77251.0
629489.0		766305.0		629489.0		136816.0
989050.0		1205480.0		989050.0		216445.0
1302320.0		1582460.0		1302320.0		280126.0
903776.0		1055180.0		903776.0		151396.0
510241.0		592638.0		510241.0		82397.0
224705.0		254812.0		224705.0		30107.0
47132.0		52638.0		47132.0		5506.0
23166.0		24393.0		23166.0		1227.0
9937.0		10622.0		9937.0		685.0
4989.0		5357.0		4989.0		368.0
5356.0		5770.0		5356.0		414.0
0.60<|#eta|<0.80
96880.0		124486.0		96880.0		27606.0
210816.0		255996.0		210816.0		45180.0
331127.0		409638.0		331127.0		78511.0
419027.0		505608.0		419027.0		86581.0
288990.0		337397.0		288990.0		48407.0
161122.0		187491.0		161122.0		26369.0
70902.0		79655.0		70902.0		8753.0
14874.0		16589.0		14874.0		1715.0
7056.0		7493.0		7056.0		437.0
2950.0		3177.0		2950.0		227.0
1585.0		1696.0		1585.0		111.0
1704.0		1805.0		1704.0		101.0
0.80<|#eta|<1.15
161379.0		216726.0		161379.0		55347.0
287562.0		397139.0		287562.0		109577.0
480411.0		658748.0		480411.0		178337.0
649419.0		835279.0		649419.0		185860.0
428187.0		531503.0		428187.0		103316.0
235518.0		296729.0		235518.0		61211.0
102633.0		124301.0		102633.0		21668.0
21416.0		26414.0		21416.0		4998.0
10886.0		12159.0		10886.0		1273.0
4800.0		5385.0		4800.0		585.0
2395.0		2605.0		2395.0		210.0
2712.0		2950.0		2712.0		238.0
1.15<|#eta|<1.37
89033.0		125895.0		89033.0		36862.0
158761.0		215988.0		158761.0		57227.0
256697.0		353321.0		256697.0		96624.0
354070.0		470819.0		354070.0		116749.0
234753.0		297354.0		234753.0		62601.0
136949.0		167375.0		136949.0		30426.0
57484.0		68548.0		57484.0		11064.0
12163.0		14362.0		12163.0		2199.0
5759.0		6789.0		5759.0		1030.0
2709.0		3039.0		2709.0		330.0
1418.0		1615.0		1418.0		197.0
1461.0		1665.0		1461.0		204.0
1.52<|#eta|<1.81
114482.0		143951.0		114482.0		29469.0
192420.0		239433.0		192420.0		47013.0
288694.0		364819.0		288694.0		76125.0
371123.0		464536.0		371123.0		93413.0
268021.0		320284.0		268021.0		52263.0
154934.0		183135.0		154934.0		28201.0
62415.0		72997.0		62415.0		10582.0
12696.0		14878.0		12696.0		2182.0
6050.0		6830.0		6050.0		780.0
2893.0		3108.0		2893.0		215.0
1446.0		1525.0		1446.0		79.0
1555.0		1642.0		1555.0		87.0
1.81<|#eta|<2.01
78161.0		96191.0		78161.0		18030.0
126746.0		154677.0		126746.0		27931.0
185005.0		221049.0		185005.0		36044.0
239283.0		279129.0		239283.0		39846.0
160457.0		189350.0		160457.0		28893.0
90215.0		105134.0		90215.0		14919.0
37032.0		41669.0		37032.0		4637.0
7405.0		8300.0		7405.0		895.0
3363.0		3708.0		3363.0		345.0
1370.0		1516.0		1370.0		146.0
649.0		723.0		649.0		74.0
740.0		797.0		740.0		57.0
2.01<|#eta|<2.37
148626.0		171938.0		148626.0		23312.0
237371.0		266840.0		237371.0		29469.0
316077.0		352631.0		316077.0		36554.0
363897.0		412847.0		363897.0		48950.0
243778.0		272757.0		243778.0		28979.0
133917.0		149605.0		133917.0		15688.0
50585.0		57403.0		50585.0		6818.0
9584.0		10987.0		9584.0		1403.0
4549.0		4956.0		4549.0		407.0
1827.0		1956.0		1827.0		129.0
904.0		967.0		904.0		63.0
846.0		974.0		846.0		128.0
