0.00<|#eta|<0.60
337061.0		413109.0		337061.0		76048.0
627448.0		766305.0		627448.0		138857.0
985480.0		1205480.0		985480.0		219994.0
1306910.0		1582460.0		1306910.0		275550.0
904368.0		1055180.0		904368.0		150806.0
510437.0		592638.0		510437.0		82201.0
224279.0		254812.0		224279.0		30533.0
46991.0		52638.0		46991.0		5647.0
23232.0		24393.0		23232.0		1161.0
9863.0		10622.0		9863.0		759.0
4968.0		5357.0		4968.0		389.0
5390.0		5770.0		5390.0		380.0
0.60<|#eta|<0.80
96951.0		124486.0		96951.0		27535.0
210137.0		255996.0		210137.0		45859.0
331101.0		409638.0		331101.0		78537.0
420420.0		505608.0		420420.0		85188.0
286982.0		337397.0		286982.0		50415.0
161358.0		187491.0		161358.0		26133.0
70738.0		79655.0		70738.0		8917.0
14978.0		16589.0		14978.0		1611.0
7032.0		7493.0		7032.0		461.0
2973.0		3177.0		2973.0		204.0
1582.0		1696.0		1582.0		114.0
1680.0		1805.0		1680.0		125.0
0.80<|#eta|<1.15
160532.0		216726.0		160532.0		56194.0
288299.0		397139.0		288299.0		108840.0
480353.0		658748.0		480353.0		178395.0
648728.0		835279.0		648728.0		186551.0
428468.0		531503.0		428468.0		103035.0
234976.0		296729.0		234976.0		61753.0
102765.0		124301.0		102765.0		21536.0
21362.0		26414.0		21362.0		5052.0
10883.0		12159.0		10883.0		1276.0
4848.0		5385.0		4848.0		537.0
2390.0		2605.0		2390.0		215.0
2685.0		2950.0		2685.0		265.0
1.15<|#eta|<1.37
89937.0		125895.0		89937.0		35958.0
157884.0		215988.0		157884.0		58104.0
257907.0		353321.0		257907.0		95414.0
352050.0		470819.0		352050.0		118769.0
233319.0		297354.0		233319.0		64035.0
136952.0		167375.0		136952.0		30423.0
57574.0		68548.0		57574.0		10974.0
12202.0		14362.0		12202.0		2160.0
5797.0		6789.0		5797.0		992.0
2749.0		3039.0		2749.0		290.0
1438.0		1615.0		1438.0		177.0
1450.0		1665.0		1450.0		215.0
1.52<|#eta|<1.81
115457.0		143951.0		115457.0		28494.0
191569.0		239433.0		191569.0		47864.0
289462.0		364819.0		289462.0		75357.0
369492.0		464536.0		369492.0		95044.0
266279.0		320284.0		266279.0		54005.0
155329.0		183135.0		155329.0		27806.0
62498.0		72997.0		62498.0		10499.0
12742.0		14878.0		12742.0		2136.0
6048.0		6830.0		6048.0		782.0
2872.0		3108.0		2872.0		236.0
1442.0		1525.0		1442.0		83.0
1557.0		1642.0		1557.0		85.0
1.81<|#eta|<2.01
78244.0		96191.0		78244.0		17947.0
126412.0		154677.0		126412.0		28265.0
184886.0		221049.0		184886.0		36163.0
239800.0		279129.0		239800.0		39329.0
160723.0		189350.0		160723.0		28627.0
90606.0		105134.0		90606.0		14528.0
36977.0		41669.0		36977.0		4692.0
7345.0		8300.0		7345.0		955.0
3348.0		3708.0		3348.0		360.0
1386.0		1516.0		1386.0		130.0
655.0		723.0		655.0		68.0
733.0		797.0		733.0		64.0
2.01<|#eta|<2.37
148920.0		171938.0		148920.0		23018.0
236540.0		266840.0		236540.0		30300.0
314063.0		352631.0		314063.0		38568.0
363660.0		412847.0		363660.0		49187.0
244529.0		272757.0		244529.0		28228.0
133894.0		149605.0		133894.0		15711.0
50338.0		57403.0		50338.0		7065.0
9528.0		10987.0		9528.0		1459.0
4565.0		4956.0		4565.0		391.0
1813.0		1956.0		1813.0		143.0
905.0		967.0		905.0		62.0
853.0		974.0		853.0		121.0
