0.00<|#eta|<0.60
335895.0		413109.0		335895.0		77214.0
630680.0		766305.0		630680.0		135625.0
984590.0		1205480.0		984590.0		220889.0
1301190.0		1582460.0		1301190.0		281263.0
904924.0		1055180.0		904924.0		150247.0
511318.0		592638.0		511318.0		81320.0
224609.0		254812.0		224609.0		30203.0
47061.0		52638.0		47061.0		5577.0
23196.0		24393.0		23196.0		1197.0
9946.0		10622.0		9946.0		676.0
4962.0		5357.0		4962.0		395.0
5323.0		5770.0		5323.0		447.0
0.60<|#eta|<0.80
97138.0		124486.0		97138.0		27348.0
208152.0		255996.0		208152.0		47844.0
329692.0		409638.0		329692.0		79946.0
419157.0		505608.0		419157.0		86451.0
289956.0		337397.0		289956.0		47441.0
160867.0		187491.0		160867.0		26624.0
70707.0		79655.0		70707.0		8948.0
14992.0		16589.0		14992.0		1597.0
7055.0		7493.0		7055.0		438.0
2978.0		3177.0		2978.0		199.0
1589.0		1696.0		1589.0		107.0
1687.0		1805.0		1687.0		118.0
0.80<|#eta|<1.15
160297.0		216726.0		160297.0		56429.0
289296.0		397139.0		289296.0		107843.0
481410.0		658748.0		481410.0		177338.0
647153.0		835279.0		647153.0		188126.0
427334.0		531503.0		427334.0		104169.0
236068.0		296729.0		236068.0		60661.0
102995.0		124301.0		102995.0		21306.0
21481.0		26414.0		21481.0		4933.0
10920.0		12159.0		10920.0		1239.0
4825.0		5385.0		4825.0		560.0
2369.0		2605.0		2369.0		236.0
2702.0		2950.0		2702.0		248.0
1.15<|#eta|<1.37
89583.0		125895.0		89583.0		36312.0
158407.0		215988.0		158407.0		57581.0
258298.0		353321.0		258298.0		95023.0
352292.0		470819.0		352292.0		118527.0
234769.0		297354.0		234769.0		62585.0
137026.0		167375.0		137026.0		30349.0
57531.0		68548.0		57531.0		11017.0
12189.0		14362.0		12189.0		2173.0
5863.0		6789.0		5863.0		926.0
2730.0		3039.0		2730.0		309.0
1429.0		1615.0		1429.0		186.0
1430.0		1665.0		1430.0		235.0
1.52<|#eta|<1.81
114501.0		143951.0		114501.0		29450.0
190873.0		239433.0		190873.0		48560.0
287927.0		364819.0		287927.0		76892.0
370020.0		464536.0		370020.0		94516.0
265646.0		320284.0		265646.0		54638.0
155497.0		183135.0		155497.0		27638.0
62591.0		72997.0		62591.0		10406.0
12789.0		14878.0		12789.0		2089.0
6018.0		6830.0		6018.0		812.0
2873.0		3108.0		2873.0		235.0
1439.0		1525.0		1439.0		86.0
1573.0		1642.0		1573.0		69.0
1.81<|#eta|<2.01
78292.0		96191.0		78292.0		17899.0
128694.0		154677.0		128694.0		25983.0
184414.0		221049.0		184414.0		36635.0
240893.0		279129.0		240893.0		38236.0
159968.0		189350.0		159968.0		29382.0
90099.0		105134.0		90099.0		15035.0
37141.0		41669.0		37141.0		4528.0
7337.0		8300.0		7337.0		963.0
3315.0		3708.0		3315.0		393.0
1388.0		1516.0		1388.0		128.0
651.0		723.0		651.0		72.0
749.0		797.0		749.0		48.0
2.01<|#eta|<2.37
148434.0		171938.0		148434.0		23504.0
238894.0		266840.0		238894.0		27946.0
314764.0		352631.0		314764.0		37867.0
363759.0		412847.0		363759.0		49088.0
243762.0		272757.0		243762.0		28995.0
134060.0		149605.0		134060.0		15545.0
50659.0		57403.0		50659.0		6744.0
9622.0		10987.0		9622.0		1365.0
4569.0		4956.0		4569.0		387.0
1857.0		1956.0		1857.0		99.0
891.0		967.0		891.0		76.0
836.0		974.0		836.0		138.0
