0.00<|#eta|<0.60
335649.0		413109.0		335649.0		77460.0
630749.0		766305.0		630749.0		135556.0
988120.0		1205480.0		988120.0		217362.0
1299400.0		1582460.0		1299400.0		283056.0
904216.0		1055180.0		904216.0		150955.0
511158.0		592638.0		511158.0		81480.0
224177.0		254812.0		224177.0		30635.0
47138.0		52638.0		47138.0		5500.0
23164.0		24393.0		23164.0		1229.0
9917.0		10622.0		9917.0		705.0
4987.0		5357.0		4987.0		370.0
5348.0		5770.0		5348.0		422.0
0.60<|#eta|<0.80
97649.0		124486.0		97649.0		26837.0
210203.0		255996.0		210203.0		45793.0
330714.0		409638.0		330714.0		78924.0
420494.0		505608.0		420494.0		85114.0
288778.0		337397.0		288778.0		48619.0
161434.0		187491.0		161434.0		26057.0
70821.0		79655.0		70821.0		8834.0
14986.0		16589.0		14986.0		1603.0
7054.0		7493.0		7054.0		439.0
2937.0		3177.0		2937.0		240.0
1586.0		1696.0		1586.0		110.0
1714.0		1805.0		1714.0		91.0
0.80<|#eta|<1.15
160656.0		216726.0		160656.0		56070.0
288895.0		397139.0		288895.0		108244.0
481627.0		658748.0		481627.0		177121.0
649204.0		835279.0		649204.0		186075.0
427596.0		531503.0		427596.0		103907.0
235362.0		296729.0		235362.0		61367.0
102731.0		124301.0		102731.0		21570.0
21500.0		26414.0		21500.0		4914.0
10894.0		12159.0		10894.0		1265.0
4829.0		5385.0		4829.0		556.0
2385.0		2605.0		2385.0		220.0
2673.0		2950.0		2673.0		277.0
1.15<|#eta|<1.37
89864.0		125895.0		89864.0		36031.0
160240.0		215988.0		160240.0		55748.0
257437.0		353321.0		257437.0		95884.0
356067.0		470819.0		356067.0		114752.0
234583.0		297354.0		234583.0		62771.0
137235.0		167375.0		137235.0		30140.0
57460.0		68548.0		57460.0		11088.0
12190.0		14362.0		12190.0		2172.0
5809.0		6789.0		5809.0		980.0
2701.0		3039.0		2701.0		338.0
1414.0		1615.0		1414.0		201.0
1469.0		1665.0		1469.0		196.0
1.52<|#eta|<1.81
113934.0		143951.0		113934.0		30017.0
191726.0		239433.0		191726.0		47707.0
290196.0		364819.0		290196.0		74623.0
369706.0		464536.0		369706.0		94830.0
267394.0		320284.0		267394.0		52890.0
154788.0		183135.0		154788.0		28347.0
62618.0		72997.0		62618.0		10379.0
12826.0		14878.0		12826.0		2052.0
6103.0		6830.0		6103.0		727.0
2848.0		3108.0		2848.0		260.0
1466.0		1525.0		1466.0		59.0
1563.0		1642.0		1563.0		79.0
1.81<|#eta|<2.01
78092.0		96191.0		78092.0		18099.0
126370.0		154677.0		126370.0		28307.0
184556.0		221049.0		184556.0		36493.0
240406.0		279129.0		240406.0		38723.0
160452.0		189350.0		160452.0		28898.0
90373.0		105134.0		90373.0		14761.0
37071.0		41669.0		37071.0		4598.0
7356.0		8300.0		7356.0		944.0
3352.0		3708.0		3352.0		356.0
1379.0		1516.0		1379.0		137.0
651.0		723.0		651.0		72.0
746.0		797.0		746.0		51.0
2.01<|#eta|<2.37
147929.0		171938.0		147929.0		24009.0
237781.0		266840.0		237781.0		29059.0
316148.0		352631.0		316148.0		36483.0
364447.0		412847.0		364447.0		48400.0
243719.0		272757.0		243719.0		29038.0
134374.0		149605.0		134374.0		15231.0
50469.0		57403.0		50469.0		6934.0
9597.0		10987.0		9597.0		1390.0
4507.0		4956.0		4507.0		449.0
1831.0		1956.0		1831.0		125.0
901.0		967.0		901.0		66.0
871.0		974.0		871.0		103.0
