0.00<|#eta|<0.60
336251.0		413109.0		336251.0		76858.0
630441.0		766305.0		630441.0		135864.0
990030.0		1205480.0		990030.0		215449.0
1306640.0		1582460.0		1306640.0		275823.0
902491.0		1055180.0		902491.0		152684.0
510168.0		592638.0		510168.0		82470.0
223965.0		254812.0		223965.0		30847.0
47174.0		52638.0		47174.0		5464.0
23226.0		24393.0		23226.0		1167.0
9877.0		10622.0		9877.0		745.0
4984.0		5357.0		4984.0		373.0
5383.0		5770.0		5383.0		387.0
0.60<|#eta|<0.80
97312.0		124486.0		97312.0		27174.0
211309.0		255996.0		211309.0		44687.0
333235.0		409638.0		333235.0		76403.0
418884.0		505608.0		418884.0		86724.0
287378.0		337397.0		287378.0		50019.0
160766.0		187491.0		160766.0		26725.0
70665.0		79655.0		70665.0		8990.0
14952.0		16589.0		14952.0		1637.0
7043.0		7493.0		7043.0		450.0
2950.0		3177.0		2950.0		227.0
1577.0		1696.0		1577.0		119.0
1700.0		1805.0		1700.0		105.0
0.80<|#eta|<1.15
159898.0		216726.0		159898.0		56828.0
287727.0		397139.0		287727.0		109412.0
481977.0		658748.0		481977.0		176771.0
648697.0		835279.0		648697.0		186582.0
427590.0		531503.0		427590.0		103913.0
235377.0		296729.0		235377.0		61352.0
103143.0		124301.0		103143.0		21158.0
21348.0		26414.0		21348.0		5066.0
10830.0		12159.0		10830.0		1329.0
4808.0		5385.0		4808.0		577.0
2395.0		2605.0		2395.0		210.0
2700.0		2950.0		2700.0		250.0
1.15<|#eta|<1.37
89836.0		125895.0		89836.0		36059.0
158860.0		215988.0		158860.0		57128.0
258516.0		353321.0		258516.0		94805.0
353297.0		470819.0		353297.0		117522.0
234914.0		297354.0		234914.0		62440.0
136892.0		167375.0		136892.0		30483.0
57364.0		68548.0		57364.0		11184.0
12157.0		14362.0		12157.0		2205.0
5785.0		6789.0		5785.0		1004.0
2737.0		3039.0		2737.0		302.0
1441.0		1615.0		1441.0		174.0
1471.0		1665.0		1471.0		194.0
1.52<|#eta|<1.81
114098.0		143951.0		114098.0		29853.0
190842.0		239433.0		190842.0		48591.0
287914.0		364819.0		287914.0		76905.0
369723.0		464536.0		369723.0		94813.0
267133.0		320284.0		267133.0		53151.0
154807.0		183135.0		154807.0		28328.0
62331.0		72997.0		62331.0		10666.0
12799.0		14878.0		12799.0		2079.0
6042.0		6830.0		6042.0		788.0
2883.0		3108.0		2883.0		225.0
1457.0		1525.0		1457.0		68.0
1563.0		1642.0		1563.0		79.0
1.81<|#eta|<2.01
78566.0		96191.0		78566.0		17625.0
125884.0		154677.0		125884.0		28793.0
185064.0		221049.0		185064.0		35985.0
242269.0		279129.0		242269.0		36860.0
160284.0		189350.0		160284.0		29066.0
90848.0		105134.0		90848.0		14286.0
37015.0		41669.0		37015.0		4654.0
7320.0		8300.0		7320.0		980.0
3333.0		3708.0		3333.0		375.0
1381.0		1516.0		1381.0		135.0
640.0		723.0		640.0		83.0
741.0		797.0		741.0		56.0
2.01<|#eta|<2.37
148740.0		171938.0		148740.0		23198.0
237623.0		266840.0		237623.0		29217.0
315234.0		352631.0		315234.0		37397.0
365675.0		412847.0		365675.0		47172.0
244874.0		272757.0		244874.0		27883.0
134012.0		149605.0		134012.0		15593.0
50450.0		57403.0		50450.0		6953.0
9529.0		10987.0		9529.0		1458.0
4530.0		4956.0		4530.0		426.0
1834.0		1956.0		1834.0		122.0
901.0		967.0		901.0		66.0
867.0		974.0		867.0		107.0
