0.00<|#eta|<0.60
335583.0		413109.0		335583.0		77526.0
630863.0		766305.0		630863.0		135442.0
985130.0		1205480.0		985130.0		220345.0
1303040.0		1582460.0		1303040.0		279422.0
901351.0		1055180.0		901351.0		153824.0
511399.0		592638.0		511399.0		81239.0
224199.0		254812.0		224199.0		30613.0
47101.0		52638.0		47101.0		5537.0
23204.0		24393.0		23204.0		1189.0
9879.0		10622.0		9879.0		743.0
4984.0		5357.0		4984.0		373.0
5320.0		5770.0		5320.0		450.0
0.60<|#eta|<0.80
96587.0		124486.0		96587.0		27899.0
209373.0		255996.0		209373.0		46623.0
330261.0		409638.0		330261.0		79377.0
417289.0		505608.0		417289.0		88319.0
287789.0		337397.0		287789.0		49608.0
160213.0		187491.0		160213.0		27278.0
70666.0		79655.0		70666.0		8989.0
14974.0		16589.0		14974.0		1615.0
7057.0		7493.0		7057.0		436.0
2938.0		3177.0		2938.0		239.0
1610.0		1696.0		1610.0		86.0
1674.0		1805.0		1674.0		131.0
0.80<|#eta|<1.15
159903.0		216726.0		159903.0		56823.0
287120.0		397139.0		287120.0		110019.0
481140.0		658748.0		481140.0		177608.0
650420.0		835279.0		650420.0		184859.0
429986.0		531503.0		429986.0		101517.0
236002.0		296729.0		236002.0		60727.0
102931.0		124301.0		102931.0		21370.0
21514.0		26414.0		21514.0		4900.0
10792.0		12159.0		10792.0		1367.0
4873.0		5385.0		4873.0		512.0
2381.0		2605.0		2381.0		224.0
2723.0		2950.0		2723.0		227.0
1.15<|#eta|<1.37
89283.0		125895.0		89283.0		36612.0
157704.0		215988.0		157704.0		58284.0
257090.0		353321.0		257090.0		96231.0
353975.0		470819.0		353975.0		116844.0
235447.0		297354.0		235447.0		61907.0
137264.0		167375.0		137264.0		30111.0
57386.0		68548.0		57386.0		11162.0
12196.0		14362.0		12196.0		2166.0
5783.0		6789.0		5783.0		1006.0
2731.0		3039.0		2731.0		308.0
1437.0		1615.0		1437.0		178.0
1477.0		1665.0		1477.0		188.0
1.52<|#eta|<1.81
114825.0		143951.0		114825.0		29126.0
191840.0		239433.0		191840.0		47593.0
287824.0		364819.0		287824.0		76995.0
370308.0		464536.0		370308.0		94228.0
267304.0		320284.0		267304.0		52980.0
155180.0		183135.0		155180.0		27955.0
62589.0		72997.0		62589.0		10408.0
12692.0		14878.0		12692.0		2186.0
6037.0		6830.0		6037.0		793.0
2877.0		3108.0		2877.0		231.0
1455.0		1525.0		1455.0		70.0
1563.0		1642.0		1563.0		79.0
1.81<|#eta|<2.01
77629.0		96191.0		77629.0		18562.0
126958.0		154677.0		126958.0		27719.0
184594.0		221049.0		184594.0		36455.0
240411.0		279129.0		240411.0		38718.0
159656.0		189350.0		159656.0		29694.0
90653.0		105134.0		90653.0		14481.0
37085.0		41669.0		37085.0		4584.0
7309.0		8300.0		7309.0		991.0
3344.0		3708.0		3344.0		364.0
1381.0		1516.0		1381.0		135.0
650.0		723.0		650.0		73.0
749.0		797.0		749.0		48.0
2.01<|#eta|<2.37
147969.0		171938.0		147969.0		23969.0
236939.0		266840.0		236939.0		29901.0
316041.0		352631.0		316041.0		36590.0
365447.0		412847.0		365447.0		47400.0
244555.0		272757.0		244555.0		28202.0
134158.0		149605.0		134158.0		15447.0
50367.0		57403.0		50367.0		7036.0
9576.0		10987.0		9576.0		1411.0
4541.0		4956.0		4541.0		415.0
1818.0		1956.0		1818.0		138.0
890.0		967.0		890.0		77.0
854.0		974.0		854.0		120.0
