0.00<|#eta|<0.60
336267.0		413109.0		336267.0		76842.0
631988.0		766305.0		631988.0		134317.0
987830.0		1205480.0		987830.0		217653.0
1303170.0		1582460.0		1303170.0		279278.0
901208.0		1055180.0		901208.0		153967.0
510021.0		592638.0		510021.0		82617.0
224126.0		254812.0		224126.0		30686.0
47326.0		52638.0		47326.0		5312.0
23156.0		24393.0		23156.0		1237.0
9900.0		10622.0		9900.0		722.0
5000.0		5357.0		5000.0		357.0
5306.0		5770.0		5306.0		464.0
0.60<|#eta|<0.80
96748.0		124486.0		96748.0		27738.0
210089.0		255996.0		210089.0		45907.0
333216.0		409638.0		333216.0		76422.0
418902.0		505608.0		418902.0		86706.0
288733.0		337397.0		288733.0		48664.0
161099.0		187491.0		161099.0		26392.0
70629.0		79655.0		70629.0		9026.0
14956.0		16589.0		14956.0		1633.0
7085.0		7493.0		7085.0		408.0
2934.0		3177.0		2934.0		243.0
1585.0		1696.0		1585.0		111.0
1729.0		1805.0		1729.0		76.0
0.80<|#eta|<1.15
159549.0		216726.0		159549.0		57177.0
288485.0		397139.0		288485.0		108654.0
482911.0		658748.0		482911.0		175837.0
647727.0		835279.0		647727.0		187552.0
429263.0		531503.0		429263.0		102240.0
235698.0		296729.0		235698.0		61031.0
103157.0		124301.0		103157.0		21144.0
21677.0		26414.0		21677.0		4737.0
10907.0		12159.0		10907.0		1252.0
4821.0		5385.0		4821.0		564.0
2381.0		2605.0		2381.0		224.0
2717.0		2950.0		2717.0		233.0
1.15<|#eta|<1.37
90103.0		125895.0		90103.0		35792.0
157461.0		215988.0		157461.0		58527.0
257473.0		353321.0		257473.0		95848.0
354067.0		470819.0		354067.0		116752.0
235554.0		297354.0		235554.0		61800.0
136738.0		167375.0		136738.0		30637.0
57665.0		68548.0		57665.0		10883.0
12125.0		14362.0		12125.0		2237.0
5799.0		6789.0		5799.0		990.0
2696.0		3039.0		2696.0		343.0
1453.0		1615.0		1453.0		162.0
1438.0		1665.0		1438.0		227.0
1.52<|#eta|<1.81
114396.0		143951.0		114396.0		29555.0
191452.0		239433.0		191452.0		47981.0
288946.0		364819.0		288946.0		75873.0
369611.0		464536.0		369611.0		94925.0
267938.0		320284.0		267938.0		52346.0
155394.0		183135.0		155394.0		27741.0
62185.0		72997.0		62185.0		10812.0
12808.0		14878.0		12808.0		2070.0
6051.0		6830.0		6051.0		779.0
2877.0		3108.0		2877.0		231.0
1461.0		1525.0		1461.0		64.0
1567.0		1642.0		1567.0		75.0
1.81<|#eta|<2.01
78238.0		96191.0		78238.0		17953.0
127120.0		154677.0		127120.0		27557.0
185917.0		221049.0		185917.0		35132.0
239947.0		279129.0		239947.0		39182.0
159183.0		189350.0		159183.0		30167.0
90535.0		105134.0		90535.0		14599.0
36979.0		41669.0		36979.0		4690.0
7301.0		8300.0		7301.0		999.0
3371.0		3708.0		3371.0		337.0
1367.0		1516.0		1367.0		149.0
655.0		723.0		655.0		68.0
738.0		797.0		738.0		59.0
2.01<|#eta|<2.37
149143.0		171938.0		149143.0		22795.0
237311.0		266840.0		237311.0		29529.0
315226.0		352631.0		315226.0		37405.0
364480.0		412847.0		364480.0		48367.0
244489.0		272757.0		244489.0		28268.0
133619.0		149605.0		133619.0		15986.0
50572.0		57403.0		50572.0		6831.0
9571.0		10987.0		9571.0		1416.0
4564.0		4956.0		4564.0		392.0
1827.0		1956.0		1827.0		129.0
900.0		967.0		900.0		67.0
865.0		974.0		865.0		109.0
