0.00<|#eta|<0.60
336150.0		413109.0		336150.0		76959.0
629971.0		766305.0		629971.0		136334.0
987460.0		1205480.0		987460.0		218016.0
1303330.0		1582460.0		1303330.0		279122.0
904736.0		1055180.0		904736.0		150441.0
510790.0		592638.0		510790.0		81848.0
224377.0		254812.0		224377.0		30435.0
47057.0		52638.0		47057.0		5581.0
23233.0		24393.0		23233.0		1160.0
9916.0		10622.0		9916.0		706.0
5006.0		5357.0		5006.0		351.0
5312.0		5770.0		5312.0		458.0
0.60<|#eta|<0.80
98057.0		124486.0		98057.0		26429.0
211611.0		255996.0		211611.0		44385.0
332486.0		409638.0		332486.0		77152.0
418451.0		505608.0		418451.0		87157.0
289132.0		337397.0		289132.0		48265.0
160719.0		187491.0		160719.0		26772.0
70608.0		79655.0		70608.0		9047.0
14965.0		16589.0		14965.0		1624.0
7058.0		7493.0		7058.0		435.0
2941.0		3177.0		2941.0		236.0
1582.0		1696.0		1582.0		114.0
1700.0		1805.0		1700.0		105.0
0.80<|#eta|<1.15
160486.0		216726.0		160486.0		56240.0
289480.0		397139.0		289480.0		107659.0
481264.0		658748.0		481264.0		177484.0
647168.0		835279.0		647168.0		188111.0
430085.0		531503.0		430085.0		101418.0
235535.0		296729.0		235535.0		61194.0
102479.0		124301.0		102479.0		21822.0
21390.0		26414.0		21390.0		5024.0
10833.0		12159.0		10833.0		1326.0
4788.0		5385.0		4788.0		597.0
2385.0		2605.0		2385.0		220.0
2672.0		2950.0		2672.0		278.0
1.15<|#eta|<1.37
89487.0		125895.0		89487.0		36408.0
157071.0		215988.0		157071.0		58917.0
257046.0		353321.0		257046.0		96275.0
353753.0		470819.0		353753.0		117066.0
233754.0		297354.0		233754.0		63600.0
137161.0		167375.0		137161.0		30214.0
57484.0		68548.0		57484.0		11064.0
12139.0		14362.0		12139.0		2223.0
5794.0		6789.0		5794.0		995.0
2740.0		3039.0		2740.0		299.0
1437.0		1615.0		1437.0		178.0
1471.0		1665.0		1471.0		194.0
1.52<|#eta|<1.81
114617.0		143951.0		114617.0		29334.0
191994.0		239433.0		191994.0		47439.0
288988.0		364819.0		288988.0		75831.0
370427.0		464536.0		370427.0		94109.0
268631.0		320284.0		268631.0		51653.0
154485.0		183135.0		154485.0		28650.0
62060.0		72997.0		62060.0		10937.0
12735.0		14878.0		12735.0		2143.0
6071.0		6830.0		6071.0		759.0
2867.0		3108.0		2867.0		241.0
1446.0		1525.0		1446.0		79.0
1544.0		1642.0		1544.0		98.0
1.81<|#eta|<2.01
77908.0		96191.0		77908.0		18283.0
126616.0		154677.0		126616.0		28061.0
184082.0		221049.0		184082.0		36967.0
241138.0		279129.0		241138.0		37991.0
159617.0		189350.0		159617.0		29733.0
90512.0		105134.0		90512.0		14622.0
37168.0		41669.0		37168.0		4501.0
7287.0		8300.0		7287.0		1013.0
3309.0		3708.0		3309.0		399.0
1379.0		1516.0		1379.0		137.0
655.0		723.0		655.0		68.0
748.0		797.0		748.0		49.0
2.01<|#eta|<2.37
147477.0		171938.0		147477.0		24461.0
236703.0		266840.0		236703.0		30137.0
315265.0		352631.0		315265.0		37366.0
363638.0		412847.0		363638.0		49209.0
245230.0		272757.0		245230.0		27527.0
134458.0		149605.0		134458.0		15147.0
50389.0		57403.0		50389.0		7014.0
9517.0		10987.0		9517.0		1470.0
4530.0		4956.0		4530.0		426.0
1834.0		1956.0		1834.0		122.0
898.0		967.0		898.0		69.0
855.0		974.0		855.0		119.0
