0.00<|#eta|<0.60
335737.0		413109.0		335737.0		77372.0
630076.0		766305.0		630076.0		136229.0
990890.0		1205480.0		990890.0		214577.0
1303740.0		1582460.0		1303740.0		278713.0
903308.0		1055180.0		903308.0		151870.0
510835.0		592638.0		510835.0		81803.0
224138.0		254812.0		224138.0		30674.0
47182.0		52638.0		47182.0		5456.0
23213.0		24393.0		23213.0		1180.0
9911.0		10622.0		9911.0		711.0
5015.0		5357.0		5015.0		342.0
5336.0		5770.0		5336.0		434.0
0.60<|#eta|<0.80
97586.0		124486.0		97586.0		26900.0
210156.0		255996.0		210156.0		45840.0
332020.0		409638.0		332020.0		77618.0
419160.0		505608.0		419160.0		86448.0
288416.0		337397.0		288416.0		48981.0
160664.0		187491.0		160664.0		26827.0
70539.0		79655.0		70539.0		9116.0
14908.0		16589.0		14908.0		1681.0
7053.0		7493.0		7053.0		440.0
2928.0		3177.0		2928.0		249.0
1596.0		1696.0		1596.0		100.0
1678.0		1805.0		1678.0		127.0
0.80<|#eta|<1.15
160254.0		216726.0		160254.0		56472.0
290025.0		397139.0		290025.0		107114.0
481069.0		658748.0		481069.0		177679.0
649483.0		835279.0		649483.0		185796.0
427110.0		531503.0		427110.0		104393.0
235973.0		296729.0		235973.0		60756.0
102721.0		124301.0		102721.0		21580.0
21465.0		26414.0		21465.0		4949.0
10876.0		12159.0		10876.0		1283.0
4799.0		5385.0		4799.0		586.0
2396.0		2605.0		2396.0		209.0
2687.0		2950.0		2687.0		263.0
1.15<|#eta|<1.37
89348.0		125895.0		89348.0		36547.0
158787.0		215988.0		158787.0		57201.0
259069.0		353321.0		259069.0		94252.0
351899.0		470819.0		351899.0		118920.0
234084.0		297354.0		234084.0		63270.0
137434.0		167375.0		137434.0		29941.0
57525.0		68548.0		57525.0		11023.0
12184.0		14362.0		12184.0		2178.0
5793.0		6789.0		5793.0		996.0
2712.0		3039.0		2712.0		327.0
1443.0		1615.0		1443.0		172.0
1463.0		1665.0		1463.0		202.0
1.52<|#eta|<1.81
113754.0		143951.0		113754.0		30197.0
192104.0		239433.0		192104.0		47329.0
289929.0		364819.0		289929.0		74890.0
369847.0		464536.0		369847.0		94689.0
267762.0		320284.0		267762.0		52522.0
154850.0		183135.0		154850.0		28285.0
62396.0		72997.0		62396.0		10601.0
12860.0		14878.0		12860.0		2018.0
6043.0		6830.0		6043.0		787.0
2868.0		3108.0		2868.0		240.0
1460.0		1525.0		1460.0		65.0
1574.0		1642.0		1574.0		68.0
1.81<|#eta|<2.01
77894.0		96191.0		77894.0		18297.0
126765.0		154677.0		126765.0		27912.0
184196.0		221049.0		184196.0		36853.0
240463.0		279129.0		240463.0		38666.0
160881.0		189350.0		160881.0		28469.0
90684.0		105134.0		90684.0		14450.0
37036.0		41669.0		37036.0		4633.0
7292.0		8300.0		7292.0		1008.0
3359.0		3708.0		3359.0		349.0
1369.0		1516.0		1369.0		147.0
662.0		723.0		662.0		61.0
736.0		797.0		736.0		61.0
2.01<|#eta|<2.37
148846.0		171938.0		148846.0		23092.0
236280.0		266840.0		236280.0		30560.0
315382.0		352631.0		315382.0		37249.0
364819.0		412847.0		364819.0		48028.0
245174.0		272757.0		245174.0		27583.0
133706.0		149605.0		133706.0		15899.0
50569.0		57403.0		50569.0		6834.0
9507.0		10987.0		9507.0		1480.0
4522.0		4956.0		4522.0		434.0
1849.0		1956.0		1849.0		107.0
900.0		967.0		900.0		67.0
841.0		974.0		841.0		133.0
