0.00<|#eta|<0.60
335444.0		413109.0		335444.0		77665.0
632337.0		766305.0		632337.0		133968.0
988980.0		1205480.0		988980.0		216499.0
1303430.0		1582460.0		1303430.0		279018.0
901133.0		1055180.0		901133.0		154042.0
510874.0		592638.0		510874.0		81764.0
225161.0		254812.0		225161.0		29651.0
47125.0		52638.0		47125.0		5513.0
23169.0		24393.0		23169.0		1224.0
9937.0		10622.0		9937.0		685.0
4952.0		5357.0		4952.0		405.0
5349.0		5770.0		5349.0		421.0
0.60<|#eta|<0.80
96607.0		124486.0		96607.0		27879.0
211248.0		255996.0		211248.0		44748.0
330725.0		409638.0		330725.0		78913.0
417719.0		505608.0		417719.0		87889.0
287424.0		337397.0		287424.0		49973.0
161097.0		187491.0		161097.0		26394.0
70623.0		79655.0		70623.0		9032.0
14926.0		16589.0		14926.0		1663.0
7045.0		7493.0		7045.0		448.0
2945.0		3177.0		2945.0		232.0
1590.0		1696.0		1590.0		106.0
1712.0		1805.0		1712.0		93.0
0.80<|#eta|<1.15
160200.0		216726.0		160200.0		56526.0
289014.0		397139.0		289014.0		108125.0
482495.0		658748.0		482495.0		176253.0
647040.0		835279.0		647040.0		188239.0
427130.0		531503.0		427130.0		104373.0
235454.0		296729.0		235454.0		61275.0
103120.0		124301.0		103120.0		21181.0
21453.0		26414.0		21453.0		4961.0
10858.0		12159.0		10858.0		1301.0
4780.0		5385.0		4780.0		605.0
2400.0		2605.0		2400.0		205.0
2703.0		2950.0		2703.0		247.0
1.15<|#eta|<1.37
89806.0		125895.0		89806.0		36089.0
158715.0		215988.0		158715.0		57273.0
257244.0		353321.0		257244.0		96077.0
353767.0		470819.0		353767.0		117052.0
234436.0		297354.0		234436.0		62918.0
137448.0		167375.0		137448.0		29927.0
57571.0		68548.0		57571.0		10977.0
12182.0		14362.0		12182.0		2180.0
5767.0		6789.0		5767.0		1022.0
2747.0		3039.0		2747.0		292.0
1431.0		1615.0		1431.0		184.0
1438.0		1665.0		1438.0		227.0
1.52<|#eta|<1.81
114187.0		143951.0		114187.0		29764.0
191786.0		239433.0		191786.0		47647.0
286253.0		364819.0		286253.0		78566.0
370398.0		464536.0		370398.0		94138.0
265776.0		320284.0		265776.0		54508.0
154823.0		183135.0		154823.0		28312.0
62361.0		72997.0		62361.0		10636.0
12738.0		14878.0		12738.0		2140.0
6033.0		6830.0		6033.0		797.0
2877.0		3108.0		2877.0		231.0
1453.0		1525.0		1453.0		72.0
1571.0		1642.0		1571.0		71.0
1.81<|#eta|<2.01
78314.0		96191.0		78314.0		17877.0
127040.0		154677.0		127040.0		27637.0
184294.0		221049.0		184294.0		36755.0
240967.0		279129.0		240967.0		38162.0
160529.0		189350.0		160529.0		28821.0
90635.0		105134.0		90635.0		14499.0
37115.0		41669.0		37115.0		4554.0
7341.0		8300.0		7341.0		959.0
3313.0		3708.0		3313.0		395.0
1366.0		1516.0		1366.0		150.0
645.0		723.0		645.0		78.0
743.0		797.0		743.0		54.0
2.01<|#eta|<2.37
147647.0		171938.0		147647.0		24291.0
237902.0		266840.0		237902.0		28938.0
314455.0		352631.0		314455.0		38176.0
363624.0		412847.0		363624.0		49223.0
243840.0		272757.0		243840.0		28917.0
134120.0		149605.0		134120.0		15485.0
50554.0		57403.0		50554.0		6849.0
9540.0		10987.0		9540.0		1447.0
4508.0		4956.0		4508.0		448.0
1804.0		1956.0		1804.0		152.0
895.0		967.0		895.0		72.0
839.0		974.0		839.0		135.0
