0.00<|#eta|<0.60
335119.0		413109.0		335119.0		77990.0
630207.0		766305.0		630207.0		136098.0
988420.0		1205480.0		988420.0		217070.0
1303620.0		1582460.0		1303620.0		278845.0
902423.0		1055180.0		902423.0		152752.0
510103.0		592638.0		510103.0		82535.0
224617.0		254812.0		224617.0		30195.0
47094.0		52638.0		47094.0		5544.0
23174.0		24393.0		23174.0		1219.0
9894.0		10622.0		9894.0		728.0
4971.0		5357.0		4971.0		386.0
5296.0		5770.0		5296.0		474.0
0.60<|#eta|<0.80
97375.0		124486.0		97375.0		27111.0
209009.0		255996.0		209009.0		46987.0
332239.0		409638.0		332239.0		77399.0
418834.0		505608.0		418834.0		86774.0
288171.0		337397.0		288171.0		49226.0
160709.0		187491.0		160709.0		26782.0
70931.0		79655.0		70931.0		8724.0
14852.0		16589.0		14852.0		1737.0
7053.0		7493.0		7053.0		440.0
2963.0		3177.0		2963.0		214.0
1571.0		1696.0		1571.0		125.0
1691.0		1805.0		1691.0		114.0
0.80<|#eta|<1.15
160527.0		216726.0		160527.0		56199.0
289000.0		397139.0		289000.0		108139.0
481281.0		658748.0		481281.0		177467.0
647630.0		835279.0		647630.0		187649.0
429987.0		531503.0		429987.0		101516.0
235921.0		296729.0		235921.0		60808.0
103009.0		124301.0		103009.0		21292.0
21345.0		26414.0		21345.0		5069.0
10825.0		12159.0		10825.0		1334.0
4782.0		5385.0		4782.0		603.0
2389.0		2605.0		2389.0		216.0
2712.0		2950.0		2712.0		238.0
1.15<|#eta|<1.37
89395.0		125895.0		89395.0		36500.0
157872.0		215988.0		157872.0		58116.0
257796.0		353321.0		257796.0		95525.0
353526.0		470819.0		353526.0		117293.0
235073.0		297354.0		235073.0		62281.0
137456.0		167375.0		137456.0		29919.0
57648.0		68548.0		57648.0		10900.0
12088.0		14362.0		12088.0		2274.0
5800.0		6789.0		5800.0		989.0
2711.0		3039.0		2711.0		328.0
1445.0		1615.0		1445.0		170.0
1459.0		1665.0		1459.0		206.0
1.52<|#eta|<1.81
115009.0		143951.0		115009.0		28942.0
191068.0		239433.0		191068.0		48365.0
287558.0		364819.0		287558.0		77261.0
368387.0		464536.0		368387.0		96149.0
267851.0		320284.0		267851.0		52433.0
154832.0		183135.0		154832.0		28303.0
62680.0		72997.0		62680.0		10317.0
12816.0		14878.0		12816.0		2062.0
6057.0		6830.0		6057.0		773.0
2882.0		3108.0		2882.0		226.0
1448.0		1525.0		1448.0		77.0
1566.0		1642.0		1566.0		76.0
1.81<|#eta|<2.01
78209.0		96191.0		78209.0		17982.0
127630.0		154677.0		127630.0		27047.0
183797.0		221049.0		183797.0		37252.0
240201.0		279129.0		240201.0		38928.0
159107.0		189350.0		159107.0		30243.0
90693.0		105134.0		90693.0		14441.0
36982.0		41669.0		36982.0		4687.0
7324.0		8300.0		7324.0		976.0
3326.0		3708.0		3326.0		382.0
1384.0		1516.0		1384.0		132.0
652.0		723.0		652.0		71.0
732.0		797.0		732.0		65.0
2.01<|#eta|<2.37
147814.0		171938.0		147814.0		24124.0
236362.0		266840.0		236362.0		30478.0
314392.0		352631.0		314392.0		38239.0
364706.0		412847.0		364706.0		48141.0
244912.0		272757.0		244912.0		27845.0
134211.0		149605.0		134211.0		15394.0
50372.0		57403.0		50372.0		7031.0
9542.0		10987.0		9542.0		1445.0
4537.0		4956.0		4537.0		419.0
1820.0		1956.0		1820.0		136.0
898.0		967.0		898.0		69.0
878.0		974.0		878.0		96.0
