0.00<|#eta|<0.60
335451.0		413109.0		335451.0		77658.0
628783.0		766305.0		628783.0		137522.0
990080.0		1205480.0		990080.0		215399.0
1305290.0		1582460.0		1305290.0		277155.0
904418.0		1055180.0		904418.0		150752.0
511610.0		592638.0		511610.0		81028.0
224397.0		254812.0		224397.0		30415.0
47107.0		52638.0		47107.0		5531.0
23144.0		24393.0		23144.0		1249.0
9910.0		10622.0		9910.0		712.0
4991.0		5357.0		4991.0		366.0
5333.0		5770.0		5333.0		437.0
0.60<|#eta|<0.80
97347.0		124486.0		97347.0		27139.0
210558.0		255996.0		210558.0		45438.0
330565.0		409638.0		330565.0		79073.0
417627.0		505608.0		417627.0		87981.0
287027.0		337397.0		287027.0		50370.0
160752.0		187491.0		160752.0		26739.0
70595.0		79655.0		70595.0		9060.0
14949.0		16589.0		14949.0		1640.0
7039.0		7493.0		7039.0		454.0
2941.0		3177.0		2941.0		236.0
1588.0		1696.0		1588.0		108.0
1702.0		1805.0		1702.0		103.0
0.80<|#eta|<1.15
159207.0		216726.0		159207.0		57519.0
288050.0		397139.0		288050.0		109089.0
481357.0		658748.0		481357.0		177391.0
650475.0		835279.0		650475.0		184804.0
425982.0		531503.0		425982.0		105521.0
235900.0		296729.0		235900.0		60829.0
102960.0		124301.0		102960.0		21341.0
21511.0		26414.0		21511.0		4903.0
10874.0		12159.0		10874.0		1285.0
4834.0		5385.0		4834.0		551.0
2400.0		2605.0		2400.0		205.0
2698.0		2950.0		2698.0		252.0
1.15<|#eta|<1.37
89173.0		125895.0		89173.0		36722.0
157784.0		215988.0		157784.0		58204.0
257126.0		353321.0		257126.0		96195.0
353053.0		470819.0		353053.0		117766.0
235383.0		297354.0		235383.0		61971.0
136302.0		167375.0		136302.0		31073.0
57583.0		68548.0		57583.0		10965.0
12132.0		14362.0		12132.0		2230.0
5843.0		6789.0		5843.0		946.0
2742.0		3039.0		2742.0		297.0
1431.0		1615.0		1431.0		184.0
1467.0		1665.0		1467.0		198.0
1.52<|#eta|<1.81
114425.0		143951.0		114425.0		29526.0
193167.0		239433.0		193167.0		46266.0
289233.0		364819.0		289233.0		75586.0
368935.0		464536.0		368935.0		95601.0
266693.0		320284.0		266693.0		53591.0
155263.0		183135.0		155263.0		27872.0
62497.0		72997.0		62497.0		10500.0
12795.0		14878.0		12795.0		2083.0
6022.0		6830.0		6022.0		808.0
2856.0		3108.0		2856.0		252.0
1459.0		1525.0		1459.0		66.0
1572.0		1642.0		1572.0		70.0
1.81<|#eta|<2.01
78101.0		96191.0		78101.0		18090.0
126077.0		154677.0		126077.0		28600.0
184769.0		221049.0		184769.0		36280.0
238447.0		279129.0		238447.0		40682.0
160819.0		189350.0		160819.0		28531.0
90731.0		105134.0		90731.0		14403.0
36968.0		41669.0		36968.0		4701.0
7254.0		8300.0		7254.0		1046.0
3357.0		3708.0		3357.0		351.0
1349.0		1516.0		1349.0		167.0
649.0		723.0		649.0		74.0
746.0		797.0		746.0		51.0
2.01<|#eta|<2.37
149075.0		171938.0		149075.0		22863.0
238050.0		266840.0		238050.0		28790.0
315027.0		352631.0		315027.0		37604.0
363805.0		412847.0		363805.0		49042.0
244056.0		272757.0		244056.0		28701.0
134006.0		149605.0		134006.0		15599.0
50505.0		57403.0		50505.0		6898.0
9635.0		10987.0		9635.0		1352.0
4529.0		4956.0		4529.0		427.0
1831.0		1956.0		1831.0		125.0
896.0		967.0		896.0		71.0
840.0		974.0		840.0		134.0
