0.00<|#eta|<0.60
334619.0		413109.0		334619.0		78490.0
631186.0		766305.0		631186.0		135119.0
987600.0		1205480.0		987600.0		217881.0
1302890.0		1582460.0		1302890.0		279569.0
903004.0		1055180.0		903004.0		152171.0
510891.0		592638.0		510891.0		81747.0
224676.0		254812.0		224676.0		30136.0
47176.0		52638.0		47176.0		5462.0
23224.0		24393.0		23224.0		1169.0
9925.0		10622.0		9925.0		697.0
5024.0		5357.0		5024.0		333.0
5331.0		5770.0		5331.0		439.0
0.60<|#eta|<0.80
96416.0		124486.0		96416.0		28070.0
210424.0		255996.0		210424.0		45572.0
329457.0		409638.0		329457.0		80181.0
417725.0		505608.0		417725.0		87883.0
287412.0		337397.0		287412.0		49985.0
160715.0		187491.0		160715.0		26776.0
70638.0		79655.0		70638.0		9017.0
14882.0		16589.0		14882.0		1707.0
7023.0		7493.0		7023.0		470.0
2913.0		3177.0		2913.0		264.0
1589.0		1696.0		1589.0		107.0
1685.0		1805.0		1685.0		120.0
0.80<|#eta|<1.15
160059.0		216726.0		160059.0		56667.0
289510.0		397139.0		289510.0		107629.0
482460.0		658748.0		482460.0		176288.0
648044.0		835279.0		648044.0		187235.0
429418.0		531503.0		429418.0		102085.0
235629.0		296729.0		235629.0		61100.0
102839.0		124301.0		102839.0		21462.0
21501.0		26414.0		21501.0		4913.0
10918.0		12159.0		10918.0		1241.0
4845.0		5385.0		4845.0		540.0
2376.0		2605.0		2376.0		229.0
2704.0		2950.0		2704.0		246.0
1.15<|#eta|<1.37
89978.0		125895.0		89978.0		35917.0
157909.0		215988.0		157909.0		58079.0
258163.0		353321.0		258163.0		95158.0
353957.0		470819.0		353957.0		116862.0
234387.0		297354.0		234387.0		62967.0
137150.0		167375.0		137150.0		30225.0
57558.0		68548.0		57558.0		10990.0
12121.0		14362.0		12121.0		2241.0
5806.0		6789.0		5806.0		983.0
2762.0		3039.0		2762.0		277.0
1426.0		1615.0		1426.0		189.0
1451.0		1665.0		1451.0		214.0
1.52<|#eta|<1.81
114434.0		143951.0		114434.0		29517.0
193003.0		239433.0		193003.0		46430.0
290080.0		364819.0		290080.0		74739.0
371094.0		464536.0		371094.0		93442.0
267815.0		320284.0		267815.0		52469.0
155242.0		183135.0		155242.0		27893.0
62437.0		72997.0		62437.0		10560.0
12788.0		14878.0		12788.0		2090.0
6027.0		6830.0		6027.0		803.0
2870.0		3108.0		2870.0		238.0
1454.0		1525.0		1454.0		71.0
1571.0		1642.0		1571.0		71.0
1.81<|#eta|<2.01
79006.0		96191.0		79006.0		17185.0
127031.0		154677.0		127031.0		27646.0
184858.0		221049.0		184858.0		36191.0
240140.0		279129.0		240140.0		38989.0
159980.0		189350.0		159980.0		29370.0
90395.0		105134.0		90395.0		14739.0
37080.0		41669.0		37080.0		4589.0
7378.0		8300.0		7378.0		922.0
3320.0		3708.0		3320.0		388.0
1378.0		1516.0		1378.0		138.0
667.0		723.0		667.0		56.0
738.0		797.0		738.0		59.0
2.01<|#eta|<2.37
148669.0		171938.0		148669.0		23269.0
238265.0		266840.0		238265.0		28575.0
315251.0		352631.0		315251.0		37380.0
364172.0		412847.0		364172.0		48675.0
244957.0		272757.0		244957.0		27800.0
134371.0		149605.0		134371.0		15234.0
50564.0		57403.0		50564.0		6839.0
9654.0		10987.0		9654.0		1333.0
4532.0		4956.0		4532.0		424.0
1839.0		1956.0		1839.0		117.0
893.0		967.0		893.0		74.0
864.0		974.0		864.0		110.0
