0.00<|#eta|<0.60
336240.0		413109.0		336240.0		76869.0
632223.0		766305.0		632223.0		134082.0
988850.0		1205480.0		988850.0		216631.0
1302810.0		1582460.0		1302810.0		279639.0
902098.0		1055180.0		902098.0		153077.0
509574.0		592638.0		509574.0		83064.0
224794.0		254812.0		224794.0		30018.0
47141.0		52638.0		47141.0		5497.0
23253.0		24393.0		23253.0		1140.0
9895.0		10622.0		9895.0		727.0
4984.0		5357.0		4984.0		373.0
5331.0		5770.0		5331.0		439.0
0.60<|#eta|<0.80
96756.0		124486.0		96756.0		27730.0
210052.0		255996.0		210052.0		45944.0
329605.0		409638.0		329605.0		80033.0
418551.0		505608.0		418551.0		87057.0
288216.0		337397.0		288216.0		49181.0
161093.0		187491.0		161093.0		26398.0
70651.0		79655.0		70651.0		9004.0
14906.0		16589.0		14906.0		1683.0
7059.0		7493.0		7059.0		434.0
2945.0		3177.0		2945.0		232.0
1615.0		1696.0		1615.0		81.0
1682.0		1805.0		1682.0		123.0
0.80<|#eta|<1.15
160220.0		216726.0		160220.0		56506.0
288780.0		397139.0		288780.0		108359.0
480605.0		658748.0		480605.0		178143.0
645480.0		835279.0		645480.0		189799.0
428515.0		531503.0		428515.0		102988.0
235397.0		296729.0		235397.0		61332.0
102926.0		124301.0		102926.0		21375.0
21461.0		26414.0		21461.0		4953.0
10869.0		12159.0		10869.0		1290.0
4831.0		5385.0		4831.0		554.0
2389.0		2605.0		2389.0		216.0
2711.0		2950.0		2711.0		239.0
1.15<|#eta|<1.37
89333.0		125895.0		89333.0		36562.0
159074.0		215988.0		159074.0		56914.0
258643.0		353321.0		258643.0		94678.0
353274.0		470819.0		353274.0		117545.0
235443.0		297354.0		235443.0		61911.0
137144.0		167375.0		137144.0		30231.0
57418.0		68548.0		57418.0		11130.0
12093.0		14362.0		12093.0		2269.0
5870.0		6789.0		5870.0		919.0
2733.0		3039.0		2733.0		306.0
1443.0		1615.0		1443.0		172.0
1441.0		1665.0		1441.0		224.0
1.52<|#eta|<1.81
114682.0		143951.0		114682.0		29269.0
192825.0		239433.0		192825.0		46608.0
288386.0		364819.0		288386.0		76433.0
370287.0		464536.0		370287.0		94249.0
267754.0		320284.0		267754.0		52530.0
154771.0		183135.0		154771.0		28364.0
61949.0		72997.0		61949.0		11048.0
12751.0		14878.0		12751.0		2127.0
6085.0		6830.0		6085.0		745.0
2892.0		3108.0		2892.0		216.0
1451.0		1525.0		1451.0		74.0
1563.0		1642.0		1563.0		79.0
1.81<|#eta|<2.01
78274.0		96191.0		78274.0		17917.0
126292.0		154677.0		126292.0		28385.0
184579.0		221049.0		184579.0		36470.0
239244.0		279129.0		239244.0		39885.0
160100.0		189350.0		160100.0		29250.0
90700.0		105134.0		90700.0		14434.0
36937.0		41669.0		36937.0		4732.0
7315.0		8300.0		7315.0		985.0
3355.0		3708.0		3355.0		353.0
1386.0		1516.0		1386.0		130.0
654.0		723.0		654.0		69.0
741.0		797.0		741.0		56.0
2.01<|#eta|<2.37
148377.0		171938.0		148377.0		23561.0
236765.0		266840.0		236765.0		30075.0
314803.0		352631.0		314803.0		37828.0
363801.0		412847.0		363801.0		49046.0
244995.0		272757.0		244995.0		27762.0
134080.0		149605.0		134080.0		15525.0
50466.0		57403.0		50466.0		6937.0
9636.0		10987.0		9636.0		1351.0
4562.0		4956.0		4562.0		394.0
1816.0		1956.0		1816.0		140.0
892.0		967.0		892.0		75.0
867.0		974.0		867.0		107.0
