0.00<|#eta|<0.60
336109.0		413109.0		336109.0		77000.0
630943.0		766305.0		630943.0		135362.0
987420.0		1205480.0		987420.0		218068.0
1303110.0		1582460.0		1303110.0		279338.0
903982.0		1055180.0		903982.0		151195.0
510261.0		592638.0		510261.0		82377.0
224729.0		254812.0		224729.0		30083.0
47236.0		52638.0		47236.0		5402.0
23159.0		24393.0		23159.0		1234.0
9850.0		10622.0		9850.0		772.0
4957.0		5357.0		4957.0		400.0
5306.0		5770.0		5306.0		464.0
0.60<|#eta|<0.80
96794.0		124486.0		96794.0		27692.0
209873.0		255996.0		209873.0		46123.0
330699.0		409638.0		330699.0		78939.0
419191.0		505608.0		419191.0		86417.0
287904.0		337397.0		287904.0		49493.0
160898.0		187491.0		160898.0		26593.0
70952.0		79655.0		70952.0		8703.0
14958.0		16589.0		14958.0		1631.0
7035.0		7493.0		7035.0		458.0
2944.0		3177.0		2944.0		233.0
1583.0		1696.0		1583.0		113.0
1706.0		1805.0		1706.0		99.0
0.80<|#eta|<1.15
160496.0		216726.0		160496.0		56230.0
288907.0		397139.0		288907.0		108232.0
479516.0		658748.0		479516.0		179232.0
651889.0		835279.0		651889.0		183390.0
427942.0		531503.0		427942.0		103561.0
235642.0		296729.0		235642.0		61087.0
102721.0		124301.0		102721.0		21580.0
21497.0		26414.0		21497.0		4917.0
10836.0		12159.0		10836.0		1323.0
4830.0		5385.0		4830.0		555.0
2375.0		2605.0		2375.0		230.0
2700.0		2950.0		2700.0		250.0
1.15<|#eta|<1.37
89229.0		125895.0		89229.0		36666.0
158038.0		215988.0		158038.0		57950.0
258877.0		353321.0		258877.0		94444.0
353774.0		470819.0		353774.0		117045.0
234491.0		297354.0		234491.0		62863.0
137574.0		167375.0		137574.0		29801.0
57665.0		68548.0		57665.0		10883.0
12068.0		14362.0		12068.0		2294.0
5760.0		6789.0		5760.0		1029.0
2730.0		3039.0		2730.0		309.0
1473.0		1615.0		1473.0		142.0
1450.0		1665.0		1450.0		215.0
1.52<|#eta|<1.81
113909.0		143951.0		113909.0		30042.0
191787.0		239433.0		191787.0		47646.0
288258.0		364819.0		288258.0		76561.0
369341.0		464536.0		369341.0		95195.0
266943.0		320284.0		266943.0		53341.0
154354.0		183135.0		154354.0		28781.0
62404.0		72997.0		62404.0		10593.0
12745.0		14878.0		12745.0		2133.0
6054.0		6830.0		6054.0		776.0
2865.0		3108.0		2865.0		243.0
1456.0		1525.0		1456.0		69.0
1563.0		1642.0		1563.0		79.0
1.81<|#eta|<2.01
77880.0		96191.0		77880.0		18311.0
126348.0		154677.0		126348.0		28329.0
185040.0		221049.0		185040.0		36009.0
240175.0		279129.0		240175.0		38954.0
160702.0		189350.0		160702.0		28648.0
90851.0		105134.0		90851.0		14283.0
37125.0		41669.0		37125.0		4544.0
7364.0		8300.0		7364.0		936.0
3336.0		3708.0		3336.0		372.0
1363.0		1516.0		1363.0		153.0
652.0		723.0		652.0		71.0
752.0		797.0		752.0		45.0
2.01<|#eta|<2.37
149518.0		171938.0		149518.0		22420.0
238027.0		266840.0		238027.0		28813.0
315718.0		352631.0		315718.0		36913.0
364518.0		412847.0		364518.0		48329.0
244658.0		272757.0		244658.0		28099.0
134190.0		149605.0		134190.0		15415.0
50213.0		57403.0		50213.0		7190.0
9619.0		10987.0		9619.0		1368.0
4542.0		4956.0		4542.0		414.0
1843.0		1956.0		1843.0		113.0
901.0		967.0		901.0		66.0
847.0		974.0		847.0		127.0
