0.00<|#eta|<0.60
335848.0		413109.0		335848.0		77261.0
631437.0		766305.0		631437.0		134868.0
986790.0		1205480.0		986790.0		218684.0
1303940.0		1582460.0		1303940.0		278517.0
900566.0		1055180.0		900566.0		154609.0
510258.0		592638.0		510258.0		82380.0
224565.0		254812.0		224565.0		30247.0
47222.0		52638.0		47222.0		5416.0
23171.0		24393.0		23171.0		1222.0
9917.0		10622.0		9917.0		705.0
5019.0		5357.0		5019.0		338.0
5310.0		5770.0		5310.0		460.0
0.60<|#eta|<0.80
96934.0		124486.0		96934.0		27552.0
209769.0		255996.0		209769.0		46227.0
331970.0		409638.0		331970.0		77668.0
418903.0		505608.0		418903.0		86705.0
288796.0		337397.0		288796.0		48601.0
160473.0		187491.0		160473.0		27018.0
70907.0		79655.0		70907.0		8748.0
14998.0		16589.0		14998.0		1591.0
7039.0		7493.0		7039.0		454.0
2933.0		3177.0		2933.0		244.0
1570.0		1696.0		1570.0		126.0
1688.0		1805.0		1688.0		117.0
0.80<|#eta|<1.15
159548.0		216726.0		159548.0		57178.0
289265.0		397139.0		289265.0		107874.0
478707.0		658748.0		478707.0		180041.0
647360.0		835279.0		647360.0		187919.0
428394.0		531503.0		428394.0		103109.0
235648.0		296729.0		235648.0		61081.0
103043.0		124301.0		103043.0		21258.0
21595.0		26414.0		21595.0		4819.0
10879.0		12159.0		10879.0		1280.0
4798.0		5385.0		4798.0		587.0
2376.0		2605.0		2376.0		229.0
2715.0		2950.0		2715.0		235.0
1.15<|#eta|<1.37
89502.0		125895.0		89502.0		36393.0
158819.0		215988.0		158819.0		57169.0
257348.0		353321.0		257348.0		95973.0
351060.0		470819.0		351060.0		119759.0
234791.0		297354.0		234791.0		62563.0
137078.0		167375.0		137078.0		30297.0
57538.0		68548.0		57538.0		11010.0
12177.0		14362.0		12177.0		2185.0
5835.0		6789.0		5835.0		954.0
2732.0		3039.0		2732.0		307.0
1439.0		1615.0		1439.0		176.0
1487.0		1665.0		1487.0		178.0
1.52<|#eta|<1.81
114886.0		143951.0		114886.0		29065.0
190894.0		239433.0		190894.0		48539.0
288368.0		364819.0		288368.0		76451.0
368499.0		464536.0		368499.0		96037.0
267949.0		320284.0		267949.0		52335.0
155756.0		183135.0		155756.0		27379.0
62234.0		72997.0		62234.0		10763.0
12840.0		14878.0		12840.0		2038.0
6043.0		6830.0		6043.0		787.0
2871.0		3108.0		2871.0		237.0
1458.0		1525.0		1458.0		67.0
1569.0		1642.0		1569.0		73.0
1.81<|#eta|<2.01
78723.0		96191.0		78723.0		17468.0
127072.0		154677.0		127072.0		27605.0
185236.0		221049.0		185236.0		35813.0
240457.0		279129.0		240457.0		38672.0
161036.0		189350.0		161036.0		28314.0
90530.0		105134.0		90530.0		14604.0
37231.0		41669.0		37231.0		4438.0
7283.0		8300.0		7283.0		1017.0
3364.0		3708.0		3364.0		344.0
1380.0		1516.0		1380.0		136.0
651.0		723.0		651.0		72.0
739.0		797.0		739.0		58.0
2.01<|#eta|<2.37
148595.0		171938.0		148595.0		23343.0
237175.0		266840.0		237175.0		29665.0
314948.0		352631.0		314948.0		37683.0
364030.0		412847.0		364030.0		48817.0
244499.0		272757.0		244499.0		28258.0
134254.0		149605.0		134254.0		15351.0
50463.0		57403.0		50463.0		6940.0
9565.0		10987.0		9565.0		1422.0
4510.0		4956.0		4510.0		446.0
1826.0		1956.0		1826.0		130.0
897.0		967.0		897.0		70.0
865.0		974.0		865.0		109.0
