0.00<|#eta|<0.60
335137.0		413109.0		335137.0		77972.0
628632.0		766305.0		628632.0		137673.0
986280.0		1205480.0		986280.0		219204.0
1302930.0		1582460.0		1302930.0		279527.0
902039.0		1055180.0		902039.0		153136.0
511122.0		592638.0		511122.0		81516.0
224511.0		254812.0		224511.0		30301.0
47007.0		52638.0		47007.0		5631.0
23145.0		24393.0		23145.0		1248.0
9883.0		10622.0		9883.0		739.0
4995.0		5357.0		4995.0		362.0
5299.0		5770.0		5299.0		471.0
0.60<|#eta|<0.80
97183.0		124486.0		97183.0		27303.0
208809.0		255996.0		208809.0		47187.0
333025.0		409638.0		333025.0		76613.0
422062.0		505608.0		422062.0		83546.0
287509.0		337397.0		287509.0		49888.0
160480.0		187491.0		160480.0		27011.0
70814.0		79655.0		70814.0		8841.0
14966.0		16589.0		14966.0		1623.0
7094.0		7493.0		7094.0		399.0
2940.0		3177.0		2940.0		237.0
1590.0		1696.0		1590.0		106.0
1711.0		1805.0		1711.0		94.0
0.80<|#eta|<1.15
159440.0		216726.0		159440.0		57286.0
290188.0		397139.0		290188.0		106951.0
480617.0		658748.0		480617.0		178131.0
649095.0		835279.0		649095.0		186184.0
428469.0		531503.0		428469.0		103034.0
235925.0		296729.0		235925.0		60804.0
103000.0		124301.0		103000.0		21301.0
21395.0		26414.0		21395.0		5019.0
10872.0		12159.0		10872.0		1287.0
4817.0		5385.0		4817.0		568.0
2378.0		2605.0		2378.0		227.0
2694.0		2950.0		2694.0		256.0
1.15<|#eta|<1.37
89671.0		125895.0		89671.0		36224.0
158336.0		215988.0		158336.0		57652.0
257676.0		353321.0		257676.0		95645.0
352057.0		470819.0		352057.0		118762.0
233472.0		297354.0		233472.0		63882.0
137525.0		167375.0		137525.0		29850.0
57428.0		68548.0		57428.0		11120.0
12078.0		14362.0		12078.0		2284.0
5807.0		6789.0		5807.0		982.0
2730.0		3039.0		2730.0		309.0
1419.0		1615.0		1419.0		196.0
1475.0		1665.0		1475.0		190.0
1.52<|#eta|<1.81
114675.0		143951.0		114675.0		29276.0
192065.0		239433.0		192065.0		47368.0
288435.0		364819.0		288435.0		76384.0
368468.0		464536.0		368468.0		96068.0
267051.0		320284.0		267051.0		53233.0
155178.0		183135.0		155178.0		27957.0
62738.0		72997.0		62738.0		10259.0
12798.0		14878.0		12798.0		2080.0
6034.0		6830.0		6034.0		796.0
2877.0		3108.0		2877.0		231.0
1452.0		1525.0		1452.0		73.0
1569.0		1642.0		1569.0		73.0
1.81<|#eta|<2.01
78384.0		96191.0		78384.0		17807.0
126451.0		154677.0		126451.0		28226.0
184444.0		221049.0		184444.0		36605.0
239672.0		279129.0		239672.0		39457.0
160839.0		189350.0		160839.0		28511.0
90591.0		105134.0		90591.0		14543.0
37006.0		41669.0		37006.0		4663.0
7281.0		8300.0		7281.0		1019.0
3355.0		3708.0		3355.0		353.0
1394.0		1516.0		1394.0		122.0
635.0		723.0		635.0		88.0
739.0		797.0		739.0		58.0
2.01<|#eta|<2.37
148175.0		171938.0		148175.0		23763.0
238038.0		266840.0		238038.0		28802.0
315555.0		352631.0		315555.0		37076.0
364407.0		412847.0		364407.0		48440.0
244025.0		272757.0		244025.0		28732.0
133863.0		149605.0		133863.0		15742.0
50510.0		57403.0		50510.0		6893.0
9584.0		10987.0		9584.0		1403.0
4562.0		4956.0		4562.0		394.0
1860.0		1956.0		1860.0		96.0
906.0		967.0		906.0		61.0
873.0		974.0		873.0		101.0
