0.00<|#eta|<0.60
335507.0		413109.0		335507.0		77602.0
628495.0		766305.0		628495.0		137810.0
987360.0		1205480.0		987360.0		218121.0
1300620.0		1582460.0		1300620.0		281838.0
902729.0		1055180.0		902729.0		152446.0
510428.0		592638.0		510428.0		82210.0
224829.0		254812.0		224829.0		29983.0
47053.0		52638.0		47053.0		5585.0
23148.0		24393.0		23148.0		1245.0
9932.0		10622.0		9932.0		690.0
5018.0		5357.0		5018.0		339.0
5273.0		5770.0		5273.0		497.0
0.60<|#eta|<0.80
97338.0		124486.0		97338.0		27148.0
211371.0		255996.0		211371.0		44625.0
331792.0		409638.0		331792.0		77846.0
418533.0		505608.0		418533.0		87075.0
287904.0		337397.0		287904.0		49493.0
160870.0		187491.0		160870.0		26621.0
70465.0		79655.0		70465.0		9190.0
14904.0		16589.0		14904.0		1685.0
7061.0		7493.0		7061.0		432.0
2933.0		3177.0		2933.0		244.0
1588.0		1696.0		1588.0		108.0
1689.0		1805.0		1689.0		116.0
0.80<|#eta|<1.15
160584.0		216726.0		160584.0		56142.0
289192.0		397139.0		289192.0		107947.0
482059.0		658748.0		482059.0		176689.0
650397.0		835279.0		650397.0		184882.0
428030.0		531503.0		428030.0		103473.0
236092.0		296729.0		236092.0		60637.0
102851.0		124301.0		102851.0		21450.0
21615.0		26414.0		21615.0		4799.0
10836.0		12159.0		10836.0		1323.0
4853.0		5385.0		4853.0		532.0
2378.0		2605.0		2378.0		227.0
2703.0		2950.0		2703.0		247.0
1.15<|#eta|<1.37
90093.0		125895.0		90093.0		35802.0
156944.0		215988.0		156944.0		59044.0
260490.0		353321.0		260490.0		92831.0
353223.0		470819.0		353223.0		117596.0
234840.0		297354.0		234840.0		62514.0
137582.0		167375.0		137582.0		29793.0
57444.0		68548.0		57444.0		11104.0
12136.0		14362.0		12136.0		2226.0
5826.0		6789.0		5826.0		963.0
2713.0		3039.0		2713.0		326.0
1423.0		1615.0		1423.0		192.0
1476.0		1665.0		1476.0		189.0
1.52<|#eta|<1.81
114711.0		143951.0		114711.0		29240.0
191885.0		239433.0		191885.0		47548.0
288845.0		364819.0		288845.0		75974.0
368102.0		464536.0		368102.0		96434.0
266496.0		320284.0		266496.0		53788.0
154775.0		183135.0		154775.0		28360.0
62335.0		72997.0		62335.0		10662.0
12812.0		14878.0		12812.0		2066.0
6044.0		6830.0		6044.0		786.0
2869.0		3108.0		2869.0		239.0
1457.0		1525.0		1457.0		68.0
1565.0		1642.0		1565.0		77.0
1.81<|#eta|<2.01
78105.0		96191.0		78105.0		18086.0
126769.0		154677.0		126769.0		27908.0
184488.0		221049.0		184488.0		36561.0
240310.0		279129.0		240310.0		38819.0
160365.0		189350.0		160365.0		28985.0
90303.0		105134.0		90303.0		14831.0
36876.0		41669.0		36876.0		4793.0
7245.0		8300.0		7245.0		1055.0
3312.0		3708.0		3312.0		396.0
1375.0		1516.0		1375.0		141.0
644.0		723.0		644.0		79.0
742.0		797.0		742.0		55.0
2.01<|#eta|<2.37
148270.0		171938.0		148270.0		23668.0
236862.0		266840.0		236862.0		29978.0
315419.0		352631.0		315419.0		37212.0
364604.0		412847.0		364604.0		48243.0
244888.0		272757.0		244888.0		27869.0
134416.0		149605.0		134416.0		15189.0
50344.0		57403.0		50344.0		7059.0
9610.0		10987.0		9610.0		1377.0
4538.0		4956.0		4538.0		418.0
1814.0		1956.0		1814.0		142.0
892.0		967.0		892.0		75.0
879.0		974.0		879.0		95.0
