0.00<|#eta|<0.60
336225.0		413109.0		336225.0		76884.0
631323.0		766305.0		631323.0		134982.0
990880.0		1205480.0		990880.0		214614.0
1303120.0		1582460.0		1303120.0		279339.0
902006.0		1055180.0		902006.0		153169.0
512105.0		592638.0		512105.0		80533.0
224777.0		254812.0		224777.0		30035.0
47066.0		52638.0		47066.0		5572.0
23197.0		24393.0		23197.0		1196.0
9849.0		10622.0		9849.0		773.0
5038.0		5357.0		5038.0		319.0
5320.0		5770.0		5320.0		450.0
0.60<|#eta|<0.80
97189.0		124486.0		97189.0		27297.0
211419.0		255996.0		211419.0		44577.0
333216.0		409638.0		333216.0		76422.0
418968.0		505608.0		418968.0		86640.0
288200.0		337397.0		288200.0		49197.0
161116.0		187491.0		161116.0		26375.0
70675.0		79655.0		70675.0		8980.0
14980.0		16589.0		14980.0		1609.0
7065.0		7493.0		7065.0		428.0
2944.0		3177.0		2944.0		233.0
1573.0		1696.0		1573.0		123.0
1698.0		1805.0		1698.0		107.0
0.80<|#eta|<1.15
160702.0		216726.0		160702.0		56024.0
288737.0		397139.0		288737.0		108402.0
482235.0		658748.0		482235.0		176513.0
649962.0		835279.0		649962.0		185317.0
429921.0		531503.0		429921.0		101582.0
236008.0		296729.0		236008.0		60721.0
103087.0		124301.0		103087.0		21214.0
21433.0		26414.0		21433.0		4981.0
10849.0		12159.0		10849.0		1310.0
4807.0		5385.0		4807.0		578.0
2419.0		2605.0		2419.0		186.0
2705.0		2950.0		2705.0		245.0
1.15<|#eta|<1.37
90282.0		125895.0		90282.0		35613.0
158829.0		215988.0		158829.0		57159.0
259287.0		353321.0		259287.0		94034.0
352803.0		470819.0		352803.0		118016.0
234038.0		297354.0		234038.0		63316.0
137370.0		167375.0		137370.0		30005.0
57337.0		68548.0		57337.0		11211.0
12228.0		14362.0		12228.0		2134.0
5822.0		6789.0		5822.0		967.0
2708.0		3039.0		2708.0		331.0
1429.0		1615.0		1429.0		186.0
1457.0		1665.0		1457.0		208.0
1.52<|#eta|<1.81
114885.0		143951.0		114885.0		29066.0
192424.0		239433.0		192424.0		47009.0
289335.0		364819.0		289335.0		75484.0
369550.0		464536.0		369550.0		94986.0
268210.0		320284.0		268210.0		52074.0
154789.0		183135.0		154789.0		28346.0
62305.0		72997.0		62305.0		10692.0
12814.0		14878.0		12814.0		2064.0
6051.0		6830.0		6051.0		779.0
2887.0		3108.0		2887.0		221.0
1459.0		1525.0		1459.0		66.0
1571.0		1642.0		1571.0		71.0
1.81<|#eta|<2.01
77324.0		96191.0		77324.0		18867.0
125116.0		154677.0		125116.0		29561.0
184835.0		221049.0		184835.0		36214.0
239821.0		279129.0		239821.0		39308.0
159132.0		189350.0		159132.0		30218.0
90985.0		105134.0		90985.0		14149.0
36953.0		41669.0		36953.0		4716.0
7263.0		8300.0		7263.0		1037.0
3318.0		3708.0		3318.0		390.0
1370.0		1516.0		1370.0		146.0
661.0		723.0		661.0		62.0
739.0		797.0		739.0		58.0
2.01<|#eta|<2.37
148959.0		171938.0		148959.0		22979.0
236858.0		266840.0		236858.0		29982.0
313606.0		352631.0		313606.0		39025.0
364769.0		412847.0		364769.0		48078.0
244663.0		272757.0		244663.0		28094.0
134099.0		149605.0		134099.0		15506.0
50648.0		57403.0		50648.0		6755.0
9645.0		10987.0		9645.0		1342.0
4531.0		4956.0		4531.0		425.0
1823.0		1956.0		1823.0		133.0
898.0		967.0		898.0		69.0
848.0		974.0		848.0		126.0
