0.00<|#eta|<0.60
334262.0		413109.0		334262.0		78847.0
628832.0		766305.0		628832.0		137473.0
986420.0		1205480.0		986420.0		219058.0
1299700.0		1582460.0		1299700.0		282760.0
901103.0		1055180.0		901103.0		154072.0
510645.0		592638.0		510645.0		81993.0
224479.0		254812.0		224479.0		30333.0
46980.0		52638.0		46980.0		5658.0
23184.0		24393.0		23184.0		1209.0
9891.0		10622.0		9891.0		731.0
4948.0		5357.0		4948.0		409.0
5357.0		5770.0		5357.0		413.0
0.60<|#eta|<0.80
97617.0		124486.0		97617.0		26869.0
208555.0		255996.0		208555.0		47441.0
331294.0		409638.0		331294.0		78344.0
419771.0		505608.0		419771.0		85837.0
286010.0		337397.0		286010.0		51387.0
160683.0		187491.0		160683.0		26808.0
70911.0		79655.0		70911.0		8744.0
14854.0		16589.0		14854.0		1735.0
7022.0		7493.0		7022.0		471.0
2912.0		3177.0		2912.0		265.0
1591.0		1696.0		1591.0		105.0
1704.0		1805.0		1704.0		101.0
0.80<|#eta|<1.15
159734.0		216726.0		159734.0		56992.0
290567.0		397139.0		290567.0		106572.0
481176.0		658748.0		481176.0		177572.0
648431.0		835279.0		648431.0		186848.0
427438.0		531503.0		427438.0		104065.0
235819.0		296729.0		235819.0		60910.0
103239.0		124301.0		103239.0		21062.0
21559.0		26414.0		21559.0		4855.0
10746.0		12159.0		10746.0		1413.0
4807.0		5385.0		4807.0		578.0
2383.0		2605.0		2383.0		222.0
2653.0		2950.0		2653.0		297.0
1.15<|#eta|<1.37
89938.0		125895.0		89938.0		35957.0
156687.0		215988.0		156687.0		59301.0
257094.0		353321.0		257094.0		96227.0
352713.0		470819.0		352713.0		118106.0
234778.0		297354.0		234778.0		62576.0
137889.0		167375.0		137889.0		29486.0
57331.0		68548.0		57331.0		11217.0
12208.0		14362.0		12208.0		2154.0
5832.0		6789.0		5832.0		957.0
2764.0		3039.0		2764.0		275.0
1431.0		1615.0		1431.0		184.0
1440.0		1665.0		1440.0		225.0
1.52<|#eta|<1.81
114033.0		143951.0		114033.0		29918.0
192705.0		239433.0		192705.0		46728.0
289238.0		364819.0		289238.0		75581.0
369202.0		464536.0		369202.0		95334.0
266721.0		320284.0		266721.0		53563.0
155143.0		183135.0		155143.0		27992.0
62732.0		72997.0		62732.0		10265.0
12768.0		14878.0		12768.0		2110.0
6041.0		6830.0		6041.0		789.0
2837.0		3108.0		2837.0		271.0
1461.0		1525.0		1461.0		64.0
1569.0		1642.0		1569.0		73.0
1.81<|#eta|<2.01
77461.0		96191.0		77461.0		18730.0
127226.0		154677.0		127226.0		27451.0
184564.0		221049.0		184564.0		36485.0
240268.0		279129.0		240268.0		38861.0
160060.0		189350.0		160060.0		29290.0
90292.0		105134.0		90292.0		14842.0
37027.0		41669.0		37027.0		4642.0
7341.0		8300.0		7341.0		959.0
3332.0		3708.0		3332.0		376.0
1374.0		1516.0		1374.0		142.0
651.0		723.0		651.0		72.0
735.0		797.0		735.0		62.0
2.01<|#eta|<2.37
147122.0		171938.0		147122.0		24816.0
237585.0		266840.0		237585.0		29255.0
315289.0		352631.0		315289.0		37342.0
364814.0		412847.0		364814.0		48033.0
244927.0		272757.0		244927.0		27830.0
134071.0		149605.0		134071.0		15534.0
50531.0		57403.0		50531.0		6872.0
9481.0		10987.0		9481.0		1506.0
4562.0		4956.0		4562.0		394.0
1824.0		1956.0		1824.0		132.0
901.0		967.0		901.0		66.0
837.0		974.0		837.0		137.0
