0.00<|#eta|<0.60
334653.0		413109.0		334653.0		78456.0
629729.0		766305.0		629729.0		136576.0
984420.0		1205480.0		984420.0		221064.0
1304070.0		1582460.0		1304070.0		278380.0
901473.0		1055180.0		901473.0		153702.0
510958.0		592638.0		510958.0		81680.0
224595.0		254812.0		224595.0		30217.0
47033.0		52638.0		47033.0		5605.0
23224.0		24393.0		23224.0		1169.0
9897.0		10622.0		9897.0		725.0
4982.0		5357.0		4982.0		375.0
5332.0		5770.0		5332.0		438.0
0.60<|#eta|<0.80
97233.0		124486.0		97233.0		27253.0
210510.0		255996.0		210510.0		45486.0
332800.0		409638.0		332800.0		76838.0
419188.0		505608.0		419188.0		86420.0
287796.0		337397.0		287796.0		49601.0
160118.0		187491.0		160118.0		27373.0
70448.0		79655.0		70448.0		9207.0
14943.0		16589.0		14943.0		1646.0
7063.0		7493.0		7063.0		430.0
2961.0		3177.0		2961.0		216.0
1605.0		1696.0		1605.0		91.0
1715.0		1805.0		1715.0		90.0
0.80<|#eta|<1.15
160496.0		216726.0		160496.0		56230.0
288412.0		397139.0		288412.0		108727.0
481824.0		658748.0		481824.0		176924.0
649890.0		835279.0		649890.0		185389.0
428692.0		531503.0		428692.0		102811.0
236144.0		296729.0		236144.0		60585.0
102584.0		124301.0		102584.0		21717.0
21503.0		26414.0		21503.0		4911.0
10845.0		12159.0		10845.0		1314.0
4858.0		5385.0		4858.0		527.0
2384.0		2605.0		2384.0		221.0
2688.0		2950.0		2688.0		262.0
1.15<|#eta|<1.37
89332.0		125895.0		89332.0		36563.0
158645.0		215988.0		158645.0		57343.0
257258.0		353321.0		257258.0		96063.0
353391.0		470819.0		353391.0		117428.0
235150.0		297354.0		235150.0		62204.0
137244.0		167375.0		137244.0		30131.0
57577.0		68548.0		57577.0		10971.0
12198.0		14362.0		12198.0		2164.0
5805.0		6789.0		5805.0		984.0
2680.0		3039.0		2680.0		359.0
1449.0		1615.0		1449.0		166.0
1417.0		1665.0		1417.0		248.0
1.52<|#eta|<1.81
113791.0		143951.0		113791.0		30160.0
191963.0		239433.0		191963.0		47470.0
289294.0		364819.0		289294.0		75525.0
368604.0		464536.0		368604.0		95932.0
267077.0		320284.0		267077.0		53207.0
155120.0		183135.0		155120.0		28015.0
62419.0		72997.0		62419.0		10578.0
12744.0		14878.0		12744.0		2134.0
6077.0		6830.0		6077.0		753.0
2877.0		3108.0		2877.0		231.0
1448.0		1525.0		1448.0		77.0
1570.0		1642.0		1570.0		72.0
1.81<|#eta|<2.01
77691.0		96191.0		77691.0		18500.0
126772.0		154677.0		126772.0		27905.0
184025.0		221049.0		184025.0		37024.0
239994.0		279129.0		239994.0		39135.0
159526.0		189350.0		159526.0		29824.0
90365.0		105134.0		90365.0		14769.0
37062.0		41669.0		37062.0		4607.0
7308.0		8300.0		7308.0		992.0
3343.0		3708.0		3343.0		365.0
1372.0		1516.0		1372.0		144.0
658.0		723.0		658.0		65.0
730.0		797.0		730.0		67.0
2.01<|#eta|<2.37
148094.0		171938.0		148094.0		23844.0
237913.0		266840.0		237913.0		28927.0
315486.0		352631.0		315486.0		37145.0
363638.0		412847.0		363638.0		49209.0
243837.0		272757.0		243837.0		28920.0
133954.0		149605.0		133954.0		15651.0
50543.0		57403.0		50543.0		6860.0
9559.0		10987.0		9559.0		1428.0
4554.0		4956.0		4554.0		402.0
1856.0		1956.0		1856.0		100.0
898.0		967.0		898.0		69.0
859.0		974.0		859.0		115.0
