0.00<|#eta|<0.60
334655.0		413109.0		334655.0		78454.0
627285.0		766305.0		627285.0		139020.0
986920.0		1205480.0		986920.0		218557.0
1304040.0		1582460.0		1304040.0		278405.0
901415.0		1055180.0		901415.0		153760.0
511248.0		592638.0		511248.0		81390.0
224484.0		254812.0		224484.0		30328.0
47078.0		52638.0		47078.0		5560.0
23170.0		24393.0		23170.0		1223.0
9915.0		10622.0		9915.0		707.0
4971.0		5357.0		4971.0		386.0
5307.0		5770.0		5307.0		463.0
0.60<|#eta|<0.80
97207.0		124486.0		97207.0		27279.0
210236.0		255996.0		210236.0		45760.0
331575.0		409638.0		331575.0		78063.0
418372.0		505608.0		418372.0		87236.0
289180.0		337397.0		289180.0		48217.0
160754.0		187491.0		160754.0		26737.0
70719.0		79655.0		70719.0		8936.0
14814.0		16589.0		14814.0		1775.0
7050.0		7493.0		7050.0		443.0
2968.0		3177.0		2968.0		209.0
1594.0		1696.0		1594.0		102.0
1698.0		1805.0		1698.0		107.0
0.80<|#eta|<1.15
160970.0		216726.0		160970.0		55756.0
287483.0		397139.0		287483.0		109656.0
478848.0		658748.0		478848.0		179900.0
649981.0		835279.0		649981.0		185298.0
426005.0		531503.0		426005.0		105498.0
235644.0		296729.0		235644.0		61085.0
103180.0		124301.0		103180.0		21121.0
21369.0		26414.0		21369.0		5045.0
10813.0		12159.0		10813.0		1346.0
4882.0		5385.0		4882.0		503.0
2394.0		2605.0		2394.0		211.0
2715.0		2950.0		2715.0		235.0
1.15<|#eta|<1.37
89220.0		125895.0		89220.0		36675.0
157208.0		215988.0		157208.0		58780.0
256861.0		353321.0		256861.0		96460.0
351983.0		470819.0		351983.0		118836.0
234373.0		297354.0		234373.0		62981.0
137062.0		167375.0		137062.0		30313.0
57353.0		68548.0		57353.0		11195.0
12191.0		14362.0		12191.0		2171.0
5790.0		6789.0		5790.0		999.0
2708.0		3039.0		2708.0		331.0
1429.0		1615.0		1429.0		186.0
1471.0		1665.0		1471.0		194.0
1.52<|#eta|<1.81
114267.0		143951.0		114267.0		29684.0
190760.0		239433.0		190760.0		48673.0
288935.0		364819.0		288935.0		75884.0
369024.0		464536.0		369024.0		95512.0
267966.0		320284.0		267966.0		52318.0
155281.0		183135.0		155281.0		27854.0
62332.0		72997.0		62332.0		10665.0
12814.0		14878.0		12814.0		2064.0
6064.0		6830.0		6064.0		766.0
2875.0		3108.0		2875.0		233.0
1448.0		1525.0		1448.0		77.0
1561.0		1642.0		1561.0		81.0
1.81<|#eta|<2.01
78319.0		96191.0		78319.0		17872.0
127546.0		154677.0		127546.0		27131.0
183659.0		221049.0		183659.0		37390.0
240322.0		279129.0		240322.0		38807.0
160373.0		189350.0		160373.0		28977.0
90471.0		105134.0		90471.0		14663.0
36954.0		41669.0		36954.0		4715.0
7345.0		8300.0		7345.0		955.0
3352.0		3708.0		3352.0		356.0
1359.0		1516.0		1359.0		157.0
659.0		723.0		659.0		64.0
740.0		797.0		740.0		57.0
2.01<|#eta|<2.37
147958.0		171938.0		147958.0		23980.0
237185.0		266840.0		237185.0		29655.0
313891.0		352631.0		313891.0		38740.0
364047.0		412847.0		364047.0		48800.0
245258.0		272757.0		245258.0		27499.0
134583.0		149605.0		134583.0		15022.0
50500.0		57403.0		50500.0		6903.0
9567.0		10987.0		9567.0		1420.0
4515.0		4956.0		4515.0		441.0
1855.0		1956.0		1855.0		101.0
895.0		967.0		895.0		72.0
852.0		974.0		852.0		122.0
