0.00<|#eta|<0.60
334437.0		413109.0		334437.0		78672.0
628703.0		766305.0		628703.0		137602.0
986930.0		1205480.0		986930.0		218558.0
1303170.0		1582460.0		1303170.0		279289.0
902856.0		1055180.0		902856.0		152319.0
510139.0		592638.0		510139.0		82499.0
225007.0		254812.0		225007.0		29805.0
47083.0		52638.0		47083.0		5555.0
23206.0		24393.0		23206.0		1187.0
9907.0		10622.0		9907.0		715.0
4986.0		5357.0		4986.0		371.0
5335.0		5770.0		5335.0		435.0
0.60<|#eta|<0.80
97236.0		124486.0		97236.0		27250.0
209563.0		255996.0		209563.0		46433.0
331052.0		409638.0		331052.0		78586.0
417703.0		505608.0		417703.0		87905.0
286724.0		337397.0		286724.0		50673.0
160808.0		187491.0		160808.0		26683.0
70548.0		79655.0		70548.0		9107.0
14981.0		16589.0		14981.0		1608.0
7068.0		7493.0		7068.0		425.0
2968.0		3177.0		2968.0		209.0
1576.0		1696.0		1576.0		120.0
1688.0		1805.0		1688.0		117.0
0.80<|#eta|<1.15
160103.0		216726.0		160103.0		56623.0
287791.0		397139.0		287791.0		109348.0
483025.0		658748.0		483025.0		175723.0
649385.0		835279.0		649385.0		185894.0
428479.0		531503.0		428479.0		103024.0
235617.0		296729.0		235617.0		61112.0
102926.0		124301.0		102926.0		21375.0
21469.0		26414.0		21469.0		4945.0
10884.0		12159.0		10884.0		1275.0
4777.0		5385.0		4777.0		608.0
2386.0		2605.0		2386.0		219.0
2704.0		2950.0		2704.0		246.0
1.15<|#eta|<1.37
90017.0		125895.0		90017.0		35878.0
157973.0		215988.0		157973.0		58015.0
257656.0		353321.0		257656.0		95665.0
353430.0		470819.0		353430.0		117389.0
234207.0		297354.0		234207.0		63147.0
137610.0		167375.0		137610.0		29765.0
57401.0		68548.0		57401.0		11147.0
12114.0		14362.0		12114.0		2248.0
5806.0		6789.0		5806.0		983.0
2720.0		3039.0		2720.0		319.0
1425.0		1615.0		1425.0		190.0
1457.0		1665.0		1457.0		208.0
1.52<|#eta|<1.81
114136.0		143951.0		114136.0		29815.0
191344.0		239433.0		191344.0		48089.0
291366.0		364819.0		291366.0		73453.0
368678.0		464536.0		368678.0		95858.0
267414.0		320284.0		267414.0		52870.0
154796.0		183135.0		154796.0		28339.0
62483.0		72997.0		62483.0		10514.0
12887.0		14878.0		12887.0		1991.0
6029.0		6830.0		6029.0		801.0
2868.0		3108.0		2868.0		240.0
1443.0		1525.0		1443.0		82.0
1574.0		1642.0		1574.0		68.0
1.81<|#eta|<2.01
77527.0		96191.0		77527.0		18664.0
126712.0		154677.0		126712.0		27965.0
183730.0		221049.0		183730.0		37319.0
239412.0		279129.0		239412.0		39717.0
161372.0		189350.0		161372.0		27978.0
90831.0		105134.0		90831.0		14303.0
36906.0		41669.0		36906.0		4763.0
7267.0		8300.0		7267.0		1033.0
3306.0		3708.0		3306.0		402.0
1378.0		1516.0		1378.0		138.0
668.0		723.0		668.0		55.0
743.0		797.0		743.0		54.0
2.01<|#eta|<2.37
148516.0		171938.0		148516.0		23422.0
238296.0		266840.0		238296.0		28544.0
315326.0		352631.0		315326.0		37305.0
363262.0		412847.0		363262.0		49585.0
244948.0		272757.0		244948.0		27809.0
134464.0		149605.0		134464.0		15141.0
50442.0		57403.0		50442.0		6961.0
9627.0		10987.0		9627.0		1360.0
4520.0		4956.0		4520.0		436.0
1838.0		1956.0		1838.0		118.0
893.0		967.0		893.0		74.0
845.0		974.0		845.0		129.0
