0.00<|#eta|<0.60
335343.0		413109.0		335343.0		77766.0
629681.0		766305.0		629681.0		136624.0
987960.0		1205480.0		987960.0		217525.0
1300070.0		1582460.0		1300070.0		282390.0
903390.0		1055180.0		903390.0		151786.0
510548.0		592638.0		510548.0		82090.0
224966.0		254812.0		224966.0		29846.0
46895.0		52638.0		46895.0		5743.0
23181.0		24393.0		23181.0		1212.0
9932.0		10622.0		9932.0		690.0
4993.0		5357.0		4993.0		364.0
5341.0		5770.0		5341.0		429.0
0.60<|#eta|<0.80
97224.0		124486.0		97224.0		27262.0
210578.0		255996.0		210578.0		45418.0
329524.0		409638.0		329524.0		80114.0
418682.0		505608.0		418682.0		86926.0
288963.0		337397.0		288963.0		48434.0
160401.0		187491.0		160401.0		27090.0
70594.0		79655.0		70594.0		9061.0
14938.0		16589.0		14938.0		1651.0
7023.0		7493.0		7023.0		470.0
2948.0		3177.0		2948.0		229.0
1599.0		1696.0		1599.0		97.0
1696.0		1805.0		1696.0		109.0
0.80<|#eta|<1.15
160262.0		216726.0		160262.0		56464.0
288194.0		397139.0		288194.0		108945.0
483153.0		658748.0		483153.0		175595.0
645568.0		835279.0		645568.0		189711.0
427445.0		531503.0		427445.0		104058.0
236334.0		296729.0		236334.0		60395.0
103188.0		124301.0		103188.0		21113.0
21489.0		26414.0		21489.0		4925.0
10847.0		12159.0		10847.0		1312.0
4829.0		5385.0		4829.0		556.0
2395.0		2605.0		2395.0		210.0
2704.0		2950.0		2704.0		246.0
1.15<|#eta|<1.37
90059.0		125895.0		90059.0		35836.0
158262.0		215988.0		158262.0		57726.0
256994.0		353321.0		256994.0		96327.0
355616.0		470819.0		355616.0		115203.0
234336.0		297354.0		234336.0		63018.0
137128.0		167375.0		137128.0		30247.0
57479.0		68548.0		57479.0		11069.0
12247.0		14362.0		12247.0		2115.0
5797.0		6789.0		5797.0		992.0
2756.0		3039.0		2756.0		283.0
1429.0		1615.0		1429.0		186.0
1455.0		1665.0		1455.0		210.0
1.52<|#eta|<1.81
114267.0		143951.0		114267.0		29684.0
191365.0		239433.0		191365.0		48068.0
289918.0		364819.0		289918.0		74901.0
369842.0		464536.0		369842.0		94694.0
266154.0		320284.0		266154.0		54130.0
155291.0		183135.0		155291.0		27844.0
62247.0		72997.0		62247.0		10750.0
12849.0		14878.0		12849.0		2029.0
6036.0		6830.0		6036.0		794.0
2882.0		3108.0		2882.0		226.0
1460.0		1525.0		1460.0		65.0
1565.0		1642.0		1565.0		77.0
1.81<|#eta|<2.01
78285.0		96191.0		78285.0		17906.0
126880.0		154677.0		126880.0		27797.0
185039.0		221049.0		185039.0		36010.0
240500.0		279129.0		240500.0		38629.0
160520.0		189350.0		160520.0		28830.0
90534.0		105134.0		90534.0		14600.0
37014.0		41669.0		37014.0		4655.0
7350.0		8300.0		7350.0		950.0
3320.0		3708.0		3320.0		388.0
1380.0		1516.0		1380.0		136.0
668.0		723.0		668.0		55.0
744.0		797.0		744.0		53.0
2.01<|#eta|<2.37
149005.0		171938.0		149005.0		22933.0
237747.0		266840.0		237747.0		29093.0
315816.0		352631.0		315816.0		36815.0
363026.0		412847.0		363026.0		49821.0
244915.0		272757.0		244915.0		27842.0
134132.0		149605.0		134132.0		15473.0
50455.0		57403.0		50455.0		6948.0
9560.0		10987.0		9560.0		1427.0
4553.0		4956.0		4553.0		403.0
1834.0		1956.0		1834.0		122.0
906.0		967.0		906.0		61.0
871.0		974.0		871.0		103.0
