0.00<|#eta|<0.60
335505.0		413109.0		335505.0		77604.0
628456.0		766305.0		628456.0		137849.0
988870.0		1205480.0		988870.0		216604.0
1302880.0		1582460.0		1302880.0		279580.0
902104.0		1055180.0		902104.0		153071.0
509854.0		592638.0		509854.0		82784.0
224235.0		254812.0		224235.0		30577.0
47166.0		52638.0		47166.0		5472.0
23223.0		24393.0		23223.0		1170.0
9940.0		10622.0		9940.0		682.0
4961.0		5357.0		4961.0		396.0
5321.0		5770.0		5321.0		449.0
0.60<|#eta|<0.80
97259.0		124486.0		97259.0		27227.0
211264.0		255996.0		211264.0		44732.0
330304.0		409638.0		330304.0		79334.0
417312.0		505608.0		417312.0		88296.0
288363.0		337397.0		288363.0		49034.0
160663.0		187491.0		160663.0		26828.0
70978.0		79655.0		70978.0		8677.0
14911.0		16589.0		14911.0		1678.0
7023.0		7493.0		7023.0		470.0
2974.0		3177.0		2974.0		203.0
1579.0		1696.0		1579.0		117.0
1700.0		1805.0		1700.0		105.0
0.80<|#eta|<1.15
160747.0		216726.0		160747.0		55979.0
288735.0		397139.0		288735.0		108404.0
483764.0		658748.0		483764.0		174984.0
648927.0		835279.0		648927.0		186352.0
430146.0		531503.0		430146.0		101357.0
236276.0		296729.0		236276.0		60453.0
102825.0		124301.0		102825.0		21476.0
21503.0		26414.0		21503.0		4911.0
10784.0		12159.0		10784.0		1375.0
4782.0		5385.0		4782.0		603.0
2398.0		2605.0		2398.0		207.0
2703.0		2950.0		2703.0		247.0
1.15<|#eta|<1.37
89995.0		125895.0		89995.0		35900.0
158018.0		215988.0		158018.0		57970.0
258569.0		353321.0		258569.0		94752.0
353898.0		470819.0		353898.0		116921.0
235084.0		297354.0		235084.0		62270.0
137886.0		167375.0		137886.0		29489.0
57398.0		68548.0		57398.0		11150.0
12130.0		14362.0		12130.0		2232.0
5858.0		6789.0		5858.0		931.0
2726.0		3039.0		2726.0		313.0
1431.0		1615.0		1431.0		184.0
1439.0		1665.0		1439.0		226.0
1.52<|#eta|<1.81
114364.0		143951.0		114364.0		29587.0
192078.0		239433.0		192078.0		47355.0
286246.0		364819.0		286246.0		78573.0
370231.0		464536.0		370231.0		94305.0
267646.0		320284.0		267646.0		52638.0
155065.0		183135.0		155065.0		28070.0
62605.0		72997.0		62605.0		10392.0
12788.0		14878.0		12788.0		2090.0
6083.0		6830.0		6083.0		747.0
2870.0		3108.0		2870.0		238.0
1454.0		1525.0		1454.0		71.0
1570.0		1642.0		1570.0		72.0
1.81<|#eta|<2.01
78709.0		96191.0		78709.0		17482.0
126799.0		154677.0		126799.0		27878.0
183924.0		221049.0		183924.0		37125.0
241153.0		279129.0		241153.0		37976.0
160087.0		189350.0		160087.0		29263.0
90841.0		105134.0		90841.0		14293.0
37070.0		41669.0		37070.0		4599.0
7307.0		8300.0		7307.0		993.0
3367.0		3708.0		3367.0		341.0
1361.0		1516.0		1361.0		155.0
634.0		723.0		634.0		89.0
730.0		797.0		730.0		67.0
2.01<|#eta|<2.37
148514.0		171938.0		148514.0		23424.0
237991.0		266840.0		237991.0		28849.0
315313.0		352631.0		315313.0		37318.0
363619.0		412847.0		363619.0		49228.0
244118.0		272757.0		244118.0		28639.0
134265.0		149605.0		134265.0		15340.0
50465.0		57403.0		50465.0		6938.0
9577.0		10987.0		9577.0		1410.0
4560.0		4956.0		4560.0		396.0
1833.0		1956.0		1833.0		123.0
891.0		967.0		891.0		76.0
876.0		974.0		876.0		98.0
