0.00<|#eta|<0.60
336625.0		413109.0		336625.0		76484.0
628363.0		766305.0		628363.0		137942.0
988300.0		1205480.0		988300.0		217174.0
1303400.0		1582460.0		1303400.0		279041.0
904382.0		1055180.0		904382.0		150789.0
511398.0		592638.0		511398.0		81240.0
225209.0		254812.0		225209.0		29603.0
46977.0		52638.0		46977.0		5661.0
23198.0		24393.0		23198.0		1195.0
9936.0		10622.0		9936.0		686.0
4948.0		5357.0		4948.0		409.0
5357.0		5770.0		5357.0		413.0
0.60<|#eta|<0.80
97600.0		124486.0		97600.0		26886.0
210705.0		255996.0		210705.0		45291.0
331177.0		409638.0		331177.0		78461.0
417587.0		505608.0		417587.0		88021.0
289217.0		337397.0		289217.0		48180.0
160652.0		187491.0		160652.0		26839.0
71160.0		79655.0		71160.0		8495.0
14984.0		16589.0		14984.0		1605.0
7032.0		7493.0		7032.0		461.0
2981.0		3177.0		2981.0		196.0
1572.0		1696.0		1572.0		124.0
1673.0		1805.0		1673.0		132.0
0.80<|#eta|<1.15
159787.0		216726.0		159787.0		56939.0
287300.0		397139.0		287300.0		109839.0
480447.0		658748.0		480447.0		178301.0
648256.0		835279.0		648256.0		187023.0
427133.0		531503.0		427133.0		104370.0
235609.0		296729.0		235609.0		61120.0
103035.0		124301.0		103035.0		21266.0
21458.0		26414.0		21458.0		4956.0
10844.0		12159.0		10844.0		1315.0
4845.0		5385.0		4845.0		540.0
2386.0		2605.0		2386.0		219.0
2683.0		2950.0		2683.0		267.0
1.15<|#eta|<1.37
89233.0		125895.0		89233.0		36662.0
158863.0		215988.0		158863.0		57125.0
257973.0		353321.0		257973.0		95348.0
353012.0		470819.0		353012.0		117807.0
234781.0		297354.0		234781.0		62573.0
137138.0		167375.0		137138.0		30237.0
57645.0		68548.0		57645.0		10903.0
12170.0		14362.0		12170.0		2192.0
5736.0		6789.0		5736.0		1053.0
2770.0		3039.0		2770.0		269.0
1431.0		1615.0		1431.0		184.0
1463.0		1665.0		1463.0		202.0
1.52<|#eta|<1.81
114875.0		143951.0		114875.0		29076.0
193383.0		239433.0		193383.0		46050.0
288940.0		364819.0		288940.0		75879.0
370338.0		464536.0		370338.0		94198.0
267580.0		320284.0		267580.0		52704.0
154695.0		183135.0		154695.0		28440.0
62215.0		72997.0		62215.0		10782.0
12871.0		14878.0		12871.0		2007.0
6009.0		6830.0		6009.0		821.0
2859.0		3108.0		2859.0		249.0
1462.0		1525.0		1462.0		63.0
1549.0		1642.0		1549.0		93.0
1.81<|#eta|<2.01
78572.0		96191.0		78572.0		17619.0
126186.0		154677.0		126186.0		28491.0
184321.0		221049.0		184321.0		36728.0
239747.0		279129.0		239747.0		39382.0
160462.0		189350.0		160462.0		28888.0
91121.0		105134.0		91121.0		14013.0
37017.0		41669.0		37017.0		4652.0
7354.0		8300.0		7354.0		946.0
3293.0		3708.0		3293.0		415.0
1346.0		1516.0		1346.0		170.0
651.0		723.0		651.0		72.0
749.0		797.0		749.0		48.0
2.01<|#eta|<2.37
148017.0		171938.0		148017.0		23921.0
237961.0		266840.0		237961.0		28879.0
314898.0		352631.0		314898.0		37733.0
364018.0		412847.0		364018.0		48829.0
243640.0		272757.0		243640.0		29117.0
134220.0		149605.0		134220.0		15385.0
50448.0		57403.0		50448.0		6955.0
9541.0		10987.0		9541.0		1446.0
4476.0		4956.0		4476.0		480.0
1808.0		1956.0		1808.0		148.0
897.0		967.0		897.0		70.0
859.0		974.0		859.0		115.0
