0.00<|#eta|<0.60
334847.0		413109.0		334847.0		78262.0
632080.0		766305.0		632080.0		134225.0
988200.0		1205480.0		988200.0		217286.0
1301420.0		1582460.0		1301420.0		281022.0
901087.0		1055180.0		901087.0		154088.0
510162.0		592638.0		510162.0		82476.0
224726.0		254812.0		224726.0		30086.0
47128.0		52638.0		47128.0		5510.0
23214.0		24393.0		23214.0		1179.0
9900.0		10622.0		9900.0		722.0
5004.0		5357.0		5004.0		353.0
5333.0		5770.0		5333.0		437.0
0.60<|#eta|<0.80
97005.0		124486.0		97005.0		27481.0
210740.0		255996.0		210740.0		45256.0
332318.0		409638.0		332318.0		77320.0
418505.0		505608.0		418505.0		87103.0
287920.0		337397.0		287920.0		49477.0
161243.0		187491.0		161243.0		26248.0
71022.0		79655.0		71022.0		8633.0
14940.0		16589.0		14940.0		1649.0
7049.0		7493.0		7049.0		444.0
2970.0		3177.0		2970.0		207.0
1573.0		1696.0		1573.0		123.0
1680.0		1805.0		1680.0		125.0
0.80<|#eta|<1.15
159419.0		216726.0		159419.0		57307.0
288111.0		397139.0		288111.0		109028.0
482363.0		658748.0		482363.0		176385.0
647625.0		835279.0		647625.0		187654.0
427015.0		531503.0		427015.0		104488.0
235119.0		296729.0		235119.0		61610.0
102937.0		124301.0		102937.0		21364.0
21470.0		26414.0		21470.0		4944.0
10830.0		12159.0		10830.0		1329.0
4860.0		5385.0		4860.0		525.0
2402.0		2605.0		2402.0		203.0
2719.0		2950.0		2719.0		231.0
1.15<|#eta|<1.37
89140.0		125895.0		89140.0		36755.0
158648.0		215988.0		158648.0		57340.0
257626.0		353321.0		257626.0		95695.0
354286.0		470819.0		354286.0		116533.0
234895.0		297354.0		234895.0		62459.0
137364.0		167375.0		137364.0		30011.0
57424.0		68548.0		57424.0		11124.0
12201.0		14362.0		12201.0		2161.0
5801.0		6789.0		5801.0		988.0
2680.0		3039.0		2680.0		359.0
1450.0		1615.0		1450.0		165.0
1439.0		1665.0		1439.0		226.0
1.52<|#eta|<1.81
114777.0		143951.0		114777.0		29174.0
191674.0		239433.0		191674.0		47759.0
288842.0		364819.0		288842.0		75977.0
369149.0		464536.0		369149.0		95387.0
266642.0		320284.0		266642.0		53642.0
154971.0		183135.0		154971.0		28164.0
62490.0		72997.0		62490.0		10507.0
12888.0		14878.0		12888.0		1990.0
6045.0		6830.0		6045.0		785.0
2860.0		3108.0		2860.0		248.0
1459.0		1525.0		1459.0		66.0
1556.0		1642.0		1556.0		86.0
1.81<|#eta|<2.01
77974.0		96191.0		77974.0		18217.0
127348.0		154677.0		127348.0		27329.0
184809.0		221049.0		184809.0		36240.0
240361.0		279129.0		240361.0		38768.0
160041.0		189350.0		160041.0		29309.0
90474.0		105134.0		90474.0		14660.0
37184.0		41669.0		37184.0		4485.0
7359.0		8300.0		7359.0		941.0
3292.0		3708.0		3292.0		416.0
1363.0		1516.0		1363.0		153.0
644.0		723.0		644.0		79.0
738.0		797.0		738.0		59.0
2.01<|#eta|<2.37
148901.0		171938.0		148901.0		23037.0
237607.0		266840.0		237607.0		29233.0
315779.0		352631.0		315779.0		36852.0
363312.0		412847.0		363312.0		49535.0
244603.0		272757.0		244603.0		28154.0
133723.0		149605.0		133723.0		15882.0
50379.0		57403.0		50379.0		7024.0
9511.0		10987.0		9511.0		1476.0
4564.0		4956.0		4564.0		392.0
1800.0		1956.0		1800.0		156.0
897.0		967.0		897.0		70.0
872.0		974.0		872.0		102.0
