0.00<|#eta|<0.60
336789.0		413109.0		336789.0		76320.0
628148.0		766305.0		628148.0		138157.0
988910.0		1205480.0		988910.0		216569.0
1299250.0		1582460.0		1299250.0		283200.0
903228.0		1055180.0		903228.0		151946.0
511210.0		592638.0		511210.0		81428.0
224651.0		254812.0		224651.0		30161.0
47118.0		52638.0		47118.0		5520.0
23239.0		24393.0		23239.0		1154.0
9895.0		10622.0		9895.0		727.0
4984.0		5357.0		4984.0		373.0
5331.0		5770.0		5331.0		439.0
0.60<|#eta|<0.80
96912.0		124486.0		96912.0		27574.0
210694.0		255996.0		210694.0		45302.0
330194.0		409638.0		330194.0		79444.0
418174.0		505608.0		418174.0		87434.0
287425.0		337397.0		287425.0		49972.0
160356.0		187491.0		160356.0		27135.0
70675.0		79655.0		70675.0		8980.0
14947.0		16589.0		14947.0		1642.0
7024.0		7493.0		7024.0		469.0
2936.0		3177.0		2936.0		241.0
1577.0		1696.0		1577.0		119.0
1657.0		1805.0		1657.0		148.0
0.80<|#eta|<1.15
160753.0		216726.0		160753.0		55973.0
289571.0		397139.0		289571.0		107568.0
481915.0		658748.0		481915.0		176833.0
648815.0		835279.0		648815.0		186464.0
427935.0		531503.0		427935.0		103568.0
235910.0		296729.0		235910.0		60819.0
103196.0		124301.0		103196.0		21105.0
21465.0		26414.0		21465.0		4949.0
10862.0		12159.0		10862.0		1297.0
4785.0		5385.0		4785.0		600.0
2379.0		2605.0		2379.0		226.0
2671.0		2950.0		2671.0		279.0
1.15<|#eta|<1.37
89512.0		125895.0		89512.0		36383.0
159239.0		215988.0		159239.0		56749.0
258486.0		353321.0		258486.0		94835.0
353049.0		470819.0		353049.0		117770.0
234316.0		297354.0		234316.0		63038.0
137320.0		167375.0		137320.0		30055.0
57938.0		68548.0		57938.0		10610.0
12104.0		14362.0		12104.0		2258.0
5833.0		6789.0		5833.0		956.0
2712.0		3039.0		2712.0		327.0
1421.0		1615.0		1421.0		194.0
1465.0		1665.0		1465.0		200.0
1.52<|#eta|<1.81
114612.0		143951.0		114612.0		29339.0
191123.0		239433.0		191123.0		48310.0
289493.0		364819.0		289493.0		75326.0
368024.0		464536.0		368024.0		96512.0
267140.0		320284.0		267140.0		53144.0
154666.0		183135.0		154666.0		28469.0
62504.0		72997.0		62504.0		10493.0
12819.0		14878.0		12819.0		2059.0
6030.0		6830.0		6030.0		800.0
2888.0		3108.0		2888.0		220.0
1447.0		1525.0		1447.0		78.0
1557.0		1642.0		1557.0		85.0
1.81<|#eta|<2.01
77897.0		96191.0		77897.0		18294.0
126091.0		154677.0		126091.0		28586.0
185072.0		221049.0		185072.0		35977.0
240486.0		279129.0		240486.0		38643.0
160948.0		189350.0		160948.0		28402.0
90710.0		105134.0		90710.0		14424.0
36995.0		41669.0		36995.0		4674.0
7314.0		8300.0		7314.0		986.0
3312.0		3708.0		3312.0		396.0
1367.0		1516.0		1367.0		149.0
645.0		723.0		645.0		78.0
735.0		797.0		735.0		62.0
2.01<|#eta|<2.37
148393.0		171938.0		148393.0		23545.0
237640.0		266840.0		237640.0		29200.0
315111.0		352631.0		315111.0		37520.0
364255.0		412847.0		364255.0		48592.0
244167.0		272757.0		244167.0		28590.0
134511.0		149605.0		134511.0		15094.0
50407.0		57403.0		50407.0		6996.0
9605.0		10987.0		9605.0		1382.0
4562.0		4956.0		4562.0		394.0
1808.0		1956.0		1808.0		148.0
891.0		967.0		891.0		76.0
860.0		974.0		860.0		114.0
