0.00<|#eta|<0.60
335346.0		413109.0		335346.0		77763.0
629366.0		766305.0		629366.0		136939.0
987350.0		1205480.0		987350.0		218121.0
1302610.0		1582460.0		1302610.0		279845.0
903372.0		1055180.0		903372.0		151801.0
510985.0		592638.0		510985.0		81653.0
224856.0		254812.0		224856.0		29956.0
47037.0		52638.0		47037.0		5601.0
23226.0		24393.0		23226.0		1167.0
9941.0		10622.0		9941.0		681.0
4993.0		5357.0		4993.0		364.0
5317.0		5770.0		5317.0		453.0
0.60<|#eta|<0.80
96829.0		124486.0		96829.0		27657.0
209968.0		255996.0		209968.0		46028.0
331215.0		409638.0		331215.0		78423.0
417631.0		505608.0		417631.0		87977.0
289782.0		337397.0		289782.0		47615.0
160752.0		187491.0		160752.0		26739.0
70644.0		79655.0		70644.0		9011.0
14933.0		16589.0		14933.0		1656.0
7058.0		7493.0		7058.0		435.0
2940.0		3177.0		2940.0		237.0
1593.0		1696.0		1593.0		103.0
1707.0		1805.0		1707.0		98.0
0.80<|#eta|<1.15
160988.0		216726.0		160988.0		55738.0
289390.0		397139.0		289390.0		107749.0
482462.0		658748.0		482462.0		176286.0
647619.0		835279.0		647619.0		187660.0
427229.0		531503.0		427229.0		104274.0
236075.0		296729.0		236075.0		60654.0
103213.0		124301.0		103213.0		21088.0
21469.0		26414.0		21469.0		4945.0
10864.0		12159.0		10864.0		1295.0
4837.0		5385.0		4837.0		548.0
2384.0		2605.0		2384.0		221.0
2693.0		2950.0		2693.0		257.0
1.15<|#eta|<1.37
89439.0		125895.0		89439.0		36456.0
158837.0		215988.0		158837.0		57151.0
257919.0		353321.0		257919.0		95402.0
353838.0		470819.0		353838.0		116981.0
234603.0		297354.0		234603.0		62751.0
137411.0		167375.0		137411.0		29964.0
57433.0		68548.0		57433.0		11115.0
12148.0		14362.0		12148.0		2214.0
5797.0		6789.0		5797.0		992.0
2735.0		3039.0		2735.0		304.0
1434.0		1615.0		1434.0		181.0
1480.0		1665.0		1480.0		185.0
1.52<|#eta|<1.81
115019.0		143951.0		115019.0		28932.0
191880.0		239433.0		191880.0		47553.0
287013.0		364819.0		287013.0		77806.0
369270.0		464536.0		369270.0		95266.0
267217.0		320284.0		267217.0		53067.0
154302.0		183135.0		154302.0		28833.0
62410.0		72997.0		62410.0		10587.0
12877.0		14878.0		12877.0		2001.0
6056.0		6830.0		6056.0		774.0
2867.0		3108.0		2867.0		241.0
1461.0		1525.0		1461.0		64.0
1575.0		1642.0		1575.0		67.0
1.81<|#eta|<2.01
78031.0		96191.0		78031.0		18160.0
125942.0		154677.0		125942.0		28735.0
184646.0		221049.0		184646.0		36403.0
240138.0		279129.0		240138.0		38991.0
160369.0		189350.0		160369.0		28981.0
90059.0		105134.0		90059.0		15075.0
36977.0		41669.0		36977.0		4692.0
7331.0		8300.0		7331.0		969.0
3345.0		3708.0		3345.0		363.0
1373.0		1516.0		1373.0		143.0
649.0		723.0		649.0		74.0
741.0		797.0		741.0		56.0
2.01<|#eta|<2.37
148669.0		171938.0		148669.0		23269.0
236719.0		266840.0		236719.0		30121.0
315082.0		352631.0		315082.0		37549.0
364330.0		412847.0		364330.0		48517.0
243900.0		272757.0		243900.0		28857.0
134145.0		149605.0		134145.0		15460.0
50518.0		57403.0		50518.0		6885.0
9631.0		10987.0		9631.0		1356.0
4561.0		4956.0		4561.0		395.0
1807.0		1956.0		1807.0		149.0
892.0		967.0		892.0		75.0
862.0		974.0		862.0		112.0
