0.00<|#eta|<0.60
335697.0		413109.0		335697.0		77412.0
630303.0		766305.0		630303.0		136002.0
988280.0		1205480.0		988280.0		217202.0
1304000.0		1582460.0		1304000.0		278448.0
900868.0		1055180.0		900868.0		154307.0
510753.0		592638.0		510753.0		81885.0
224289.0		254812.0		224289.0		30523.0
47211.0		52638.0		47211.0		5427.0
23206.0		24393.0		23206.0		1187.0
9905.0		10622.0		9905.0		717.0
4980.0		5357.0		4980.0		377.0
5332.0		5770.0		5332.0		438.0
0.60<|#eta|<0.80
97418.0		124486.0		97418.0		27068.0
210134.0		255996.0		210134.0		45862.0
330984.0		409638.0		330984.0		78654.0
418305.0		505608.0		418305.0		87303.0
288333.0		337397.0		288333.0		49064.0
160906.0		187491.0		160906.0		26585.0
70627.0		79655.0		70627.0		9028.0
14934.0		16589.0		14934.0		1655.0
7020.0		7493.0		7020.0		473.0
2961.0		3177.0		2961.0		216.0
1585.0		1696.0		1585.0		111.0
1715.0		1805.0		1715.0		90.0
0.80<|#eta|<1.15
160104.0		216726.0		160104.0		56622.0
290567.0		397139.0		290567.0		106572.0
480783.0		658748.0		480783.0		177965.0
648148.0		835279.0		648148.0		187131.0
427639.0		531503.0		427639.0		103864.0
236126.0		296729.0		236126.0		60603.0
102902.0		124301.0		102902.0		21399.0
21398.0		26414.0		21398.0		5016.0
10819.0		12159.0		10819.0		1340.0
4790.0		5385.0		4790.0		595.0
2395.0		2605.0		2395.0		210.0
2685.0		2950.0		2685.0		265.0
1.15<|#eta|<1.37
89131.0		125895.0		89131.0		36764.0
157848.0		215988.0		157848.0		58140.0
256828.0		353321.0		256828.0		96493.0
353414.0		470819.0		353414.0		117405.0
234763.0		297354.0		234763.0		62591.0
137297.0		167375.0		137297.0		30078.0
57502.0		68548.0		57502.0		11046.0
12120.0		14362.0		12120.0		2242.0
5835.0		6789.0		5835.0		954.0
2699.0		3039.0		2699.0		340.0
1444.0		1615.0		1444.0		171.0
1454.0		1665.0		1454.0		211.0
1.52<|#eta|<1.81
114254.0		143951.0		114254.0		29697.0
193138.0		239433.0		193138.0		46295.0
290628.0		364819.0		290628.0		74191.0
368261.0		464536.0		368261.0		96275.0
266990.0		320284.0		266990.0		53294.0
154878.0		183135.0		154878.0		28257.0
62207.0		72997.0		62207.0		10790.0
12731.0		14878.0		12731.0		2147.0
6023.0		6830.0		6023.0		807.0
2882.0		3108.0		2882.0		226.0
1448.0		1525.0		1448.0		77.0
1560.0		1642.0		1560.0		82.0
1.81<|#eta|<2.01
78402.0		96191.0		78402.0		17789.0
126590.0		154677.0		126590.0		28087.0
184971.0		221049.0		184971.0		36078.0
240472.0		279129.0		240472.0		38657.0
161046.0		189350.0		161046.0		28304.0
90203.0		105134.0		90203.0		14931.0
36929.0		41669.0		36929.0		4740.0
7302.0		8300.0		7302.0		998.0
3351.0		3708.0		3351.0		357.0
1354.0		1516.0		1354.0		162.0
665.0		723.0		665.0		58.0
751.0		797.0		751.0		46.0
2.01<|#eta|<2.37
148553.0		171938.0		148553.0		23385.0
238792.0		266840.0		238792.0		28048.0
315963.0		352631.0		315963.0		36668.0
365079.0		412847.0		365079.0		47768.0
244306.0		272757.0		244306.0		28451.0
134117.0		149605.0		134117.0		15488.0
50512.0		57403.0		50512.0		6891.0
9555.0		10987.0		9555.0		1432.0
4538.0		4956.0		4538.0		418.0
1848.0		1956.0		1848.0		108.0
882.0		967.0		882.0		85.0
885.0		974.0		885.0		89.0
