0.00<|#eta|<0.60
335575.0		413109.0		335575.0		77534.0
631096.0		766305.0		631096.0		135209.0
989960.0		1205480.0		989960.0		215515.0
1302720.0		1582460.0		1302720.0		279740.0
901623.0		1055180.0		901623.0		153552.0
511329.0		592638.0		511329.0		81309.0
225028.0		254812.0		225028.0		29784.0
47136.0		52638.0		47136.0		5502.0
23229.0		24393.0		23229.0		1164.0
9892.0		10622.0		9892.0		730.0
4944.0		5357.0		4944.0		413.0
5344.0		5770.0		5344.0		426.0
0.60<|#eta|<0.80
97178.0		124486.0		97178.0		27308.0
210436.0		255996.0		210436.0		45560.0
332297.0		409638.0		332297.0		77341.0
418457.0		505608.0		418457.0		87151.0
288797.0		337397.0		288797.0		48600.0
161218.0		187491.0		161218.0		26273.0
70822.0		79655.0		70822.0		8833.0
14908.0		16589.0		14908.0		1681.0
7074.0		7493.0		7074.0		419.0
2921.0		3177.0		2921.0		256.0
1593.0		1696.0		1593.0		103.0
1672.0		1805.0		1672.0		133.0
0.80<|#eta|<1.15
159480.0		216726.0		159480.0		57246.0
289132.0		397139.0		289132.0		108007.0
479544.0		658748.0		479544.0		179204.0
648850.0		835279.0		648850.0		186429.0
428422.0		531503.0		428422.0		103081.0
236109.0		296729.0		236109.0		60620.0
102890.0		124301.0		102890.0		21411.0
21415.0		26414.0		21415.0		4999.0
10848.0		12159.0		10848.0		1311.0
4808.0		5385.0		4808.0		577.0
2379.0		2605.0		2379.0		226.0
2721.0		2950.0		2721.0		229.0
1.15<|#eta|<1.37
90149.0		125895.0		90149.0		35746.0
158073.0		215988.0		158073.0		57915.0
258095.0		353321.0		258095.0		95226.0
354485.0		470819.0		354485.0		116334.0
235760.0		297354.0		235760.0		61594.0
137152.0		167375.0		137152.0		30223.0
57544.0		68548.0		57544.0		11004.0
12207.0		14362.0		12207.0		2155.0
5823.0		6789.0		5823.0		966.0
2737.0		3039.0		2737.0		302.0
1432.0		1615.0		1432.0		183.0
1464.0		1665.0		1464.0		201.0
1.52<|#eta|<1.81
114767.0		143951.0		114767.0		29184.0
192844.0		239433.0		192844.0		46589.0
287232.0		364819.0		287232.0		77587.0
368977.0		464536.0		368977.0		95559.0
268430.0		320284.0		268430.0		51854.0
154879.0		183135.0		154879.0		28256.0
62323.0		72997.0		62323.0		10674.0
12741.0		14878.0		12741.0		2137.0
6033.0		6830.0		6033.0		797.0
2885.0		3108.0		2885.0		223.0
1450.0		1525.0		1450.0		75.0
1568.0		1642.0		1568.0		74.0
1.81<|#eta|<2.01
78135.0		96191.0		78135.0		18056.0
125950.0		154677.0		125950.0		28727.0
184667.0		221049.0		184667.0		36382.0
239798.0		279129.0		239798.0		39331.0
160065.0		189350.0		160065.0		29285.0
90333.0		105134.0		90333.0		14801.0
37051.0		41669.0		37051.0		4618.0
7360.0		8300.0		7360.0		940.0
3321.0		3708.0		3321.0		387.0
1375.0		1516.0		1375.0		141.0
650.0		723.0		650.0		73.0
735.0		797.0		735.0		62.0
2.01<|#eta|<2.37
149488.0		171938.0		149488.0		22450.0
237290.0		266840.0		237290.0		29550.0
314925.0		352631.0		314925.0		37706.0
363154.0		412847.0		363154.0		49693.0
243657.0		272757.0		243657.0		29100.0
134121.0		149605.0		134121.0		15484.0
50540.0		57403.0		50540.0		6863.0
9580.0		10987.0		9580.0		1407.0
4555.0		4956.0		4555.0		401.0
1851.0		1956.0		1851.0		105.0
904.0		967.0		904.0		63.0
860.0		974.0		860.0		114.0
