0.00<|#eta|<0.60
334959.0		413109.0		334959.0		78150.0
629357.0		766305.0		629357.0		136948.0
986650.0		1205480.0		986650.0		218828.0
1303670.0		1582460.0		1303670.0		278782.0
900984.0		1055180.0		900984.0		154191.0
511135.0		592638.0		511135.0		81503.0
224510.0		254812.0		224510.0		30302.0
47197.0		52638.0		47197.0		5441.0
23178.0		24393.0		23178.0		1215.0
9876.0		10622.0		9876.0		746.0
4982.0		5357.0		4982.0		375.0
5371.0		5770.0		5371.0		399.0
0.60<|#eta|<0.80
96762.0		124486.0		96762.0		27724.0
210357.0		255996.0		210357.0		45639.0
332544.0		409638.0		332544.0		77094.0
419276.0		505608.0		419276.0		86332.0
286605.0		337397.0		286605.0		50792.0
160840.0		187491.0		160840.0		26651.0
70471.0		79655.0		70471.0		9184.0
14934.0		16589.0		14934.0		1655.0
6989.0		7493.0		6989.0		504.0
2924.0		3177.0		2924.0		253.0
1584.0		1696.0		1584.0		112.0
1717.0		1805.0		1717.0		88.0
0.80<|#eta|<1.15
160513.0		216726.0		160513.0		56213.0
288222.0		397139.0		288222.0		108917.0
480943.0		658748.0		480943.0		177805.0
649335.0		835279.0		649335.0		185944.0
427682.0		531503.0		427682.0		103821.0
236143.0		296729.0		236143.0		60586.0
103072.0		124301.0		103072.0		21229.0
21490.0		26414.0		21490.0		4924.0
10818.0		12159.0		10818.0		1341.0
4842.0		5385.0		4842.0		543.0
2375.0		2605.0		2375.0		230.0
2708.0		2950.0		2708.0		242.0
1.15<|#eta|<1.37
89587.0		125895.0		89587.0		36308.0
158221.0		215988.0		158221.0		57767.0
258289.0		353321.0		258289.0		95032.0
352908.0		470819.0		352908.0		117911.0
234571.0		297354.0		234571.0		62783.0
137342.0		167375.0		137342.0		30033.0
57476.0		68548.0		57476.0		11072.0
12149.0		14362.0		12149.0		2213.0
5888.0		6789.0		5888.0		901.0
2724.0		3039.0		2724.0		315.0
1441.0		1615.0		1441.0		174.0
1445.0		1665.0		1445.0		220.0
1.52<|#eta|<1.81
114562.0		143951.0		114562.0		29389.0
191687.0		239433.0		191687.0		47746.0
289578.0		364819.0		289578.0		75241.0
370185.0		464536.0		370185.0		94351.0
267547.0		320284.0		267547.0		52737.0
155040.0		183135.0		155040.0		28095.0
62271.0		72997.0		62271.0		10726.0
12830.0		14878.0		12830.0		2048.0
6070.0		6830.0		6070.0		760.0
2887.0		3108.0		2887.0		221.0
1447.0		1525.0		1447.0		78.0
1570.0		1642.0		1570.0		72.0
1.81<|#eta|<2.01
78126.0		96191.0		78126.0		18065.0
126313.0		154677.0		126313.0		28364.0
184854.0		221049.0		184854.0		36195.0
240196.0		279129.0		240196.0		38933.0
160078.0		189350.0		160078.0		29272.0
90647.0		105134.0		90647.0		14487.0
37019.0		41669.0		37019.0		4650.0
7279.0		8300.0		7279.0		1021.0
3334.0		3708.0		3334.0		374.0
1372.0		1516.0		1372.0		144.0
669.0		723.0		669.0		54.0
738.0		797.0		738.0		59.0
2.01<|#eta|<2.37
147802.0		171938.0		147802.0		24136.0
238133.0		266840.0		238133.0		28707.0
316166.0		352631.0		316166.0		36465.0
363788.0		412847.0		363788.0		49059.0
244577.0		272757.0		244577.0		28180.0
134292.0		149605.0		134292.0		15313.0
50499.0		57403.0		50499.0		6904.0
9537.0		10987.0		9537.0		1450.0
4526.0		4956.0		4526.0		430.0
1833.0		1956.0		1833.0		123.0
901.0		967.0		901.0		66.0
852.0		974.0		852.0		122.0
