0.00<|#eta|<0.60
334662.0		413109.0		334662.0		78447.0
631313.0		766305.0		631313.0		134992.0
988230.0		1205480.0		988230.0		217262.0
1302760.0		1582460.0		1302760.0		279700.0
902367.0		1055180.0		902367.0		152808.0
510876.0		592638.0		510876.0		81762.0
224122.0		254812.0		224122.0		30690.0
47026.0		52638.0		47026.0		5612.0
23175.0		24393.0		23175.0		1218.0
9888.0		10622.0		9888.0		734.0
5000.0		5357.0		5000.0		357.0
5298.0		5770.0		5298.0		472.0
0.60<|#eta|<0.80
97349.0		124486.0		97349.0		27137.0
210004.0		255996.0		210004.0		45992.0
332156.0		409638.0		332156.0		77482.0
418043.0		505608.0		418043.0		87565.0
288693.0		337397.0		288693.0		48704.0
161004.0		187491.0		161004.0		26487.0
70568.0		79655.0		70568.0		9087.0
14914.0		16589.0		14914.0		1675.0
7033.0		7493.0		7033.0		460.0
2972.0		3177.0		2972.0		205.0
1588.0		1696.0		1588.0		108.0
1679.0		1805.0		1679.0		126.0
0.80<|#eta|<1.15
159848.0		216726.0		159848.0		56878.0
288398.0		397139.0		288398.0		108741.0
482642.0		658748.0		482642.0		176106.0
648664.0		835279.0		648664.0		186615.0
427376.0		531503.0		427376.0		104127.0
235850.0		296729.0		235850.0		60879.0
103106.0		124301.0		103106.0		21195.0
21482.0		26414.0		21482.0		4932.0
10832.0		12159.0		10832.0		1327.0
4789.0		5385.0		4789.0		596.0
2378.0		2605.0		2378.0		227.0
2680.0		2950.0		2680.0		270.0
1.15<|#eta|<1.37
89484.0		125895.0		89484.0		36411.0
158008.0		215988.0		158008.0		57980.0
258223.0		353321.0		258223.0		95098.0
353670.0		470819.0		353670.0		117149.0
234582.0		297354.0		234582.0		62772.0
137356.0		167375.0		137356.0		30019.0
57723.0		68548.0		57723.0		10825.0
12172.0		14362.0		12172.0		2190.0
5850.0		6789.0		5850.0		939.0
2709.0		3039.0		2709.0		330.0
1427.0		1615.0		1427.0		188.0
1492.0		1665.0		1492.0		173.0
1.52<|#eta|<1.81
113917.0		143951.0		113917.0		30034.0
192420.0		239433.0		192420.0		47013.0
290010.0		364819.0		290010.0		74809.0
371188.0		464536.0		371188.0		93348.0
268180.0		320284.0		268180.0		52104.0
154622.0		183135.0		154622.0		28513.0
62544.0		72997.0		62544.0		10453.0
12685.0		14878.0		12685.0		2193.0
6068.0		6830.0		6068.0		762.0
2888.0		3108.0		2888.0		220.0
1450.0		1525.0		1450.0		75.0
1574.0		1642.0		1574.0		68.0
1.81<|#eta|<2.01
78055.0		96191.0		78055.0		18136.0
126711.0		154677.0		126711.0		27966.0
184621.0		221049.0		184621.0		36428.0
240869.0		279129.0		240869.0		38260.0
160768.0		189350.0		160768.0		28582.0
90743.0		105134.0		90743.0		14391.0
37147.0		41669.0		37147.0		4522.0
7355.0		8300.0		7355.0		945.0
3342.0		3708.0		3342.0		366.0
1378.0		1516.0		1378.0		138.0
645.0		723.0		645.0		78.0
731.0		797.0		731.0		66.0
2.01<|#eta|<2.37
148500.0		171938.0		148500.0		23438.0
236909.0		266840.0		236909.0		29931.0
314518.0		352631.0		314518.0		38113.0
364510.0		412847.0		364510.0		48337.0
244895.0		272757.0		244895.0		27862.0
134328.0		149605.0		134328.0		15277.0
50357.0		57403.0		50357.0		7046.0
9485.0		10987.0		9485.0		1502.0
4538.0		4956.0		4538.0		418.0
1831.0		1956.0		1831.0		125.0
915.0		967.0		915.0		52.0
853.0		974.0		853.0		121.0
