0.00<|#eta|<0.60
334463.0		413109.0		334463.0		78646.0
630096.0		766305.0		630096.0		136209.0
987860.0		1205480.0		987860.0		217609.0
1304370.0		1582460.0		1304370.0		278085.0
903336.0		1055180.0		903336.0		151835.0
510151.0		592638.0		510151.0		82487.0
224519.0		254812.0		224519.0		30293.0
47265.0		52638.0		47265.0		5373.0
23185.0		24393.0		23185.0		1208.0
9924.0		10622.0		9924.0		698.0
4993.0		5357.0		4993.0		364.0
5295.0		5770.0		5295.0		475.0
0.60<|#eta|<0.80
97104.0		124486.0		97104.0		27382.0
208853.0		255996.0		208853.0		47143.0
332674.0		409638.0		332674.0		76964.0
418652.0		505608.0		418652.0		86956.0
286589.0		337397.0		286589.0		50808.0
160885.0		187491.0		160885.0		26606.0
70556.0		79655.0		70556.0		9099.0
14980.0		16589.0		14980.0		1609.0
7007.0		7493.0		7007.0		486.0
2957.0		3177.0		2957.0		220.0
1589.0		1696.0		1589.0		107.0
1681.0		1805.0		1681.0		124.0
0.80<|#eta|<1.15
160204.0		216726.0		160204.0		56522.0
288846.0		397139.0		288846.0		108293.0
483412.0		658748.0		483412.0		175336.0
649153.0		835279.0		649153.0		186126.0
428331.0		531503.0		428331.0		103172.0
235830.0		296729.0		235830.0		60899.0
102808.0		124301.0		102808.0		21493.0
21389.0		26414.0		21389.0		5025.0
10795.0		12159.0		10795.0		1364.0
4849.0		5385.0		4849.0		536.0
2361.0		2605.0		2361.0		244.0
2689.0		2950.0		2689.0		261.0
1.15<|#eta|<1.37
90160.0		125895.0		90160.0		35735.0
157723.0		215988.0		157723.0		58265.0
257529.0		353321.0		257529.0		95792.0
353362.0		470819.0		353362.0		117457.0
234947.0		297354.0		234947.0		62407.0
137726.0		167375.0		137726.0		29649.0
57481.0		68548.0		57481.0		11067.0
12212.0		14362.0		12212.0		2150.0
5791.0		6789.0		5791.0		998.0
2706.0		3039.0		2706.0		333.0
1446.0		1615.0		1446.0		169.0
1465.0		1665.0		1465.0		200.0
1.52<|#eta|<1.81
114596.0		143951.0		114596.0		29355.0
191779.0		239433.0		191779.0		47654.0
288110.0		364819.0		288110.0		76709.0
368646.0		464536.0		368646.0		95890.0
267645.0		320284.0		267645.0		52639.0
154839.0		183135.0		154839.0		28296.0
62077.0		72997.0		62077.0		10920.0
12861.0		14878.0		12861.0		2017.0
6066.0		6830.0		6066.0		764.0
2885.0		3108.0		2885.0		223.0
1441.0		1525.0		1441.0		84.0
1566.0		1642.0		1566.0		76.0
1.81<|#eta|<2.01
78311.0		96191.0		78311.0		17880.0
126989.0		154677.0		126989.0		27688.0
184244.0		221049.0		184244.0		36805.0
240646.0		279129.0		240646.0		38483.0
160025.0		189350.0		160025.0		29325.0
90634.0		105134.0		90634.0		14500.0
37017.0		41669.0		37017.0		4652.0
7346.0		8300.0		7346.0		954.0
3358.0		3708.0		3358.0		350.0
1373.0		1516.0		1373.0		143.0
659.0		723.0		659.0		64.0
741.0		797.0		741.0		56.0
2.01<|#eta|<2.37
148565.0		171938.0		148565.0		23373.0
238221.0		266840.0		238221.0		28619.0
315875.0		352631.0		315875.0		36756.0
363353.0		412847.0		363353.0		49494.0
244806.0		272757.0		244806.0		27951.0
134351.0		149605.0		134351.0		15254.0
50423.0		57403.0		50423.0		6980.0
9650.0		10987.0		9650.0		1337.0
4558.0		4956.0		4558.0		398.0
1816.0		1956.0		1816.0		140.0
891.0		967.0		891.0		76.0
850.0		974.0		850.0		124.0
