0.00<|#eta|<0.60
335789.0		413109.0		335789.0		77320.0
630732.0		766305.0		630732.0		135573.0
989480.0		1205480.0		989480.0		215996.0
1303460.0		1582460.0		1303460.0		278997.0
903157.0		1055180.0		903157.0		152018.0
510179.0		592638.0		510179.0		82459.0
224385.0		254812.0		224385.0		30427.0
46957.0		52638.0		46957.0		5681.0
23151.0		24393.0		23151.0		1242.0
9904.0		10622.0		9904.0		718.0
4994.0		5357.0		4994.0		363.0
5316.0		5770.0		5316.0		454.0
0.60<|#eta|<0.80
97593.0		124486.0		97593.0		26893.0
208999.0		255996.0		208999.0		46997.0
331306.0		409638.0		331306.0		78332.0
418706.0		505608.0		418706.0		86902.0
288405.0		337397.0		288405.0		48992.0
160518.0		187491.0		160518.0		26973.0
70809.0		79655.0		70809.0		8846.0
14989.0		16589.0		14989.0		1600.0
7044.0		7493.0		7044.0		449.0
2926.0		3177.0		2926.0		251.0
1599.0		1696.0		1599.0		97.0
1697.0		1805.0		1697.0		108.0
0.80<|#eta|<1.15
160461.0		216726.0		160461.0		56265.0
288679.0		397139.0		288679.0		108460.0
479186.0		658748.0		479186.0		179562.0
649643.0		835279.0		649643.0		185636.0
427439.0		531503.0		427439.0		104064.0
235922.0		296729.0		235922.0		60807.0
102963.0		124301.0		102963.0		21338.0
21555.0		26414.0		21555.0		4859.0
10747.0		12159.0		10747.0		1412.0
4804.0		5385.0		4804.0		581.0
2385.0		2605.0		2385.0		220.0
2717.0		2950.0		2717.0		233.0
1.15<|#eta|<1.37
89491.0		125895.0		89491.0		36404.0
158459.0		215988.0		158459.0		57529.0
258350.0		353321.0		258350.0		94971.0
353333.0		470819.0		353333.0		117486.0
235148.0		297354.0		235148.0		62206.0
136784.0		167375.0		136784.0		30591.0
57849.0		68548.0		57849.0		10699.0
12205.0		14362.0		12205.0		2157.0
5826.0		6789.0		5826.0		963.0
2706.0		3039.0		2706.0		333.0
1410.0		1615.0		1410.0		205.0
1483.0		1665.0		1483.0		182.0
1.52<|#eta|<1.81
114155.0		143951.0		114155.0		29796.0
191001.0		239433.0		191001.0		48432.0
290666.0		364819.0		290666.0		74153.0
371564.0		464536.0		371564.0		92972.0
267161.0		320284.0		267161.0		53123.0
155363.0		183135.0		155363.0		27772.0
62360.0		72997.0		62360.0		10637.0
12845.0		14878.0		12845.0		2033.0
6037.0		6830.0		6037.0		793.0
2890.0		3108.0		2890.0		218.0
1458.0		1525.0		1458.0		67.0
1569.0		1642.0		1569.0		73.0
1.81<|#eta|<2.01
78472.0		96191.0		78472.0		17719.0
126999.0		154677.0		126999.0		27678.0
184520.0		221049.0		184520.0		36529.0
241565.0		279129.0		241565.0		37564.0
160383.0		189350.0		160383.0		28967.0
90785.0		105134.0		90785.0		14349.0
37092.0		41669.0		37092.0		4577.0
7362.0		8300.0		7362.0		938.0
3317.0		3708.0		3317.0		391.0
1367.0		1516.0		1367.0		149.0
654.0		723.0		654.0		69.0
739.0		797.0		739.0		58.0
2.01<|#eta|<2.37
148356.0		171938.0		148356.0		23582.0
236957.0		266840.0		236957.0		29883.0
314493.0		352631.0		314493.0		38138.0
363491.0		412847.0		363491.0		49356.0
244452.0		272757.0		244452.0		28305.0
134140.0		149605.0		134140.0		15465.0
50477.0		57403.0		50477.0		6926.0
9546.0		10987.0		9546.0		1441.0
4519.0		4956.0		4519.0		437.0
1826.0		1956.0		1826.0		130.0
898.0		967.0		898.0		69.0
843.0		974.0		843.0		131.0
