0.00<|#eta|<0.60
335764.0		413109.0		335764.0		77345.0
629186.0		766305.0		629186.0		137119.0
986540.0		1205480.0		986540.0		218938.0
1304640.0		1582460.0		1304640.0		277811.0
899874.0		1055180.0		899874.0		155301.0
510691.0		592638.0		510691.0		81947.0
225051.0		254812.0		225051.0		29761.0
47222.0		52638.0		47222.0		5416.0
23204.0		24393.0		23204.0		1189.0
9898.0		10622.0		9898.0		724.0
5014.0		5357.0		5014.0		343.0
5360.0		5770.0		5360.0		410.0
0.60<|#eta|<0.80
96696.0		124486.0		96696.0		27790.0
211263.0		255996.0		211263.0		44733.0
332070.0		409638.0		332070.0		77568.0
418489.0		505608.0		418489.0		87119.0
287076.0		337397.0		287076.0		50321.0
161146.0		187491.0		161146.0		26345.0
70726.0		79655.0		70726.0		8929.0
14990.0		16589.0		14990.0		1599.0
6993.0		7493.0		6993.0		500.0
2935.0		3177.0		2935.0		242.0
1574.0		1696.0		1574.0		122.0
1711.0		1805.0		1711.0		94.0
0.80<|#eta|<1.15
160390.0		216726.0		160390.0		56336.0
290561.0		397139.0		290561.0		106578.0
483051.0		658748.0		483051.0		175697.0
648116.0		835279.0		648116.0		187163.0
427974.0		531503.0		427974.0		103529.0
235934.0		296729.0		235934.0		60795.0
102834.0		124301.0		102834.0		21467.0
21534.0		26414.0		21534.0		4880.0
10810.0		12159.0		10810.0		1349.0
4811.0		5385.0		4811.0		574.0
2393.0		2605.0		2393.0		212.0
2726.0		2950.0		2726.0		224.0
1.15<|#eta|<1.37
89037.0		125895.0		89037.0		36858.0
157342.0		215988.0		157342.0		58646.0
258531.0		353321.0		258531.0		94790.0
354073.0		470819.0		354073.0		116746.0
235754.0		297354.0		235754.0		61600.0
137219.0		167375.0		137219.0		30156.0
57706.0		68548.0		57706.0		10842.0
12153.0		14362.0		12153.0		2209.0
5833.0		6789.0		5833.0		956.0
2724.0		3039.0		2724.0		315.0
1420.0		1615.0		1420.0		195.0
1478.0		1665.0		1478.0		187.0
1.52<|#eta|<1.81
114242.0		143951.0		114242.0		29709.0
190615.0		239433.0		190615.0		48818.0
290889.0		364819.0		290889.0		73930.0
369314.0		464536.0		369314.0		95222.0
267562.0		320284.0		267562.0		52722.0
154576.0		183135.0		154576.0		28559.0
62288.0		72997.0		62288.0		10709.0
12730.0		14878.0		12730.0		2148.0
6031.0		6830.0		6031.0		799.0
2880.0		3108.0		2880.0		228.0
1448.0		1525.0		1448.0		77.0
1574.0		1642.0		1574.0		68.0
1.81<|#eta|<2.01
77893.0		96191.0		77893.0		18298.0
126966.0		154677.0		126966.0		27711.0
185061.0		221049.0		185061.0		35988.0
239749.0		279129.0		239749.0		39380.0
159512.0		189350.0		159512.0		29838.0
90376.0		105134.0		90376.0		14758.0
37031.0		41669.0		37031.0		4638.0
7313.0		8300.0		7313.0		987.0
3383.0		3708.0		3383.0		325.0
1367.0		1516.0		1367.0		149.0
659.0		723.0		659.0		64.0
736.0		797.0		736.0		61.0
2.01<|#eta|<2.37
148963.0		171938.0		148963.0		22975.0
237245.0		266840.0		237245.0		29595.0
316916.0		352631.0		316916.0		35715.0
364319.0		412847.0		364319.0		48528.0
242942.0		272757.0		242942.0		29815.0
133889.0		149605.0		133889.0		15716.0
50512.0		57403.0		50512.0		6891.0
9640.0		10987.0		9640.0		1347.0
4502.0		4956.0		4502.0		454.0
1837.0		1956.0		1837.0		119.0
903.0		967.0		903.0		64.0
849.0		974.0		849.0		125.0
