0.00<|#eta|<0.60
335563.0		413109.0		335563.0		77546.0
629663.0		766305.0		629663.0		136642.0
984830.0		1205480.0		984830.0		220653.0
1306240.0		1582460.0		1306240.0		276208.0
902787.0		1055180.0		902787.0		152388.0
510947.0		592638.0		510947.0		81691.0
224589.0		254812.0		224589.0		30223.0
47060.0		52638.0		47060.0		5578.0
23213.0		24393.0		23213.0		1180.0
9978.0		10622.0		9978.0		644.0
4994.0		5357.0		4994.0		363.0
5297.0		5770.0		5297.0		473.0
0.60<|#eta|<0.80
96660.0		124486.0		96660.0		27826.0
209140.0		255996.0		209140.0		46856.0
333539.0		409638.0		333539.0		76099.0
417870.0		505608.0		417870.0		87738.0
287040.0		337397.0		287040.0		50357.0
161427.0		187491.0		161427.0		26064.0
70827.0		79655.0		70827.0		8828.0
14914.0		16589.0		14914.0		1675.0
7012.0		7493.0		7012.0		481.0
2972.0		3177.0		2972.0		205.0
1589.0		1696.0		1589.0		107.0
1681.0		1805.0		1681.0		124.0
0.80<|#eta|<1.15
160321.0		216726.0		160321.0		56405.0
289344.0		397139.0		289344.0		107795.0
481780.0		658748.0		481780.0		176968.0
648453.0		835279.0		648453.0		186826.0
428550.0		531503.0		428550.0		102953.0
235131.0		296729.0		235131.0		61598.0
103073.0		124301.0		103073.0		21228.0
21509.0		26414.0		21509.0		4905.0
10830.0		12159.0		10830.0		1329.0
4843.0		5385.0		4843.0		542.0
2384.0		2605.0		2384.0		221.0
2727.0		2950.0		2727.0		223.0
1.15<|#eta|<1.37
89803.0		125895.0		89803.0		36092.0
157875.0		215988.0		157875.0		58113.0
258633.0		353321.0		258633.0		94688.0
353643.0		470819.0		353643.0		117176.0
232958.0		297354.0		232958.0		64396.0
136960.0		167375.0		136960.0		30415.0
57366.0		68548.0		57366.0		11182.0
12190.0		14362.0		12190.0		2172.0
5845.0		6789.0		5845.0		944.0
2712.0		3039.0		2712.0		327.0
1434.0		1615.0		1434.0		181.0
1467.0		1665.0		1467.0		198.0
1.52<|#eta|<1.81
115294.0		143951.0		115294.0		28657.0
191129.0		239433.0		191129.0		48304.0
290478.0		364819.0		290478.0		74341.0
370178.0		464536.0		370178.0		94358.0
268881.0		320284.0		268881.0		51403.0
155005.0		183135.0		155005.0		28130.0
62647.0		72997.0		62647.0		10350.0
12799.0		14878.0		12799.0		2079.0
6085.0		6830.0		6085.0		745.0
2875.0		3108.0		2875.0		233.0
1459.0		1525.0		1459.0		66.0
1556.0		1642.0		1556.0		86.0
1.81<|#eta|<2.01
78156.0		96191.0		78156.0		18035.0
127243.0		154677.0		127243.0		27434.0
185008.0		221049.0		185008.0		36041.0
239986.0		279129.0		239986.0		39143.0
160432.0		189350.0		160432.0		28918.0
90645.0		105134.0		90645.0		14489.0
37062.0		41669.0		37062.0		4607.0
7321.0		8300.0		7321.0		979.0
3351.0		3708.0		3351.0		357.0
1365.0		1516.0		1365.0		151.0
652.0		723.0		652.0		71.0
736.0		797.0		736.0		61.0
2.01<|#eta|<2.37
147680.0		171938.0		147680.0		24258.0
238143.0		266840.0		238143.0		28697.0
315081.0		352631.0		315081.0		37550.0
363705.0		412847.0		363705.0		49142.0
244070.0		272757.0		244070.0		28687.0
134256.0		149605.0		134256.0		15349.0
50363.0		57403.0		50363.0		7040.0
9602.0		10987.0		9602.0		1385.0
4565.0		4956.0		4565.0		391.0
1826.0		1956.0		1826.0		130.0
898.0		967.0		898.0		69.0
866.0		974.0		866.0		108.0
