0.00<|#eta|<0.60
334527.0		413109.0		334527.0		78582.0
629719.0		766305.0		629719.0		136586.0
989620.0		1205480.0		989620.0		215868.0
1299140.0		1582460.0		1299140.0		283313.0
903628.0		1055180.0		903628.0		151551.0
511098.0		592638.0		511098.0		81540.0
224130.0		254812.0		224130.0		30682.0
47001.0		52638.0		47001.0		5637.0
23211.0		24393.0		23211.0		1182.0
9945.0		10622.0		9945.0		677.0
5014.0		5357.0		5014.0		343.0
5340.0		5770.0		5340.0		430.0
0.60<|#eta|<0.80
97040.0		124486.0		97040.0		27446.0
208782.0		255996.0		208782.0		47214.0
330398.0		409638.0		330398.0		79240.0
417581.0		505608.0		417581.0		88027.0
287580.0		337397.0		287580.0		49817.0
161417.0		187491.0		161417.0		26074.0
70769.0		79655.0		70769.0		8886.0
14888.0		16589.0		14888.0		1701.0
7027.0		7493.0		7027.0		466.0
2972.0		3177.0		2972.0		205.0
1610.0		1696.0		1610.0		86.0
1701.0		1805.0		1701.0		104.0
0.80<|#eta|<1.15
160101.0		216726.0		160101.0		56625.0
288259.0		397139.0		288259.0		108880.0
482388.0		658748.0		482388.0		176360.0
649002.0		835279.0		649002.0		186277.0
427792.0		531503.0		427792.0		103711.0
235389.0		296729.0		235389.0		61340.0
102692.0		124301.0		102692.0		21609.0
21343.0		26414.0		21343.0		5071.0
10866.0		12159.0		10866.0		1293.0
4867.0		5385.0		4867.0		518.0
2386.0		2605.0		2386.0		219.0
2701.0		2950.0		2701.0		249.0
1.15<|#eta|<1.37
90088.0		125895.0		90088.0		35807.0
159006.0		215988.0		159006.0		56982.0
258151.0		353321.0		258151.0		95170.0
351893.0		470819.0		351893.0		118926.0
234928.0		297354.0		234928.0		62426.0
137214.0		167375.0		137214.0		30161.0
57640.0		68548.0		57640.0		10908.0
12079.0		14362.0		12079.0		2283.0
5789.0		6789.0		5789.0		1000.0
2723.0		3039.0		2723.0		316.0
1451.0		1615.0		1451.0		164.0
1449.0		1665.0		1449.0		216.0
1.52<|#eta|<1.81
114756.0		143951.0		114756.0		29195.0
192006.0		239433.0		192006.0		47427.0
289555.0		364819.0		289555.0		75264.0
371903.0		464536.0		371903.0		92633.0
267665.0		320284.0		267665.0		52619.0
154449.0		183135.0		154449.0		28686.0
62287.0		72997.0		62287.0		10710.0
12892.0		14878.0		12892.0		1986.0
6029.0		6830.0		6029.0		801.0
2862.0		3108.0		2862.0		246.0
1462.0		1525.0		1462.0		63.0
1571.0		1642.0		1571.0		71.0
1.81<|#eta|<2.01
78736.0		96191.0		78736.0		17455.0
126661.0		154677.0		126661.0		28016.0
185018.0		221049.0		185018.0		36031.0
240262.0		279129.0		240262.0		38867.0
160082.0		189350.0		160082.0		29268.0
90611.0		105134.0		90611.0		14523.0
36984.0		41669.0		36984.0		4685.0
7284.0		8300.0		7284.0		1016.0
3343.0		3708.0		3343.0		365.0
1376.0		1516.0		1376.0		140.0
650.0		723.0		650.0		73.0
735.0		797.0		735.0		62.0
2.01<|#eta|<2.37
148627.0		171938.0		148627.0		23311.0
238518.0		266840.0		238518.0		28322.0
314341.0		352631.0		314341.0		38290.0
363945.0		412847.0		363945.0		48902.0
245055.0		272757.0		245055.0		27702.0
133986.0		149605.0		133986.0		15619.0
50474.0		57403.0		50474.0		6929.0
9567.0		10987.0		9567.0		1420.0
4520.0		4956.0		4520.0		436.0
1838.0		1956.0		1838.0		118.0
903.0		967.0		903.0		64.0
854.0		974.0		854.0		120.0
