0.00<|#eta|<0.60
334377.0		413109.0		334377.0		78732.0
631840.0		766305.0		631840.0		134465.0
987370.0		1205480.0		987370.0		218103.0
1302640.0		1582460.0		1302640.0		279820.0
900658.0		1055180.0		900658.0		154517.0
510393.0		592638.0		510393.0		82245.0
224278.0		254812.0		224278.0		30534.0
47089.0		52638.0		47089.0		5549.0
23173.0		24393.0		23173.0		1220.0
9937.0		10622.0		9937.0		685.0
4969.0		5357.0		4969.0		388.0
5360.0		5770.0		5360.0		410.0
0.60<|#eta|<0.80
96423.0		124486.0		96423.0		28063.0
210402.0		255996.0		210402.0		45594.0
331915.0		409638.0		331915.0		77723.0
418581.0		505608.0		418581.0		87027.0
288734.0		337397.0		288734.0		48663.0
160904.0		187491.0		160904.0		26587.0
70643.0		79655.0		70643.0		9012.0
14884.0		16589.0		14884.0		1705.0
7028.0		7493.0		7028.0		465.0
2950.0		3177.0		2950.0		227.0
1589.0		1696.0		1589.0		107.0
1697.0		1805.0		1697.0		108.0
0.80<|#eta|<1.15
159695.0		216726.0		159695.0		57031.0
288693.0		397139.0		288693.0		108446.0
480773.0		658748.0		480773.0		177975.0
648915.0		835279.0		648915.0		186364.0
427532.0		531503.0		427532.0		103971.0
235135.0		296729.0		235135.0		61594.0
102688.0		124301.0		102688.0		21613.0
21479.0		26414.0		21479.0		4935.0
10857.0		12159.0		10857.0		1302.0
4876.0		5385.0		4876.0		509.0
2384.0		2605.0		2384.0		221.0
2698.0		2950.0		2698.0		252.0
1.15<|#eta|<1.37
89696.0		125895.0		89696.0		36199.0
159356.0		215988.0		159356.0		56632.0
258777.0		353321.0		258777.0		94544.0
354152.0		470819.0		354152.0		116667.0
235721.0		297354.0		235721.0		61633.0
137497.0		167375.0		137497.0		29878.0
57569.0		68548.0		57569.0		10979.0
12216.0		14362.0		12216.0		2146.0
5812.0		6789.0		5812.0		977.0
2681.0		3039.0		2681.0		358.0
1432.0		1615.0		1432.0		183.0
1460.0		1665.0		1460.0		205.0
1.52<|#eta|<1.81
114827.0		143951.0		114827.0		29124.0
190174.0		239433.0		190174.0		49259.0
289568.0		364819.0		289568.0		75251.0
368322.0		464536.0		368322.0		96214.0
267479.0		320284.0		267479.0		52805.0
154895.0		183135.0		154895.0		28240.0
62213.0		72997.0		62213.0		10784.0
12749.0		14878.0		12749.0		2129.0
6029.0		6830.0		6029.0		801.0
2864.0		3108.0		2864.0		244.0
1440.0		1525.0		1440.0		85.0
1560.0		1642.0		1560.0		82.0
1.81<|#eta|<2.01
78649.0		96191.0		78649.0		17542.0
126333.0		154677.0		126333.0		28344.0
184356.0		221049.0		184356.0		36693.0
241060.0		279129.0		241060.0		38069.0
160049.0		189350.0		160049.0		29301.0
90701.0		105134.0		90701.0		14433.0
37022.0		41669.0		37022.0		4647.0
7340.0		8300.0		7340.0		960.0
3337.0		3708.0		3337.0		371.0
1362.0		1516.0		1362.0		154.0
663.0		723.0		663.0		60.0
745.0		797.0		745.0		52.0
2.01<|#eta|<2.37
148448.0		171938.0		148448.0		23490.0
238017.0		266840.0		238017.0		28823.0
315113.0		352631.0		315113.0		37518.0
363713.0		412847.0		363713.0		49134.0
244242.0		272757.0		244242.0		28515.0
133631.0		149605.0		133631.0		15974.0
50544.0		57403.0		50544.0		6859.0
9596.0		10987.0		9596.0		1391.0
4449.0		4956.0		4449.0		507.0
1839.0		1956.0		1839.0		117.0
891.0		967.0		891.0		76.0
859.0		974.0		859.0		115.0
