0.00<|#eta|<0.60
335280.0		413109.0		335280.0		77829.0
630780.0		766305.0		630780.0		135525.0
983130.0		1205480.0		983130.0		222348.0
1305720.0		1582460.0		1305720.0		276738.0
902936.0		1055180.0		902936.0		152239.0
511373.0		592638.0		511373.0		81265.0
224402.0		254812.0		224402.0		30410.0
47232.0		52638.0		47232.0		5406.0
23222.0		24393.0		23222.0		1171.0
9904.0		10622.0		9904.0		718.0
5003.0		5357.0		5003.0		354.0
5350.0		5770.0		5350.0		420.0
0.60<|#eta|<0.80
97565.0		124486.0		97565.0		26921.0
210524.0		255996.0		210524.0		45472.0
330520.0		409638.0		330520.0		79118.0
417865.0		505608.0		417865.0		87743.0
288135.0		337397.0		288135.0		49262.0
161292.0		187491.0		161292.0		26199.0
70654.0		79655.0		70654.0		9001.0
14910.0		16589.0		14910.0		1679.0
7062.0		7493.0		7062.0		431.0
2950.0		3177.0		2950.0		227.0
1593.0		1696.0		1593.0		103.0
1719.0		1805.0		1719.0		86.0
0.80<|#eta|<1.15
159686.0		216726.0		159686.0		57040.0
288295.0		397139.0		288295.0		108844.0
482144.0		658748.0		482144.0		176604.0
650148.0		835279.0		650148.0		185131.0
428421.0		531503.0		428421.0		103082.0
235959.0		296729.0		235959.0		60770.0
103027.0		124301.0		103027.0		21274.0
21487.0		26414.0		21487.0		4927.0
10781.0		12159.0		10781.0		1378.0
4814.0		5385.0		4814.0		571.0
2392.0		2605.0		2392.0		213.0
2685.0		2950.0		2685.0		265.0
1.15<|#eta|<1.37
90057.0		125895.0		90057.0		35838.0
158297.0		215988.0		158297.0		57691.0
257029.0		353321.0		257029.0		96292.0
353644.0		470819.0		353644.0		117175.0
234463.0		297354.0		234463.0		62891.0
137399.0		167375.0		137399.0		29976.0
57320.0		68548.0		57320.0		11228.0
12193.0		14362.0		12193.0		2169.0
5800.0		6789.0		5800.0		989.0
2723.0		3039.0		2723.0		316.0
1422.0		1615.0		1422.0		193.0
1462.0		1665.0		1462.0		203.0
1.52<|#eta|<1.81
114576.0		143951.0		114576.0		29375.0
191567.0		239433.0		191567.0		47866.0
291875.0		364819.0		291875.0		72944.0
370693.0		464536.0		370693.0		93843.0
266857.0		320284.0		266857.0		53427.0
155218.0		183135.0		155218.0		27917.0
62328.0		72997.0		62328.0		10669.0
12756.0		14878.0		12756.0		2122.0
6041.0		6830.0		6041.0		789.0
2880.0		3108.0		2880.0		228.0
1459.0		1525.0		1459.0		66.0
1568.0		1642.0		1568.0		74.0
1.81<|#eta|<2.01
78276.0		96191.0		78276.0		17915.0
127193.0		154677.0		127193.0		27484.0
184017.0		221049.0		184017.0		37032.0
239728.0		279129.0		239728.0		39401.0
160776.0		189350.0		160776.0		28574.0
90736.0		105134.0		90736.0		14398.0
36992.0		41669.0		36992.0		4677.0
7350.0		8300.0		7350.0		950.0
3332.0		3708.0		3332.0		376.0
1365.0		1516.0		1365.0		151.0
651.0		723.0		651.0		72.0
750.0		797.0		750.0		47.0
2.01<|#eta|<2.37
149050.0		171938.0		149050.0		22888.0
237041.0		266840.0		237041.0		29799.0
315500.0		352631.0		315500.0		37131.0
364521.0		412847.0		364521.0		48326.0
245074.0		272757.0		245074.0		27683.0
134356.0		149605.0		134356.0		15249.0
50307.0		57403.0		50307.0		7096.0
9640.0		10987.0		9640.0		1347.0
4556.0		4956.0		4556.0		400.0
1850.0		1956.0		1850.0		106.0
898.0		967.0		898.0		69.0
855.0		974.0		855.0		119.0
