0.00<|#eta|<0.60
335733.0		413109.0		335733.0		77376.0
628822.0		766305.0		628822.0		137483.0
986380.0		1205480.0		986380.0		219098.0
1305780.0		1582460.0		1305780.0		276670.0
904824.0		1055180.0		904824.0		150350.0
511126.0		592638.0		511126.0		81512.0
224770.0		254812.0		224770.0		30042.0
47261.0		52638.0		47261.0		5377.0
23246.0		24393.0		23246.0		1147.0
9903.0		10622.0		9903.0		719.0
4982.0		5357.0		4982.0		375.0
5330.0		5770.0		5330.0		440.0
0.60<|#eta|<0.80
97567.0		124486.0		97567.0		26919.0
211129.0		255996.0		211129.0		44867.0
332266.0		409638.0		332266.0		77372.0
419002.0		505608.0		419002.0		86606.0
288414.0		337397.0		288414.0		48983.0
160727.0		187491.0		160727.0		26764.0
70601.0		79655.0		70601.0		9054.0
14952.0		16589.0		14952.0		1637.0
7056.0		7493.0		7056.0		437.0
2958.0		3177.0		2958.0		219.0
1613.0		1696.0		1613.0		83.0
1702.0		1805.0		1702.0		103.0
0.80<|#eta|<1.15
160354.0		216726.0		160354.0		56372.0
289698.0		397139.0		289698.0		107441.0
481752.0		658748.0		481752.0		176996.0
650111.0		835279.0		650111.0		185168.0
427289.0		531503.0		427289.0		104214.0
236892.0		296729.0		236892.0		59837.0
103073.0		124301.0		103073.0		21228.0
21268.0		26414.0		21268.0		5146.0
10848.0		12159.0		10848.0		1311.0
4840.0		5385.0		4840.0		545.0
2379.0		2605.0		2379.0		226.0
2688.0		2950.0		2688.0		262.0
1.15<|#eta|<1.37
88911.0		125895.0		88911.0		36984.0
158498.0		215988.0		158498.0		57490.0
257852.0		353321.0		257852.0		95469.0
352812.0		470819.0		352812.0		118007.0
233977.0		297354.0		233977.0		63377.0
137753.0		167375.0		137753.0		29622.0
57426.0		68548.0		57426.0		11122.0
12154.0		14362.0		12154.0		2208.0
5831.0		6789.0		5831.0		958.0
2728.0		3039.0		2728.0		311.0
1452.0		1615.0		1452.0		163.0
1470.0		1665.0		1470.0		195.0
1.52<|#eta|<1.81
114752.0		143951.0		114752.0		29199.0
191162.0		239433.0		191162.0		48271.0
288527.0		364819.0		288527.0		76292.0
369781.0		464536.0		369781.0		94755.0
266360.0		320284.0		266360.0		53924.0
154556.0		183135.0		154556.0		28579.0
62395.0		72997.0		62395.0		10602.0
12781.0		14878.0		12781.0		2097.0
6071.0		6830.0		6071.0		759.0
2871.0		3108.0		2871.0		237.0
1453.0		1525.0		1453.0		72.0
1555.0		1642.0		1555.0		87.0
1.81<|#eta|<2.01
78254.0		96191.0		78254.0		17937.0
127064.0		154677.0		127064.0		27613.0
186276.0		221049.0		186276.0		34773.0
241051.0		279129.0		241051.0		38078.0
160139.0		189350.0		160139.0		29211.0
91217.0		105134.0		91217.0		13917.0
37139.0		41669.0		37139.0		4530.0
7354.0		8300.0		7354.0		946.0
3285.0		3708.0		3285.0		423.0
1361.0		1516.0		1361.0		155.0
650.0		723.0		650.0		73.0
746.0		797.0		746.0		51.0
2.01<|#eta|<2.37
148645.0		171938.0		148645.0		23293.0
238344.0		266840.0		238344.0		28496.0
315250.0		352631.0		315250.0		37381.0
365077.0		412847.0		365077.0		47770.0
244869.0		272757.0		244869.0		27888.0
134336.0		149605.0		134336.0		15269.0
50373.0		57403.0		50373.0		7030.0
9566.0		10987.0		9566.0		1421.0
4556.0		4956.0		4556.0		400.0
1835.0		1956.0		1835.0		121.0
894.0		967.0		894.0		73.0
870.0		974.0		870.0		104.0
