0.00<|#eta|<0.60
335258.0		413109.0		335258.0		77851.0
629661.0		766305.0		629661.0		136644.0
988630.0		1205480.0		988630.0		216837.0
1302190.0		1582460.0		1302190.0		280260.0
901432.0		1055180.0		901432.0		153743.0
511224.0		592638.0		511224.0		81414.0
224432.0		254812.0		224432.0		30380.0
47061.0		52638.0		47061.0		5577.0
23225.0		24393.0		23225.0		1168.0
9955.0		10622.0		9955.0		667.0
4965.0		5357.0		4965.0		392.0
5334.0		5770.0		5334.0		436.0
0.60<|#eta|<0.80
96918.0		124486.0		96918.0		27568.0
212399.0		255996.0		212399.0		43597.0
331925.0		409638.0		331925.0		77713.0
419074.0		505608.0		419074.0		86534.0
287035.0		337397.0		287035.0		50362.0
161400.0		187491.0		161400.0		26091.0
70775.0		79655.0		70775.0		8880.0
14965.0		16589.0		14965.0		1624.0
7026.0		7493.0		7026.0		467.0
2963.0		3177.0		2963.0		214.0
1594.0		1696.0		1594.0		102.0
1689.0		1805.0		1689.0		116.0
0.80<|#eta|<1.15
159945.0		216726.0		159945.0		56781.0
288424.0		397139.0		288424.0		108715.0
480975.0		658748.0		480975.0		177773.0
647977.0		835279.0		647977.0		187302.0
428194.0		531503.0		428194.0		103309.0
235540.0		296729.0		235540.0		61189.0
102566.0		124301.0		102566.0		21735.0
21458.0		26414.0		21458.0		4956.0
10825.0		12159.0		10825.0		1334.0
4794.0		5385.0		4794.0		591.0
2407.0		2605.0		2407.0		198.0
2693.0		2950.0		2693.0		257.0
1.15<|#eta|<1.37
90005.0		125895.0		90005.0		35890.0
157836.0		215988.0		157836.0		58152.0
258455.0		353321.0		258455.0		94866.0
355686.0		470819.0		355686.0		115133.0
235484.0		297354.0		235484.0		61870.0
137387.0		167375.0		137387.0		29988.0
57358.0		68548.0		57358.0		11190.0
12232.0		14362.0		12232.0		2130.0
5890.0		6789.0		5890.0		899.0
2757.0		3039.0		2757.0		282.0
1447.0		1615.0		1447.0		168.0
1470.0		1665.0		1470.0		195.0
1.52<|#eta|<1.81
114721.0		143951.0		114721.0		29230.0
191102.0		239433.0		191102.0		48331.0
290748.0		364819.0		290748.0		74071.0
371155.0		464536.0		371155.0		93381.0
267202.0		320284.0		267202.0		53082.0
155442.0		183135.0		155442.0		27693.0
62482.0		72997.0		62482.0		10515.0
12789.0		14878.0		12789.0		2089.0
6070.0		6830.0		6070.0		760.0
2869.0		3108.0		2869.0		239.0
1452.0		1525.0		1452.0		73.0
1552.0		1642.0		1552.0		90.0
1.81<|#eta|<2.01
78410.0		96191.0		78410.0		17781.0
127474.0		154677.0		127474.0		27203.0
185023.0		221049.0		185023.0		36026.0
240311.0		279129.0		240311.0		38818.0
159262.0		189350.0		159262.0		30088.0
90588.0		105134.0		90588.0		14546.0
36988.0		41669.0		36988.0		4681.0
7313.0		8300.0		7313.0		987.0
3327.0		3708.0		3327.0		381.0
1388.0		1516.0		1388.0		128.0
646.0		723.0		646.0		77.0
736.0		797.0		736.0		61.0
2.01<|#eta|<2.37
148298.0		171938.0		148298.0		23640.0
237508.0		266840.0		237508.0		29332.0
316019.0		352631.0		316019.0		36612.0
363492.0		412847.0		363492.0		49355.0
243871.0		272757.0		243871.0		28886.0
134424.0		149605.0		134424.0		15181.0
50368.0		57403.0		50368.0		7035.0
9600.0		10987.0		9600.0		1387.0
4533.0		4956.0		4533.0		423.0
1851.0		1956.0		1851.0		105.0
893.0		967.0		893.0		74.0
855.0		974.0		855.0		119.0
