0.00<|#eta|<0.60
334734.0		413109.0		334734.0		78375.0
631971.0		766305.0		631971.0		134334.0
988310.0		1205480.0		988310.0		217184.0
1301920.0		1582460.0		1301920.0		280523.0
902537.0		1055180.0		902537.0		152638.0
511468.0		592638.0		511468.0		81170.0
224249.0		254812.0		224249.0		30563.0
47167.0		52638.0		47167.0		5471.0
23165.0		24393.0		23165.0		1228.0
9905.0		10622.0		9905.0		717.0
5000.0		5357.0		5000.0		357.0
5339.0		5770.0		5339.0		431.0
0.60<|#eta|<0.80
96779.0		124486.0		96779.0		27707.0
209370.0		255996.0		209370.0		46626.0
330360.0		409638.0		330360.0		79278.0
420658.0		505608.0		420658.0		84950.0
286925.0		337397.0		286925.0		50472.0
160905.0		187491.0		160905.0		26586.0
70770.0		79655.0		70770.0		8885.0
14986.0		16589.0		14986.0		1603.0
7074.0		7493.0		7074.0		419.0
2993.0		3177.0		2993.0		184.0
1590.0		1696.0		1590.0		106.0
1697.0		1805.0		1697.0		108.0
0.80<|#eta|<1.15
160632.0		216726.0		160632.0		56094.0
287315.0		397139.0		287315.0		109824.0
480932.0		658748.0		480932.0		177816.0
648389.0		835279.0		648389.0		186890.0
426389.0		531503.0		426389.0		105114.0
236379.0		296729.0		236379.0		60350.0
103033.0		124301.0		103033.0		21268.0
21391.0		26414.0		21391.0		5023.0
10819.0		12159.0		10819.0		1340.0
4786.0		5385.0		4786.0		599.0
2372.0		2605.0		2372.0		233.0
2716.0		2950.0		2716.0		234.0
1.15<|#eta|<1.37
89532.0		125895.0		89532.0		36363.0
158444.0		215988.0		158444.0		57544.0
258608.0		353321.0		258608.0		94713.0
353313.0		470819.0		353313.0		117506.0
234937.0		297354.0		234937.0		62417.0
137160.0		167375.0		137160.0		30215.0
57454.0		68548.0		57454.0		11094.0
12156.0		14362.0		12156.0		2206.0
5833.0		6789.0		5833.0		956.0
2718.0		3039.0		2718.0		321.0
1456.0		1615.0		1456.0		159.0
1461.0		1665.0		1461.0		204.0
1.52<|#eta|<1.81
114397.0		143951.0		114397.0		29554.0
191160.0		239433.0		191160.0		48273.0
287540.0		364819.0		287540.0		77279.0
368146.0		464536.0		368146.0		96390.0
266986.0		320284.0		266986.0		53298.0
155215.0		183135.0		155215.0		27920.0
62230.0		72997.0		62230.0		10767.0
12944.0		14878.0		12944.0		1934.0
6071.0		6830.0		6071.0		759.0
2866.0		3108.0		2866.0		242.0
1437.0		1525.0		1437.0		88.0
1573.0		1642.0		1573.0		69.0
1.81<|#eta|<2.01
77591.0		96191.0		77591.0		18600.0
126272.0		154677.0		126272.0		28405.0
183269.0		221049.0		183269.0		37780.0
240182.0		279129.0		240182.0		38947.0
160568.0		189350.0		160568.0		28782.0
90696.0		105134.0		90696.0		14438.0
37158.0		41669.0		37158.0		4511.0
7335.0		8300.0		7335.0		965.0
3312.0		3708.0		3312.0		396.0
1366.0		1516.0		1366.0		150.0
657.0		723.0		657.0		66.0
744.0		797.0		744.0		53.0
2.01<|#eta|<2.37
148483.0		171938.0		148483.0		23455.0
237683.0		266840.0		237683.0		29157.0
314678.0		352631.0		314678.0		37953.0
363947.0		412847.0		363947.0		48900.0
244562.0		272757.0		244562.0		28195.0
134336.0		149605.0		134336.0		15269.0
50690.0		57403.0		50690.0		6713.0
9571.0		10987.0		9571.0		1416.0
4559.0		4956.0		4559.0		397.0
1828.0		1956.0		1828.0		128.0
901.0		967.0		901.0		66.0
873.0		974.0		873.0		101.0
