0.00<|#eta|<0.60
334934.0		413109.0		334934.0		78175.0
631783.0		766305.0		631783.0		134522.0
986370.0		1205480.0		986370.0		219124.0
1301500.0		1582460.0		1301500.0		280954.0
902855.0		1055180.0		902855.0		152320.0
510601.0		592638.0		510601.0		82037.0
225086.0		254812.0		225086.0		29726.0
46903.0		52638.0		46903.0		5735.0
23213.0		24393.0		23213.0		1180.0
9873.0		10622.0		9873.0		749.0
4968.0		5357.0		4968.0		389.0
5337.0		5770.0		5337.0		433.0
0.60<|#eta|<0.80
97118.0		124486.0		97118.0		27368.0
209510.0		255996.0		209510.0		46486.0
331238.0		409638.0		331238.0		78400.0
419314.0		505608.0		419314.0		86294.0
288668.0		337397.0		288668.0		48729.0
161059.0		187491.0		161059.0		26432.0
70952.0		79655.0		70952.0		8703.0
14850.0		16589.0		14850.0		1739.0
7064.0		7493.0		7064.0		429.0
2945.0		3177.0		2945.0		232.0
1592.0		1696.0		1592.0		104.0
1721.0		1805.0		1721.0		84.0
0.80<|#eta|<1.15
159954.0		216726.0		159954.0		56772.0
289954.0		397139.0		289954.0		107185.0
482183.0		658748.0		482183.0		176565.0
647523.0		835279.0		647523.0		187756.0
427734.0		531503.0		427734.0		103769.0
235759.0		296729.0		235759.0		60970.0
103181.0		124301.0		103181.0		21120.0
21488.0		26414.0		21488.0		4926.0
10862.0		12159.0		10862.0		1297.0
4834.0		5385.0		4834.0		551.0
2386.0		2605.0		2386.0		219.0
2682.0		2950.0		2682.0		268.0
1.15<|#eta|<1.37
90312.0		125895.0		90312.0		35583.0
158472.0		215988.0		158472.0		57516.0
258216.0		353321.0		258216.0		95105.0
353897.0		470819.0		353897.0		116922.0
234515.0		297354.0		234515.0		62839.0
137318.0		167375.0		137318.0		30057.0
57581.0		68548.0		57581.0		10967.0
12184.0		14362.0		12184.0		2178.0
5838.0		6789.0		5838.0		951.0
2730.0		3039.0		2730.0		309.0
1447.0		1615.0		1447.0		168.0
1475.0		1665.0		1475.0		190.0
1.52<|#eta|<1.81
114270.0		143951.0		114270.0		29681.0
191571.0		239433.0		191571.0		47862.0
288411.0		364819.0		288411.0		76408.0
369912.0		464536.0		369912.0		94624.0
267451.0		320284.0		267451.0		52833.0
155307.0		183135.0		155307.0		27828.0
62322.0		72997.0		62322.0		10675.0
12697.0		14878.0		12697.0		2181.0
6079.0		6830.0		6079.0		751.0
2871.0		3108.0		2871.0		237.0
1462.0		1525.0		1462.0		63.0
1567.0		1642.0		1567.0		75.0
1.81<|#eta|<2.01
78362.0		96191.0		78362.0		17829.0
127085.0		154677.0		127085.0		27592.0
185706.0		221049.0		185706.0		35343.0
238779.0		279129.0		238779.0		40350.0
160193.0		189350.0		160193.0		29157.0
90590.0		105134.0		90590.0		14544.0
36940.0		41669.0		36940.0		4729.0
7342.0		8300.0		7342.0		958.0
3353.0		3708.0		3353.0		355.0
1383.0		1516.0		1383.0		133.0
650.0		723.0		650.0		73.0
728.0		797.0		728.0		69.0
2.01<|#eta|<2.37
148244.0		171938.0		148244.0		23694.0
238100.0		266840.0		238100.0		28740.0
314483.0		352631.0		314483.0		38148.0
364400.0		412847.0		364400.0		48447.0
245959.0		272757.0		245959.0		26798.0
134212.0		149605.0		134212.0		15393.0
50407.0		57403.0		50407.0		6996.0
9618.0		10987.0		9618.0		1369.0
4543.0		4956.0		4543.0		413.0
1849.0		1956.0		1849.0		107.0
897.0		967.0		897.0		70.0
871.0		974.0		871.0		103.0
