0.00<|#eta|<0.60
334377.0		413109.0		334377.0		78732.0
629348.0		766305.0		629348.0		136957.0
986710.0		1205480.0		986710.0		218763.0
1302260.0		1582460.0		1302260.0		280192.0
902194.0		1055180.0		902194.0		152981.0
510778.0		592638.0		510778.0		81860.0
224751.0		254812.0		224751.0		30061.0
47199.0		52638.0		47199.0		5439.0
23168.0		24393.0		23168.0		1225.0
9869.0		10622.0		9869.0		753.0
4994.0		5357.0		4994.0		363.0
5325.0		5770.0		5325.0		445.0
0.60<|#eta|<0.80
97123.0		124486.0		97123.0		27363.0
209800.0		255996.0		209800.0		46196.0
332064.0		409638.0		332064.0		77574.0
419383.0		505608.0		419383.0		86225.0
288813.0		337397.0		288813.0		48584.0
160839.0		187491.0		160839.0		26652.0
70897.0		79655.0		70897.0		8758.0
14936.0		16589.0		14936.0		1653.0
7052.0		7493.0		7052.0		441.0
2929.0		3177.0		2929.0		248.0
1610.0		1696.0		1610.0		86.0
1716.0		1805.0		1716.0		89.0
0.80<|#eta|<1.15
160352.0		216726.0		160352.0		56374.0
287758.0		397139.0		287758.0		109381.0
483867.0		658748.0		483867.0		174881.0
649110.0		835279.0		649110.0		186169.0
428520.0		531503.0		428520.0		102983.0
235806.0		296729.0		235806.0		60923.0
103158.0		124301.0		103158.0		21143.0
21503.0		26414.0		21503.0		4911.0
10902.0		12159.0		10902.0		1257.0
4834.0		5385.0		4834.0		551.0
2383.0		2605.0		2383.0		222.0
2715.0		2950.0		2715.0		235.0
1.15<|#eta|<1.37
89920.0		125895.0		89920.0		35975.0
157406.0		215988.0		157406.0		58582.0
258683.0		353321.0		258683.0		94638.0
353599.0		470819.0		353599.0		117220.0
235344.0		297354.0		235344.0		62010.0
137004.0		167375.0		137004.0		30371.0
57657.0		68548.0		57657.0		10891.0
12121.0		14362.0		12121.0		2241.0
5800.0		6789.0		5800.0		989.0
2727.0		3039.0		2727.0		312.0
1433.0		1615.0		1433.0		182.0
1480.0		1665.0		1480.0		185.0
1.52<|#eta|<1.81
114459.0		143951.0		114459.0		29492.0
191989.0		239433.0		191989.0		47444.0
290564.0		364819.0		290564.0		74255.0
370540.0		464536.0		370540.0		93996.0
267647.0		320284.0		267647.0		52637.0
155232.0		183135.0		155232.0		27903.0
62260.0		72997.0		62260.0		10737.0
12914.0		14878.0		12914.0		1964.0
6097.0		6830.0		6097.0		733.0
2888.0		3108.0		2888.0		220.0
1448.0		1525.0		1448.0		77.0
1565.0		1642.0		1565.0		77.0
1.81<|#eta|<2.01
77906.0		96191.0		77906.0		18285.0
126876.0		154677.0		126876.0		27801.0
185976.0		221049.0		185976.0		35073.0
239478.0		279129.0		239478.0		39651.0
159316.0		189350.0		159316.0		30034.0
90825.0		105134.0		90825.0		14309.0
37237.0		41669.0		37237.0		4432.0
7286.0		8300.0		7286.0		1014.0
3334.0		3708.0		3334.0		374.0
1364.0		1516.0		1364.0		152.0
643.0		723.0		643.0		80.0
741.0		797.0		741.0		56.0
2.01<|#eta|<2.37
148131.0		171938.0		148131.0		23807.0
237789.0		266840.0		237789.0		29051.0
314715.0		352631.0		314715.0		37916.0
362353.0		412847.0		362353.0		50494.0
243926.0		272757.0		243926.0		28831.0
134157.0		149605.0		134157.0		15448.0
50486.0		57403.0		50486.0		6917.0
9577.0		10987.0		9577.0		1410.0
4528.0		4956.0		4528.0		428.0
1840.0		1956.0		1840.0		116.0
909.0		967.0		909.0		58.0
866.0		974.0		866.0		108.0
