0.00<|#eta|<0.60
334747.0		413109.0		334747.0		78362.0
627111.0		766305.0		627111.0		139194.0
988660.0		1205480.0		988660.0		216824.0
1308810.0		1582460.0		1308810.0		273638.0
905676.0		1055180.0		905676.0		149500.0
510679.0		592638.0		510679.0		81959.0
224935.0		254812.0		224935.0		29877.0
47049.0		52638.0		47049.0		5589.0
23239.0		24393.0		23239.0		1154.0
9910.0		10622.0		9910.0		712.0
4982.0		5357.0		4982.0		375.0
5346.0		5770.0		5346.0		424.0
0.60<|#eta|<0.80
97341.0		124486.0		97341.0		27145.0
210153.0		255996.0		210153.0		45843.0
331920.0		409638.0		331920.0		77718.0
418908.0		505608.0		418908.0		86700.0
287743.0		337397.0		287743.0		49654.0
161158.0		187491.0		161158.0		26333.0
70565.0		79655.0		70565.0		9090.0
14894.0		16589.0		14894.0		1695.0
7056.0		7493.0		7056.0		437.0
2902.0		3177.0		2902.0		275.0
1604.0		1696.0		1604.0		92.0
1706.0		1805.0		1706.0		99.0
0.80<|#eta|<1.15
160570.0		216726.0		160570.0		56156.0
287992.0		397139.0		287992.0		109147.0
482681.0		658748.0		482681.0		176067.0
649532.0		835279.0		649532.0		185747.0
429027.0		531503.0		429027.0		102476.0
236490.0		296729.0		236490.0		60239.0
102790.0		124301.0		102790.0		21511.0
21498.0		26414.0		21498.0		4916.0
10909.0		12159.0		10909.0		1250.0
4816.0		5385.0		4816.0		569.0
2390.0		2605.0		2390.0		215.0
2669.0		2950.0		2669.0		281.0
1.15<|#eta|<1.37
89218.0		125895.0		89218.0		36677.0
157619.0		215988.0		157619.0		58369.0
257781.0		353321.0		257781.0		95540.0
354570.0		470819.0		354570.0		116249.0
235469.0		297354.0		235469.0		61885.0
137115.0		167375.0		137115.0		30260.0
57805.0		68548.0		57805.0		10743.0
12126.0		14362.0		12126.0		2236.0
5886.0		6789.0		5886.0		903.0
2746.0		3039.0		2746.0		293.0
1446.0		1615.0		1446.0		169.0
1440.0		1665.0		1440.0		225.0
1.52<|#eta|<1.81
114136.0		143951.0		114136.0		29815.0
191430.0		239433.0		191430.0		48003.0
290315.0		364819.0		290315.0		74504.0
368560.0		464536.0		368560.0		95976.0
267586.0		320284.0		267586.0		52698.0
155125.0		183135.0		155125.0		28010.0
62436.0		72997.0		62436.0		10561.0
12761.0		14878.0		12761.0		2117.0
6051.0		6830.0		6051.0		779.0
2873.0		3108.0		2873.0		235.0
1465.0		1525.0		1465.0		60.0
1565.0		1642.0		1565.0		77.0
1.81<|#eta|<2.01
77675.0		96191.0		77675.0		18516.0
125569.0		154677.0		125569.0		29108.0
185247.0		221049.0		185247.0		35802.0
240661.0		279129.0		240661.0		38468.0
160317.0		189350.0		160317.0		29033.0
90184.0		105134.0		90184.0		14950.0
37015.0		41669.0		37015.0		4654.0
7296.0		8300.0		7296.0		1004.0
3347.0		3708.0		3347.0		361.0
1383.0		1516.0		1383.0		133.0
670.0		723.0		670.0		53.0
744.0		797.0		744.0		53.0
2.01<|#eta|<2.37
148346.0		171938.0		148346.0		23592.0
237788.0		266840.0		237788.0		29052.0
314136.0		352631.0		314136.0		38495.0
364006.0		412847.0		364006.0		48841.0
244292.0		272757.0		244292.0		28465.0
134103.0		149605.0		134103.0		15502.0
50655.0		57403.0		50655.0		6748.0
9660.0		10987.0		9660.0		1327.0
4551.0		4956.0		4551.0		405.0
1843.0		1956.0		1843.0		113.0
897.0		967.0		897.0		70.0
846.0		974.0		846.0		128.0
