0.00<|#eta|<0.60
335188.0		413109.0		335188.0		77921.0
628129.0		766305.0		628129.0		138176.0
985310.0		1205480.0		985310.0		220176.0
1305050.0		1582460.0		1305050.0		277409.0
904648.0		1055180.0		904648.0		150522.0
510160.0		592638.0		510160.0		82478.0
224474.0		254812.0		224474.0		30338.0
47262.0		52638.0		47262.0		5376.0
23184.0		24393.0		23184.0		1209.0
9905.0		10622.0		9905.0		717.0
5015.0		5357.0		5015.0		342.0
5309.0		5770.0		5309.0		461.0
0.60<|#eta|<0.80
96637.0		124486.0		96637.0		27849.0
209520.0		255996.0		209520.0		46476.0
329526.0		409638.0		329526.0		80112.0
420289.0		505608.0		420289.0		85319.0
289022.0		337397.0		289022.0		48375.0
161514.0		187491.0		161514.0		25977.0
70680.0		79655.0		70680.0		8975.0
14941.0		16589.0		14941.0		1648.0
7086.0		7493.0		7086.0		407.0
2929.0		3177.0		2929.0		248.0
1605.0		1696.0		1605.0		91.0
1671.0		1805.0		1671.0		134.0
0.80<|#eta|<1.15
159935.0		216726.0		159935.0		56791.0
288587.0		397139.0		288587.0		108552.0
479980.0		658748.0		479980.0		178768.0
650152.0		835279.0		650152.0		185127.0
427393.0		531503.0		427393.0		104110.0
235610.0		296729.0		235610.0		61119.0
102622.0		124301.0		102622.0		21679.0
21458.0		26414.0		21458.0		4956.0
10829.0		12159.0		10829.0		1330.0
4830.0		5385.0		4830.0		555.0
2385.0		2605.0		2385.0		220.0
2700.0		2950.0		2700.0		250.0
1.15<|#eta|<1.37
89892.0		125895.0		89892.0		36003.0
158716.0		215988.0		158716.0		57272.0
258744.0		353321.0		258744.0		94577.0
352364.0		470819.0		352364.0		118455.0
234511.0		297354.0		234511.0		62843.0
137742.0		167375.0		137742.0		29633.0
57500.0		68548.0		57500.0		11048.0
12144.0		14362.0		12144.0		2218.0
5844.0		6789.0		5844.0		945.0
2724.0		3039.0		2724.0		315.0
1441.0		1615.0		1441.0		174.0
1446.0		1665.0		1446.0		219.0
1.52<|#eta|<1.81
114393.0		143951.0		114393.0		29558.0
192266.0		239433.0		192266.0		47167.0
288715.0		364819.0		288715.0		76104.0
370299.0		464536.0		370299.0		94237.0
267907.0		320284.0		267907.0		52377.0
154718.0		183135.0		154718.0		28417.0
62398.0		72997.0		62398.0		10599.0
12788.0		14878.0		12788.0		2090.0
6068.0		6830.0		6068.0		762.0
2881.0		3108.0		2881.0		227.0
1445.0		1525.0		1445.0		80.0
1570.0		1642.0		1570.0		72.0
1.81<|#eta|<2.01
77737.0		96191.0		77737.0		18454.0
127028.0		154677.0		127028.0		27649.0
183724.0		221049.0		183724.0		37325.0
240681.0		279129.0		240681.0		38448.0
160342.0		189350.0		160342.0		29008.0
90432.0		105134.0		90432.0		14702.0
37036.0		41669.0		37036.0		4633.0
7343.0		8300.0		7343.0		957.0
3301.0		3708.0		3301.0		407.0
1374.0		1516.0		1374.0		142.0
669.0		723.0		669.0		54.0
728.0		797.0		728.0		69.0
2.01<|#eta|<2.37
148446.0		171938.0		148446.0		23492.0
237107.0		266840.0		237107.0		29733.0
315416.0		352631.0		315416.0		37215.0
364010.0		412847.0		364010.0		48837.0
244762.0		272757.0		244762.0		27995.0
133984.0		149605.0		133984.0		15621.0
50765.0		57403.0		50765.0		6638.0
9590.0		10987.0		9590.0		1397.0
4551.0		4956.0		4551.0		405.0
1836.0		1956.0		1836.0		120.0
903.0		967.0		903.0		64.0
858.0		974.0		858.0		116.0
