0.00<|#eta|<0.60
336484.0		413109.0		336484.0		76625.0
628910.0		766305.0		628910.0		137395.0
988640.0		1205480.0		988640.0		216839.0
1302330.0		1582460.0		1302330.0		280117.0
904382.0		1055180.0		904382.0		150796.0
510206.0		592638.0		510206.0		82432.0
224702.0		254812.0		224702.0		30110.0
47115.0		52638.0		47115.0		5523.0
23185.0		24393.0		23185.0		1208.0
9947.0		10622.0		9947.0		675.0
4998.0		5357.0		4998.0		359.0
5332.0		5770.0		5332.0		438.0
0.60<|#eta|<0.80
96963.0		124486.0		96963.0		27523.0
210219.0		255996.0		210219.0		45777.0
332747.0		409638.0		332747.0		76891.0
418981.0		505608.0		418981.0		86627.0
288904.0		337397.0		288904.0		48493.0
161055.0		187491.0		161055.0		26436.0
70700.0		79655.0		70700.0		8955.0
14955.0		16589.0		14955.0		1634.0
7035.0		7493.0		7035.0		458.0
2921.0		3177.0		2921.0		256.0
1580.0		1696.0		1580.0		116.0
1693.0		1805.0		1693.0		112.0
0.80<|#eta|<1.15
160866.0		216726.0		160866.0		55860.0
288712.0		397139.0		288712.0		108427.0
481166.0		658748.0		481166.0		177582.0
649513.0		835279.0		649513.0		185766.0
428780.0		531503.0		428780.0		102723.0
235816.0		296729.0		235816.0		60913.0
103070.0		124301.0		103070.0		21231.0
21354.0		26414.0		21354.0		5060.0
10902.0		12159.0		10902.0		1257.0
4816.0		5385.0		4816.0		569.0
2383.0		2605.0		2383.0		222.0
2699.0		2950.0		2699.0		251.0
1.15<|#eta|<1.37
89936.0		125895.0		89936.0		35959.0
158774.0		215988.0		158774.0		57214.0
258223.0		353321.0		258223.0		95098.0
355485.0		470819.0		355485.0		115334.0
234602.0		297354.0		234602.0		62752.0
136679.0		167375.0		136679.0		30696.0
57773.0		68548.0		57773.0		10775.0
12190.0		14362.0		12190.0		2172.0
5848.0		6789.0		5848.0		941.0
2717.0		3039.0		2717.0		322.0
1426.0		1615.0		1426.0		189.0
1476.0		1665.0		1476.0		189.0
1.52<|#eta|<1.81
113690.0		143951.0		113690.0		30261.0
192022.0		239433.0		192022.0		47411.0
290849.0		364819.0		290849.0		73970.0
369300.0		464536.0		369300.0		95236.0
265708.0		320284.0		265708.0		54576.0
154755.0		183135.0		154755.0		28380.0
62582.0		72997.0		62582.0		10415.0
12755.0		14878.0		12755.0		2123.0
6059.0		6830.0		6059.0		771.0
2878.0		3108.0		2878.0		230.0
1452.0		1525.0		1452.0		73.0
1544.0		1642.0		1544.0		98.0
1.81<|#eta|<2.01
78066.0		96191.0		78066.0		18125.0
126408.0		154677.0		126408.0		28269.0
184368.0		221049.0		184368.0		36681.0
240411.0		279129.0		240411.0		38718.0
159981.0		189350.0		159981.0		29369.0
90635.0		105134.0		90635.0		14499.0
37147.0		41669.0		37147.0		4522.0
7297.0		8300.0		7297.0		1003.0
3361.0		3708.0		3361.0		347.0
1380.0		1516.0		1380.0		136.0
654.0		723.0		654.0		69.0
732.0		797.0		732.0		65.0
2.01<|#eta|<2.37
148321.0		171938.0		148321.0		23617.0
238024.0		266840.0		238024.0		28816.0
314603.0		352631.0		314603.0		38028.0
363829.0		412847.0		363829.0		49018.0
244458.0		272757.0		244458.0		28299.0
133827.0		149605.0		133827.0		15778.0
50394.0		57403.0		50394.0		7009.0
9528.0		10987.0		9528.0		1459.0
4518.0		4956.0		4518.0		438.0
1832.0		1956.0		1832.0		124.0
894.0		967.0		894.0		73.0
852.0		974.0		852.0		122.0
