0.00<|#eta|<0.60
335863.0		413109.0		335863.0		77246.0
629552.0		766305.0		629552.0		136753.0
986880.0		1205480.0		986880.0		218599.0
1300840.0		1582460.0		1300840.0		281626.0
903067.0		1055180.0		903067.0		152108.0
510344.0		592638.0		510344.0		82294.0
224598.0		254812.0		224598.0		30214.0
47125.0		52638.0		47125.0		5513.0
23205.0		24393.0		23205.0		1188.0
9898.0		10622.0		9898.0		724.0
5025.0		5357.0		5025.0		332.0
5323.0		5770.0		5323.0		447.0
0.60<|#eta|<0.80
96818.0		124486.0		96818.0		27668.0
209528.0		255996.0		209528.0		46468.0
330762.0		409638.0		330762.0		78876.0
417974.0		505608.0		417974.0		87634.0
288163.0		337397.0		288163.0		49234.0
160574.0		187491.0		160574.0		26917.0
70323.0		79655.0		70323.0		9332.0
14980.0		16589.0		14980.0		1609.0
7037.0		7493.0		7037.0		456.0
2933.0		3177.0		2933.0		244.0
1565.0		1696.0		1565.0		131.0
1707.0		1805.0		1707.0		98.0
0.80<|#eta|<1.15
159514.0		216726.0		159514.0		57212.0
289252.0		397139.0		289252.0		107887.0
484265.0		658748.0		484265.0		174483.0
648526.0		835279.0		648526.0		186753.0
428275.0		531503.0		428275.0		103228.0
235399.0		296729.0		235399.0		61330.0
102793.0		124301.0		102793.0		21508.0
21438.0		26414.0		21438.0		4976.0
10885.0		12159.0		10885.0		1274.0
4844.0		5385.0		4844.0		541.0
2394.0		2605.0		2394.0		211.0
2719.0		2950.0		2719.0		231.0
1.15<|#eta|<1.37
89614.0		125895.0		89614.0		36281.0
157237.0		215988.0		157237.0		58751.0
259608.0		353321.0		259608.0		93713.0
355710.0		470819.0		355710.0		115109.0
234457.0		297354.0		234457.0		62897.0
137695.0		167375.0		137695.0		29680.0
57722.0		68548.0		57722.0		10826.0
12140.0		14362.0		12140.0		2222.0
5857.0		6789.0		5857.0		932.0
2735.0		3039.0		2735.0		304.0
1440.0		1615.0		1440.0		175.0
1459.0		1665.0		1459.0		206.0
1.52<|#eta|<1.81
114712.0		143951.0		114712.0		29239.0
192995.0		239433.0		192995.0		46438.0
289331.0		364819.0		289331.0		75488.0
367744.0		464536.0		367744.0		96792.0
267239.0		320284.0		267239.0		53045.0
155604.0		183135.0		155604.0		27531.0
62287.0		72997.0		62287.0		10710.0
12755.0		14878.0		12755.0		2123.0
6042.0		6830.0		6042.0		788.0
2874.0		3108.0		2874.0		234.0
1458.0		1525.0		1458.0		67.0
1572.0		1642.0		1572.0		70.0
1.81<|#eta|<2.01
78102.0		96191.0		78102.0		18089.0
127376.0		154677.0		127376.0		27301.0
185257.0		221049.0		185257.0		35792.0
240791.0		279129.0		240791.0		38338.0
160091.0		189350.0		160091.0		29259.0
90341.0		105134.0		90341.0		14793.0
37061.0		41669.0		37061.0		4608.0
7355.0		8300.0		7355.0		945.0
3318.0		3708.0		3318.0		390.0
1368.0		1516.0		1368.0		148.0
668.0		723.0		668.0		55.0
739.0		797.0		739.0		58.0
2.01<|#eta|<2.37
149209.0		171938.0		149209.0		22729.0
236730.0		266840.0		236730.0		30110.0
315171.0		352631.0		315171.0		37460.0
363936.0		412847.0		363936.0		48911.0
244942.0		272757.0		244942.0		27815.0
134045.0		149605.0		134045.0		15560.0
50461.0		57403.0		50461.0		6942.0
9676.0		10987.0		9676.0		1311.0
4549.0		4956.0		4549.0		407.0
1848.0		1956.0		1848.0		108.0
884.0		967.0		884.0		83.0
854.0		974.0		854.0		120.0
