0.00<|#eta|<0.60
334408.0		413109.0		334408.0		78701.0
632066.0		766305.0		632066.0		134239.0
988440.0		1205480.0		988440.0		217041.0
1302350.0		1582460.0		1302350.0		280101.0
904588.0		1055180.0		904588.0		150591.0
510733.0		592638.0		510733.0		81905.0
224712.0		254812.0		224712.0		30100.0
47033.0		52638.0		47033.0		5605.0
23196.0		24393.0		23196.0		1197.0
9898.0		10622.0		9898.0		724.0
5016.0		5357.0		5016.0		341.0
5344.0		5770.0		5344.0		426.0
0.60<|#eta|<0.80
97418.0		124486.0		97418.0		27068.0
211184.0		255996.0		211184.0		44812.0
330022.0		409638.0		330022.0		79616.0
417250.0		505608.0		417250.0		88358.0
288082.0		337397.0		288082.0		49315.0
161698.0		187491.0		161698.0		25793.0
70707.0		79655.0		70707.0		8948.0
14957.0		16589.0		14957.0		1632.0
6986.0		7493.0		6986.0		507.0
2988.0		3177.0		2988.0		189.0
1584.0		1696.0		1584.0		112.0
1674.0		1805.0		1674.0		131.0
0.80<|#eta|<1.15
160393.0		216726.0		160393.0		56333.0
287573.0		397139.0		287573.0		109566.0
482364.0		658748.0		482364.0		176384.0
646666.0		835279.0		646666.0		188613.0
426686.0		531503.0		426686.0		104817.0
235419.0		296729.0		235419.0		61310.0
103436.0		124301.0		103436.0		20865.0
21491.0		26414.0		21491.0		4923.0
10891.0		12159.0		10891.0		1268.0
4823.0		5385.0		4823.0		562.0
2387.0		2605.0		2387.0		218.0
2717.0		2950.0		2717.0		233.0
1.15<|#eta|<1.37
89422.0		125895.0		89422.0		36473.0
158026.0		215988.0		158026.0		57962.0
257700.0		353321.0		257700.0		95621.0
354652.0		470819.0		354652.0		116167.0
234813.0		297354.0		234813.0		62541.0
137179.0		167375.0		137179.0		30196.0
57452.0		68548.0		57452.0		11096.0
12187.0		14362.0		12187.0		2175.0
5810.0		6789.0		5810.0		979.0
2699.0		3039.0		2699.0		340.0
1427.0		1615.0		1427.0		188.0
1465.0		1665.0		1465.0		200.0
1.52<|#eta|<1.81
114492.0		143951.0		114492.0		29459.0
192392.0		239433.0		192392.0		47041.0
288963.0		364819.0		288963.0		75856.0
369010.0		464536.0		369010.0		95526.0
267364.0		320284.0		267364.0		52920.0
154924.0		183135.0		154924.0		28211.0
62246.0		72997.0		62246.0		10751.0
12850.0		14878.0		12850.0		2028.0
6023.0		6830.0		6023.0		807.0
2890.0		3108.0		2890.0		218.0
1455.0		1525.0		1455.0		70.0
1558.0		1642.0		1558.0		84.0
1.81<|#eta|<2.01
78060.0		96191.0		78060.0		18131.0
127372.0		154677.0		127372.0		27305.0
185067.0		221049.0		185067.0		35982.0
239471.0		279129.0		239471.0		39658.0
161051.0		189350.0		161051.0		28299.0
90552.0		105134.0		90552.0		14582.0
37024.0		41669.0		37024.0		4645.0
7384.0		8300.0		7384.0		916.0
3335.0		3708.0		3335.0		373.0
1347.0		1516.0		1347.0		169.0
666.0		723.0		666.0		57.0
746.0		797.0		746.0		51.0
2.01<|#eta|<2.37
147964.0		171938.0		147964.0		23974.0
237696.0		266840.0		237696.0		29144.0
315670.0		352631.0		315670.0		36961.0
364205.0		412847.0		364205.0		48642.0
243510.0		272757.0		243510.0		29247.0
134230.0		149605.0		134230.0		15375.0
50665.0		57403.0		50665.0		6738.0
9531.0		10987.0		9531.0		1456.0
4534.0		4956.0		4534.0		422.0
1835.0		1956.0		1835.0		121.0
906.0		967.0		906.0		61.0
866.0		974.0		866.0		108.0
