0.00<|#eta|<0.60
335317.0		413109.0		335317.0		77792.0
628859.0		766305.0		628859.0		137446.0
985180.0		1205480.0		985180.0		220312.0
1302250.0		1582460.0		1302250.0		280203.0
901588.0		1055180.0		901588.0		153587.0
511058.0		592638.0		511058.0		81580.0
224376.0		254812.0		224376.0		30436.0
47231.0		52638.0		47231.0		5407.0
23141.0		24393.0		23141.0		1252.0
9950.0		10622.0		9950.0		672.0
4992.0		5357.0		4992.0		365.0
5328.0		5770.0		5328.0		442.0
0.60<|#eta|<0.80
97578.0		124486.0		97578.0		26908.0
208505.0		255996.0		208505.0		47491.0
330790.0		409638.0		330790.0		78848.0
418210.0		505608.0		418210.0		87398.0
288176.0		337397.0		288176.0		49221.0
160354.0		187491.0		160354.0		27137.0
70746.0		79655.0		70746.0		8909.0
14891.0		16589.0		14891.0		1698.0
7043.0		7493.0		7043.0		450.0
2939.0		3177.0		2939.0		238.0
1619.0		1696.0		1619.0		77.0
1696.0		1805.0		1696.0		109.0
0.80<|#eta|<1.15
160279.0		216726.0		160279.0		56447.0
290648.0		397139.0		290648.0		106491.0
483071.0		658748.0		483071.0		175677.0
647345.0		835279.0		647345.0		187934.0
428998.0		531503.0		428998.0		102505.0
235917.0		296729.0		235917.0		60812.0
102905.0		124301.0		102905.0		21396.0
21600.0		26414.0		21600.0		4814.0
10812.0		12159.0		10812.0		1347.0
4812.0		5385.0		4812.0		573.0
2357.0		2605.0		2357.0		248.0
2675.0		2950.0		2675.0		275.0
1.15<|#eta|<1.37
89389.0		125895.0		89389.0		36506.0
158691.0		215988.0		158691.0		57297.0
257235.0		353321.0		257235.0		96086.0
353779.0		470819.0		353779.0		117040.0
234620.0		297354.0		234620.0		62734.0
137611.0		167375.0		137611.0		29764.0
57416.0		68548.0		57416.0		11132.0
12262.0		14362.0		12262.0		2100.0
5860.0		6789.0		5860.0		929.0
2754.0		3039.0		2754.0		285.0
1423.0		1615.0		1423.0		192.0
1444.0		1665.0		1444.0		221.0
1.52<|#eta|<1.81
115065.0		143951.0		115065.0		28886.0
191777.0		239433.0		191777.0		47656.0
290118.0		364819.0		290118.0		74701.0
369063.0		464536.0		369063.0		95473.0
267613.0		320284.0		267613.0		52671.0
154535.0		183135.0		154535.0		28600.0
62459.0		72997.0		62459.0		10538.0
12846.0		14878.0		12846.0		2032.0
6036.0		6830.0		6036.0		794.0
2878.0		3108.0		2878.0		230.0
1466.0		1525.0		1466.0		59.0
1564.0		1642.0		1564.0		78.0
1.81<|#eta|<2.01
77788.0		96191.0		77788.0		18403.0
126545.0		154677.0		126545.0		28132.0
184995.0		221049.0		184995.0		36054.0
239399.0		279129.0		239399.0		39730.0
160260.0		189350.0		160260.0		29090.0
90920.0		105134.0		90920.0		14214.0
36995.0		41669.0		36995.0		4674.0
7362.0		8300.0		7362.0		938.0
3347.0		3708.0		3347.0		361.0
1368.0		1516.0		1368.0		148.0
656.0		723.0		656.0		67.0
744.0		797.0		744.0		53.0
2.01<|#eta|<2.37
148133.0		171938.0		148133.0		23805.0
236187.0		266840.0		236187.0		30653.0
314956.0		352631.0		314956.0		37675.0
362970.0		412847.0		362970.0		49877.0
244766.0		272757.0		244766.0		27991.0
134222.0		149605.0		134222.0		15383.0
50708.0		57403.0		50708.0		6695.0
9535.0		10987.0		9535.0		1452.0
4519.0		4956.0		4519.0		437.0
1830.0		1956.0		1830.0		126.0
900.0		967.0		900.0		67.0
868.0		974.0		868.0		106.0
