0.00<|#eta|<0.60
335184.0		413109.0		335184.0		77925.0
630009.0		766305.0		630009.0		136296.0
987480.0		1205480.0		987480.0		218007.0
1305560.0		1582460.0		1305560.0		276908.0
902815.0		1055180.0		902815.0		152360.0
510191.0		592638.0		510191.0		82447.0
224552.0		254812.0		224552.0		30260.0
46866.0		52638.0		46866.0		5772.0
23231.0		24393.0		23231.0		1162.0
9919.0		10622.0		9919.0		703.0
5024.0		5357.0		5024.0		333.0
5341.0		5770.0		5341.0		429.0
0.60<|#eta|<0.80
97050.0		124486.0		97050.0		27436.0
210134.0		255996.0		210134.0		45862.0
330911.0		409638.0		330911.0		78727.0
419621.0		505608.0		419621.0		85987.0
288474.0		337397.0		288474.0		48923.0
160692.0		187491.0		160692.0		26799.0
70649.0		79655.0		70649.0		9006.0
14920.0		16589.0		14920.0		1669.0
7061.0		7493.0		7061.0		432.0
2950.0		3177.0		2950.0		227.0
1585.0		1696.0		1585.0		111.0
1711.0		1805.0		1711.0		94.0
0.80<|#eta|<1.15
160205.0		216726.0		160205.0		56521.0
288811.0		397139.0		288811.0		108328.0
482689.0		658748.0		482689.0		176059.0
647258.0		835279.0		647258.0		188021.0
428216.0		531503.0		428216.0		103287.0
235527.0		296729.0		235527.0		61202.0
102742.0		124301.0		102742.0		21559.0
21565.0		26414.0		21565.0		4849.0
10830.0		12159.0		10830.0		1329.0
4802.0		5385.0		4802.0		583.0
2395.0		2605.0		2395.0		210.0
2682.0		2950.0		2682.0		268.0
1.15<|#eta|<1.37
90238.0		125895.0		90238.0		35657.0
158220.0		215988.0		158220.0		57768.0
259528.0		353321.0		259528.0		93793.0
354060.0		470819.0		354060.0		116759.0
234397.0		297354.0		234397.0		62957.0
137256.0		167375.0		137256.0		30119.0
57428.0		68548.0		57428.0		11120.0
12179.0		14362.0		12179.0		2183.0
5822.0		6789.0		5822.0		967.0
2716.0		3039.0		2716.0		323.0
1413.0		1615.0		1413.0		202.0
1486.0		1665.0		1486.0		179.0
1.52<|#eta|<1.81
115177.0		143951.0		115177.0		28774.0
191322.0		239433.0		191322.0		48111.0
288118.0		364819.0		288118.0		76701.0
370193.0		464536.0		370193.0		94343.0
265800.0		320284.0		265800.0		54484.0
155007.0		183135.0		155007.0		28128.0
62395.0		72997.0		62395.0		10602.0
12809.0		14878.0		12809.0		2069.0
6088.0		6830.0		6088.0		742.0
2877.0		3108.0		2877.0		231.0
1451.0		1525.0		1451.0		74.0
1549.0		1642.0		1549.0		93.0
1.81<|#eta|<2.01
77547.0		96191.0		77547.0		18644.0
127337.0		154677.0		127337.0		27340.0
184120.0		221049.0		184120.0		36929.0
241381.0		279129.0		241381.0		37748.0
160193.0		189350.0		160193.0		29157.0
90706.0		105134.0		90706.0		14428.0
37060.0		41669.0		37060.0		4609.0
7376.0		8300.0		7376.0		924.0
3345.0		3708.0		3345.0		363.0
1371.0		1516.0		1371.0		145.0
674.0		723.0		674.0		49.0
743.0		797.0		743.0		54.0
2.01<|#eta|<2.37
148444.0		171938.0		148444.0		23494.0
237058.0		266840.0		237058.0		29782.0
314917.0		352631.0		314917.0		37714.0
363631.0		412847.0		363631.0		49216.0
244838.0		272757.0		244838.0		27919.0
134361.0		149605.0		134361.0		15244.0
50274.0		57403.0		50274.0		7129.0
9601.0		10987.0		9601.0		1386.0
4480.0		4956.0		4480.0		476.0
1818.0		1956.0		1818.0		138.0
897.0		967.0		897.0		70.0
860.0		974.0		860.0		114.0
