0.00<|#eta|<0.60
336176.0		413109.0		336176.0		76933.0
629500.0		766305.0		629500.0		136805.0
986170.0		1205480.0		986170.0		219306.0
1301910.0		1582460.0		1301910.0		280551.0
901959.0		1055180.0		901959.0		153216.0
510505.0		592638.0		510505.0		82133.0
225189.0		254812.0		225189.0		29623.0
47130.0		52638.0		47130.0		5508.0
23242.0		24393.0		23242.0		1151.0
9936.0		10622.0		9936.0		686.0
4985.0		5357.0		4985.0		372.0
5329.0		5770.0		5329.0		441.0
0.60<|#eta|<0.80
96416.0		124486.0		96416.0		28070.0
209575.0		255996.0		209575.0		46421.0
331562.0		409638.0		331562.0		78076.0
419257.0		505608.0		419257.0		86351.0
287752.0		337397.0		287752.0		49645.0
160826.0		187491.0		160826.0		26665.0
70582.0		79655.0		70582.0		9073.0
14903.0		16589.0		14903.0		1686.0
7096.0		7493.0		7096.0		397.0
2934.0		3177.0		2934.0		243.0
1583.0		1696.0		1583.0		113.0
1694.0		1805.0		1694.0		111.0
0.80<|#eta|<1.15
160061.0		216726.0		160061.0		56665.0
288931.0		397139.0		288931.0		108208.0
483843.0		658748.0		483843.0		174905.0
647926.0		835279.0		647926.0		187353.0
427027.0		531503.0		427027.0		104476.0
236578.0		296729.0		236578.0		60151.0
103097.0		124301.0		103097.0		21204.0
21491.0		26414.0		21491.0		4923.0
10892.0		12159.0		10892.0		1267.0
4789.0		5385.0		4789.0		596.0
2387.0		2605.0		2387.0		218.0
2692.0		2950.0		2692.0		258.0
1.15<|#eta|<1.37
90228.0		125895.0		90228.0		35667.0
157670.0		215988.0		157670.0		58318.0
258419.0		353321.0		258419.0		94902.0
354730.0		470819.0		354730.0		116089.0
235013.0		297354.0		235013.0		62341.0
137288.0		167375.0		137288.0		30087.0
57467.0		68548.0		57467.0		11081.0
12094.0		14362.0		12094.0		2268.0
5831.0		6789.0		5831.0		958.0
2723.0		3039.0		2723.0		316.0
1449.0		1615.0		1449.0		166.0
1470.0		1665.0		1470.0		195.0
1.52<|#eta|<1.81
114723.0		143951.0		114723.0		29228.0
190341.0		239433.0		190341.0		49092.0
289414.0		364819.0		289414.0		75405.0
368708.0		464536.0		368708.0		95828.0
266697.0		320284.0		266697.0		53587.0
154595.0		183135.0		154595.0		28540.0
62420.0		72997.0		62420.0		10577.0
12704.0		14878.0		12704.0		2174.0
6027.0		6830.0		6027.0		803.0
2883.0		3108.0		2883.0		225.0
1443.0		1525.0		1443.0		82.0
1565.0		1642.0		1565.0		77.0
1.81<|#eta|<2.01
77587.0		96191.0		77587.0		18604.0
127087.0		154677.0		127087.0		27590.0
184539.0		221049.0		184539.0		36510.0
240922.0		279129.0		240922.0		38207.0
159612.0		189350.0		159612.0		29738.0
90389.0		105134.0		90389.0		14745.0
36937.0		41669.0		36937.0		4732.0
7334.0		8300.0		7334.0		966.0
3344.0		3708.0		3344.0		364.0
1365.0		1516.0		1365.0		151.0
655.0		723.0		655.0		68.0
738.0		797.0		738.0		59.0
2.01<|#eta|<2.37
147737.0		171938.0		147737.0		24201.0
237674.0		266840.0		237674.0		29166.0
317603.0		352631.0		317603.0		35028.0
363492.0		412847.0		363492.0		49355.0
244447.0		272757.0		244447.0		28310.0
134155.0		149605.0		134155.0		15450.0
50295.0		57403.0		50295.0		7108.0
9602.0		10987.0		9602.0		1385.0
4522.0		4956.0		4522.0		434.0
1849.0		1956.0		1849.0		107.0
893.0		967.0		893.0		74.0
868.0		974.0		868.0		106.0
