0.00<|#eta|<0.60
335217.0		413109.0		335217.0		77892.0
626687.0		766305.0		626687.0		139618.0
990150.0		1205480.0		990150.0		215329.0
1303040.0		1582460.0		1303040.0		279422.0
900902.0		1055180.0		900902.0		154273.0
509816.0		592638.0		509816.0		82822.0
224329.0		254812.0		224329.0		30483.0
47168.0		52638.0		47168.0		5470.0
23144.0		24393.0		23144.0		1249.0
9879.0		10622.0		9879.0		743.0
5003.0		5357.0		5003.0		354.0
5331.0		5770.0		5331.0		439.0
0.60<|#eta|<0.80
97031.0		124486.0		97031.0		27455.0
209651.0		255996.0		209651.0		46345.0
332237.0		409638.0		332237.0		77401.0
418389.0		505608.0		418389.0		87219.0
287696.0		337397.0		287696.0		49701.0
160771.0		187491.0		160771.0		26720.0
70606.0		79655.0		70606.0		9049.0
14913.0		16589.0		14913.0		1676.0
7050.0		7493.0		7050.0		443.0
2988.0		3177.0		2988.0		189.0
1588.0		1696.0		1588.0		108.0
1693.0		1805.0		1693.0		112.0
0.80<|#eta|<1.15
159914.0		216726.0		159914.0		56812.0
288494.0		397139.0		288494.0		108645.0
481038.0		658748.0		481038.0		177710.0
648939.0		835279.0		648939.0		186340.0
426061.0		531503.0		426061.0		105442.0
236114.0		296729.0		236114.0		60615.0
103177.0		124301.0		103177.0		21124.0
21478.0		26414.0		21478.0		4936.0
10937.0		12159.0		10937.0		1222.0
4831.0		5385.0		4831.0		554.0
2375.0		2605.0		2375.0		230.0
2698.0		2950.0		2698.0		252.0
1.15<|#eta|<1.37
89094.0		125895.0		89094.0		36801.0
157621.0		215988.0		157621.0		58367.0
257520.0		353321.0		257520.0		95801.0
354344.0		470819.0		354344.0		116475.0
234543.0		297354.0		234543.0		62811.0
136789.0		167375.0		136789.0		30586.0
57253.0		68548.0		57253.0		11295.0
12183.0		14362.0		12183.0		2179.0
5844.0		6789.0		5844.0		945.0
2713.0		3039.0		2713.0		326.0
1418.0		1615.0		1418.0		197.0
1446.0		1665.0		1446.0		219.0
1.52<|#eta|<1.81
114231.0		143951.0		114231.0		29720.0
191962.0		239433.0		191962.0		47471.0
290074.0		364819.0		290074.0		74745.0
369228.0		464536.0		369228.0		95308.0
267181.0		320284.0		267181.0		53103.0
154176.0		183135.0		154176.0		28959.0
62286.0		72997.0		62286.0		10711.0
12789.0		14878.0		12789.0		2089.0
6025.0		6830.0		6025.0		805.0
2862.0		3108.0		2862.0		246.0
1455.0		1525.0		1455.0		70.0
1566.0		1642.0		1566.0		76.0
1.81<|#eta|<2.01
78045.0		96191.0		78045.0		18146.0
125694.0		154677.0		125694.0		28983.0
185110.0		221049.0		185110.0		35939.0
240780.0		279129.0		240780.0		38349.0
161135.0		189350.0		161135.0		28215.0
90425.0		105134.0		90425.0		14709.0
36856.0		41669.0		36856.0		4813.0
7335.0		8300.0		7335.0		965.0
3290.0		3708.0		3290.0		418.0
1365.0		1516.0		1365.0		151.0
660.0		723.0		660.0		63.0
745.0		797.0		745.0		52.0
2.01<|#eta|<2.37
147982.0		171938.0		147982.0		23956.0
238005.0		266840.0		238005.0		28835.0
315715.0		352631.0		315715.0		36916.0
363887.0		412847.0		363887.0		48960.0
244047.0		272757.0		244047.0		28710.0
134416.0		149605.0		134416.0		15189.0
50402.0		57403.0		50402.0		7001.0
9526.0		10987.0		9526.0		1461.0
4532.0		4956.0		4532.0		424.0
1830.0		1956.0		1830.0		126.0
903.0		967.0		903.0		64.0
848.0		974.0		848.0		126.0
