0.00<|#eta|<0.60
334113.0		413109.0		334113.0		78996.0
630181.0		766305.0		630181.0		136124.0
986260.0		1205480.0		986260.0		219223.0
1300470.0		1582460.0		1300470.0		281981.0
903131.0		1055180.0		903131.0		152044.0
510153.0		592638.0		510153.0		82485.0
224279.0		254812.0		224279.0		30533.0
47191.0		52638.0		47191.0		5447.0
23230.0		24393.0		23230.0		1163.0
9979.0		10622.0		9979.0		643.0
5015.0		5357.0		5015.0		342.0
5299.0		5770.0		5299.0		471.0
0.60<|#eta|<0.80
96408.0		124486.0		96408.0		28078.0
209448.0		255996.0		209448.0		46548.0
331622.0		409638.0		331622.0		78016.0
419951.0		505608.0		419951.0		85657.0
288653.0		337397.0		288653.0		48744.0
160937.0		187491.0		160937.0		26554.0
70824.0		79655.0		70824.0		8831.0
14914.0		16589.0		14914.0		1675.0
7053.0		7493.0		7053.0		440.0
2943.0		3177.0		2943.0		234.0
1590.0		1696.0		1590.0		106.0
1695.0		1805.0		1695.0		110.0
0.80<|#eta|<1.15
159239.0		216726.0		159239.0		57487.0
288363.0		397139.0		288363.0		108776.0
480835.0		658748.0		480835.0		177913.0
650108.0		835279.0		650108.0		185171.0
427544.0		531503.0		427544.0		103959.0
236072.0		296729.0		236072.0		60657.0
103120.0		124301.0		103120.0		21181.0
21457.0		26414.0		21457.0		4957.0
10884.0		12159.0		10884.0		1275.0
4847.0		5385.0		4847.0		538.0
2383.0		2605.0		2383.0		222.0
2715.0		2950.0		2715.0		235.0
1.15<|#eta|<1.37
90354.0		125895.0		90354.0		35541.0
158559.0		215988.0		158559.0		57429.0
256564.0		353321.0		256564.0		96757.0
354740.0		470819.0		354740.0		116079.0
234743.0		297354.0		234743.0		62611.0
137446.0		167375.0		137446.0		29929.0
57403.0		68548.0		57403.0		11145.0
12193.0		14362.0		12193.0		2169.0
5821.0		6789.0		5821.0		968.0
2741.0		3039.0		2741.0		298.0
1456.0		1615.0		1456.0		159.0
1462.0		1665.0		1462.0		203.0
1.52<|#eta|<1.81
114266.0		143951.0		114266.0		29685.0
190875.0		239433.0		190875.0		48558.0
288602.0		364819.0		288602.0		76217.0
370066.0		464536.0		370066.0		94470.0
265487.0		320284.0		265487.0		54797.0
154772.0		183135.0		154772.0		28363.0
62284.0		72997.0		62284.0		10713.0
12869.0		14878.0		12869.0		2009.0
6085.0		6830.0		6085.0		745.0
2877.0		3108.0		2877.0		231.0
1448.0		1525.0		1448.0		77.0
1560.0		1642.0		1560.0		82.0
1.81<|#eta|<2.01
78505.0		96191.0		78505.0		17686.0
126746.0		154677.0		126746.0		27931.0
185531.0		221049.0		185531.0		35518.0
239822.0		279129.0		239822.0		39307.0
159525.0		189350.0		159525.0		29825.0
90413.0		105134.0		90413.0		14721.0
36973.0		41669.0		36973.0		4696.0
7397.0		8300.0		7397.0		903.0
3350.0		3708.0		3350.0		358.0
1394.0		1516.0		1394.0		122.0
651.0		723.0		651.0		72.0
746.0		797.0		746.0		51.0
2.01<|#eta|<2.37
148750.0		171938.0		148750.0		23188.0
236178.0		266840.0		236178.0		30662.0
315360.0		352631.0		315360.0		37271.0
364038.0		412847.0		364038.0		48809.0
245452.0		272757.0		245452.0		27305.0
134246.0		149605.0		134246.0		15359.0
50403.0		57403.0		50403.0		7000.0
9482.0		10987.0		9482.0		1505.0
4552.0		4956.0		4552.0		404.0
1811.0		1956.0		1811.0		145.0
908.0		967.0		908.0		59.0
870.0		974.0		870.0		104.0
