0.00<|#eta|<0.60
335627.0		413109.0		335627.0		77482.0
630776.0		766305.0		630776.0		135529.0
986290.0		1205480.0		986290.0		219190.0
1303130.0		1582460.0		1303130.0		279325.0
903502.0		1055180.0		903502.0		151677.0
509949.0		592638.0		509949.0		82689.0
224587.0		254812.0		224587.0		30225.0
47038.0		52638.0		47038.0		5600.0
23220.0		24393.0		23220.0		1173.0
9934.0		10622.0		9934.0		688.0
4958.0		5357.0		4958.0		399.0
5360.0		5770.0		5360.0		410.0
0.60<|#eta|<0.80
96987.0		124486.0		96987.0		27499.0
210135.0		255996.0		210135.0		45861.0
331998.0		409638.0		331998.0		77640.0
418966.0		505608.0		418966.0		86642.0
289575.0		337397.0		289575.0		47822.0
160658.0		187491.0		160658.0		26833.0
70591.0		79655.0		70591.0		9064.0
14983.0		16589.0		14983.0		1606.0
7056.0		7493.0		7056.0		437.0
2986.0		3177.0		2986.0		191.0
1604.0		1696.0		1604.0		92.0
1711.0		1805.0		1711.0		94.0
0.80<|#eta|<1.15
160825.0		216726.0		160825.0		55901.0
288181.0		397139.0		288181.0		108958.0
481853.0		658748.0		481853.0		176895.0
648426.0		835279.0		648426.0		186853.0
429287.0		531503.0		429287.0		102216.0
235947.0		296729.0		235947.0		60782.0
103122.0		124301.0		103122.0		21179.0
21503.0		26414.0		21503.0		4911.0
10869.0		12159.0		10869.0		1290.0
4792.0		5385.0		4792.0		593.0
2391.0		2605.0		2391.0		214.0
2681.0		2950.0		2681.0		269.0
1.15<|#eta|<1.37
90294.0		125895.0		90294.0		35601.0
158719.0		215988.0		158719.0		57269.0
255893.0		353321.0		255893.0		97428.0
354202.0		470819.0		354202.0		116617.0
234174.0		297354.0		234174.0		63180.0
137381.0		167375.0		137381.0		29994.0
57566.0		68548.0		57566.0		10982.0
12170.0		14362.0		12170.0		2192.0
5799.0		6789.0		5799.0		990.0
2715.0		3039.0		2715.0		324.0
1440.0		1615.0		1440.0		175.0
1472.0		1665.0		1472.0		193.0
1.52<|#eta|<1.81
114622.0		143951.0		114622.0		29329.0
192466.0		239433.0		192466.0		46967.0
288125.0		364819.0		288125.0		76694.0
371090.0		464536.0		371090.0		93446.0
266545.0		320284.0		266545.0		53739.0
154474.0		183135.0		154474.0		28661.0
62029.0		72997.0		62029.0		10968.0
12822.0		14878.0		12822.0		2056.0
6042.0		6830.0		6042.0		788.0
2858.0		3108.0		2858.0		250.0
1448.0		1525.0		1448.0		77.0
1543.0		1642.0		1543.0		99.0
1.81<|#eta|<2.01
78660.0		96191.0		78660.0		17531.0
126137.0		154677.0		126137.0		28540.0
185078.0		221049.0		185078.0		35971.0
239577.0		279129.0		239577.0		39552.0
160825.0		189350.0		160825.0		28525.0
90237.0		105134.0		90237.0		14897.0
37166.0		41669.0		37166.0		4503.0
7356.0		8300.0		7356.0		944.0
3367.0		3708.0		3367.0		341.0
1382.0		1516.0		1382.0		134.0
659.0		723.0		659.0		64.0
739.0		797.0		739.0		58.0
2.01<|#eta|<2.37
148657.0		171938.0		148657.0		23281.0
237274.0		266840.0		237274.0		29566.0
314472.0		352631.0		314472.0		38159.0
364619.0		412847.0		364619.0		48228.0
245263.0		272757.0		245263.0		27494.0
134313.0		149605.0		134313.0		15292.0
50274.0		57403.0		50274.0		7129.0
9644.0		10987.0		9644.0		1343.0
4515.0		4956.0		4515.0		441.0
1838.0		1956.0		1838.0		118.0
898.0		967.0		898.0		69.0
859.0		974.0		859.0		115.0
