0.00<|#eta|<0.60
334952.0		413109.0		334952.0		78157.0
628235.0		766305.0		628235.0		138070.0
988110.0		1205480.0		988110.0		217373.0
1301530.0		1582460.0		1301530.0		280932.0
902697.0		1055180.0		902697.0		152478.0
510203.0		592638.0		510203.0		82435.0
224864.0		254812.0		224864.0		29948.0
47053.0		52638.0		47053.0		5585.0
23131.0		24393.0		23131.0		1262.0
9891.0		10622.0		9891.0		731.0
4986.0		5357.0		4986.0		371.0
5360.0		5770.0		5360.0		410.0
0.60<|#eta|<0.80
97171.0		124486.0		97171.0		27315.0
211749.0		255996.0		211749.0		44247.0
328335.0		409638.0		328335.0		81303.0
419789.0		505608.0		419789.0		85819.0
288570.0		337397.0		288570.0		48827.0
160858.0		187491.0		160858.0		26633.0
70872.0		79655.0		70872.0		8783.0
14987.0		16589.0		14987.0		1602.0
7068.0		7493.0		7068.0		425.0
2954.0		3177.0		2954.0		223.0
1575.0		1696.0		1575.0		121.0
1687.0		1805.0		1687.0		118.0
0.80<|#eta|<1.15
160747.0		216726.0		160747.0		55979.0
288438.0		397139.0		288438.0		108701.0
480419.0		658748.0		480419.0		178329.0
647751.0		835279.0		647751.0		187528.0
428794.0		531503.0		428794.0		102709.0
235834.0		296729.0		235834.0		60895.0
102988.0		124301.0		102988.0		21313.0
21436.0		26414.0		21436.0		4978.0
10808.0		12159.0		10808.0		1351.0
4816.0		5385.0		4816.0		569.0
2414.0		2605.0		2414.0		191.0
2701.0		2950.0		2701.0		249.0
1.15<|#eta|<1.37
89385.0		125895.0		89385.0		36510.0
157681.0		215988.0		157681.0		58307.0
256744.0		353321.0		256744.0		96577.0
353110.0		470819.0		353110.0		117709.0
234295.0		297354.0		234295.0		63059.0
137082.0		167375.0		137082.0		30293.0
57445.0		68548.0		57445.0		11103.0
12137.0		14362.0		12137.0		2225.0
5850.0		6789.0		5850.0		939.0
2722.0		3039.0		2722.0		317.0
1447.0		1615.0		1447.0		168.0
1465.0		1665.0		1465.0		200.0
1.52<|#eta|<1.81
114645.0		143951.0		114645.0		29306.0
193504.0		239433.0		193504.0		45929.0
289054.0		364819.0		289054.0		75765.0
369985.0		464536.0		369985.0		94551.0
267454.0		320284.0		267454.0		52830.0
155311.0		183135.0		155311.0		27824.0
62396.0		72997.0		62396.0		10601.0
12822.0		14878.0		12822.0		2056.0
6067.0		6830.0		6067.0		763.0
2872.0		3108.0		2872.0		236.0
1460.0		1525.0		1460.0		65.0
1568.0		1642.0		1568.0		74.0
1.81<|#eta|<2.01
77729.0		96191.0		77729.0		18462.0
126311.0		154677.0		126311.0		28366.0
184490.0		221049.0		184490.0		36559.0
240116.0		279129.0		240116.0		39013.0
160541.0		189350.0		160541.0		28809.0
90386.0		105134.0		90386.0		14748.0
37020.0		41669.0		37020.0		4649.0
7289.0		8300.0		7289.0		1011.0
3325.0		3708.0		3325.0		383.0
1380.0		1516.0		1380.0		136.0
641.0		723.0		641.0		82.0
739.0		797.0		739.0		58.0
2.01<|#eta|<2.37
148346.0		171938.0		148346.0		23592.0
237354.0		266840.0		237354.0		29486.0
316664.0		352631.0		316664.0		35967.0
365193.0		412847.0		365193.0		47654.0
246219.0		272757.0		246219.0		26538.0
134178.0		149605.0		134178.0		15427.0
50424.0		57403.0		50424.0		6979.0
9557.0		10987.0		9557.0		1430.0
4548.0		4956.0		4548.0		408.0
1825.0		1956.0		1825.0		131.0
898.0		967.0		898.0		69.0
870.0		974.0		870.0		104.0
