0.00<|#eta|<0.60
335168.0		413109.0		335168.0		77941.0
632639.0		766305.0		632639.0		133666.0
987950.0		1205480.0		987950.0		217535.0
1299480.0		1582460.0		1299480.0		282973.0
903206.0		1055180.0		903206.0		151969.0
511157.0		592638.0		511157.0		81481.0
224089.0		254812.0		224089.0		30723.0
47131.0		52638.0		47131.0		5507.0
23259.0		24393.0		23259.0		1134.0
9943.0		10622.0		9943.0		679.0
4984.0		5357.0		4984.0		373.0
5377.0		5770.0		5377.0		393.0
0.60<|#eta|<0.80
96743.0		124486.0		96743.0		27743.0
210487.0		255996.0		210487.0		45509.0
331539.0		409638.0		331539.0		78099.0
418965.0		505608.0		418965.0		86643.0
288857.0		337397.0		288857.0		48540.0
160406.0		187491.0		160406.0		27085.0
70784.0		79655.0		70784.0		8871.0
14942.0		16589.0		14942.0		1647.0
7035.0		7493.0		7035.0		458.0
2962.0		3177.0		2962.0		215.0
1605.0		1696.0		1605.0		91.0
1669.0		1805.0		1669.0		136.0
0.80<|#eta|<1.15
159495.0		216726.0		159495.0		57231.0
287913.0		397139.0		287913.0		109226.0
482403.0		658748.0		482403.0		176345.0
648326.0		835279.0		648326.0		186953.0
427732.0		531503.0		427732.0		103771.0
234826.0		296729.0		234826.0		61903.0
103334.0		124301.0		103334.0		20967.0
21488.0		26414.0		21488.0		4926.0
10810.0		12159.0		10810.0		1349.0
4818.0		5385.0		4818.0		567.0
2378.0		2605.0		2378.0		227.0
2693.0		2950.0		2693.0		257.0
1.15<|#eta|<1.37
89746.0		125895.0		89746.0		36149.0
156432.0		215988.0		156432.0		59556.0
258763.0		353321.0		258763.0		94558.0
350652.0		470819.0		350652.0		120167.0
234692.0		297354.0		234692.0		62662.0
137066.0		167375.0		137066.0		30309.0
57377.0		68548.0		57377.0		11171.0
12208.0		14362.0		12208.0		2154.0
5830.0		6789.0		5830.0		959.0
2751.0		3039.0		2751.0		288.0
1446.0		1615.0		1446.0		169.0
1455.0		1665.0		1455.0		210.0
1.52<|#eta|<1.81
114266.0		143951.0		114266.0		29685.0
191966.0		239433.0		191966.0		47467.0
288714.0		364819.0		288714.0		76105.0
367863.0		464536.0		367863.0		96673.0
268772.0		320284.0		268772.0		51512.0
155041.0		183135.0		155041.0		28094.0
62122.0		72997.0		62122.0		10875.0
12862.0		14878.0		12862.0		2016.0
6034.0		6830.0		6034.0		796.0
2884.0		3108.0		2884.0		224.0
1453.0		1525.0		1453.0		72.0
1560.0		1642.0		1560.0		82.0
1.81<|#eta|<2.01
78220.0		96191.0		78220.0		17971.0
126295.0		154677.0		126295.0		28382.0
184591.0		221049.0		184591.0		36458.0
240287.0		279129.0		240287.0		38842.0
159797.0		189350.0		159797.0		29553.0
90607.0		105134.0		90607.0		14527.0
37131.0		41669.0		37131.0		4538.0
7339.0		8300.0		7339.0		961.0
3345.0		3708.0		3345.0		363.0
1363.0		1516.0		1363.0		153.0
665.0		723.0		665.0		58.0
737.0		797.0		737.0		60.0
2.01<|#eta|<2.37
149007.0		171938.0		149007.0		22931.0
237658.0		266840.0		237658.0		29182.0
315595.0		352631.0		315595.0		37036.0
363360.0		412847.0		363360.0		49487.0
243758.0		272757.0		243758.0		28999.0
133649.0		149605.0		133649.0		15956.0
50682.0		57403.0		50682.0		6721.0
9615.0		10987.0		9615.0		1372.0
4517.0		4956.0		4517.0		439.0
1832.0		1956.0		1832.0		124.0
893.0		967.0		893.0		74.0
888.0		974.0		888.0		86.0
