0.00<|#eta|<0.60
334765.0		413109.0		334765.0		78344.0
629766.0		766305.0		629766.0		136539.0
986970.0		1205480.0		986970.0		218523.0
1302380.0		1582460.0		1302380.0		280068.0
904760.0		1055180.0		904760.0		150415.0
510615.0		592638.0		510615.0		82023.0
225041.0		254812.0		225041.0		29771.0
47109.0		52638.0		47109.0		5529.0
23221.0		24393.0		23221.0		1172.0
9906.0		10622.0		9906.0		716.0
4986.0		5357.0		4986.0		371.0
5376.0		5770.0		5376.0		394.0
0.60<|#eta|<0.80
96892.0		124486.0		96892.0		27594.0
210778.0		255996.0		210778.0		45218.0
333184.0		409638.0		333184.0		76454.0
418961.0		505608.0		418961.0		86647.0
289067.0		337397.0		289067.0		48330.0
160358.0		187491.0		160358.0		27133.0
70528.0		79655.0		70528.0		9127.0
14975.0		16589.0		14975.0		1614.0
7084.0		7493.0		7084.0		409.0
2942.0		3177.0		2942.0		235.0
1570.0		1696.0		1570.0		126.0
1677.0		1805.0		1677.0		128.0
0.80<|#eta|<1.15
160894.0		216726.0		160894.0		55832.0
289975.0		397139.0		289975.0		107164.0
481796.0		658748.0		481796.0		176952.0
648367.0		835279.0		648367.0		186912.0
427036.0		531503.0		427036.0		104467.0
236112.0		296729.0		236112.0		60617.0
103381.0		124301.0		103381.0		20920.0
21421.0		26414.0		21421.0		4993.0
10868.0		12159.0		10868.0		1291.0
4805.0		5385.0		4805.0		580.0
2384.0		2605.0		2384.0		221.0
2701.0		2950.0		2701.0		249.0
1.15<|#eta|<1.37
89374.0		125895.0		89374.0		36521.0
157560.0		215988.0		157560.0		58428.0
256657.0		353321.0		256657.0		96664.0
352756.0		470819.0		352756.0		118063.0
236140.0		297354.0		236140.0		61214.0
137916.0		167375.0		137916.0		29459.0
57360.0		68548.0		57360.0		11188.0
12120.0		14362.0		12120.0		2242.0
5832.0		6789.0		5832.0		957.0
2711.0		3039.0		2711.0		328.0
1445.0		1615.0		1445.0		170.0
1464.0		1665.0		1464.0		201.0
1.52<|#eta|<1.81
114408.0		143951.0		114408.0		29543.0
189689.0		239433.0		189689.0		49744.0
288205.0		364819.0		288205.0		76614.0
370691.0		464536.0		370691.0		93845.0
267325.0		320284.0		267325.0		52959.0
155132.0		183135.0		155132.0		28003.0
62391.0		72997.0		62391.0		10606.0
12810.0		14878.0		12810.0		2068.0
6068.0		6830.0		6068.0		762.0
2878.0		3108.0		2878.0		230.0
1460.0		1525.0		1460.0		65.0
1562.0		1642.0		1562.0		80.0
1.81<|#eta|<2.01
77539.0		96191.0		77539.0		18652.0
126735.0		154677.0		126735.0		27942.0
184576.0		221049.0		184576.0		36473.0
240669.0		279129.0		240669.0		38460.0
160427.0		189350.0		160427.0		28923.0
90789.0		105134.0		90789.0		14345.0
36985.0		41669.0		36985.0		4684.0
7313.0		8300.0		7313.0		987.0
3341.0		3708.0		3341.0		367.0
1380.0		1516.0		1380.0		136.0
656.0		723.0		656.0		67.0
739.0		797.0		739.0		58.0
2.01<|#eta|<2.37
148482.0		171938.0		148482.0		23456.0
237245.0		266840.0		237245.0		29595.0
314744.0		352631.0		314744.0		37887.0
364140.0		412847.0		364140.0		48707.0
243408.0		272757.0		243408.0		29349.0
134281.0		149605.0		134281.0		15324.0
50548.0		57403.0		50548.0		6855.0
9595.0		10987.0		9595.0		1392.0
4569.0		4956.0		4569.0		387.0
1807.0		1956.0		1807.0		149.0
887.0		967.0		887.0		80.0
854.0		974.0		854.0		120.0
