0 < |eta| < 0.6
403986	510918
744958	912653
1161298	1366047
1484356	1700079
1007199	1126740
619677	690355
263277	288486
56240	61171
25432	27454
11056	11867
5441	5874
5862	6348
0.6 < |eta| < 0.8
126089	160367
247171	306011
390785	463666
472151	545089
318579	360285
196360	218763
82669	90581
17623	19112
7827	8463
3280	3505
1715	1845
1764	1927
0.8 < |eta| < 1.15
211688	286965
394172	498506
634960	765279
765417	905483
487919	564346
301073	341960
124897	139641
27125	30266
12327	13656
5317	5948
2571	2859
2928	3254
1.15 < |eta| < 1.37
137014	171685
235566	278758
362462	419894
451057	513348
283149	318163
174276	193533
70086	77292
15023	16557
6986	7680
3066	3325
1590	1765
1647	1794
1.52 < |eta| < 1.81
150835	193992
245447	303864
363692	427019
442409	511714
315876	350812
201400	219153
78652	84918
15907	17321
7262	7713
3227	3407
1617	1700
1711	1796
1.81 < |eta| < 2.01
91923	120221
148231	187662
212874	256106
261315	305547
175388	202834
106532	121934
41848	47119
8475	9475
3707	4092
1575	1728
737	804
788	869
2.01 < |eta| < 2.37
169745	212741
265333	321789
349085	409194
395456	454378
256670	290022
151669	171309
57045	64544
11241	12644
4920	5431
1965	2162
942	1049
942	1044
