0 < |eta| < 0.6
368638	489376
706100	884199
1154021	1340940
1481429	1682602
1002430	1110863
608728	667690
263233	280218
55974	59092
25652	26657
11132	11535
5485	5731
5945	6217
0.6 < |eta| < 0.8
114623	152835
238869	296970
385723	455822
478563	539254
324242	355147
195033	211541
82877	87837
17704	18505
7868	8219
3296	3417
1737	1804
1826	1901
0.8 < |eta| < 1.15
204453	273604
390058	482572
645971	752107
796979	896441
510867	555862
307403	330539
129055	135473
27648	29240
12832	13261
5647	5786
2726	2787
3095	3184
1.15 < |eta| < 1.37
120059	163260
215253	268770
357480	412324
455831	508308
286364	313399
173494	187037
70864	75048
15193	16005
7143	7455
3137	3246
1657	1716
1664	1756
1.52 < |eta| < 1.81
142170	184736
243156	293038
359280	418504
446759	506178
315907	345902
196396	211962
77321	82319
15818	16740
7196	7482
3221	3328
1616	1661
1706	1747
1.81 < |eta| < 2.01
91426	115814
152070	181888
217571	251194
273057	302234
182910	200080
109596	118010
42891	45714
8597	9140
3797	3989
1633	1690
748	783
808	842
2.01 < |eta| < 2.37
161701	205501
264510	312680
354557	401673
403819	449432
261296	286017
152666	165820
57918	62677
11337	12225
4979	5277
1987	2100
944	1020
942	1021
