0 < |eta| < 0.6
0.006204304238090708
0.005511155889693642
0.001965962702195956
0.0006207704665852631
0.000855120540663945
0.0004322764742308305
0.000973483174543377
0.001070740876262466
0.0016217974786498779
4.477768138011484e-05
0.0020685794890065168
0.0018806142027486539
0.6 < |eta| < 0.8
0.004323681243354471
0.0039006365378049246
0.0015556852317223369
0.0004508078312641661
0.0004839927449925563
0.0006276928997920317
0.0006381157919708169
0.000328608894138549
0.000705182949885863
0.0023156922560874094
0.00031868807352875006
0.0009091084933944282
0.8 < |eta| < 1.15
0.00390128667533729
0.004696375078900972
0.0019116204819020766
0.0005705804092086542
0.0005432301182805022
0.0007261965674993931
0.0005481768653993191
0.00010739380342739135
0.0008532325991904566
0.000195954720008773
1.3686911890520292e-05
0.002768252817675454
1.15 < |eta| < 1.37
0.005493201571314721
0.005039620397632727
0.0020739027669173238
0.0007732894436194293
0.0007330993294815125
0.00100196215513082
0.0007311706566788256
0.0001832986780044843
0.002557983754684301
0.0023704603957849235
0.004052876616511103
0.003088926040920259
1.52 < |eta| < 1.81
0.018363078222053297
0.0149530295953193
0.005409954075045076
0.0019855625792931653
0.0016775484351870817
0.0030903834293249943
0.003944088581378402
0.0020818450694404245
0.002027928847087912
0.0026059509876937836
0.00011739763057549979
0.003258585745895326
1.81 < |eta| < 2.01
0.002969363487343002
0.0034850985342671503
0.001630603491830418
0.000680793801906221
0.0009191382351285693
0.0009599592727567163
0.0005915069404148765
0.0019234098788917242
0.0016877295642668821
0.008996728462377312
0.003176384845331559
0.0017569322435261325
2.01 < |eta| < 2.37
0.002922926124996672
0.002825210575557291
0.001270666566871026
0.0007606017289375488
0.00047744567381258207
0.00038803732454073536
0.00031211541452813574
0.00037801373391377346
0.0010977164389969207
0.00069449854023651
0.0019797358742625892
0.00296984032847758
