0 < |eta| < 0.6
331754.0			434366.0
660355.0			823326.0
1119286.0			1298310.0
1456140.0			1652349.0
977308.0			1082163.0
563489.0			617001.0
243552.0			258323.0
51476.0			54011.0
23843.0			24590.0
10418.0			10730.0
5185.0			5384.0
5664.0			5898.0
0.6 < |eta| < 0.8
102029.0			134262.0
224286.0			277799.0
375131.0			442640.0
470206.0			529365.0
315797.0			345572.0
180306.0			195269.0
76377.0			80685.0
16371.0			17002.0
7297.0			7556.0
3087.0			3187.0
1661.0			1720.0
1752.0			1814.0
0.8 < |eta| < 1.15
182525.0			240945.0
364882.0			449362.0
628089.0			730025.0
784184.0			881133.0
497332.0			540496.0
284044.0			304737.0
119082.0			124390.0
25485.0			26742.0
11953.0			12255.0
5290.0			5381.0
2582.0			2625.0
2940.0			3005.0
1.15 < |eta| < 1.37
106892.0			143154.0
200257.0			248747.0
347298.0			399737.0
448551.0			499674.0
278897.0			304884.0
160281.0			172443.0
65399.0			68985.0
13952.0			14583.0
6640.0			6872.0
2958.0			3048.0
1561.0			1605.0
1589.0			1659.0
1.52 < |eta| < 1.81
127514.0			162946.0
226254.0			271209.0
347635.0			404335.0
439099.0			496845.0
308312.0			337110.0
181993.0			196070.0
71282.0			75523.0
14527.0			15285.0
6646.0			6869.0
3052.0			3133.0
1528.0			1563.0
1608.0			1638.0
1.81 < |eta| < 2.01
83291.0			104459.0
142492.0			169883.0
210785.0			242990.0
268210.0			296600.0
178539.0			195091.0
101646.0			109332.0
39631.0			42087.0
7902.0			8352.0
3537.0			3697.0
1530.0			1572.0
700.0			731.0
770.0			795.0
2.01 < |eta| < 2.37
148714.0			187604.0
249661.0			294195.0
343930.0			389109.0
396396.0			440870.0
254602.0			278479.0
141466.0			153348.0
53399.0			57621.0
10403.0			11137.0
4649.0			4895.0
1862.0			1958.0
889.0			959.0
890.0			963.0
