CutHadLeakage_photonsNonConverted;  0.0420 ; 0.0300 ; 0.0500 ; 0.0344 ; 9999 ; 0.0450 ; 0.0499 ; 0.0428 ; 9999 
CutHadLeakage_photonsNonConverted; 0.0420 ; 0.0264 ; 0.0450 ; 0.0344 ; 9999 ; 0.0425 ; 0.0448 ; 0.0400 ; 9999 
CutHadLeakage_photonsNonConverted; 0.0420 ; 0.0264 ; 0.0400 ; 0.0344 ; 9999 ; 0.0375 ; 0.0430 ; 0.0380 ; 9999 
CutHadLeakage_photonsNonConverted; 0.0420 ; 0.0264 ; 0.0400 ; 0.0344 ; 9999 ; 0.0355 ; 0.0410 ; 0.0368 ; 9999 
CutHadLeakage_photonsNonConverted; 0.0420 ; 0.0264 ; 0.0400 ; 0.0344 ; 9999 ; 0.0316 ; 0.0396 ; 0.0342 ; 9999 
CutHadLeakage_photonsNonConverted; 0.0420 ; 0.0264 ; 0.0400 ; 0.0344 ; 9999 ; 0.0316 ; 0.0396 ; 0.0342 ; 9999 
CutHadLeakage_photonsNonConverted; 0.0420 ; 0.0264 ; 0.0400 ; 0.0344 ; 9999 ; 0.0280 ; 0.0396 ; 0.0279 ; 9999 
CutHadLeakage_photonsNonConverted; 0.0420 ; 0.0264 ; 0.0400 ; 0.0344 ; 9999 ; 0.0280 ; 0.0396 ; 0.0279 ; 9999 
CutHadLeakage_photonsNonConverted; 0.0420 ; 0.0264 ; 0.0400 ; 0.0344 ; 9999 ; 0.0265 ; 0.0388 ; 0.0249 ; 9999 
CutHadLeakage_photonsNonConverted; 0.0420 ; 0.0264 ; 0.0400 ; 0.0344 ; 9999 ; 0.0248 ; 0.0366 ; 0.0195 ; 9999 
CutHadLeakage_photonsNonConverted; 0.0420 ; 0.0264 ; 0.0400 ; 0.0344 ; 9999 ; 0.0180 ; 0.0268 ; 0.0195 ; 9999
Reta37_photonsNonConverted;  0.919 ; 0.902 ; 0.912 ; 0.895 ; 9999 ; 0.895 ; 0.923 ; 0.900 ; 9999 
Reta37_photonsNonConverted; 0.920 ; 0.902 ; 0.913 ; 0.896 ; 9999 ; 0.902 ; 0.923 ; 0.900 ; 9999 
Reta37_photonsNonConverted; 0.920 ; 0.904 ; 0.916 ; 0.897 ; 9999 ; 0.907 ; 0.923 ; 0.900 ; 9999 
Reta37_photonsNonConverted; 0.920 ; 0.906 ; 0.919 ; 0.903 ; 9999 ; 0.910 ; 0.923 ; 0.901 ; 9999 
Reta37_photonsNonConverted; 0.921 ; 0.909 ; 0.919 ; 0.905 ; 9999 ; 0.916 ; 0.926 ; 0.902 ; 9999 
Reta37_photonsNonConverted; 0.921 ; 0.911 ; 0.919 ; 0.905 ; 9999 ; 0.916 ; 0.926 ; 0.902 ; 9999 
Reta37_photonsNonConverted; 0.925 ; 0.913 ; 0.927 ; 0.908 ; 9999 ; 0.917 ; 0.929 ; 0.903 ; 9999 
Reta37_photonsNonConverted; 0.926 ; 0.915 ; 0.928 ; 0.908 ; 9999 ; 0.917 ; 0.930 ; 0.903 ; 9999 
Reta37_photonsNonConverted; 0.928 ; 0.915 ; 0.929 ; 0.917 ; 9999 ; 0.917 ; 0.932 ; 0.906 ; 9999 
Reta37_photonsNonConverted; 0.931 ; 0.920 ; 0.929 ; 0.928 ; 9999 ; 0.921 ; 0.933 ; 0.912 ; 9999 
Reta37_photonsNonConverted; 0.934 ; 0.928 ; 0.929 ; 0.934 ; 9999 ; 0.924 ; 0.935 ; 0.918 ; 9999
Rphi33_photonsNonConverted;  0.910 ; 0.850 ; 0.820 ; 0.850 ; 9999 ; 0.919 ; 0.937 ; 0.933 ; 9999 
Rphi33_photonsNonConverted; 0.935 ; 0.907 ; 0.875 ; 0.885 ; 9999 ; 0.919 ; 0.937 ; 0.933 ; 9999 
Rphi33_photonsNonConverted; 0.935 ; 0.907 ; 0.890 ; 0.885 ; 9999 ; 0.919 ; 0.937 ; 0.933 ; 9999 
Rphi33_photonsNonConverted; 0.935 ; 0.907 ; 0.905 ; 0.885 ; 9999 ; 0.919 ; 0.937 ; 0.933 ; 9999 
Rphi33_photonsNonConverted; 0.935 ; 0.907 ; 0.905 ; 0.885 ; 9999 ; 0.919 ; 0.937 ; 0.933 ; 9999 
Rphi33_photonsNonConverted; 0.935 ; 0.907 ; 0.905 ; 0.885 ; 9999 ; 0.919 ; 0.937 ; 0.933 ; 9999 
Rphi33_photonsNonConverted; 0.935 ; 0.907 ; 0.905 ; 0.885 ; 9999 ; 0.919 ; 0.937 ; 0.933 ; 9999 
Rphi33_photonsNonConverted; 0.935 ; 0.907 ; 0.905 ; 0.885 ; 9999 ; 0.919 ; 0.937 ; 0.933 ; 9999 
Rphi33_photonsNonConverted; 0.935 ; 0.907 ; 0.905 ; 0.885 ; 9999 ; 0.919 ; 0.937 ; 0.933 ; 9999 
Rphi33_photonsNonConverted; 0.935 ; 0.907 ; 0.905 ; 0.885 ; 9999 ; 0.919 ; 0.937 ; 0.933 ; 9999 
Rphi33_photonsNonConverted; 0.935 ; 0.907 ; 0.905 ; 0.885 ; 9999 ; 0.919 ; 0.937 ; 0.933 ; 9999
weta2_photonsNonConverted;  0.0125 ; 0.0133 ; 0.0131 ; 0.0134 ; 9999 ; 0.0138 ; 0.0122 ; 0.012538 ; 9999 
weta2_photonsNonConverted; 0.0118 ; 0.0128 ; 0.0125 ; 0.0131 ; 9999 ; 0.0136 ; 0.0121 ; 0.012538 ; 9999 
weta2_photonsNonConverted; 0.0117 ; 0.0124 ; 0.0121 ; 0.0125 ; 9999 ; 0.0134 ; 0.0119 ; 0.012538 ; 9999 
weta2_photonsNonConverted; 0.0115 ; 0.0121 ; 0.0116 ; 0.0123 ; 9999 ; 0.0131 ; 0.0117 ; 0.012538 ; 9999 
weta2_photonsNonConverted; 0.0113 ; 0.0116 ; 0.0115 ; 0.0121 ; 9999 ; 0.0129 ; 0.0116 ; 0.012538 ; 9999 
weta2_photonsNonConverted; 0.0111 ; 0.0116 ; 0.0114 ; 0.0119 ; 9999 ; 0.0128 ; 0.0116 ; 0.012538 ; 9999 
weta2_photonsNonConverted; 0.0108 ; 0.0114 ; 0.0113 ; 0.0118 ; 9999 ; 0.0126 ; 0.0116 ; 0.012538 ; 9999 
weta2_photonsNonConverted; 0.0108 ; 0.0113 ; 0.0113 ; 0.0118 ; 9999 ; 0.0125 ; 0.0116 ; 0.012538 ; 9999 
weta2_photonsNonConverted; 0.0107 ; 0.0111 ; 0.0112 ; 0.0116 ; 9999 ; 0.0124 ; 0.0115 ; 0.012538 ; 9999 
weta2_photonsNonConverted; 0.0105 ; 0.0111 ; 0.0112 ; 0.0115 ; 9999 ; 0.0122 ; 0.0114 ; 0.012538 ; 9999 
weta2_photonsNonConverted; 0.0102 ; 0.0111 ; 0.0109 ; 0.0111 ; 9999 ; 0.0121 ; 0.0114 ; 0.012538 ; 9999
deltae_photonsNonConverted;  239. ; 258. ; 185. ; 184. ; 9999 ; 376. ; 490. ; 498. ; 9999 
deltae_photonsNonConverted; 239. ; 258. ; 185. ; 184. ; 9999 ; 376. ; 490. ; 498. ; 9999 
deltae_photonsNonConverted; 239. ; 258. ; 185. ; 184. ; 9999 ; 376. ; 490. ; 498. ; 9999 
deltae_photonsNonConverted; 239. ; 258. ; 185. ; 184. ; 9999 ; 376. ; 490. ; 498. ; 9999 
deltae_photonsNonConverted; 239. ; 258. ; 185. ; 184. ; 9999 ; 376. ; 490. ; 498. ; 9999 
deltae_photonsNonConverted; 239. ; 258. ; 185. ; 184. ; 9999 ; 376. ; 490. ; 498. ; 9999 
deltae_photonsNonConverted; 239. ; 258. ; 185. ; 184. ; 9999 ; 376. ; 490. ; 498. ; 9999 
deltae_photonsNonConverted; 239. ; 258. ; 185. ; 184. ; 9999 ; 376. ; 490. ; 498. ; 9999 
deltae_photonsNonConverted; 239. ; 258. ; 185. ; 184. ; 9999 ; 376. ; 490. ; 498. ; 9999 
deltae_photonsNonConverted; 239. ; 258. ; 185. ; 184. ; 9999 ; 376. ; 490. ; 498. ; 9999 
deltae_photonsNonConverted; 239. ; 258. ; 185. ; 184. ; 9999 ; 376. ; 490. ; 498. ; 9999
DEmaxs1_photonsNonConverted;  0.820 ; 0.855 ; 0.835 ; 0.782 ; 9999 ; 0.838 ; 0.828 ; 0.842 ; 9999 
DEmaxs1_photonsNonConverted; 0.820 ; 0.855 ; 0.835 ; 0.782 ; 9999 ; 0.855 ; 0.828 ; 0.842 ; 9999 
DEmaxs1_photonsNonConverted; 0.820 ; 0.855 ; 0.835 ; 0.782 ; 9999 ; 0.872 ; 0.828 ; 0.842 ; 9999 
DEmaxs1_photonsNonConverted; 0.820 ; 0.855 ; 0.835 ; 0.782 ; 9999 ; 0.872 ; 0.828 ; 0.842 ; 9999 
DEmaxs1_photonsNonConverted; 0.820 ; 0.855 ; 0.835 ; 0.782 ; 9999 ; 0.872 ; 0.828 ; 0.842 ; 9999 
DEmaxs1_photonsNonConverted; 0.820 ; 0.855 ; 0.835 ; 0.782 ; 9999 ; 0.872 ; 0.828 ; 0.842 ; 9999 
DEmaxs1_photonsNonConverted; 0.820 ; 0.855 ; 0.835 ; 0.782 ; 9999 ; 0.872 ; 0.828 ; 0.842 ; 9999 
DEmaxs1_photonsNonConverted; 0.820 ; 0.855 ; 0.835 ; 0.782 ; 9999 ; 0.872 ; 0.828 ; 0.842 ; 9999 
DEmaxs1_photonsNonConverted; 0.820 ; 0.855 ; 0.835 ; 0.782 ; 9999 ; 0.872 ; 0.828 ; 0.842 ; 9999 
DEmaxs1_photonsNonConverted; 0.820 ; 0.855 ; 0.835 ; 0.782 ; 9999 ; 0.872 ; 0.828 ; 0.842 ; 9999 
DEmaxs1_photonsNonConverted; 0.820 ; 0.855 ; 0.835 ; 0.782 ; 9999 ; 0.872 ; 0.828 ; 0.842 ; 9999
wtot_photonsNonConverted;  3.71 ; 3.10 ; 3.50 ; 3.33 ; 9999 ; 3.09 ; 2.95 ; 2.15 ; 9999 
wtot_photonsNonConverted; 3.71 ; 2.97 ; 3.37 ; 3.33 ; 9999 ; 3.09 ; 2.95 ; 2.15 ; 9999 
wtot_photonsNonConverted; 3.71 ; 2.97 ; 3.25 ; 3.33 ; 9999 ; 3.09 ; 2.95 ; 2.15 ; 9999 
wtot_photonsNonConverted; 3.71 ; 2.97 ; 3.25 ; 3.33 ; 9999 ; 3.09 ; 2.95 ; 2.15 ; 9999 
wtot_photonsNonConverted; 3.71 ; 2.97 ; 3.25 ; 3.33 ; 9999 ; 3.09 ; 2.95 ; 2.15 ; 9999 
wtot_photonsNonConverted; 3.71 ; 2.97 ; 3.25 ; 3.33 ; 9999 ; 3.09 ; 2.95 ; 2.15 ; 9999 
wtot_photonsNonConverted; 3.71 ; 2.97 ; 3.25 ; 3.33 ; 9999 ; 3.09 ; 2.95 ; 2.15 ; 9999 
wtot_photonsNonConverted; 3.71 ; 2.97 ; 3.25 ; 3.33 ; 9999 ; 3.09 ; 2.95 ; 2.15 ; 9999 
wtot_photonsNonConverted; 3.71 ; 2.97 ; 3.25 ; 3.33 ; 9999 ; 3.09 ; 2.95 ; 2.15 ; 9999 
wtot_photonsNonConverted; 3.71 ; 2.97 ; 3.25 ; 3.33 ; 9999 ; 3.09 ; 2.95 ; 2.15 ; 9999 
wtot_photonsNonConverted; 3.71 ; 2.97 ; 3.25 ; 3.33 ; 9999 ; 3.09 ; 2.95 ; 2.15 ; 9999
fracm_photonsNonConverted;  0.431 ; 0.541 ; 0.630 ; 0.739 ; 9999 ; 0.673 ; 0.275 ; 0.230 ; 9999 
fracm_photonsNonConverted; 0.325 ; 0.468 ; 0.522 ; 0.589 ; 9999 ; 0.590 ; 0.275 ; 0.230 ; 9999 
fracm_photonsNonConverted; 0.315 ; 0.404 ; 0.475 ; 0.510 ; 9999 ; 0.490 ; 0.275 ; 0.230 ; 9999 
fracm_photonsNonConverted; 0.305 ; 0.406 ; 0.422 ; 0.481 ; 9999 ; 0.471 ; 0.275 ; 0.230 ; 9999 
fracm_photonsNonConverted; 0.288 ; 0.349 ; 0.416 ; 0.470 ; 9999 ; 0.457 ; 0.275 ; 0.230 ; 9999 
fracm_photonsNonConverted; 0.288 ; 0.342 ; 0.416 ; 0.460 ; 9999 ; 0.457 ; 0.275 ; 0.230 ; 9999 
fracm_photonsNonConverted; 0.288 ; 0.338 ; 0.408 ; 0.450 ; 9999 ; 0.448 ; 0.275 ; 0.230 ; 9999 
fracm_photonsNonConverted; 0.288 ; 0.335 ; 0.404 ; 0.450 ; 9999 ; 0.448 ; 0.275 ; 0.230 ; 9999 
fracm_photonsNonConverted; 0.284 ; 0.330 ; 0.404 ; 0.450 ; 9999 ; 0.448 ; 0.275 ; 0.230 ; 9999 
fracm_photonsNonConverted; 0.280 ; 0.326 ; 0.404 ; 0.450 ; 9999 ; 0.448 ; 0.275 ; 0.230 ; 9999 
fracm_photonsNonConverted; 0.275 ; 0.322 ; 0.404 ; 0.450 ; 9999 ; 0.448 ; 0.275 ; 0.230 ; 9999
w1_photonsNonConverted;  0.720 ; 0.768 ; 0.783 ; 0.786 ; 9999 ; 0.787 ; 0.699 ; 0.681 ; 9999 
w1_photonsNonConverted; 0.696 ; 0.750 ; 0.769 ; 0.780 ; 9999 ; 0.780 ; 0.687 ; 0.660 ; 9999 
w1_photonsNonConverted; 0.676 ; 0.721 ; 0.754 ; 0.755 ; 9999 ; 0.769 ; 0.675 ; 0.650 ; 9999 
w1_photonsNonConverted; 0.676 ; 0.720 ; 0.739 ; 0.750 ; 9999 ; 0.764 ; 0.670 ; 0.640 ; 9999 
w1_photonsNonConverted; 0.665 ; 0.715 ; 0.724 ; 0.745 ; 9999 ; 0.754 ; 0.670 ; 0.628 ; 9999 
w1_photonsNonConverted; 0.664 ; 0.712 ; 0.724 ; 0.740 ; 9999 ; 0.744 ; 0.670 ; 0.628 ; 9999 
w1_photonsNonConverted; 0.664 ; 0.709 ; 0.724 ; 0.735 ; 9999 ; 0.734 ; 0.660 ; 0.628 ; 9999 
w1_photonsNonConverted; 0.664 ; 0.706 ; 0.718 ; 0.730 ; 9999 ; 0.734 ; 0.650 ; 0.628 ; 9999 
w1_photonsNonConverted; 0.660 ; 0.689 ; 0.712 ; 0.725 ; 9999 ; 0.734 ; 0.650 ; 0.628 ; 9999 
w1_photonsNonConverted; 0.655 ; 0.685 ; 0.698 ; 0.721 ; 9999 ; 0.734 ; 0.650 ; 0.628 ; 9999 
w1_photonsNonConverted; 0.654 ; 0.678 ; 0.689 ; 0.716 ; 9999 ; 0.734 ; 0.650 ; 0.628 ; 9999
