0 < |eta| < 0.6
362931	489376
702182	884199
1143696	1340940
1470406	1682602
992129	1110863
598917	667690
260940	280218
55532	59092
25305	26657
11073	11535
5419	5731
5875	6217
0.6 < |eta| < 0.8
112880	152835
237824	296970
384570	455822
478218	539254
321546	355147
193133	211541
82438	87837
17682	18505
7833	8219
3280	3417
1717	1804
1823	1901
0.8 < |eta| < 1.15
199296	273604
382121	482572
637008	752107
786395	896441
504776	555862
301990	330539
127825	135473
27316	29240
12716	13261
5604	5786
2713	2787
3070	3184
1.15 < |eta| < 1.37
117936	163260
213798	268770
346070	412324
450204	508308
283000	313399
171696	187037
70172	75048
15112	16005
7088	7455
3095	3246
1650	1716
1634	1756
1.52 < |eta| < 1.81
138935	184736
239726	293038
353711	418504
441707	506178
313921	345902
194333	211962
76615	82319
15693	16740
7140	7482
3213	3328
1612	1661
1689	1747
1.81 < |eta| < 2.01
89353	115814
149874	181888
213626	251194
269889	302234
178649	200080
107320	118010
42064	45714
8481	9140
3753	3989
1614	1690
742	783
795	842
2.01 < |eta| < 2.37
159510	205501
262168	312680
351143	401673
395865	449432
259819	286017
151691	165820
57261	62677
11213	12225
4933	5277
1981	2100
934	1020
929	1021
