0 < |eta| < 0.6
342057	458122
665771	834862
1097708	1285106
1432816	1638617
958637	1072633
566624	631219
249411	267413
52700	55943
24214	25477
10595	11014
5218	5502
5626	5939
0.6 < |eta| < 0.8
105439	141954
225575	280777
369486	437356
465865	525056
310602	342869
182525	199750
78712	83761
16764	17515
7469	7819
3151	3281
1637	1717
1773	1847
0.8 < |eta| < 1.15
186058	253924
359770	452607
611132	720407
765618	872221
486788	535726
285781	312499
122113	129260
25973	27735
12180	12672
5382	5546
2615	2682
2935	3041
1.15 < |eta| < 1.37
109520	150528
199821	250202
330687	393287
438414	494621
272619	301657
162210	176514
66890	71416
14317	15125
6783	7109
2982	3117
1595	1653
1579	1692
1.52 < |eta| < 1.81
128999	169094
224075	271411
336487	396746
428952	490867
302721	333146
182874	199060
72719	77873
14871	15817
6838	7142
3068	3166
1539	1583
1630	1686
1.81 < |eta| < 2.01
83992	108379
141716	171508
203979	239534
262305	293555
172667	193227
101602	111609
40174	43598
8054	8671
3589	3814
1532	1606
713	753
765	805
2.01 < |eta| < 2.37
150935	193722
249075	296414
335753	383662
384480	436219
250997	276187
143815	157111
54622	59744
10629	11564
4743	5062
1901	2012
894	978
889	979
