0 < |eta| < 0.6
0.0060162111485069225
0.005487744380243131
0.001922017360257322
0.0006189957937575707
0.0008775345644750354
0.0005984467550578243
0.0011268354156396265
0.0011032989392930626
0.0024675140387460104
5.064775841479019e-05
0.0026496094123372727
0.003125097728288617
0.6 < |eta| < 0.8
0.0038841981685339144
0.00381285070874815
0.0015850215048995864
0.00045972543663597154
0.0005202942901382235
0.0008122167439174044
0.0007218023721945466
0.00028307202397237496
0.0009160129338569023
0.002842961043797221
0.0006187158809840554
0.0009384345738265853
0.8 < |eta| < 1.15
0.004123412748860966
0.004926098695057557
0.0020338143399092345
0.0005471187351043794
0.0005630654734744001
0.0006190643175529864
0.00067510473832888
0.00019498361027892042
0.0009266426895279123
0.0003269163461206981
0.0009307100085542697
0.002914520118520114
1.15 < |eta| < 1.37
0.005777869702734306
0.005146861552900006
0.0022067253096406114
0.00077881849750705
0.0008509833923111554
0.001125685148303912
0.0009369819840053806
0.00045410016461966407
0.0022011551702219023
0.00277467250247887
0.0038717424660525968
0.001908401287431638
1.52 < |eta| < 1.81
0.01947109614630349
0.015336403817630462
0.005758632466279501
0.002036543581788619
0.0016653091112913687
0.003320920540731076
0.00435749779137895
0.0028551629292858927
0.003358634607225075
0.003108132070787639
0.00028672952895181236
0.006084862683847447
1.81 < |eta| < 2.01
0.0034056782286689957
0.0035861771807484955
0.0016424356651412175
0.0007900831048522905
0.001049134236966509
0.0010130235824549194
0.0007326352256972202
0.0015692064723539234
0.0019345054140754714
0.009001872389457044
0.0035154590558147403
0.008662439844167702
2.01 < |eta| < 2.37
0.0028711066908897465
0.002808781385389758
0.0013071771471208082
0.0008341540687315518
0.0004277247357291625
0.00040732839664658904
0.0006069695406967224
5.200397381621702e-05
0.0006286284290578648
0.0010998969772307854
0.0025775655227042726
0.004676305582254514
