0 < |eta| < 0.6
326620.0			434366.0
656705.0			823326.0
1109289.0			1298310.0
1445311.0			1652349.0
967272.0			1082163.0
554424.0			617001.0
241413.0			258323.0
51077.0			54011.0
23530.0			24590.0
10362.0			10730.0
5121.0			5384.0
5598.0			5898.0
0.6 < |eta| < 0.8
100510.0			134262.0
223307.0			277799.0
374011.0			442640.0
469869.0			529365.0
313183.0			345572.0
178537.0			195269.0
75977.0			80685.0
16351.0			17002.0
7267.0			7556.0
3072.0			3187.0
1641.0			1720.0
1750.0			1814.0
0.8 < |eta| < 1.15
178010.0			240945.0
357512.0			449362.0
619388.0			730025.0
773786.0			881133.0
491376.0			540496.0
279082.0			304737.0
117974.0			124390.0
25196.0			26742.0
11848.0			12255.0
5252.0			5381.0
2574.0			2625.0
2916.0			3005.0
1.15 < |eta| < 1.37
105083.0			143154.0
198924.0			248747.0
336242.0			399737.0
443017.0			499674.0
275631.0			304884.0
158626.0			172443.0
64768.0			68985.0
13882.0			14583.0
6592.0			6872.0
2918.0			3048.0
1554.0			1605.0
1562.0			1659.0
1.52 < |eta| < 1.81
124705.0			162946.0
223072.0			271209.0
342229.0			404335.0
434153.0			496845.0
306366.0			337110.0
180070.0			196070.0
70627.0			75523.0
14418.0			15285.0
6594.0			6869.0
3044.0			3133.0
1524.0			1563.0
1596.0			1638.0
1.81 < |eta| < 2.01
81407.0			104459.0
140454.0			169883.0
206971.0			242990.0
265089.0			296600.0
174387.0			195091.0
99559.0			109332.0
38870.0			42087.0
7795.0			8352.0
3494.0			3697.0
1512.0			1572.0
694.0			731.0
757.0			795.0
2.01 < |eta| < 2.37
146721.0			187604.0
247470.0			294195.0
340615.0			389109.0
388602.0			440870.0
253168.0			278479.0
140566.0			153348.0
52792.0			57621.0
10292.0			11137.0
4603.0			4895.0
1857.0			1958.0
879.0			959.0
879.0			963.0
