0 < |eta| < 0.6
327653.0			405326.0
623032.0			757071.0
1023184.0			1204165.0
1373352.0			1577155.0
907669.0			1018526.0
512588.0			572083.0
225593.0			246340.0
46968.0			50715.0
21903.0			23500.0
9537.0			10161.0
4783.0			5130.0
5141.0			5530.0
0.6 < |eta| < 0.8
99736.0			123541.0
208046.0			255543.0
346510.0			411046.0
437321.0			505023.0
287965.0			325453.0
161498.0			180737.0
70346.0			76941.0
14779.0			15918.0
6703.0			7175.0
2851.0			3057.0
1474.0			1589.0
1635.0			1767.0
0.8 < |eta| < 1.15
162896.0			220883.0
316278.0			406708.0
551369.0			675535.0
698028.0			838959.0
432809.0			507106.0
247421.0			283038.0
106235.0			118879.0
22710.0			25204.0
10633.0			11688.0
4663.0			5144.0
2293.0			2505.0
2571.0			2828.0
1.15 < |eta| < 1.37
101510.0			129371.0
181670.0			221646.0
310671.0			366680.0
406573.0			475894.0
249201.0			285151.0
142248.0			159495.0
59081.0			65540.0
12425.0			13693.0
6031.0			6538.0
2725.0			2909.0
1412.0			1541.0
1490.0			1590.0
1.52 < |eta| < 1.81
113552.0			144196.0
192510.0			238958.0
305283.0			366473.0
399674.0			470020.0
278696.0			315480.0
163321.0			178967.0
65794.0			70828.0
13228.0			14313.0
6235.0			6571.0
2811.0			2925.0
1407.0			1466.0
1504.0			1576.0
1.81 < |eta| < 2.01
74499.0			96537.0
122261.0			155354.0
184832.0			222962.0
238613.0			281563.0
157853.0			183620.0
87983.0			101284.0
35745.0			40077.0
7065.0			7867.0
3196.0			3536.0
1351.0			1484.0
639.0			702.0
681.0			741.0
2.01 < |eta| < 2.37
141051.0			174703.0
224225.0			271039.0
305975.0			358130.0
363908.0			418060.0
231823.0			262352.0
126729.0			142913.0
48648.0			54944.0
9380.0			10484.0
4279.0			4693.0
1702.0			1862.0
817.0			907.0
826.0			914.0
