0 < |eta| < 0.6
398475	490621
742461	887685
1158077	1334812
1496287	1681530
1046678	1153037
646808	712004
273922	298203
58746	63631
26453	28515
11572	12408
5686	6126
6134	6649
0.6 < |eta| < 0.8
122932	154467
242981	298036
384716	454674
473096	540794
330710	370033
204342	226085
86015	93583
18483	19976
8213	8826
3416	3671
1839	1973
1838	1987
0.8 < |eta| < 1.15
205013	275259
383023	481454
621492	744579
769274	901644
509311	588327
318252	358330
131427	146281
28528	31657
12925	14247
5620	6224
2693	2986
3054	3378
1.15 < |eta| < 1.37
132347	165529
227313	270730
354052	407744
451180	512022
297548	333219
184136	204194
74182	81415
15907	17397
7287	7949
3213	3455
1694	1851
1731	1888
1.52 < |eta| < 1.81
149107	191317
243174	301050
362397	422222
439816	505765
324492	356686
209718	225785
82283	87993
16791	18082
7615	8051
3430	3603
1701	1787
1792	1871
1.81 < |eta| < 2.01
89835	117709
147783	184868
210525	253033
261086	303553
182670	209401
112031	127089
44156	49128
9037	9944
3935	4299
1655	1781
789	849
830	910
2.01 < |eta| < 2.37
165536	207909
261375	316541
347036	404254
395311	452485
268943	302563
161241	180171
60139	67921
11880	13255
5212	5739
2083	2294
999	1117
997	1102
