0 < |eta| < 0.6
362121	440347
683885	812970
1092289	1256031
1442796	1619713
996100	1096430
590733	649461
254194	276019
53852	58103
24616	26440
10776	11515
5342	5744
5746	6207
0.6 < |eta| < 0.8
110314	136864
224504	273782
363687	428964
455765	520528
314679	351795
186429	206056
79653	86471
16953	18267
7622	8159
3190	3426
1714	1840
1754	1892
0.8 < |eta| < 1.15
184294	244040
350616	437905
586879	701463
741583	868296
483848	558424
290741	326893
121784	135238
26232	28986
12009	13201
5250	5791
2534	2792
2855	3150
1.15 < |eta| < 1.37
118046	145641
205973	243860
332750	382313
435109	493293
282287	315757
167961	185955
68582	75105
14592	15904
6787	7358
3029	3244
1597	1735
1645	1777
1.52 < |eta| < 1.81
132876	166070
220218	268773
338310	392532
422595	484942
308355	338293
190357	204470
75608	80528
15372	16486
7070	7443
3202	3350
1590	1664
1680	1755
1.81 < |eta| < 2.01
81984	106158
136051	169222
197543	236929
251063	291557
174072	199304
102441	116118
40882	45411
8295	9112
3674	4011
1532	1649
728	786
776	850
2.01 < |eta| < 2.37
151933	189500
242052	291912
326312	379404
379594	434155
256109	287891
147864	165000
55616	62730
10904	12134
4862	5342
1943	2128
929	1039
939	1037
