0 < |eta| < 0.6
307989.0			390073.0
616729.0			738255.0
1034612.0			1177250.0
1386956.0			1557896.0
950339.0			1039823.0
543474.0			586918.0
241815.0			253835.0
50599.0			52575.0
23871.0			24365.0
10443.0			10622.0
5262.0			5362.0
5656.0			5765.0
0.6 < |eta| < 0.8
92783.0			119261.0
207998.0			249528.0
351136.0			403254.0
451973.0			500262.0
305467.0			333557.0
174828.0			186027.0
76107.0			79359.0
16161.0			16558.0
7356.0			7492.0
3127.0			3181.0
1671.0			1707.0
1769.0			1797.0
0.8 < |eta| < 1.15
164831.0			212821.0
324078.0			394356.0
569525.0			658347.0
745506.0			834948.0
490242.0			528521.0
278511.0			295456.0
119594.0			124195.0
23897.0			26315.0
11945.0			12155.0
5311.0			5358.0
2573.0			2598.0
2884.0			2922.0
1.15 < |eta| < 1.37
97231.0			125753.0
182186.0			216990.0
315993.0			356882.0
427930.0			474564.0
276018.0			298295.0
157283.0			167716.0
65547.0			68795.0
13862.0			14411.0
6614.0			6767.0
2956.0			3033.0
1593.0			1619.0
1628.0			1666.0
1.52 < |eta| < 1.81
115984.0			140823.0
198877.0			236496.0
318414.0			362842.0
416862.0			464119.0
296722.0			319900.0
172619.0			183155.0
69469.0			73063.0
14279.0			14890.0
6668.0			6835.0
3043.0			3097.0
1503.0			1541.0
1612.0			1639.0
1.81 < |eta| < 2.01
76618.0			94607.0
131700.0			153576.0
194132.0			220825.0
255062.0			279561.0
174814.0			189207.0
98008.0			105147.0
39559.0			41694.0
7941.0			8280.0
3595.0			3723.0
1475.0			1517.0
699.0			723.0
776.0			790.0
2.01 < |eta| < 2.37
136744.0			171091.0
228434.0			267283.0
315211.0			354554.0
378515.0			415825.0
254269.0			273219.0
139044.0			149829.0
54027.0			57539.0
10449.0			11013.0
4728.0			4945.0
1906.0			1962.0
918.0			961.0
943.0			972.0
