0.00<|#eta|<0.60
301230.0		381662.0		301230.0		80432.0
559843.0		684517.0		559843.0		124674.0
889624.0		1045220.0		889624.0		155601.0
1146690.0		1330250.0		1146690.0		183550.0
804041.0		902194.0		804041.0		98153.0
474897.0		520539.0		474897.0		45642.0
203257.0		216685.0		203257.0		13428.0
43945.0		45800.0		43945.0		1855.0
19421.0		20146.0		19421.0		725.0
8701.0		8935.0		8701.0		234.0
4430.0		4544.0		4430.0		114.0
4656.0		4919.0		4656.0		263.0
0.60<|#eta|<0.80
83207.0		107556.0		83207.0		24349.0
179554.0		222124.0		179554.0		42570.0
300320.0		353499.0		300320.0		53179.0
368889.0		425485.0		368889.0		56596.0
260501.0		289355.0		260501.0		28854.0
152324.0		166136.0		152324.0		13812.0
64430.0		68487.0		64430.0		4057.0
13436.0		14061.0		13436.0		625.0
6207.0		6396.0		6207.0		189.0
2759.0		2797.0		2759.0		38.0
1412.0		1448.0		1412.0		36.0
1543.0		1575.0		1543.0		32.0
0.80<|#eta|<1.15
146537.0		186597.0		146537.0		40060.0
284886.0		347468.0		284886.0		62582.0
482036.0		567589.0		482036.0		85553.0
603354.0		700652.0		603354.0		97298.0
400859.0		458671.0		400859.0		57812.0
238036.0		264492.0		238036.0		26456.0
100128.0		107335.0		100128.0		7207.0
21385.0		22613.0		21385.0		1228.0
10224.0		10441.0		10224.0		217.0
4390.0		4515.0		4390.0		125.0
2216.0		2250.0		2216.0		34.0
2446.0		2489.0		2446.0		43.0
1.15<|#eta|<1.37
81909.0		110734.0		81909.0		28825.0
146700.0		191709.0		146700.0		45009.0
248589.0		305334.0		248589.0		56745.0
321946.0		392437.0		321946.0		70491.0
226062.0		256940.0		226062.0		30878.0
131889.0		148159.0		131889.0		16270.0
56463.0		60717.0		56463.0		4254.0
11889.0		12538.0		11889.0		649.0
5569.0		5702.0		5569.0		133.0
2535.0		2603.0		2535.0		68.0
1279.0		1302.0		1279.0		23.0
1324.0		1388.0		1324.0		64.0
1.52<|#eta|<1.81
106283.0		134711.0		106283.0		28428.0
172488.0		216741.0		172488.0		44253.0
259867.0		318811.0		259867.0		58944.0
327723.0		391051.0		327723.0		63328.0
244190.0		274586.0		244190.0		30396.0
148008.0		162946.0		148008.0		14938.0
58946.0		64999.0		58946.0		6053.0
12208.0		13064.0		12208.0		856.0
5711.0		5909.0		5711.0		198.0
2431.0		2495.0		2431.0		64.0
1258.0		1289.0		1258.0		31.0
1350.0		1396.0		1350.0		46.0
1.81<|#eta|<2.01
75640.0		84085.0		75640.0		8445.0
119614.0		135091.0		119614.0		15477.0
175012.0		192468.0		175012.0		17456.0
211725.0		233408.0		211725.0		21683.0
146749.0		157061.0		146749.0		10312.0
83867.0		89373.0		83867.0		5506.0
33942.0		36132.0		33942.0		2190.0
6837.0		7357.0		6837.0		520.0
3087.0		3178.0		3087.0		91.0
1258.0		1306.0		1258.0		48.0
619.0		645.0		619.0		26.0
575.0		597.0		575.0		22.0
2.01<|#eta|<2.37
132648.0		148988.0		132648.0		16340.0
208412.0		231687.0		208412.0		23275.0
278429.0		305408.0		278429.0		26979.0
310255.0		342050.0		310255.0		31795.0
204409.0		223041.0		204409.0		18632.0
112276.0		124849.0		112276.0		12573.0
45886.0		49808.0		45886.0		3922.0
9403.0		10153.0		9403.0		750.0
4032.0		4247.0		4032.0		215.0
1576.0		1674.0		1576.0		98.0
781.0		838.0		781.0		57.0
699.0		749.0		699.0		50.0
