0 < |eta| < 0.6
431563.71	570202.77	 279206.8		89687.64999999998
790308.0	974255.3	 510411.5800000001		118820.91
1190076.3	1402072.7	 767430.3		136677.67
1502410.4	1745774.8	 966952.7000000001		156658.33999999997
1037630.0	1189693.9	 668327.8		97933.5
662753.66	758210.9999999999	 428831.9		61731.488
313800.69	344479.88	 203065.65		19869.321000000004
68643.56099999999	76737.48	 44317.587		5238.8354
31198.110999999997	34427.01500000001	 20132.953		2080.6548999999995
13247.545999999998	14577.154	 8545.913		859.9986
6606.004000000001	7420.5470000000005	 4248.2390000000005		520.36589
7027.584	7907.622000000001	 4511.4562000000005		562.81987
0.6 < |eta| < 0.8
127483.66	168100.81	 82509.74		26304.202000000005
258336.36	315164.30000000005	 166856.81999999998		36716.343
402909.29000000004	470785.3900000001	 259712.34999999995		43841.876000000004
499584.42000000004	558354.88	 321625.97		37820.541999999994
336935.76	382790.77	 216903.69999999995		29526.615000000005
221508.36000000002	243324.96000000002	 143202.91999999998		14097.196
99871.95	109390.22999999998	 64662.075999999994		6127.540299999999
23049.479999999996	24573.654000000002	 14860.14		981.2960999999999
9746.546	10796.999	 6278.353499999999		682.49979
3871.7836	4565.512500000001	 2492.6647000000003		444.35291
2076.7365	2261.7739	 1334.2718000000002		119.27564999999998
2163.8486000000003	2423.2827999999995	 1384.0038		169.00767000000002
0.8 < |eta| < 1.15
220218.56	296463.79	 142489.89000000004		49383.399
410139.58	504131.31	 264929.92		60700.85100000001
658057.2000000001	766019.7000000001	 424149.74000000005		69575.51000000001
775146.1000000001	926404.7000000001	 498398.25000000006		97264.67000000001
557955.7899999999	609172.7699999999	 359052.48000000004		32958.63
359501.27	387945.3599999999	 232784.92		18376.943000000003
157006.94000000003	172408.78999999998	 101551.54		9942.342999999999
35403.08499999999	39138.151	 22834.242		2406.5417000000007
16582.738999999998	17607.75	 10673.767000000002		662.28382
7079.089	7576.973999999999	 4550.672700000001		322.24689
3473.7293999999997	3639.6926000000003	 2230.6589		105.52871499999999
3778.3122	4006.5879999999997	 2412.1996		145.96134
1.15 < |eta| < 1.37
129766.69	176268.72999999998	 83899.41		30091.459000000003
223953.02999999997	281893.67999999993	 144538.31999999998		37438.435999999994
356735.14	419318.37	 229741.71000000005		40337.06399999999
470612.4299999999	529504.39	 303047.54000000004		37879.97
316337.41	349619.79000000004	 203521.66		21412.722999999998
205134.26	221478.53999999998	 132429.02000000002		10546.405
91623.71999999999	98293.33	 59201.61499999999		4317.7841
20577.889	21865.512	 13271.553		825.2267
9435.606	9995.802	 6074.1705999999995		360.2533900000001
3999.5917	4218.329100000001	 2562.6089000000006		139.89632
2082.4591	2186.1047000000003	 1339.5269999999998		65.904919
2106.6201	2243.3324	 1347.6136000000001		86.92979899999999
1.52 < |eta| < 1.81
155392.27	204485.01000000004	 100450.65		31739.490000000005
256195.94	315755.91	 165214.4		38411.324
367496.55000000005	437609.15	 236499.87000000002		45128.708999999995
462500.97	534803.21	 296977.49000000005		46448.918
324838.17000000004	366210.05999999994	 208798.81999999995		26587.584
208752.90999999997	236353.19000000003	 136666.85		17754.753000000004
95100.73999999999	103464.29000000001	 61286.001		5381.9664999999995
20955.572999999997	22795.769000000004	 13464.817		1187.0978
9594.571999999998	10180.836000000001	 6151.798500000001		376.02203
4128.0386	4364.5797	 2641.048399999999		151.21761
2082.4592	2200.095	 1332.2502		75.608705
2140.9566999999997	2264.9523	 1368.6387		78.84329499999998
1.81 < |eta| < 2.01
101577.82	129829.85999999999	 66315.10399999999		18237.637999999995
169255.97	199232.64	 109165.27		19318.233
232521.83000000002	266773.23	 149809.2		22062.371
285530.84	318335.78	 183365.24000000005		21031.752
185534.79	207476.91000000003	 119189.89000000001		14085.055000000002
114471.01000000001	127464.25	 74064.19		8383.268
51302.657	57360.833	 33058.215		3984.2018
11704.373	12868.633999999996	 7510.33		745.1703699999999
5397.2249999999985	5772.3847	 3458.5937		238.55166000000003
2154.9469000000004	2346.9777	 1381.5798000000002		122.91464899999998
1073.3411	1208.1451	 684.926		86.52545999999998
1119.1226000000001	1203.6936999999998	 713.2286999999999		53.77519
2.01 < |eta| < 2.37
172532.42	223306.05000000005	 111274.92		32771.31
265634.29000000004	334646.82	 171100.55		44412.244000000006
360429.3900000001	421093.17	 232233.05999999997		39039.98700000001
411063.30000000005	475344.83	 263668.29000000004		41194.606
267599.52999999997	308936.73	 171728.31000000003		26507.365999999995
163395.75	188073.66999999998	 105070.23000000001		15855.287
73627.96	82905.80000000002	 47362.979		5971.823700000001
16274.983000000002	18227.075000000004	 10436.832		1249.3640000000003
7050.473000000002	8067.859	 4504.9863000000005		650.9626000000001
2923.7083	3286.7884	 1867.1719999999998		233.29542999999998
1319.4189999999999	1489.8318	 843.8256		109.16767
1345.4907	1519.7166000000002	 858.7856		111.59354999999998