0 < |eta| < 0.6
389109	489376
723101	884199
1140791	1340940
1469644	1682602
993367	1110863
599654	667690
256043	280218
54424	59092
24758	26657
10764	11535
5318	5731
5753	6217
0.6 < |eta| < 0.8
120891	152835
240278	296970
384385	455822
467251	539254
314152	355147
189961	211541
80265	87837
17096	18505
7622	8219
3196	3417
1676	1804
1746	1901
0.8 < |eta| < 1.15
197229	273604
372655	482572
613209	752107
746901	896441
474764	555862
288628	330539
120604	135473
26172	29240
12000	13261
5212	5786
2524	2787
2885	3184
1.15 < |eta| < 1.37
124546	163260
218304	268770
348159	412324
435944	508308
273535	313399
166351	187037
67508	75048
14431	16005
6798	7455
3014	3246
1556	1716
1627	1756
1.52 < |eta| < 1.81
138955	184736
229894	293038
347293	418504
429295	506178
306440	345902
192674	211962
75830	82319
15347	16740
7044	7482
3163	3328
1582	1661
1668	1747
1.81 < |eta| < 2.01
87904	115814
142599	181888
208330	251194
257397	302234
172581	200080
102971	118010
40682	45714
8188	9140
3623	3989
1549	1690
719	783
767	842
2.01 < |eta| < 2.37
164376	205501
258052	312680
342795	401673
391210	449432
253095	286017
146916	165820
55443	62677
10890	12225
4787	5277
1913	2100
919	1020
924	1021
