0 < |eta| < 0.6
347455	458122
669477	834862
1107625	1285106
1443553	1638617
968567	1072633
575859	631219
251590	267413
53115	55943
24553	25477
10652	11014
5281	5502
5689	5939
0.6 < |eta| < 0.8
107078	141954
226574	280777
370586	437356
466199	525056
313199	342869
184306	199750
79129	83761
16784	17515
7503	7819
3167	3281
1656	1717
1776	1847
0.8 < |eta| < 1.15
187267	253924
362400	452607
612991	720407
770977	872221
489255	535726
288767	312499
122866	129260
26059	27735
12224	12672
5418	5546
2629	2682
2950	3041
1.15 < |eta| < 1.37
110277	150528
200221	250202
336610	393287
440161	494621
273930	301657
162975	176514
67253	71416
14352	15125
6809	7109
3012	3117
1601	1653
1596	1692
1.52 < |eta| < 1.81
129806	169094
225266	271411
338548	396746
430061	490867
303553	333146
184121	199060
73145	77873
14948	15817
6875	7142
3071	3166
1540	1583
1646	1686
1.81 < |eta| < 2.01
84618	108379
142413	171508
205529	239534
263381	293555
175495	193227
103093	111609
40750	43598
8127	8671
3620	3814
1549	1606
718	753
772	805
2.01 < |eta| < 2.37
152695	193722
251184	296414
338837	383662
391992	436219
252406	276187
144743	157111
55261	59744
10748	11564
4784	5062
1907	2012
903	978
902	979
