0 < |eta| < 0.6
0.006204304238090708
0.005511155889693642
0.001965962702195956
0.0006207704665852631
0.000855120540663945
0.0004322764742308305
0.000973483174543377
0.001070740876262466
0.0016217974786498779
4.477768138011484e-05
0.0020685794890065168
0.0018806142027486539
0.6 < |eta| < 0.8
0.004323681243354471
0.0039006365378049246
0.0015556852317223369
0.0004508078312641661
0.0004839927449925563
0.0006276928997920317
0.0006381157919708169
0.000328608894138549
0.000705182949885863
0.0023156922560874094
0.00031868807352875006
0.0009091084933944282
0.8 < |eta| < 1.15
0.004179262381518667
0.004915868672079937
0.001996913243861753
0.0005755410261653049
0.0005373029873290136
0.0006783540389146969
0.0005867772001402205
0.0001302986655143945
0.00084198546124159
5.292656062183543e-05
0.00041288850869691807
0.0029557056014610783
1.15 < |eta| < 1.37
0.005622502223900594
0.005132502496891012
0.0021489635053025813
0.0007872198784968365
0.0007923328100504223
0.001067461222289956
0.0009275001493493917
0.0002618073216599237
0.0025176535778475007
0.0022136928655660526
0.004027000309302697
0.00211880309802448
1.52 < |eta| < 1.81
0.019429924740350213
0.01522025247704295
0.005624200986847794
0.002055656910607495
0.001715088680472765
0.003215933429493667
0.004043974300568354
0.00253292658519777
0.002550835084717762
0.002515161187360393
0.00024439655435770646
0.0032826029018921954
1.81 < |eta| < 2.01
0.0033708790929163346
0.003592517396620254
0.0017328904980377091
0.0007670481572868981
0.0009958810811834251
0.0006827163787993529
0.0007951601001844333
0.00206202907825348
0.0012822246728116937
0.009670582909816705
0.0032328972137454226
0.004089323453772331
2.01 < |eta| < 2.37
0.0028239792197507496
0.002802968797312788
0.0012455994643379986
0.0007652965337405782
0.000498608938296119
0.00036895012712412356
0.00025328653818523783
0.00037801373391377346
0.0010977164389969207
0.000720830238444492
0.002039518839106802
0.00296984032847758
