0 < |eta| < 0.6
0.58561117	0.7324216299999997   2.1367226550000008e-06   5.567077059999997e-07
0.8862982099999998	1.0664620399999998   3.2341416380000006e-06   6.740698019999997e-07
1.4485340999999996	1.6396208000000008   5.3063880300000005e-06   7.200851269999999e-07
2.0235703	2.2586013000000005   7.3603493300000005e-06   8.636098109999999e-07
1.986850700000001	2.1827650000000003   7.205066069999999e-06   7.52056885e-07
1.39122756	1.5170504999999999   5.105217850000001e-06   4.776520210000001e-07
0.6381796400000004	0.6835118400000001   2.3517928209999998e-06   1.6771281910000004e-07
0.14203003600000014	0.15009355799999996   5.284474449999999e-07   2.9461091940000012e-08
0.06437326799999998	0.06716738699999997   2.3526149269999998e-07   9.209789979999997e-09
0.027255107000000008	0.028169399999999997   9.945182180000002e-08   2.644368059999999e-09
0.014150450899999998	0.014635467900000006   5.41239356e-08   1.7158142722893207e-09
0.01517927329999999	0.0156413033   5.64708393e-08   1.3805283099e-09
0.6 < |eta| < 0.8
0.1735306400000001	0.21431560000000005   6.374688489999998e-07   1.576120706e-07
0.27439636000000006	0.32126577   1.0166310309999997e-06   1.7609300460000003e-07
0.4764643999999998	0.5372847800000001   1.7522634719999994e-06   2.3009457439999994e-07
0.6729296699999999	0.7398631899999998   2.4279263740000007e-06   2.5138241430000005e-07
0.6572057200000001	0.70553706   2.3901783190000007e-06   1.8621161219999999e-07
0.45008167000000004	0.48500827999999996   1.6293177680000005e-06   1.3527830669999997e-07
0.20407815	0.21619921999999994   7.625732400000002e-07   4.2794738100000005e-08
0.04597262300000001	0.04774187399999998   1.6470539970000008e-07   6.235573940000002e-09
0.019885028800000003	0.020503279200000002   7.110590270000002e-08   1.997744265200001e-09
0.0086793125	0.0088822875   3.0827648270000014e-08   1.6443511585500002e-09
0.004472251440000002	0.004582412140000001   1.728810539999999e-08   2.4316373099000004e-10
0.004766330700000002	0.004855692980000001   1.890824254000001e-08   3.1765393829e-10
0.8 < |eta| < 1.15
0.30296269	0.3760253599999999   1.1049425199999999e-06   2.880909365000001e-07
0.42690338999999994	0.5032032899999997   1.558477323e-06   2.8062121579999995e-07
0.6973689999999998	0.7856050900000002   2.5492211419999982e-06   3.304941651000001e-07
1.0425916800000006	1.14555399   3.8079943699999995e-06   3.824572219999999e-07
1.02118922	1.10210023   3.7203732600000012e-06   2.9530268470000004e-07
0.7270005099999997	0.7780634899999996   2.6515302829999994e-06   1.8855050959999994e-07
0.32405703	0.3393767499999999   1.1682791469999997e-06   5.823253370000001e-08
0.07226374699999999	0.07607769000000002   2.711243886999999e-07   1.3784426636999997e-08
0.032705656400000005	0.033606368899999996   1.199040388e-07   2.625961420599999e-09
0.013840371100000005	0.0140775184   5.0735359599999986e-08   5.558834321e-10
0.007295643400000003	0.0074362803000000005   3.0588520060000005e-08   3.2621913900000004e-10
0.007862424000000002	0.008007231200000001   2.9468292619999997e-08   5.232452615820001e-10
1.15 < |eta| < 1.37
0.165236085	0.20660628000000006   6.119365069999998e-07   1.5510018300000003e-07
0.22309131000000007	0.25759491   8.138700530000001e-07   1.2246894719999997e-07
0.36186551999999994	0.3969306500000001   1.3412174379999997e-06   1.323654813e-07
0.5607874999999999	0.6062961299999999   2.0561802109999994e-06   1.7086204270000013e-07
0.5838025299999997	0.62210523   2.107101782e-06   1.4528052850000003e-07
0.4009695500000002	0.44465684000000005   1.4689164300000006e-06   1.566724085e-07
0.18209229000000002	0.19303936000000008   6.710283049999997e-07   3.997205799999998e-08
0.039637843	0.04185583500000001   1.4765302609999996e-07   8.53218402e-09
0.018139590800000004	0.018834480899999995   6.04639205e-08   2.2345084158200003e-09
0.00771399721	0.007987428509999998   2.71561571e-08   7.809023730000001e-10
0.003842788479999999	0.003978817379999999   1.3892274100000003e-08   5.555364406399999e-10
0.004367076404	0.004531122404000001   1.5081536889999997e-08   3.310621607297001e-10
1.52 < |eta| < 1.81
0.2094330099999999	0.2630041000000001   7.562037899999998e-07   1.9251925719999997e-07
0.2448730799999999	0.29922234999999997   8.954310309999999e-07   2.026559987000001e-07
0.36811728	0.4231029599999998   1.3452575290000003e-06   1.9637097220000003e-07
0.5714012799999995	0.6411530799999996   2.0786745089999994e-06   2.611279202e-07
0.6033439400000001	0.6594378499999998   2.2323186990000004e-06   2.0966503019999998e-07
0.4468678800000001	0.4874398599999998   1.647075375e-06   1.6044484929999995e-07
0.19419451999999993	0.20862475000000003   6.959511479999999e-07   5.83440253e-08
0.042625675999999994	0.04504841   1.5760932549999998e-07   8.419884789999998e-09
0.018671838599999997	0.0195699894   6.849269900000001e-08   2.916841971e-09
0.008318043199999996	0.008611111000000003   2.9593603780000003e-08   1.146745512966e-09
0.004013608836	0.004169401535999999   1.2775603783999997e-08   9.402178181999999e-10
0.004427722720000001	0.00458270922   1.5167310899999998e-08   5.200364641399999e-10
1.81 < |eta| < 2.01
0.13221794799999997	0.16337205   4.867015649999998e-07   1.1417821619999998e-07
0.18302892000000007	0.21124551000000005   6.742447120000001e-07   1.090377761e-07
0.28699733000000005	0.31854336000000016   1.02608914e-06   1.1717408890000006e-07
0.4187484399999998	0.4547565999999997   1.534171889e-06   1.3648385140000004e-07
0.3807921700000001	0.40843713999999975   1.3627540309999997e-06   1.0719706840000003e-07
0.25134364	0.2701366199999999   9.125759310000001e-07   6.889484140000002e-08
0.111873787	0.11962962599999998   4.074396190000002e-07   2.808780608000001e-08
0.024215671999999994	0.025932215000000005   8.473309590000002e-08   6.7458597895e-09
0.0106006183	0.011193591000000006   3.4500782500000004e-08   3.1716564030000003e-09
0.004629340239432999	0.004836337739432999   1.6901379090434858e-08   1.5471063704e-09
0.002094026445	0.002183494355000001   6.234953567500001e-09   3.3186054397400015e-10
0.0021572385900000004	0.002235588150000001   7.3223398600000024e-09   2.0032724128000004e-10
2.01 < |eta| < 2.37
0.23456490999999996	0.29305075999999997   8.500140510000003e-07   2.1557889889999998e-07
0.31781327000000015	0.3858301300000002   1.1534327439999996e-06   2.5328026650000007e-07
0.4811491299999998	0.55617893   1.714480189e-06   2.809738523e-07
0.6233000899999999	0.7070322699999998   2.2392116159999995e-06   3.0737617600000015e-07
0.5623200899999997	0.62096431   2.053761534e-06   2.1211240790000002e-07
0.3676924300000001	0.4042533999999998   1.3432329930000003e-06   1.4012745559999992e-07
0.16263796000000003	0.17621620999999998   5.925000219999998e-07   4.659730269999999e-08
0.03502024399999999	0.037809856999999975   1.2556720509999995e-07   1.128314215e-08
0.015245531900000001	0.0162649253   5.52315213e-08   3.2721064107206783e-09
0.0062813149	0.006627731399999998   2.229531766e-08   1.3777369498569797e-09
0.002743396429999998	0.0028880886299999997   8.104728620000001e-09   3.9167701376999993e-10
0.00274281564	0.0028716491600000002   8.93964891e-09   3.9738715925999996e-10