0 < |eta| < 0.6
0.012789943566245854
0.0057914990124490195
0.002312801124761177
0.0010102672647905875
0.0008165965866810954
0.0013843537379131243
0.002765169659167954
0.004366219011151751
0.0038930126266162324
0.0037365652342654654
0.0021009549299257912
0.003672545517322212
0.6 < |eta| < 0.8
0.013166297822708839
0.0056567780164873405
0.0019060356829041503
0.0008266605577748054
0.0008478509700531323
0.0011193085654908064
0.002384586545025047
0.003386067966227313
0.004284588203476214
0.0006674554275760691
0.0006488627391049162
0.0022653447547651417
0.8 < |eta| < 1.15
0.013424183458608963
0.0062411601828610275
0.002217675838459998
0.0009466791449318501
0.0008448784869609094
0.0015206843550857885
0.002426825490806417
0.004606672665094069
0.0029247376052653484
0.00420843273491589
0.0065716189001457925
0.0026172549786512844
1.15 < |eta| < 1.37
0.014463003307184641
0.006246262438401096
0.0023316641715113162
0.0009459440839695299
0.0011734738533628608
0.0017833530850432933
0.0023543210254487468
0.0038050801512984345
0.006670143023763009
0.004291368721295541
0.00603674307084634
0.010056808317024046
1.52 < |eta| < 1.81
0.02818886492319994
0.01475720916887946
0.004138999058379889
0.001992748551903234
0.0019639577721518586
0.0026359564292243176
0.004570202104159149
0.004644346054413218
0.004759409748666843
0.004463250425303267
0.004237539310138261
0.000584054275329482
1.81 < |eta| < 2.01
0.011306128476104571
0.005515585150057789
0.002014917879224254
0.0010977569539198928
0.0011665215603871015
0.0008443118329704014
0.0017338325470528382
0.0018600518295139867
0.0007527647076904787
0.00024105218679904006
0.003663699808896248
0.0009828741623231219
2.01 < |eta| < 2.37
0.00675984899578741
0.004112667529426184
0.0018293648294103182
0.000744153450822238
0.0007988853048211952
0.001457813179752132
0.001378300107468422
0.0028481257095339663
0.0022907921240724605
0.00589633487388197
0.00026840824894669435
0.0008819759435851893
