0 < |eta| < 0.6
101458673	128597805
57718622	70769804
33950586	39186690
20989916	23946864
13562840	15147640
14607282	16221343
10939510	11965927
3521851	3843155
1618669	1724502
495462	532760
71592	87300
47582	61128
0.6 < |eta| < 0.8
28664199	35782537
17432685	20619247
9768183	11171185
6221018	6941400
4019367	4380090
4205320	4662375
3168917	3442729
1026627	1089962
471767	500756
147369	155027
20887	23634
14059	17442
0.8 < |eta| < 1.15
84008307	105114798
46559569	55587773
27977173	31996809
17163508	19197359
11241871	12295219
12071734	13118826
9242017	9906043
2997588	3219896
1357599	1426192
431269	454154
64457	72696
47085	57155
1.15 < |eta| < 1.37
70952795	90554873
38989533	45883144
22850647	25357337
13838478	15295818
8958245	9667059
9536954	10891802
7093114	7661622
2308187	2473128
1073595	1137199
332156	355396
48539	54838
37588	43193
1.52 < |eta| < 1.81
120216206	153208768
63715990	78370022
37033314	42833414
22236725	25216702
13789548	15315466
14772539	16341367
11051819	12063161
3588840	3860584
1661042	1771457
512337	546327
79979	92147
53687	64767
1.81 < |eta| < 2.01
64605186	82208566
35707779	41796503
19871873	22479258
11966280	13179163
7832116	8568695
8359273	9148111
6169063	6704276
1984819	2160620
917066	988133
283951	305826
43333	49480
27797	35761
2.01 < |eta| < 2.37
110527780	140513476
57921325	71433921
33351492	39138958
19749260	22811337
13107104	14683482
14187238	15973311
10614874	11773086
3396327	3735754
1566761	1715483
468406	519625
71331	85929
44372	57995
