0 < |eta| < 0.6
429979.49999999994			324415.5
796848.9999999999			648104.0
1238690.0			1053243.5
1607258.0			1383032.5
1087582.5			951508.4999999999
640820.9999999999			561514.5
272642.0			248704.99999999997
57267.99999999999			51089.99999999999
26093.999999999996			23565.5
11367.0			10381.5
5682.5			5065.0
6139.0			5455.5
0.6 < |eta| < 0.8
133243.0			99772.49999999999
268415.0			218086.49999999997
423284.0			359437.0
516475.0			460755.0
348977.0			307401.5
203220.49999999997			184579.49999999997
85372.0			77710.5
18009.0			16796.5
8044.499999999999			7180.499999999999
3385.5			2802.5
1813.4999999999998			1652.9999999999998
1880.0			1644.0
0.8 < |eta| < 1.15
237480.99999999997			174643.99999999997
428221.49999999994			344844.0
691429.5			587647.0
861338.5			719227.5
553628.0			503165.49999999994
322413.99999999994			297453.5
133625.5			120962.49999999999
28558.499999999996			25600.499999999996
13005.499999999998			12186.499999999998
5725.5			5283.5
2765.5			2631.0
3108.5			2894.0
1.15 < |eta| < 1.37
141532.99999999997			104523.49999999999
237813.99999999997			188951.99999999997
376261.49999999994			320168.5
489239.5			433373.5
312905.0			283025.0
183344.49999999997			169380.49999999997
74168.0			68791.5
15664.999999999998			14622.999999999998
7265.999999999999			6788.999999999999
3211.5			3047.5
1711.4999999999998			1631.5
1758.5			1623.5
1.52 < |eta| < 1.81
160442.49999999997			123986.99999999999
261202.99999999997			214764.99999999997
385316.99999999994			327987.99999999994
480391.99999999994			421823.0
335094.0			305094.0
201396.49999999997			182893.49999999997
79459.99999999999			74165.0
16232.499999999998			15019.499999999998
7340.499999999999			6976.999999999999
3308.4999999999995			3137.9999999999995
1641.5			1556.5
1733.9999999999998			1651.5
1.81 < |eta| < 2.01
103648.49999999999			79497.99999999999
165779.5			137698.0
233300.99999999997			198537.49999999997
288980.0			256226.0
197599.5			175701.5
114581.99999999999			102640.49999999999
44845.49999999999			39963.5
8980.0			8189.499999999999
3967.9999999999995			3677.9999999999995
1629.5			1496.0
778.0			686.5
840.9999999999999			777.0
2.01 < |eta| < 2.37
185537.99999999997			140910.5
286565.0			227522.99999999997
373963.99999999994			320801.5
430274.5			374723.5
285487.0			249183.99999999997
162808.49999999997			143414.5
61944.99999999999			54979.49999999999
11975.0			10644.5
5269.0			4489.5
2100.0			1856.5
1029.0			859.4999999999999
1029.5			864.0
