0 < |eta| < 0.6
313791.0			389970.49999999994
606876.5			738070.0
1006201.9999999999			1176837.0
1360677.0			1557613.0
922580.9999999999			1039582.4999999999
521730.49999999994			586718.0
229420.49999999997			253772.99999999997
47731.49999999999			52561.99999999999
22163.0			24354.999999999996
9815.5			10628.0
4829.0			5357.5
5256.5			5768.0
0.6 < |eta| < 0.8
96033.49999999999			119215.99999999999
202539.5			249427.99999999997
336951.5			403231.0
430957.0			500118.0
294683.0			333471.0
164625.49999999997			185981.49999999997
71658.5			79325.0
15129.999999999998			16565.0
6912.499999999999			7486.499999999999
2878.0			3184.5
1552.9999999999998			1704.4999999999998
1643.0			1797.0
0.8 < |eta| < 1.15
159726.0			212783.99999999997
312620.0			394258.49999999994
528227.0			658186.5
697477.0			834806.5
447511.49999999994			528351.0
258852.99999999997			295398.0
110381.49999999999			124151.49999999999
23389.499999999996			26292.499999999996
10870.0			12150.5
4810.0			5356.5
2325.0			2599.5
2604.5			2923.5
1.15 < |eta| < 1.37
102166.99999999999			125695.99999999999
183006.49999999997			216943.99999999997
307703.5			356800.5
412633.0			474418.5
263321.5			298222.0
149620.0			167651.49999999997
62241.99999999999			68778.0
13067.999999999998			14394.999999999998
6232.5			6762.999999999999
2808.0			3029.5
1486.5			1616.5
1548.5			1665.5
1.52 < |eta| < 1.81
112195.99999999999			140775.49999999997
191466.99999999997			236326.99999999997
308628.49999999994			362648.99999999994
398372.5			464015.99999999994
287932.5			319767.0
169279.99999999997			183138.49999999997
68239.0			73060.0
13607.499999999998			14880.499999999998
6399.999999999999			6828.499999999999
2937.4999999999995			3098.4999999999995
1463.5			1538.5
1554.5			1638.0
1.81 < |eta| < 2.01
72470.0			94554.49999999999
120476.99999999999			153515.5
181695.0			220770.99999999997
236830.5			279480.0
163616.0			189178.5
90489.49999999999			105101.99999999999
36783.0			41673.5
7311.999999999999			8273.0
3333.9999999999995			3724.9999999999995
1378.5			1517.5
650.5			723.0
710.0			787.9999999999999
2.01 < |eta| < 2.37
131247.5			171032.0
217452.49999999997			267275.0
299300.5			354464.0
352935.5			415751.5
237180.99999999997			273137.0
127309.49999999999			149781.5
49684.5			57512.99999999999
9558.0			11007.0
4380.5			4943.0
1755.5			1960.9999999999998
846.9999999999999			960.9999999999999
858.4999999999999			970.5
