0 < |eta| < 0.6
448870.91199999995	570202.597   290386.88  78507.22900000002
789672.08	974255.24   510039.5189999999  119192.757
1191053.21	1402072.85   768088.62  136019.36899999995
1518367.6800000002	1745775.12   977163.62  146447.426
1049035.99	1189693.8400000003   675658.35  90603.09599999999
671375.9	758210.9500000001   434404.995  56158.28059999999
310255.853	344480.041   200773.54400000002  22161.432099999998
69602.438	76737.484   44945.90800000001  4610.513040000001
31212.080299999994	34427.036100000005   20147.5196  2066.09989
13274.245799999999	14577.140499999998   8564.5105  841.3996400000001
6686.1241	7420.5477999999985   4298.374559999999  470.22969
7187.820929999999	7907.621160000001   4613.343110000001  460.93021400000003
0.6 < |eta| < 0.8
133600.596	168100.84299999996   86479.412  22334.5288
254836.91600000003	315164.5950000001   164597.43  38975.679500000006
394379.228	470785.29099999997   254217.17400000003  49337.0597
482794.4879999999	558354.8690000001   310834.661  48611.73350000001
338226.902	382790.86699999997   217735.36199999996  28694.911399999997
214959.75699999998	243324.95400000003   138972.37900000002  18327.6363
98633.282	109390.22500000002   63854.256  6935.381889999999
22462.571699999997	24573.648199999996   14479.6877  1361.76444
9980.542200000002	10796.986599999998   6432.8053899999995  528.048015
4144.57139	4565.512320000001   2666.9249199999995  270.08904
2050.0293699999997	2261.7717700000003   1318.09832  135.44857
2236.97365	2423.2812999999996   1432.92606  120.084319
0.8 < |eta| < 1.15
217298.106	296464.00399999996   140594.05700000003  51279.2666
396100.24799999996	504131.29800000007   255892.25800000003  69738.72600000001
609185.1900000001	766019.7200000002   392669.56200000003  101055.84599999999
773305.6400000001	926404.7099999998   497206.21599999996  98456.62200000002
517528.82600000006	609172.9400000001   333044.765  58966.409199999995
340534.67300000007	387945.347   220541.124  30620.738500000003
153604.394	172408.86800000002   99345.40699999999  12148.492600000001
34837.1451	39138.1465   22467.1269  2773.6663400000007
15749.7505	17607.7313   10136.0147  1200.03539
6873.701099999998	7576.9726   4416.034630000001  456.88681
3249.9082199999993	3639.6919500000004   2085.1029400000007  251.08556000000004
3616.80123	4006.5876299999995   2307.88582  250.277145
1.15 < |eta| < 1.37
139236.692	176268.65399999998   90028.558  23962.291900000004
234959.75600000002	281893.87600000005   151660.012  30316.660599999996
359108.203	419318.247   231294.23099999997  38784.4354
459457.97599999997	529504.589   295877.04099999997  45050.5423
306573.09	349619.6280000001   197246.46800000002  27687.8281
196863.259	221478.622   127090.157  15885.2365
89126.06599999999	98293.326   57591.59999999999  5927.8037
19944.558599999997	21865.5135   12864.807300000002  1231.9771400000002
9212.417399999998	9995.804999999998   5930.633639999999  503.7884889999999
3904.8469900000014	4218.33095   2501.55642  200.949385
1984.53724	2186.10604   1276.4542399999998  128.97948000000002
2078.6444100000003	2243.3308099999995   1329.8240200000002  104.72003999999998
1.52 < |eta| < 1.81
152134.78000000003	204485.607   98334.827  33855.7254
245171.329	315756.004   158118.60700000002  45507.233499999995
363566.2789999999	437609.72   233952.139  47676.7697
447821.2510000001	534803.8760000002   287536.597  55890.3194
318393.57399999996	366211.35000000003   204647.70200000002  30739.585000000006
211929.516	236353.056   138702.91600000003  15718.5511
94716.687	103464.269   61040.17300000001  5627.79374
20596.9502	22795.785000000003   13233.558099999998  1418.370418
9330.6882	10180.839300000003   5984.00361  543.8164549999999
4112.7785	4364.57983   2631.3452400000006  160.92115900000005
2072.2837500000005	2200.0934100000004   1325.77939  82.07789499999998
2139.68661	2264.95244   1367.8318399999998  79.65195899999999
1.81 < |eta| < 2.01
98066.444	129829.828   64041.83260000001  20510.932399999994
156704.50799999997	199232.74800000002   101008.09400000001  27475.428999999996
221034.83499999996	266773.31600000005   142422.478  29448.980600000003
270247.67799999996	318335.798   173446.952  30949.733900000003
178392.58700000003	207476.96   114607.97900000002  18666.8578
109636.52299999999	127464.233   70944.00699999998  11503.4478
50573.9598	57360.84490000001   32594.0229  4448.367560000001
11306.958	12868.645799999997   7255.2017  1000.299369
5162.590010000001	5772.385319999999   3308.5879900000004  388.5561550000001
2104.7124500000004	2346.97781   1349.63606  154.856235
1092.41639	1208.1449499999999   697.0559190000001  74.39574499999999
1088.60095	1203.69225   693.01232  73.991419
2.01 < |eta| < 2.37
174006.82599999997	223305.87600000002   112230.37500000001  31815.9273
269738.82200000004	334646.71300000005   173716.156  41796.6539
352859.245	421093.1099999999   227386.38700000002  43886.62870000001
405083.175	475344.84900000005   259817.77599999998  45045.0193
269057.627	308936.731   172665.137  25570.548099999996
160167.48500000002	188073.65899999999   102978.667  17946.8657
72330.81700000001	82905.79499999998   46536.5461  6798.262499999999
16164.966699999999	18227.0889   10365.2672  1320.9294200000002
7224.0653999999995	8067.859100000001   4617.792280000001  538.1560579999999
2916.0791799999993	3286.7888999999996   1863.9363600000004  236.53004
1339.76742	1489.83212   857.57269  95.42048
1377.91996	1519.7175200000001   879.4065099999999  90.973085