0 < |eta| < 0.6
450393.17000000004	570202.77   291368.09  77526.34
791261.0	974255.3   511062.04000000004  118170.44999999998
1193060.6000000003	1402072.7   769371.9999999998  134736.06999999998
1520394.6	1745774.8   978475.4999999998  145135.54
1050447.0	1189693.9   676565.22  89696.23000000001
672292.19	758210.9999999999   434998.95  55564.31499999999
310727.66	344479.88   201080.95  21854.168
69630.39600000001	76737.48   44963.705  4592.722
31246.418	34427.01500000001   20169.339  2044.2671999999998
13283.148	14577.154   8570.172999999999  835.7391000000001
6668.954	7420.5470000000005   4287.46  481.14629
7192.272	7907.622000000001   4616.1725  458.09984
0.6 < |eta| < 0.8
133986.77	168100.81   86731.29  22082.638000000003
255484.53999999998	315164.30000000005   165010.36000000002  38562.874
395064.61	470785.3900000001   254668.34000000003  48885.82199999999
483448.68	558354.88   311249.15  48197.315
338711.6099999999	382790.77   218048.95000000004  28381.156
215079.1	243324.96000000002   139047.62  18252.425000000003
98807.52	109390.22999999998   63965.054000000004  6824.5960000000005
22456.852	24573.654000000002   14476.838000000002  1364.5952000000002
9955.742999999999	10796.999   6416.2274  544.62532
4156.6522	4565.512500000001   2675.4151  261.59819
2055.1164000000003	2261.7739   1321.3336  132.2142
2237.6105000000002	2423.2827999999995   1433.3300999999997  119.68003999999999
0.8 < |eta| < 1.15
218102.99999999997	296463.79   141114.74  50758.50699999999
397181.25000000006	504131.31   256590.00000000003  69040.856
610530.39	766019.7000000001   393538.7900000001  100186.55
775039.8	926404.7000000001   498319.4199999999  97343.51000000001
518160.31	609172.7699999999   333451.07  58560.05100000001
340699.32999999996	387945.3599999999   220644.41000000003  30517.614
153778.58	172408.78999999998   99457.02  12036.897999999997
34863.85	39138.151   22481.665  2759.1114
15765.003999999997	17607.75   10146.529999999999  1189.5226000000002
6871.796000000001	7576.973999999999   4416.4384  456.48226999999997
3271.5268	3639.6926000000003   2098.0407000000005  238.14721999999998
3597.7275	4006.5879999999997   2294.9486  263.21534
1.15 < |eta| < 1.37
139517.24000000002	176268.72999999998   90210.9  23779.947000000004
235249.94000000003	281893.67999999993   151851.92  30125.028
359892.36	419318.37   231796.85  38281.88
459949.6099999999	529504.39   296198.49  44729.100999999995
306598.41000000003	349619.79000000004   197262.03999999998  27672.506
197058.51000000004	221478.53999999998   127216.73  15758.684999999998
89052.93999999997	98293.33   57542.68500000001  5976.7275
19942.007	21865.512   12860.766  1236.0205999999998
9232.763	9995.802   5943.573400000001  490.85014
3898.4903000000004	4218.329100000001   2499.1313000000005  203.37538
1999.1607999999999	2186.1047000000003   1285.7507999999998  119.68001999999998
2083.7294	2243.3324   1333.0587000000003  101.48544899999999
1.52 < |eta| < 1.81
152224.53999999998	204485.01000000004   98396.68000000001  33793.437
245532.61000000002	315755.91   158349.88  45275.969000000005
364183.1499999999	437609.15   234348.39999999997  47280.094
448594.32000000007	534803.21   288026.7  55399.88299999999
318852.2	366210.05999999994   204944.79  30441.594
212199.68999999997	236353.19000000003   138877.21  15544.293999999998
94737.01999999999	103464.29000000001   61053.933  5614.0481
20638.924000000003	22795.769000000004   13260.234000000002  1391.6852999999999
9341.496999999998	10180.836000000001   5990.8775  536.94309
4096.879800000001	4364.5797   2620.427999999999  171.83805
2060.8399	2200.095   1318.5038000000002  89.355739
2131.4208	2264.9523   1362.5741  84.90817899999999
1.81 < |eta| < 2.01
98379.28999999998	129829.85999999999   64243.979999999996  20308.782
157012.69999999998	199232.64   101207.41999999998  27276.105
221575.3	266773.23   142768.62999999998  29102.885
270630.07999999996	318335.78   173695.26000000004  30701.884999999995
178817.99000000002	207476.91000000003   114882.65999999999  18392.341
109773.83999999997	127464.25   71028.95000000001  11418.532
50670.599	57360.833   32654.681  4387.7177
11354.640000000001	12868.633999999996   7285.528  969.9749999999999
5166.4062	5772.3847   3311.0139  386.13017
2118.7033	2346.9777   1358.5304999999998  145.96122
1092.4158	1208.1451   697.0556999999999  74.39571999999998
1093.6886	1203.6936999999998   696.2472  70.75680899999999
2.01 < |eta| < 2.37
174629.81999999998	223306.05000000005   112633.81999999998  31412.4
270448.7300000001	334646.82   174180.03999999998  41332.491
353549.16000000003	421093.17   227828.32  43444.704
405714.44	475344.83   260229.05  44633.818999999996
269451.75999999995	308936.73   172918.13  25317.447999999993
160493.72000000003	188073.66999999998   103188.50999999998  17737.037
72556.51999999999	82905.80000000002   46679.295  6655.5372
16180.876	18227.075000000004   10376.186  1310.0112
7238.69	8067.859   4627.0939  528.8567599999999
2935.7899	3286.7884   1876.4703  223.99579
1348.0348	1489.8318   862.8287999999999  90.16435999999999
1375.3770000000002	1519.7166000000002   877.7891  92.59033