0.00<|#eta|<0.60
335504.0		413109.0		335504.0		77605.0
629983.0		766305.0		629983.0		136322.0
987410.0		1205480.0		987410.0		218071.0
1302930.0		1582460.0		1302930.0		279526.0
902654.0		1055180.0		902654.0		152521.0
510793.0		592638.0		510793.0		81845.0
224584.0		254812.0		224584.0		30228.0
47104.0		52638.0		47104.0		5534.0
23206.0		24393.0		23206.0		1187.0
9909.0		10622.0		9909.0		713.0
4992.0		5357.0		4992.0		365.0
5332.0		5770.0		5332.0		438.0
0.60<|#eta|<0.80
97080.0		124486.0		97080.0		27406.0
210045.0		255996.0		210045.0		45951.0
331319.0		409638.0		331319.0		78319.0
418931.0		505608.0		418931.0		86677.0
288174.0		337397.0		288174.0		49223.0
160784.0		187491.0		160784.0		26707.0
70696.0		79655.0		70696.0		8959.0
14933.0		16589.0		14933.0		1656.0
7046.0		7493.0		7046.0		447.0
2953.0		3177.0		2953.0		224.0
1591.0		1696.0		1591.0		105.0
1701.0		1805.0		1701.0		104.0
0.80<|#eta|<1.15
160178.0		216726.0		160178.0		56548.0
288699.0		397139.0		288699.0		108440.0
481628.0		658748.0		481628.0		177120.0
648708.0		835279.0		648708.0		186571.0
427918.0		531503.0		427918.0		103585.0
235785.0		296729.0		235785.0		60944.0
102994.0		124301.0		102994.0		21307.0
21474.0		26414.0		21474.0		4940.0
10847.0		12159.0		10847.0		1312.0
4826.0		5385.0		4826.0		559.0
2390.0		2605.0		2390.0		215.0
2700.0		2950.0		2700.0		250.0
1.15<|#eta|<1.37
89667.0		125895.0		89667.0		36228.0
158192.0		215988.0		158192.0		57796.0
257868.0		353321.0		257868.0		95453.0
353450.0		470819.0		353450.0		117369.0
234659.0		297354.0		234659.0		62695.0
137355.0		167375.0		137355.0		30020.0
57532.0		68548.0		57532.0		11016.0
12157.0		14362.0		12157.0		2205.0
5818.0		6789.0		5818.0		971.0
2734.0		3039.0		2734.0		305.0
1440.0		1615.0		1440.0		175.0
1463.0		1665.0		1463.0		202.0
1.52<|#eta|<1.81
114498.0		143951.0		114498.0		29453.0
191852.0		239433.0		191852.0		47581.0
289103.0		364819.0		289103.0		75716.0
369745.0		464536.0		369745.0		94791.0
267301.0		320284.0		267301.0		52983.0
154983.0		183135.0		154983.0		28152.0
62354.0		72997.0		62354.0		10643.0
12804.0		14878.0		12804.0		2074.0
6045.0		6830.0		6045.0		785.0
2873.0		3108.0		2873.0		235.0
1452.0		1525.0		1452.0		73.0
1570.0		1642.0		1570.0		72.0
1.81<|#eta|<2.01
78118.0		96191.0		78118.0		18073.0
126753.0		154677.0		126753.0		27924.0
184593.0		221049.0		184593.0		36456.0
240277.0		279129.0		240277.0		38852.0
160173.0		189350.0		160173.0		29177.0
90546.0		105134.0		90546.0		14588.0
37030.0		41669.0		37030.0		4639.0
7326.0		8300.0		7326.0		974.0
3344.0		3708.0		3344.0		364.0
1378.0		1516.0		1378.0		138.0
658.0		723.0		658.0		65.0
741.0		797.0		741.0		56.0
2.01<|#eta|<2.37
148465.0		171938.0		148465.0		23473.0
237422.0		266840.0		237422.0		29418.0
315306.0		352631.0		315306.0		37325.0
364044.0		412847.0		364044.0		48803.0
244565.0		272757.0		244565.0		28192.0
134203.0		149605.0		134203.0		15402.0
50454.0		57403.0		50454.0		6949.0
9577.0		10987.0		9577.0		1410.0
4540.0		4956.0		4540.0		416.0
1834.0		1956.0		1834.0		122.0
902.0		967.0		902.0		65.0
863.0		974.0		863.0		111.0
