0 < |eta| < 0.6
331872	440347
659302	812970
1065558	1256031
1391362	1619713
957787	1096430
568563	649461
251584	276019
51792	58103
23889	26440
10517	11515
5154	5744
5516	6207
0.6 < |eta| < 0.8
102169	136864
221639	273782
363592	428964
463784	520528
309629	351795
187094	206056
78556	86471
17040	18267
7307	8159
2837	3426
1655	1840
1671	1892
0.8 < |eta| < 1.15
178987	244040
351711	437905
595011	701463
724863	868296
507289	558424
301484	326893
122288	135238
25975	28986
12324	13201
5325	5791
2625	2792
2948	3150
1.15 < |eta| < 1.37
106944	145641
193156	243860
324267	382313
436078	493293
285252	315757
171572	185955
69649	75105
14843	15904
6859	7358
3071	3244
1650	1735
1619	1777
1.52 < |eta| < 1.81
127838	166070
219987	268773
333254	392532
424485	484942
307330	338293
185472	204470
75095	80528
15229	16486
7069	7443
3197	3350
1587	1664
1659	1755
1.81 < |eta| < 2.01
81190	106158
140060	169222
201126	236929
258001	291557
176740	199304
103824	116118
40390	45411
8301	9112
3713	4011
1516	1649
695	786
779	850
2.01 < |eta| < 2.37
144156	189500
231112	291912
324997	379404
377923	434155
251474	287891
145420	165000
55621	62730
10772	12134
4561	5342
1881	2128
884	1039
877	1037
