0 < |eta| < 0.6
548443.9299999999	664020.81   675722.32  144871.68000000002
1033642.4700000001	1226433.76   1276990.09  242558.706
1544499.06	1784851.42   1911721.63  301797.518
1987445.1099999999	2259162.3000000003   2454209.71  342106.08499999996
1367684.8800000001	1540291.12   1696149.24  218602.06999999998
856703.91	961842.2400000001   1067487.66  133390.588
401523.22	444951.58900000004   502575.721  55761.086599999995
77812.636	86084.85099999998   97924.63  10415.700499999999
28502.7512	31386.3906   35349.9687  3593.5162600000003
11387.5283	12474.9477   14107.049799999999  1407.8732439999999
5436.698800000001	5913.69916   6693.693929999999  594.219529
5574.876629999999	6107.387060000001   6977.75421  688.5980359999998
0.6 < |eta| < 0.8
147631.72699999998	178900.131   182291.97199999998  39403.7381
322328.43200000003	386282.74   398007.558  80402.56599999999
519519.22199999995	606964.2   644041.4899999999  110083.494
631601.2399999999	728041.3499999999   781685.01  121342.54600000002
437947.91199999995	497280.751   542374.841  75072.561
272537.45099999994	309970.49   339949.18  47428.7956
127607.09599999999	141986.14800000002   159754.624  18325.507100000003
25063.243300000002	27477.2372   31335.116600000005  2980.8927840000006
9084.4457	9824.057   11381.969199999998  899.984167
3707.61912	3992.9631199999994   4731.168230000001  354.4125
1781.71524	1905.99991   2148.8726300000003  146.06075
1605.30669	1739.7374300000001   1962.1210299999996  164.00741900000003
0.8 < |eta| < 1.15
248573.56900000002	319179.756   307584.351  88948.13999999997
490937.787	603430.59   609156.9299999999  140593.491
830603.32	982903.49   1028261.8  190805.81600000002
1050567.94	1228522.4   1299821.58  221671.19800000003
699575.85	805695.19   867174.49  132710.394
443825.47800000006	503989.525   552655.65  76030.54000000001
203010.77500000002	227238.479   255223.251  30695.621499999997
39385.869600000005	43825.4677   49032.9989  5548.2899800000005
14911.222000000002	16543.1667   18764.8566  2136.00078
5828.55732	6494.293900000001   7272.590759999999  815.6468040000001
2641.51964	2925.9924699999992   3154.628595  410.77921299999997
2777.28421	3095.2242100000003   3463.7030400000003  414.745574
1.15 < |eta| < 1.37
156482.26200000002	190058.073   193962.11200000002  41859.26240000001
282734.02100000007	332227.26900000003   350330.787  61563.3394
454435.7320000001	525538.3680000001   562594.8600000001  88963.73599999999
610314.9700000001	698382.7000000001   756276.6400000001  110096.396
410534.708	460269.469   507897.689  61897.881
256082.92700000003	285037.03300000005   318850.13500000007  36474.3636
117005.40500000004	129135.86600000001   146591.61000000002  15489.7933
21781.923199999997	23882.390800000005   26969.8017  2658.5924300000006
8673.123599999999	9366.0127   10851.1022  859.4361159999999
3302.4752200000003	3623.29352   4196.58421  421.62115000000006
1637.20835	1782.2962499999996   2071.093431  172.58917999999997
1600.73264	1715.6047199999998   1937.0594100000003  131.4756476
1.52 < |eta| < 1.81
176854.766	220127.37999999998   218798.105  53883.58510000001
309155.508	375960.106   382522.981  83587.47000000002
472079.809	548769.71   583055.3900000001  95347.42300000001
617722.25	712868.9300000002   763597.29  118377.67
440465.8170000001	494700.453   545289.9400000001  68281.78300000001
276780.53099999996	306636.54500000004   344351.00399999996  37626.56510000001
123616.64899999999	134848.49   153873.67200000002  13920.0719
23156.341999999997	25240.5279   28879.2172  2627.3596370000005
8496.966719999999	9163.713500000002   10441.09287  841.8674824999999
3467.4289700000004	3705.48363   4350.851529999999  275.042733
1684.5742079999998	1783.0559279999998   2063.8455580000004  122.622768
1609.0557599999997	1704.7495199999998   1900.03301  101.36818
1.81 < |eta| < 2.01
117672.214	150586.612   145370.602  41173.6314
198981.61299999998	247654.63899999997   244835.06100000002  60962.0532
282426.11699999997	337144.27   348225.791  68583.9049
363559.494	429231.747   447313.328  82971.91400000002
241847.31900000002	284936.69000000006   297550.56799999997  54012.2882
146831.07400000002	169466.88400000002   183121.498  28997.478600000002
66781.57100000001	75838.32099999998   83767.118  11549.2828
12917.8499	14474.423   16153.6855  2010.0741730000002
4564.09693	5137.65046   5528.709929999999  735.21878
1747.50484	1922.3520400000002   2183.6420200000002  198.449317
883.3547649999999	992.0596650000001   1134.8701479  143.04292
809.58215	906.6346000000001   1044.274922  118.27155
2.01 < |eta| < 2.37
210429.97400000005	259350.73   258598.172  61048.045999999995
341771.69899999996	417345.82600000006   421438.76900000003  94168.00600000002
451999.366	539498.402   558878.924  109742.525
554481.81	645281.36   681737.13  113662.90000000001
371544.682	427208.40599999996   458342.067  69628.1688
217942.68899999998	248384.006   270499.734  38624.3918
95666.45199999996	108106.89199999999   118905.553  15633.471800000001
17602.4015	19683.0259   21881.330100000003  2587.1762839999997
6325.767649999999	7026.80445   7774.582999999999  890.0599209000001
2417.09083	2664.2413899999997   2944.46589  349.74229
1042.149575	1145.0267750000003   1276.0376149999997  112.198703
948.446503	1048.246103   1187.729672  115.19177400000002