0 < |eta| < 0.6
350719	440347
665707	812970
1073932	1256031
1417705	1619713
974714	1096430
578956	649461
249845	276019
52796	58103
24105	26440
10654	11515
5218	5744
5670	6207
0.6 < |eta| < 0.8
108785	136864
221101	273782
358047	428964
448928	520528
311052	351795
182562	206056
78105	86471
16661	18267
7507	8159
3108	3426
1679	1840
1734	1892
0.8 < |eta| < 1.15
180556	244040
345252	437905
562701	701463
726788	868296
474085	558424
286864	326893
120319	135238
25773	28986
11809	13201
5198	5791
2498	2792
2811	3150
1.15 < |eta| < 1.37
116298	145641
204308	243860
329387	382313
429904	493293
279088	315757
166158	185955
67891	75105
14383	15904
6736	7358
3002	3244
1584	1735
1635	1777
1.52 < |eta| < 1.81
127814	166070
213893	268773
332643	392532
415366	484942
303958	338293
188519	204470
74882	80528
15010	16486
6939	7443
3163	3350
1578	1664
1664	1755
1.81 < |eta| < 2.01
80401	106158
134256	169222
198109	236929
247317	291557
172294	199304
100054	116118
40086	45411
8056	9112
3589	4011
1501	1649
712	786
766	850
2.01 < |eta| < 2.37
148290	189500
237423	291912
321150	379404
373986	434155
253706	287891
142813	165000
54929	62730
10652	12134
4799	5342
1929	2128
928	1039
926	1037
