0 < |eta| < 0.6
367756	490621
718591	887685
1133622	1334812
1447272	1681530
1009188	1153037
624044	712004
271471	298203
56632	63631
25697	28515
11302	12408
5466	6126
5912	6649
0.6 < |eta| < 0.8
114592	154467
241090	298036
385553	454674
482259	540794
326087	370033
205192	226085
84967	93583
18559	19976
7857	8826
3048	3671
1799	1973
1743	1987
0.8 < |eta| < 1.15
200710	275259
386003	481454
632076	744579
753109	901644
534862	588327
330336	358330
132107	146281
28271	31657
13306	14247
5716	6224
2828	2986
3132	3378
1.15 < |eta| < 1.37
120562	165529
214247	270730
346605	407744
453499	512022
301288	333219
188398	204194
75338	81415
16176	17397
7372	7949
3270	3455
1753	1851
1728	1888
1.52 < |eta| < 1.81
143841	191317
243589	301050
357512	422222
442612	505765
323808	356686
204405	225785
81730	87993
16652	18082
7607	8051
3397	3603
1689	1787
1778	1871
1.81 < |eta| < 2.01
89748	117709
154174	184868
217762	253033
268992	303553
185896	209401
113678	127089
43688	49128
9044	9944
3982	4299
1636	1781
750	849
833	910
2.01 < |eta| < 2.37
157612	207909
250106	316541
346086	404254
394150	452485
264283	302563
158935	180171
60249	67921
11751	13255
4898	5739
2024	2294
957	1117
930	1102
