0 < |eta| < 0.6
299546.0			390073.0
604393.0			738255.0
1004554.0			1177250.0
1343642.0			1557896.0
911674.0			1039823.0
515932.0			586918.0
232367.0			253835.0
47166.0			52575.0
22145.0			24365.0
9744.0			10622.0
4808.0			5362.0
5172.0			5765.0
0.6 < |eta| < 0.8
90492.0			119261.0
203804.0			249528.0
343169.0			403254.0
446939.0			500262.0
294417.0			333557.0
169220.0			186027.0
72467.0			79359.0
15499.0			16558.0
6735.0			7492.0
2640.0			3181.0
1555.0			1707.0
1581.0			1797.0
0.8 < |eta| < 1.15
159032.0			212821.0
319783.0			394356.0
561264.0			658347.0
698875.0			834948.0
481270.0			528521.0
273244.0			295456.0
112729.0			124195.0
23719.0			26315.0
11438.0			12155.0
4972.0			5358.0
2478.0			2598.0
2732.0			2922.0
1.15 < |eta| < 1.37
94220.0			125753.0
173777.0			216990.0
304887.0			356882.0
421273.0			474564.0
270358.0			298295.0
155196.0			167716.0
63986.0			68795.0
13512.0			14411.0
6362.0			6767.0
2880.0			3033.0
1553.0			1619.0
1548.0			1666.0
1.52 < |eta| < 1.81
111883.0			140823.0
196997.0			236496.0
310060.0			362842.0
407968.0			464119.0
291558.0			319900.0
166923.0			183155.0
68514.0			73063.0
13852.0			14890.0
6525.0			6835.0
2953.0			3097.0
1467.0			1541.0
1558.0			1639.0
1.81 < |eta| < 2.01
73526.0			94607.0
129170.0			153576.0
190702.0			220825.0
248308.0			279561.0
168464.0			189207.0
94256.0			105147.0
37218.0			41694.0
7570.0			8280.0
3454.0			3723.0
1392.0			1517.0
634.0			723.0
733.0			790.0
2.01 < |eta| < 2.37
131614.0			171091.0
213046.0			267283.0
304702.0			354554.0
362810.0			415825.0
239001.0			273219.0
132611.0			149829.0
51165.0			57539.0
9801.0			11013.0
4250.0			4945.0
1754.0			1962.0
821.0			961.0
822.0			972.0
