0 < |eta| < 0.6
385669	490621
723525	887685
1139570	1334812
1471448	1681530
1024449	1153037
633884	712004
269080	298203
57597	63631
25891	28515
11396	12408
5561	6126
6041	6649
0.6 < |eta| < 0.8
121379	154467
239629	298036
379015	454674
466169	540794
326807	370033
200335	226085
84232	93583
18181	19976
8101	8826
3315	3671
1795	1973
1810	1987
0.8 < |eta| < 1.15
201252	275259
377618	481454
596082	744579
754276	901644
499168	588327
313980	358330
129597	146281
27974	31657
12667	14247
5535	6224
2639	2986
3015	3378
1.15 < |eta| < 1.37
130489	165529
225742	270730
350059	407744
444881	512022
293935	333219
181848	204194
73483	81415
15690	17397
7209	7949
3183	3455
1668	1851
1717	1888
1.52 < |eta| < 1.81
143661	191317
236260	301050
356688	422222
432271	505765
319738	356686
207649	225785
81511	87993
16371	18082
7452	8051
3402	3603
1692	1787
1779	1871
1.81 < |eta| < 2.01
88294	117709
143603	184868
208034	253033
257233	303553
180750	209401
109561	127089
43216	49128
8739	9944
3834	4299
1618	1781
771	849
816	910
2.01 < |eta| < 2.37
161013	207909
255937	316541
341092	404254
388508	452485
265766	302563
155133	180171
59142	67921
11584	13255
5136	5739
2048	2294
991	1117
984	1102
