0 < |eta| < 0.6
348685	440347
662580	812970
1069013	1256031
1411882	1619713
971182	1096430
577340	649461
249392	276019
52755	58103
24094	26440
10628	11515
5234	5744
5664	6207
0.6 < |eta| < 0.8
108150	136864
219575	273782
356339	428964
447152	520528
310000	351795
182190	206056
77941	86471
16668	18267
7519	8159
3102	3426
1676	1840
1730	1892
0.8 < |eta| < 1.15
178844	244040
342840	437905
559766	701463
723697	868296
472773	558424
286215	326893
120123	135238
25769	28986
11796	13201
5196	5791
2490	2792
2823	3150
1.15 < |eta| < 1.37
115605	145641
203623	243860
327721	382313
427909	493293
278373	315757
165667	185955
67866	75105
14395	15904
6718	7358
3002	3244
1574	1735
1632	1777
1.52 < |eta| < 1.81
127371	166070
213015	268773
331273	392532
414005	484942
303234	338293
188198	204470
74835	80528
14982	16486
6932	7443
3177	3350
1583	1664
1669	1755
1.81 < |eta| < 2.01
79779	106158
131341	169222
193846	236929
246208	291557
171454	199304
99740	116118
39962	45411
8012	9112
3591	4011
1499	1649
715	786
768	850
2.01 < |eta| < 2.37
147665	189500
236756	291912
320689	379404
373456	434155
253477	287891
142857	165000
54844	62730
10637	12134
4792	5342
1921	2128
925	1039
932	1037
