0 < |eta| < 0.6
313847.0			390073.0
606008.0			738255.0
1004671.0			1177250.0
1359577.0			1557896.0
921918.0			1039823.0
522591.0			586918.0
230052.0			253835.0
47961.0			52575.0
22293.0			24365.0
9847.0			10622.0
4899.0			5362.0
5282.0			5765.0
0.6 < |eta| < 0.8
95819.0			119261.0
201520.0			249528.0
335753.0			403254.0
430193.0			500262.0
294199.0			333557.0
164685.0			186027.0
71735.0			79359.0
15170.0			16558.0
6938.0			7492.0
2882.0			3181.0
1556.0			1707.0
1648.0			1797.0
0.8 < |eta| < 1.15
158876.0			212821.0
311230.0			394356.0
526960.0			658347.0
696681.0			834948.0
447910.0			528521.0
259161.0			295456.0
110656.0			124195.0
23514.0			26315.0
10899.0			12155.0
4832.0			5358.0
2334.0			2598.0
2624.0			2922.0
1.15 < |eta| < 1.37
101666.0			125753.0
182574.0			216990.0
306812.0			356882.0
412148.0			474564.0
263319.0			298295.0
149727.0			167716.0
62312.0			68795.0
13103.0			14411.0
6226.0			6767.0
2820.0			3033.0
1480.0			1619.0
1547.0			1666.0
1.52 < |eta| < 1.81
112065.0			140823.0
191052.0			236496.0
307776.0			362842.0
397176.0			464119.0
287397.0			319900.0
169105.0			183155.0
68234.0			73063.0
13601.0			14890.0
6410.0			6835.0
2952.0			3097.0
1473.0			1541.0
1559.0			1639.0
1.81 < |eta| < 2.01
72178.0			94607.0
120084.0			153576.0
181126.0			220825.0
236409.0			279561.0
162993.0			189207.0
90417.0			105147.0
36771.0			41694.0
7295.0			8280.0
3335.0			3723.0
1377.0			1517.0
655.0			723.0
715.0			790.0
2.01 < |eta| < 2.37
134508.0			171091.0
217901.0			267283.0
300333.0			354554.0
358009.0			415825.0
240784.0			273219.0
129953.0			149829.0
50385.0			57539.0
9679.0			11013.0
4445.0			4945.0
1783.0			1962.0
856.0			961.0
875.0			972.0
