0 < |eta| < 0.6
0.0125893377068792
0.005695639512270034
0.002307124281648032
0.0010035100131945418
0.000815275051661013
0.0014623298872780133
0.0027430059389353945
0.004203319422035112
0.0036320343067934857
0.004074715934198947
0.002340700420476627
0.003638675020830262
0.6 < |eta| < 0.8
0.012816347393824978
0.005518118055673926
0.0018892955872514827
0.0008711325822549076
0.0007646983401063956
0.0010899217972012432
0.0025686618287100726
0.0037270595016906105
0.004506355171217669
8.11150120947346e-05
0.0006288046662081825
0.002651823981947854
0.8 < |eta| < 1.15
0.013373513141352045
0.006182894817440943
0.0023685802565384106
0.0009395744886246948
0.0008457953538384411
0.0015919514700155624
0.002660672970222766
0.004368333699565907
0.002929879132662294
0.0044263959037491585
0.006362343967477813
0.002018187151657469
1.15 < |eta| < 1.37
0.014506067294535296
0.006262010281986807
0.002448083226635589
0.0010303525548397419
0.001140446697592945
0.001826771005961625
0.002115199439828741
0.004137333542578059
0.00702148752602505
0.004350317489936972
0.006939922711746149
0.010169627783583879
1.52 < |eta| < 1.81
0.02871506858061379
0.015238961379891558
0.004262178821919371
0.0020474946149803275
0.002029393666946766
0.0029234091773306936
0.004667508909532603
0.004786428878295168
0.006451253373480403
0.004475009518118189
0.0045027267508610525
0.00019259885031697177
1.81 < |eta| < 2.01
0.011303536496758748
0.005666622315867009
0.0019978125346723496
0.0011489079049276096
0.0012243863089741458
0.0010085296695823143
0.0018864052478924087
0.0014734511585295929
0.000820065528901126
0.0021934549734102804
0.0026712278145555324
0.0010871183916604243
2.01 < |eta| < 2.37
0.006724691973314378
0.004213635889767864
0.0019033368688647911
0.0007602268999451489
0.0008525057631342259
0.0015502680328300933
0.00146866749811847
0.0022496825641920015
0.001800373180235293
0.006153092977091101
0.0013440442913672523
0.0011369453670964091
