/eos/atlas/atlascerngroupdisk/perf-egamma/InclusivePhotons/mc20_gammajet_v13/Py_mc20e_800658_p5536_Rel22_AB22.2.97_v13.root
1    37716000.0
2    37715999.710713625
3    37714833.864470124
4    28733585.0
5    28524963.307543468
6    28542955.001079258
7    0.0
8    37716000.0
9    0.0
10    26714445.0
11    26736138.0
12    0.0
/eos/atlas/atlascerngroupdisk/perf-egamma/InclusivePhotons/mc20_gammajet_v13/Py_mc20e_800659_p5536_Rel22_AB22.2.97_v13.root
1    36753800.0
2    36753799.73885603
3    36751846.7401438
4    32344891.0
5    32155004.61870245
6    32178459.543075264
7    0.0
8    36753800.0
9    0.0
10    3944177.0
11    4084581.0
12    0.0
/eos/atlas/atlascerngroupdisk/perf-egamma/InclusivePhotons/mc20_gammajet_v13/Py_mc20e_800660_p5536_Rel22_AB22.2.97_v13.root
1    36744400.0
2    36744400.25805199
3    36743151.84063654
4    33044702.0
5    33011752.19399503
6    33059357.231976032
7    0.0
8    36744400.0
9    0.0
10    1172899.0
11    1231627.0
12    0.0
/eos/atlas/atlascerngroupdisk/perf-egamma/InclusivePhotons/mc20_gammajet_v13/Py_mc20e_800661_p5536_Rel22_AB22.2.97_v13.root
1    30704200.0
2    30704199.85732975
3    30702533.413546845
4    27838532.0
5    27801218.455255024
6    27852468.043099795
7    0.0
8    30704200.0
9    0.0
10    867881.0
11    920413.0
12    0.0
/eos/atlas/atlascerngroupdisk/perf-egamma/InclusivePhotons/mc20_gammajet_v13/Py_mc20e_800662_p5536_Rel22_AB22.2.97_v13.root
1    6983000.0
2    6983000.00648327
3    6983739.580493103
4    6393673.0
5    6369930.563758627
6    6385434.803580044
7    0.0
8    6983000.0
9    0.0
10    206607.0
11    518581.0
12    0.0
/eos/atlas/atlascerngroupdisk/perf-egamma/InclusivePhotons/mc20_gammajet_v13/Py_mc20e_800663_p5536_Rel22_AB22.2.97_v13.root
1    27416200.0
2    27416199.9811261
3    27417465.051686015
4    25654411.0
5    25632911.878758904
6    25707088.435657848
7    0.0
8    27416200.0
9    0.0
10    906318.0
11    4193289.0
12    0.0
/eos/atlas/atlascerngroupdisk/perf-egamma/InclusivePhotons/mc20_gammajet_v13/Py_mc20e_800664_p5536_Rel22_AB22.2.97_v13.root
1    3482000.0
2    3481999.9825684736
3    3481766.9417593568
4    3348119.0
5    3363618.216318116
6    3373630.1366458107
7    0.0
8    3482000.0
9    0.0
10    112453.0
11    121693.0
12    0.0
/eos/atlas/atlascerngroupdisk/perf-egamma/InclusivePhotons/mc20_gammajet_v13/Py_mc20e_800665_p5536_Rel22_AB22.2.97_v13.root
1    3492000.0
2    3491999.9825184057
3    3491548.343341541
4    3421927.0
5    3448434.8051680573
6    3455324.5282066897
7    0.0
8    3492000.0
9    0.0
10    93318.0
11    101055.0
12    0.0
/eos/atlas/atlascerngroupdisk/perf-egamma/InclusivePhotons/mc20_gammajet_v13/Py_mc20e_800666_p5536_Rel22_AB22.2.97_v13.root
1    438000.0
2    437999.9978072927
3    437938.4678510297
4    433247.0
5    437700.79151928704
6    437903.3861142958
7    0.0
8    438000.0
9    0.0
10    8885.0
11    9519.0
12    0.0
/eos/atlas/atlascerngroupdisk/perf-egamma/InclusivePhotons/mc20_gammajet_v13/Py_mc20e_800667_p5536_Rel22_AB22.2.97_v13.root
1    440000.0
2    439999.9977972803
3    439797.9918715446
4    437092.0
5    442496.10694861866
6    442017.4232104977
7    0.0
8    440000.0
9    0.0
10    6784.0
11    7283.0
12    0.0
/eos/atlas/atlascerngroupdisk/perf-egamma/InclusivePhotons/mc20_gammajet_v13/Py_mc20e_800668_p5536_Rel22_AB22.2.97_v13.root
1    438000.0
2    437999.9978072927
3    438059.91192380525
4    436730.0
5    443741.5873813858
6    442639.01720592636
7    0.0
8    438000.0
9    0.0
10    4572.0
11    4903.0
12    0.0
/eos/atlas/atlascerngroupdisk/perf-egamma/InclusivePhotons/mc20_gammajet_v13/Py_mc20e_800669_p5536_Rel22_AB22.2.97_v13.root
1    170000.0
2    169999.99914894864
3    169978.40251258062
4    169672.0
5    172884.21915409714
6    172175.50055977714
7    0.0
8    170000.0
9    0.0
10    1779.0
11    1890.0
12    0.0
/eos/atlas/atlascerngroupdisk/perf-egamma/InclusivePhotons/mc20_gammajet_v13/Py_mc20e_800670_p5536_Rel22_AB22.2.97_v13.root
1    170000.0
2    169999.99914894864
3    169973.2340813782
4    169735.0
5    173311.7465025577
6    172418.05471502335
7    0.0
8    170000.0
9    0.0
10    1982.0
11    2101.0
12    0.0
/eos/atlas/atlascerngroupdisk/perf-egamma/InclusivePhotons/mc20_gammajet_v13/Py_mc20e_800671_p5536_Rel22_AB22.2.97_v13.root
1    149000.0
2    149000.00549850607
3    148994.35505099082
4    148794.0
5    152177.6667943588
6    151298.2009377542
7    0.0
8    149000.0
9    0.0
10    2027.0
11    2158.0
12    0.0
/eos/atlas/atlascerngroupdisk/perf-egamma/InclusivePhotons/mc20_gammajet_v13/Py_mc20e_800672_p5536_Rel22_AB22.2.97_v13.root
1    4993000.0
2    579799.8669665027
3    579863.9721315441
4    3975812.0
5    430099.7125557879
6    430491.90798040584
7    0.0
8    4993000.0
9    0.0
10    3519831.0
11    3585109.0
12    0.0
/eos/atlas/atlascerngroupdisk/perf-egamma/InclusivePhotons/mc20_gammajet_v13/Py_mc20e_800673_p5536_Rel22_AB22.2.97_v13.root
1    4980000.0
2    135319.45239491583
3    135298.46398585563
4    4377639.0
5    117232.70918857082
6    117388.27042374155
7    0.0
8    4980000.0
9    0.0
10    1140127.0
11    1330264.0
12    0.0
/eos/atlas/atlascerngroupdisk/perf-egamma/InclusivePhotons/mc20_gammajet_v13/Py_mc20e_800674_p5536_Rel22_AB22.2.97_v13.root
1    4980000.0
2    43616.37033235289
3    43616.54797561113
4    4478430.0
5    38876.24122918022
6    38971.45828793511
7    0.0
8    4980000.0
9    0.0
10    982240.0
11    1218240.0
12    0.0
/eos/atlas/atlascerngroupdisk/perf-egamma/InclusivePhotons/mc20_gammajet_v13/Py_mc20e_800675_p5536_Rel22_AB22.2.97_v13.root
1    4083000.0
2    18943.559798813236
3    18945.785054508204
4    3721463.0
5    17089.216583835972
6    17140.582816111055
7    0.0
8    4083000.0
9    0.0
10    836799.0
11    1046645.0
12    0.0
/eos/atlas/atlascerngroupdisk/perf-egamma/InclusivePhotons/mc20_gammajet_v13/Py_mc20e_800676_p5536_Rel22_AB22.2.97_v13.root
1    8886000.0
2    18824.973478641263
3    18823.928790034
4    8249874.0
5    17218.84570766271
6    17275.5375590707
7    0.0
8    8886000.0
9    0.0
10    1896282.0
11    2864500.0
12    0.0
/eos/atlas/atlascerngroupdisk/perf-egamma/InclusivePhotons/mc20_gammajet_v13/Py_mc20e_800677_p5536_Rel22_AB22.2.97_v13.root
1    13477400.0
2    244.12635569497996
3    244.14337082282427
4    12932302.0
5    230.7708628360436
6    231.64544730005036
7    0.0
8    13477400.0
9    0.0
10    3686267.0
11    4548052.0
12    0.0
/eos/atlas/atlascerngroupdisk/perf-egamma/InclusivePhotons/mc20_gammajet_v13/Py_mc20e_800678_p5536_Rel22_AB22.2.97_v13.root
1    4976000.0
2    17.316905453628678
3    17.31904359369642
4    4861369.0
5    16.897113596276235
6    16.95260770950341
7    0.0
8    4976000.0
9    0.0
10    1218322.0
11    1341741.0
12    0.0
/eos/atlas/atlascerngroupdisk/perf-egamma/InclusivePhotons/mc20_gammajet_v13/Py_mc20e_800679_p5536_Rel22_AB22.2.97_v13.root
1    1699000.0
2    0.0155639526864062
3    0.01556167249059124
4    1677014.0
5    0.01545444852481567
6    0.015478444501076959
7    0.0
8    1699000.0
9    0.0
10    438639.0
11    486397.0
12    0.0
/eos/atlas/atlascerngroupdisk/perf-egamma/InclusivePhotons/mc20_gammajet_v13/Py_mc20e_800680_p5536_Rel22_AB22.2.97_v13.root
1    340000.0
2    0.0008655412878086113
3    0.0008648532357088083
4    337120.0
5    0.0008672304544751622
6    0.0008667030541382285
7    0.0
8    340000.0
9    0.0
10    72029.0
11    80046.0
12    0.0
/eos/atlas/atlascerngroupdisk/perf-egamma/InclusivePhotons/mc20_gammajet_v13/Py_mc20e_800681_p5536_Rel22_AB22.2.97_v13.root
1    339000.0
2    0.00035778017179722335
3    0.00035738343736464696
4    336972.0
5    0.00035993460798451306
6    0.0003591434693550941
7    0.0
8    339000.0
9    0.0
10    56568.0
11    63139.0
12    0.0
/eos/atlas/atlascerngroupdisk/perf-egamma/InclusivePhotons/mc20_gammajet_v13/Py_mc20e_800682_p5536_Rel22_AB22.2.97_v13.root
1    340000.0
2    0.00010556439944414671
3    0.0001055422452565842
4    338822.0
5    0.0001068350008891091
6    0.00010651701930843252
7    0.0
8    340000.0
9    0.0
10    35820.0
11    39938.0
12    0.0
/eos/atlas/atlascerngroupdisk/perf-egamma/InclusivePhotons/mc20_gammajet_v13/Py_mc20e_800683_p5536_Rel22_AB22.2.97_v13.root
1    329000.0
2    3.7796911014023295e-05
3    3.7810640090068235e-05
4    328290.0
5    3.8407764217862996e-05
6    3.826607307105102e-05
7    0.0
8    329000.0
9    0.0
10    20293.0
11    22774.0
12    0.0
