0.00<|#eta|<0.60
339533.0		413109.0		339533.0		73576.0
646842.0		766305.0		646842.0		119463.0
1049670.0		1205480.0		1049670.0		155819.0
1395720.0		1582460.0		1395720.0		186732.0
952040.0		1055180.0		952040.0		103146.0
547151.0		592638.0		547151.0		45487.0
240834.0		254812.0		240834.0		13978.0
51057.0		52638.0		51057.0		1581.0
23663.0		24393.0		23663.0		730.0
10361.0		10622.0		10361.0		261.0
5226.0		5357.0		5226.0		131.0
5490.0		5770.0		5490.0		280.0
0.60<|#eta|<0.80
99632.0		124486.0		99632.0		24854.0
213494.0		255996.0		213494.0		42502.0
354106.0		409638.0		354106.0		55532.0
439959.0		505608.0		439959.0		65649.0
309321.0		337397.0		309321.0		28076.0
172285.0		187491.0		172285.0		15206.0
75656.0		79655.0		75656.0		3999.0
15933.0		16589.0		15933.0		656.0
7345.0		7493.0		7345.0		148.0
3074.0		3177.0		3074.0		103.0
1665.0		1696.0		1665.0		31.0
1742.0		1805.0		1742.0		63.0
0.80<|#eta|<1.15
178265.0		216726.0		178265.0		38461.0
330725.0		397139.0		330725.0		66414.0
566640.0		658748.0		566640.0		92108.0
738931.0		835279.0		738931.0		96348.0
478171.0		531503.0		478171.0		53332.0
271751.0		296729.0		271751.0		24978.0
116626.0		124301.0		116626.0		7675.0
25324.0		26414.0		25324.0		1090.0
11948.0		12159.0		11948.0		211.0
5306.0		5385.0		5306.0		79.0
2560.0		2605.0		2560.0		45.0
2881.0		2950.0		2881.0		69.0
1.15<|#eta|<1.37
96473.0		125895.0		96473.0		29422.0
169874.0		215988.0		169874.0		46114.0
296113.0		353321.0		296113.0		57208.0
396928.0		470819.0		396928.0		73891.0
262454.0		297354.0		262454.0		34900.0
151079.0		167375.0		151079.0		16296.0
64346.0		68548.0		64346.0		4202.0
13673.0		14362.0		13673.0		689.0
6607.0		6789.0		6607.0		182.0
2951.0		3039.0		2951.0		88.0
1573.0		1615.0		1573.0		42.0
1591.0		1665.0		1591.0		74.0
1.52<|#eta|<1.81
118614.0		143951.0		118614.0		25337.0
197072.0		239433.0		197072.0		42361.0
306905.0		364819.0		306905.0		57914.0
395733.0		464536.0		395733.0		68803.0
288460.0		320284.0		288460.0		31824.0
168305.0		183135.0		168305.0		14830.0
67243.0		72997.0		67243.0		5754.0
13928.0		14878.0		13928.0		950.0
6594.0		6830.0		6594.0		236.0
3028.0		3108.0		3028.0		80.0
1480.0		1525.0		1480.0		45.0
1593.0		1642.0		1593.0		49.0
1.81<|#eta|<2.01
89062.0		96191.0		89062.0		7129.0
139134.0		154677.0		139134.0		15543.0
202820.0		221049.0		202820.0		18229.0
253768.0		279129.0		253768.0		25361.0
177649.0		189350.0		177649.0		11701.0
99009.0		105134.0		99009.0		6125.0
39328.0		41669.0		39328.0		2341.0
7809.0		8300.0		7809.0		491.0
3570.0		3708.0		3570.0		138.0
1473.0		1516.0		1473.0		43.0
695.0		723.0		695.0		28.0
762.0		797.0		762.0		35.0
2.01<|#eta|<2.37
156062.0		171938.0		156062.0		15876.0
244214.0		266840.0		244214.0		22626.0
323205.0		352631.0		323205.0		29426.0
378369.0		412847.0		378369.0		34478.0
251766.0		272757.0		251766.0		20991.0
135985.0		149605.0		135985.0		13620.0
53277.0		57403.0		53277.0		4126.0
10166.0		10987.0		10166.0		821.0
4729.0		4956.0		4729.0		227.0
1904.0		1956.0		1904.0		52.0
907.0		967.0		907.0		60.0
932.0		974.0		932.0		42.0
