0.00<|#eta|<0.60
339495.0		413109.0		339495.0		73614.0
646793.0		766305.0		646793.0		119512.0
1049590.0		1205480.0		1049590.0		155887.0
1395580.0		1582460.0		1395580.0		186876.0
951970.0		1055180.0		951970.0		103210.0
547078.0		592638.0		547078.0		45560.0
240797.0		254812.0		240797.0		14015.0
51056.0		52638.0		51056.0		1582.0
23659.0		24393.0		23659.0		734.0
10361.0		10622.0		10361.0		261.0
5226.0		5357.0		5226.0		131.0
5486.0		5770.0		5486.0		284.0
0.60<|#eta|<0.80
99618.0		124486.0		99618.0		24868.0
213476.0		255996.0		213476.0		42520.0
354073.0		409638.0		354073.0		55565.0
439950.0		505608.0		439950.0		65658.0
309319.0		337397.0		309319.0		28078.0
172286.0		187491.0		172286.0		15205.0
75650.0		79655.0		75650.0		4005.0
15933.0		16589.0		15933.0		656.0
7346.0		7493.0		7346.0		147.0
3074.0		3177.0		3074.0		103.0
1665.0		1696.0		1665.0		31.0
1742.0		1805.0		1742.0		63.0
0.80<|#eta|<1.15
178225.0		216726.0		178225.0		38501.0
330741.0		397139.0		330741.0		66398.0
566671.0		658748.0		566671.0		92077.0
738972.0		835279.0		738972.0		96307.0
478115.0		531503.0		478115.0		53388.0
271722.0		296729.0		271722.0		25007.0
116587.0		124301.0		116587.0		7714.0
25321.0		26414.0		25321.0		1093.0
11949.0		12159.0		11949.0		210.0
5306.0		5385.0		5306.0		79.0
2560.0		2605.0		2560.0		45.0
2881.0		2950.0		2881.0		69.0
1.15<|#eta|<1.37
96438.0		125895.0		96438.0		29457.0
169685.0		215988.0		169685.0		46303.0
295889.0		353321.0		295889.0		57432.0
396671.0		470819.0		396671.0		74148.0
262363.0		297354.0		262363.0		34991.0
151033.0		167375.0		151033.0		16342.0
64336.0		68548.0		64336.0		4212.0
13670.0		14362.0		13670.0		692.0
6607.0		6789.0		6607.0		182.0
2951.0		3039.0		2951.0		88.0
1573.0		1615.0		1573.0		42.0
1591.0		1665.0		1591.0		74.0
1.52<|#eta|<1.81
118613.0		143951.0		118613.0		25338.0
197054.0		239433.0		197054.0		42379.0
306879.0		364819.0		306879.0		57940.0
395727.0		464536.0		395727.0		68809.0
288459.0		320284.0		288459.0		31825.0
168309.0		183135.0		168309.0		14826.0
67235.0		72997.0		67235.0		5762.0
13927.0		14878.0		13927.0		951.0
6594.0		6830.0		6594.0		236.0
3028.0		3108.0		3028.0		80.0
1480.0		1525.0		1480.0		45.0
1593.0		1642.0		1593.0		49.0
1.81<|#eta|<2.01
89010.0		96191.0		89010.0		7181.0
139120.0		154677.0		139120.0		15557.0
202818.0		221049.0		202818.0		18231.0
253768.0		279129.0		253768.0		25361.0
177643.0		189350.0		177643.0		11707.0
99015.0		105134.0		99015.0		6119.0
39324.0		41669.0		39324.0		2345.0
7809.0		8300.0		7809.0		491.0
3570.0		3708.0		3570.0		138.0
1473.0		1516.0		1473.0		43.0
695.0		723.0		695.0		28.0
762.0		797.0		762.0		35.0
2.01<|#eta|<2.37
156014.0		171938.0		156014.0		15924.0
244221.0		266840.0		244221.0		22619.0
323191.0		352631.0		323191.0		29440.0
378366.0		412847.0		378366.0		34481.0
251763.0		272757.0		251763.0		20994.0
135971.0		149605.0		135971.0		13634.0
53274.0		57403.0		53274.0		4129.0
10164.0		10987.0		10164.0		823.0
4729.0		4956.0		4729.0		227.0
1904.0		1956.0		1904.0		52.0
907.0		967.0		907.0		60.0
932.0		974.0		932.0		42.0
