0.00<|#eta|<0.60
339566.0		413109.0		339566.0		73543.0
646884.0		766305.0		646884.0		119421.0
1049700.0		1205480.0		1049700.0		155782.0
1395840.0		1582460.0		1395840.0		186609.0
952100.0		1055180.0		952100.0		103067.0
547209.0		592638.0		547209.0		45429.0
240841.0		254812.0		240841.0		13971.0
51061.0		52638.0		51061.0		1577.0
23663.0		24393.0		23663.0		730.0
10361.0		10622.0		10361.0		261.0
5226.0		5357.0		5226.0		131.0
5492.0		5770.0		5492.0		278.0
0.60<|#eta|<0.80
99685.0		124486.0		99685.0		24801.0
213530.0		255996.0		213530.0		42466.0
354170.0		409638.0		354170.0		55468.0
440015.0		505608.0		440015.0		65593.0
309358.0		337397.0		309358.0		28039.0
172300.0		187491.0		172300.0		15191.0
75659.0		79655.0		75659.0		3996.0
15938.0		16589.0		15938.0		651.0
7345.0		7493.0		7345.0		148.0
3074.0		3177.0		3074.0		103.0
1665.0		1696.0		1665.0		31.0
1742.0		1805.0		1742.0		63.0
0.80<|#eta|<1.15
178281.0		216726.0		178281.0		38445.0
330746.0		397139.0		330746.0		66393.0
566706.0		658748.0		566706.0		92042.0
739210.0		835279.0		739210.0		96069.0
478268.0		531503.0		478268.0		53235.0
271790.0		296729.0		271790.0		24939.0
116635.0		124301.0		116635.0		7666.0
25325.0		26414.0		25325.0		1089.0
11947.0		12159.0		11947.0		212.0
5306.0		5385.0		5306.0		79.0
2560.0		2605.0		2560.0		45.0
2881.0		2950.0		2881.0		69.0
1.15<|#eta|<1.37
96529.0		125895.0		96529.0		29366.0
169907.0		215988.0		169907.0		46081.0
296174.0		353321.0		296174.0		57147.0
396989.0		470819.0		396989.0		73830.0
262484.0		297354.0		262484.0		34870.0
151099.0		167375.0		151099.0		16276.0
64357.0		68548.0		64357.0		4191.0
13673.0		14362.0		13673.0		689.0
6607.0		6789.0		6607.0		182.0
2951.0		3039.0		2951.0		88.0
1573.0		1615.0		1573.0		42.0
1591.0		1665.0		1591.0		74.0
1.52<|#eta|<1.81
118637.0		143951.0		118637.0		25314.0
197085.0		239433.0		197085.0		42348.0
306932.0		364819.0		306932.0		57887.0
395789.0		464536.0		395789.0		68747.0
288498.0		320284.0		288498.0		31786.0
168335.0		183135.0		168335.0		14800.0
67247.0		72997.0		67247.0		5750.0
13930.0		14878.0		13930.0		948.0
6594.0		6830.0		6594.0		236.0
3028.0		3108.0		3028.0		80.0
1480.0		1525.0		1480.0		45.0
1593.0		1642.0		1593.0		49.0
1.81<|#eta|<2.01
89064.0		96191.0		89064.0		7127.0
139163.0		154677.0		139163.0		15514.0
202866.0		221049.0		202866.0		18183.0
253829.0		279129.0		253829.0		25300.0
177683.0		189350.0		177683.0		11667.0
99061.0		105134.0		99061.0		6073.0
39335.0		41669.0		39335.0		2334.0
7809.0		8300.0		7809.0		491.0
3570.0		3708.0		3570.0		138.0
1473.0		1516.0		1473.0		43.0
695.0		723.0		695.0		28.0
762.0		797.0		762.0		35.0
2.01<|#eta|<2.37
156087.0		171938.0		156087.0		15851.0
244254.0		266840.0		244254.0		22586.0
323234.0		352631.0		323234.0		29397.0
378429.0		412847.0		378429.0		34418.0
251814.0		272757.0		251814.0		20943.0
136015.0		149605.0		136015.0		13590.0
53288.0		57403.0		53288.0		4115.0
10167.0		10987.0		10167.0		820.0
4729.0		4956.0		4729.0		227.0
1904.0		1956.0		1904.0		52.0
907.0		967.0		907.0		60.0
932.0		974.0		932.0		42.0
