0.00<|#eta|<0.60
339539.0		413109.0		339539.0		73570.0
646851.0		766305.0		646851.0		119454.0
1049650.0		1205480.0		1049650.0		155819.0
1395710.0		1582460.0		1395710.0		186740.0
952020.0		1055180.0		952020.0		103148.0
547144.0		592638.0		547144.0		45494.0
240830.0		254812.0		240830.0		13982.0
51057.0		52638.0		51057.0		1581.0
23662.0		24393.0		23662.0		731.0
10361.0		10622.0		10361.0		261.0
5226.0		5357.0		5226.0		131.0
5489.0		5770.0		5489.0		281.0
0.60<|#eta|<0.80
99637.0		124486.0		99637.0		24849.0
213496.0		255996.0		213496.0		42500.0
354109.0		409638.0		354109.0		55529.0
439959.0		505608.0		439959.0		65649.0
309330.0		337397.0		309330.0		28067.0
172279.0		187491.0		172279.0		15212.0
75654.0		79655.0		75654.0		4001.0
15933.0		16589.0		15933.0		656.0
7346.0		7493.0		7346.0		147.0
3074.0		3177.0		3074.0		103.0
1665.0		1696.0		1665.0		31.0
1742.0		1805.0		1742.0		63.0
0.80<|#eta|<1.15
178273.0		216726.0		178273.0		38453.0
330731.0		397139.0		330731.0		66408.0
566677.0		658748.0		566677.0		92071.0
739031.0		835279.0		739031.0		96248.0
478187.0		531503.0		478187.0		53316.0
271760.0		296729.0		271760.0		24969.0
116629.0		124301.0		116629.0		7672.0
25325.0		26414.0		25325.0		1089.0
11949.0		12159.0		11949.0		210.0
5306.0		5385.0		5306.0		79.0
2560.0		2605.0		2560.0		45.0
2881.0		2950.0		2881.0		69.0
1.15<|#eta|<1.37
96482.0		125895.0		96482.0		29413.0
169879.0		215988.0		169879.0		46109.0
296122.0		353321.0		296122.0		57199.0
396944.0		470819.0		396944.0		73875.0
262458.0		297354.0		262458.0		34896.0
151076.0		167375.0		151076.0		16299.0
64349.0		68548.0		64349.0		4199.0
13672.0		14362.0		13672.0		690.0
6607.0		6789.0		6607.0		182.0
2951.0		3039.0		2951.0		88.0
1573.0		1615.0		1573.0		42.0
1591.0		1665.0		1591.0		74.0
1.52<|#eta|<1.81
118645.0		143951.0		118645.0		25306.0
197079.0		239433.0		197079.0		42354.0
306912.0		364819.0		306912.0		57907.0
395758.0		464536.0		395758.0		68778.0
288469.0		320284.0		288469.0		31815.0
168324.0		183135.0		168324.0		14811.0
67243.0		72997.0		67243.0		5754.0
13928.0		14878.0		13928.0		950.0
6594.0		6830.0		6594.0		236.0
3028.0		3108.0		3028.0		80.0
1480.0		1525.0		1480.0		45.0
1593.0		1642.0		1593.0		49.0
1.81<|#eta|<2.01
89061.0		96191.0		89061.0		7130.0
139139.0		154677.0		139139.0		15538.0
202830.0		221049.0		202830.0		18219.0
253766.0		279129.0		253766.0		25363.0
177641.0		189350.0		177641.0		11709.0
99015.0		105134.0		99015.0		6119.0
39322.0		41669.0		39322.0		2347.0
7810.0		8300.0		7810.0		490.0
3570.0		3708.0		3570.0		138.0
1473.0		1516.0		1473.0		43.0
696.0		723.0		696.0		27.0
762.0		797.0		762.0		35.0
2.01<|#eta|<2.37
156075.0		171938.0		156075.0		15863.0
244224.0		266840.0		244224.0		22616.0
323203.0		352631.0		323203.0		29428.0
378376.0		412847.0		378376.0		34471.0
251766.0		272757.0		251766.0		20991.0
135978.0		149605.0		135978.0		13627.0
53279.0		57403.0		53279.0		4124.0
10165.0		10987.0		10165.0		822.0
4729.0		4956.0		4729.0		227.0
1903.0		1956.0		1903.0		53.0
907.0		967.0		907.0		60.0
932.0		974.0		932.0		42.0
