0.00<|#eta|<0.60
7.262005911279346e-06
0.0
0.0
0.0
0.0
0.0
0.0
0.0
0.0
0.0
0.0
0.0
0.60<|#eta|<0.80
8.033031826948367e-06
0.0
2.441179773327029e-06
1.977816806664201e-06
0.0
0.0
0.0
0.0
0.0
0.0
0.0
0.0
0.80<|#eta|<1.15
4.614121056123466e-06
7.554030201029072e-06
6.0721246971651155e-06
1.1972047663233454e-06
3.762913849958416e-06
0.0
0.0
0.0
0.0
0.0
0.0
0.0
1.15<|#eta|<1.37
0.0
0.0
2.8302874722774263e-06
4.247916927657691e-06
0.0
0.0
0.0
0.0
0.0
0.0
0.0
0.0
1.52<|#eta|<1.81
6.946808288832429e-06
0.0
0.0
0.0
0.0
0.0
0.0
0.0
0.0
0.0
0.0
0.0006090133982947776
1.81<|#eta|<2.01
0.0
0.0
0.0
0.0
0.0
0.0
0.0
0.0
0.0
0.0
0.0
0.0
2.01<|#eta|<2.37
1.7448149914556232e-05
0.0
0.0
0.0
3.666267043511695e-06
6.684268573864394e-06
0.0
0.0
0.0
0.0
0.0
0.0
