0.00<|#eta|<0.60
9.68267454837246e-06
6.524817142028461e-06
8.295450774742363e-06
0.0
2.8431168141884733e-05
1.1811594936572689e-05
1.9622309781364144e-05
0.0
4.099536752355526e-05
0.0
0.0
0.0
0.60<|#eta|<0.80
0.00012049547740300426
2.343786621661348e-05
2.197061796027633e-05
1.7800351260199854e-05
1.4819337457061543e-05
2.133435738249645e-05
0.0
0.0
0.0
0.0
0.0
0.0
0.80<|#eta|<1.15
1.3842363168259375e-05
1.2590050335048453e-05
2.8842592311506543e-05
0.00014007295765849914
6.961390622439723e-05
2.3590548952068247e-05
0.0
0.0
0.0
0.0
0.0
0.0
1.15<|#eta|<1.37
6.354501767347198e-05
5.09287553012161e-05
5.6605749445992615e-05
1.4867709247079475e-05
4.708192928304378e-05
1.1949215832696147e-05
0.0
0.0
0.0
0.0
0.0
0.0
1.52<|#eta|<1.81
3.4734041444717256e-05
3.3412269820787266e-05
3.289302366371594e-05
5.381714226670997e-05
6.244458043491719e-05
6.552543205828876e-05
4.109757935255587e-05
6.721333512571537e-05
0.0
0.0
0.0
0.0
1.81<|#eta|<2.01
1.0395982992128516e-05
3.232542653397452e-05
9.047767689507324e-06
1.4330291728925637e-05
1.584367573281842e-05
8.560503738086478e-05
4.7997312150549476e-05
0.0
0.0
0.0
0.0
0.0
2.01<|#eta|<2.37
2.3264199885963954e-05
0.0
0.0
1.4533229017010818e-05
1.0998801130646108e-05
6.684268573864394e-06
1.7420692298375506e-05
9.101665604804854e-05
0.0
0.0
0.0
0.0
