0.00<|#eta|<0.60
1.2103343185465576e-05
5.219853713600564e-06
8.295450774742363e-06
6.319275052790729e-06
0.0
0.0
3.924461956295033e-06
0.0
0.0
0.0
0.0
0.0
0.60<|#eta|<0.80
0.0
0.0
0.0
0.0
0.0
2.133435738249645e-05
1.2554139727671831e-05
0.0
0.0
0.0
0.0
0.0
0.80<|#eta|<1.15
9.22824211213591e-06
5.036020133908359e-06
1.8216374091495346e-05
4.7888190652933815e-06
0.0
1.0110235265092804e-05
2.4134962711475083e-05
0.0
0.0
0.0
0.0
0.0
1.15<|#eta|<1.37
1.588625441839575e-05
4.629886845575193e-06
1.1321149889220727e-05
8.495833855426405e-06
6.7259898974825205e-06
0.0
0.0
0.0
0.0
0.0
0.0
0.0
1.52<|#eta|<1.81
0.00010420212433404075
1.6706134910449144e-05
5.482170610582315e-06
4.30537138129683e-06
1.2488916086961233e-05
1.6381358014516678e-05
0.0
0.0
0.0
0.0
0.0
0.0
1.81<|#eta|<2.01
1.0395982992239539e-05
3.232542653397452e-05
0.0
3.582572932225858e-05
5.281225244235799e-06
0.0
4.7997312150549476e-05
0.00012048192771074717
0.0
0.0
0.0013831258644536604
0.0
2.01<|#eta|<2.37
1.7448149914556232e-05
7.495128166667975e-06
2.835825551272819e-06
9.688819344710886e-06
3.6662670436227174e-06
4.0105611443408407e-05
0.0
9.101665604804854e-05
0.0
0.0005112474437627412
0.0
0.0
