0.00<|#eta|<0.60
2.420668637093115e-06
0.0
0.0
0.0
0.0
1.6873707052722509e-06
0.0
0.0
0.0
0.0
0.0
0.0
0.60<|#eta|<0.80
8.033031826837345e-06
3.906311036083743e-06
0.0
1.9778168067752233e-06
0.0
0.0
0.0
0.0
0.0
0.0
0.0
0.0
0.80<|#eta|<1.15
2.3070605280395284e-05
7.554030200918049e-06
1.2144249394219209e-05
3.591614298859014e-06
0.0
0.0
0.0
0.0
0.0
0.0
0.0
0.0
1.15<|#eta|<1.37
0.0
0.0
2.8302874722774263e-06
6.37187539165307e-06
0.0
1.7923823749099732e-05
0.0
0.0
0.0
0.0
0.0
0.0
1.52<|#eta|<1.81
0.0
0.0
2.74108530540218e-06
0.0
0.0
0.0
0.0
0.0
0.0
0.0
0.0
0.0
1.81<|#eta|<2.01
0.0
0.0
4.523883844753662e-06
0.0
0.0
0.0
0.0
0.0
0.0
0.0
0.0
0.0
2.01<|#eta|<2.37
0.0
3.7475640833894985e-06
0.0
0.0
3.6662670436227174e-06
1.336853714783981e-05
0.0
0.0
0.0
0.0
0.0
0.0
