0 < |eta| < 0.6
324307	440347
628670	812970
1022719	1256031
1348695	1619713
937884	1096430
551145	649461
246166	276019
51749	58103
24471	26440
10989	11515
5373	5744
5794	6207
0.6 < |eta| < 0.8
99307	136864
211438	273782
344543	428964
446364	520528
307947	351795
182697	206056
79002	86471
17318	18267
7635	8159
3239	3426
1738	1840
1791	1892
0.8 < |eta| < 1.15
177326	244040
342182	437905
585237	701463
747896	868296
501183	558424
295851	326893
126557	135238
27211	28986
12654	13201
5591	5791
2711	2792
3047	3150
1.15 < |eta| < 1.37
102991	145641
188778	243860
317067	382313
425874	493293
280214	315757
168036	185955
69669	75105
14872	15904
6963	7358
3096	3244
1673	1735
1652	1777
1.52 < |eta| < 1.81
122452	166070
213438	268773
320884	392532
410086	484942
299600	338293
185333	204470
73877	80528
15280	16486
7044	7443
3227	3350
1603	1664
1692	1755
1.81 < |eta| < 2.01
70834	106158
122802	169222
175698	236929
224640	291557
147205	199304
86861	116118
35561	45411
6990	9112
3132	4011
1414	1649
646	786
723	850
2.01 < |eta| < 2.37
94152	189500
166059	291912
235430	379404
262943	434155
190905	287891
104304	165000
41367	62730
8573	12134
3701	5342
1470	2128
639	1039
671	1037
