0 < |eta| < 0.6
404902	510918
745899	912653
1163473	1366047
1486708	1700079
1008897	1126740
620788	690355
263846	288486
56375	61171
25480	27454
11068	11867
5452	5874
5875	6348
0.6 < |eta| < 0.8
126248	160367
247379	306011
391245	463666
472792	545089
319399	360285
196647	218763
82901	90581
17645	19112
7843	8463
3284	3505
1719	1845
1770	1927
0.8 < |eta| < 1.15
212347	286965
395123	498506
636100	765279
767537	905483
488637	564346
302013	341960
125119	139641
27169	30266
12355	13656
5339	5948
2575	2859
2932	3254
1.15 < |eta| < 1.37
137032	171685
235343	278758
362952	419894
451459	513348
283772	318163
174660	193533
70223	77292
15057	16557
7007	7680
3072	3325
1594	1765
1647	1794
1.52 < |eta| < 1.81
151296	193992
245670	303864
364473	427019
443526	511714
316384	350812
201757	219153
78808	84918
15951	17321
7277	7713
3231	3407
1619	1700
1714	1796
1.81 < |eta| < 2.01
92067	120221
148816	187662
213329	256106
261875	305547
175910	202834
106909	121934
42019	47119
8510	9475
3723	4092
1591	1728
737	804
789	869
2.01 < |eta| < 2.37
170069	212741
265717	321789
350212	409194
396604	454378
257121	290022
152243	171309
57228	64544
11275	12644
4936	5431
1971	2162
942	1049
943	1044
