0 < |eta| < 0.6
366710	458122
685389	834862
1094197	1285106
1430829	1638617
958894	1072633
566682	631219
244452	267413
51565	55943
23658	25477
10286	11014
5099	5502
5495	5939
0.6 < |eta| < 0.8
113054	141954
228075	280777
369126	437356
454869	525056
302976	342869
179352	199750
76522	83761
16192	17515
7264	7819
3072	3281
1593	1717
1697	1847
0.8 < |eta| < 1.15
189657	253924
359847	452607
598624	720407
736848	872221
463211	535726
275096	312499
115837	129260
24953	27735
11460	12672
4972	5546
2423	2682
2741	3041
1.15 < |eta| < 1.37
121835	150528
212921	250202
340142	393287
434867	494621
268387	301657
159071	176514
64872	71416
13762	15125
6500	7109
2883	3117
1499	1653
1562	1692
1.52 < |eta| < 1.81
134381	169094
222055	271411
338904	396746
424725	490867
300245	333146
183200	199060
72412	77873
14562	15817
6749	7142
3012	3166
1508	1583
1607	1686
1.81 < |eta| < 2.01
83709	108379
135980	171508
199226	239534
251039	293555
167037	193227
97413	111609
38701	43598
7752	8671
3439	3814
1453	1606
686	753
732	805
2.01 < |eta| < 2.37
155452	193722
245221	296414
327217	383662
379343	436219
244406	276187
138992	157111
52778	59744
10297	11564
4588	5062
1828	2012
878	978
881	979
