0 < |eta| < 0.6
312943.0			405326.0
613603.0			757071.0
1043598.0			1204165.0
1396007.0			1577155.0
922919.0			1018526.0
524317.0			572083.0
233030.0			246340.0
48566.0			50715.0
22856.0			23500.0
9923.0			10161.0
4993.0			5130.0
5370.0			5530.0
0.6 < |eta| < 0.8
94386.0			123541.0
208348.0			255543.0
349775.0			411046.0
449217.0			505023.0
297953.0			325453.0
167533.0			180737.0
73113.0			76941.0
15395.0			15918.0
6970.0			7175.0
2979.0			3057.0
1543.0			1589.0
1725.0			1767.0
0.8 < |eta| < 1.15
169052.0			220883.0
332795.0			406708.0
583161.0			675535.0
747996.0			838959.0
467891.0			507106.0
264880.0			283038.0
114026.0			118879.0
24112.0			25204.0
11433.0			11688.0
5069.0			5144.0
2471.0			2505.0
2770.0			2828.0
1.15 < |eta| < 1.37
98157.0			129371.0
181337.0			221646.0
320701.0			366680.0
428345.0			475894.0
261677.0			285151.0
148736.0			159495.0
62280.0			65540.0
13131.0			13693.0
6353.0			6538.0
2832.0			2909.0
1510.0			1541.0
1529.0			1590.0
1.52 < |eta| < 1.81
116422.0			144196.0
202640.0			238958.0
318321.0			366473.0
417836.0			470020.0
289849.0			315480.0
167054.0			178967.0
67258.0			70828.0
13667.0			14313.0
6387.0			6571.0
2862.0			2925.0
1434.0			1466.0
1545.0			1576.0
1.81 < |eta| < 2.01
77585.0			96537.0
131641.0			155354.0
194543.0			222962.0
255363.0			281563.0
168995.0			183620.0
94486.0			101284.0
37862.0			40077.0
7473.0			7867.0
3390.0			3536.0
1437.0			1484.0
677.0			702.0
727.0			741.0
2.01 < |eta| < 2.37
139558.0			174703.0
231378.0			271039.0
318212.0			358130.0
378063.0			418060.0
241695.0			262352.0
132397.0			142913.0
51202.0			54944.0
9870.0			10484.0
4485.0			4693.0
1796.0			1862.0
859.0			907.0
860.0			914.0
