0 < |eta| < 0.6
5.32372e+07	6.93278e+07	3.47686e+11	9.13543e+10
3.15619e+07	3.85591e+07	1.36024e+11	2.46028e+10
1.86759e+07	2.16794e+07	1.96205e+10	4.53601e+09
1.10109e+07	1.25006e+07	4.55249e+09	6.74378e+08
7.52028e+06	8.32987e+06	2.65331e+09	3.1925e+08
8.43638e+06	9.23889e+06	1.29985e+09	1.53669e+08
6.0898e+06	6.50446e+06	5.31919e+08	5.05447e+07
1.94447e+06	2.05121e+06	8.98434e+07	5.57484e+06
905644	939434	2.97491e+07	1.24772e+06
353789	364801	7.56463e+06	257047
161134	166426	1.11254e+06	73667
152295	157075	618201	34080.4
0.6 < |eta| < 0.8
1.59139e+07	2.037e+07	1.08149e+11	2.1619e+10
9.61736e+06	1.16214e+07	4.11513e+10	7.67929e+09
5.70881e+06	6.57676e+06	1.00503e+10	1.07678e+09
3.47693e+06	3.85865e+06	1.58073e+09	1.74209e+08
2.42001e+06	2.62851e+06	9.95435e+08	8.96037e+07
2.51295e+06	2.69544e+06	4.19448e+08	3.32212e+07
1.85288e+06	1.94611e+06	1.57918e+08	1.40003e+07
616166	636425	2.78707e+07	1.38186e+06
281825	289630	9.015e+06	292648
114677	117393	2.65004e+06	86411.7
50046.4	51022.7	260968	13313.4
47556.4	48603.4	167357	6368.17
0.8 < |eta| < 1.15
4.47685e+07	5.83084e+07	2.31612e+11	7.94749e+10
2.61666e+07	3.18574e+07	1.05193e+11	2.27051e+10
1.6001e+07	1.8391e+07	1.60605e+10	3.48427e+09
9.62129e+06	1.07021e+07	3.98262e+09	6.31549e+08
6.79297e+06	7.34154e+06	2.47058e+09	2.27728e+08
7.22254e+06	7.73004e+06	1.06851e+09	2.59494e+08
5.42127e+06	5.65584e+06	4.52896e+08	2.22037e+07
1.74427e+06	1.83325e+06	7.64238e+07	4.67552e+06
815166	836726	2.77511e+07	789263
324418	330251	6.95725e+06	162523
149141	151729	1.06228e+06	108555
144546	146900	545480	18953.9
1.15 < |eta| < 1.37
4.13802e+07	5.52059e+07	3.99837e+11	3.02939e+11
2.24546e+07	2.76272e+07	8.4735e+10	1.74314e+11
1.37158e+07	1.55562e+07	1.49696e+10	1.47065e+10
8.13291e+06	9.0128e+06	3.40728e+09	3.82749e+09
5.54543e+06	6.05008e+06	1.88508e+09	1.95641e+08
5.94902e+06	6.37902e+06	9.02576e+08	9.3472e+07
4.37021e+06	4.60365e+06	3.74693e+08	2.07552e+07
1.41075e+06	1.47357e+06	6.46504e+07	3.56788e+06
663216	683863	2.17624e+07	684671
266434	273624	6.01266e+06	144358
122106	125617	837671	32650.2
115175	119142	436843	57322.4
1.52 < |eta| < 1.81
7.01163e+07	9.15643e+07	4.42049e+11	2.50962e+11
3.81826e+07	4.6174e+07	1.59181e+11	2.88584e+10
2.14853e+07	2.52598e+07	2.62911e+10	1.04288e+10
1.31547e+07	1.49569e+07	5.96962e+09	1.78231e+09
8.08358e+06	8.97439e+06	2.91724e+09	4.23133e+08
7.96291e+06	8.70815e+06	1.14615e+09	1.40425e+08
6.85793e+06	7.3398e+06	6.32534e+08	5.17666e+07
1.96699e+06	2.07209e+06	8.41096e+07	5.90944e+06
1.00912e+06	1.04738e+06	3.26761e+07	1.54464e+06
397752	410520	8.46265e+06	480007
182046	187066	1.02793e+06	47163.2
174581	179311	678192	31338.3
1.81 < |eta| < 2.01
3.6474e+07	4.50657e+07	1.81512e+11	5.13846e+10
1.99501e+07	2.32529e+07	7.43697e+10	1.4934e+10
1.12288e+07	1.26898e+07	1.5117e+10	1.72311e+09
6.55404e+06	7.2322e+06	2.53406e+09	3.22667e+08
4.23486e+06	4.61732e+06	1.34928e+09	1.45181e+08
5.03483e+06	5.42155e+06	7.08675e+08	6.17849e+07
3.5818e+06	3.82974e+06	2.92533e+08	2.19305e+07
1.14152e+06	1.2231e+06	4.98512e+07	4.28334e+06
549340	575930	1.69168e+07	881542
221628	230258	4.51432e+06	217470
104569	108596	656602	57815.3
95872.4	99622.1	387810	27768.8
2.01 < |eta| < 2.37
6.15771e+07	7.75467e+07	3.10996e+11	9.33429e+10
3.37016e+07	4.0063e+07	1.2012e+11	2.26624e+10
1.94776e+07	2.22538e+07	1.64037e+10	2.44872e+09
1.13197e+07	1.28018e+07	4.42259e+09	7.86456e+08
7.4655e+06	8.27241e+06	2.46697e+09	4.44553e+08
8.69562e+06	9.62261e+06	1.2464e+09	1.61666e+08
6.28902e+06	6.85258e+06	5.21682e+08	6.64423e+07
2.01046e+06	2.16221e+06	8.55246e+07	8.12962e+06
932751	992271	2.99284e+07	2.25804e+06
369678	390857	8.07673e+06	583334
164116	173859	1.03043e+06	172376
145789	154378	592970	54731.8
