0.00<|#eta|<0.60
282147.0		355753.0		282147.0		73606.0
518945.0		631542.0		518945.0		112597.0
825425.0		968210.0		825425.0		142791.0
1093290.0		1267390.0		1093290.0		174100.0
755992.0		847912.0		755992.0		91920.0
438629.0		480297.0		438629.0		41668.0
193139.0		205827.0		193139.0		12688.0
41290.0		43062.0		41290.0		1772.0
18569.0		19265.0		18569.0		696.0
8309.0		8522.0		8309.0		213.0
4186.0		4299.0		4186.0		113.0
4422.0		4662.0		4422.0		240.0
0.60<|#eta|<0.80
76924.0		98620.0		76924.0		21696.0
165807.0		203945.0		165807.0		38138.0
279368.0		328245.0		279368.0		48877.0
350731.0		404244.0		350731.0		53513.0
244806.0		271811.0		244806.0		27005.0
140966.0		153683.0		140966.0		12717.0
61190.0		65032.0		61190.0		3842.0
12767.0		13350.0		12767.0		583.0
5887.0		6064.0		5887.0		177.0
2624.0		2677.0		2624.0		53.0
1349.0		1382.0		1349.0		33.0
1443.0		1474.0		1443.0		31.0
0.80<|#eta|<1.15
136113.0		171975.0		136113.0		35862.0
260005.0		315206.0		260005.0		55201.0
446750.0		524724.0		446750.0		77974.0
574072.0		666298.0		574072.0		92226.0
375515.0		429478.0		375515.0		53963.0
219937.0		244041.0		219937.0		24104.0
94887.0		101765.0		94887.0		6878.0
20091.0		21209.0		20091.0		1118.0
9703.0		9926.0		9703.0		223.0
4165.0		4296.0		4165.0		131.0
2103.0		2128.0		2103.0		25.0
2330.0		2379.0		2330.0		49.0
1.15<|#eta|<1.37
75179.0		100792.0		75179.0		25613.0
132740.0		172225.0		132740.0		39485.0
228608.0		280205.0		228608.0		51597.0
306516.0		372976.0		306516.0		66460.0
210874.0		239568.0		210874.0		28694.0
121919.0		136699.0		121919.0		14780.0
53291.0		57292.0		53291.0		4001.0
11188.0		11767.0		11188.0		579.0
5297.0		5411.0		5297.0		114.0
2410.0		2469.0		2410.0		59.0
1187.0		1213.0		1187.0		26.0
1263.0		1314.0		1263.0		51.0
1.52<|#eta|<1.81
95773.0		118965.0		95773.0		23192.0
154879.0		190841.0		154879.0		35962.0
237093.0		288987.0		237093.0		51894.0
309777.0		368565.0		309777.0		58788.0
227686.0		255295.0		227686.0		27609.0
134305.0		147273.0		134305.0		12968.0
55558.0		60984.0		55558.0		5426.0
11308.0		12044.0		11308.0		736.0
5367.0		5568.0		5367.0		201.0
2282.0		2346.0		2282.0		64.0
1187.0		1220.0		1187.0		33.0
1280.0		1317.0		1280.0		37.0
1.81<|#eta|<2.01
69812.0		77253.0		69812.0		7441.0
110296.0		123961.0		110296.0		13665.0
160999.0		176713.0		160999.0		15714.0
200403.0		220812.0		200403.0		20409.0
137838.0		147443.0		137838.0		9605.0
77398.0		82446.0		77398.0		5048.0
32268.0		34331.0		32268.0		2063.0
6479.0		6972.0		6479.0		493.0
2908.0		3009.0		2908.0		101.0
1189.0		1239.0		1189.0		50.0
582.0		609.0		582.0		27.0
525.0		549.0		525.0		24.0
2.01<|#eta|<2.37
123645.0		138377.0		123645.0		14732.0
193020.0		214201.0		193020.0		21181.0
257732.0		282456.0		257732.0		24724.0
294084.0		324092.0		294084.0		30008.0
192070.0		209451.0		192070.0		17381.0
103777.0		115298.0		103777.0		11521.0
43435.0		47173.0		43435.0		3738.0
8785.0		9469.0		8785.0		684.0
3852.0		4046.0		3852.0		194.0
1510.0		1609.0		1510.0		99.0
735.0		791.0		735.0		56.0
655.0		698.0		655.0		43.0
