0.00<|#eta|<0.60
282147.0		355753.0		282147.0		73606.0
518999.0		631542.0		518999.0		112543.0
825499.0		968210.0		825499.0		142717.0
1093340.0		1267390.0		1093340.0		174055.0
756025.0		847912.0		756025.0		91887.0
438684.0		480297.0		438684.0		41613.0
193172.0		205827.0		193172.0		12655.0
41291.0		43062.0		41291.0		1771.0
18568.0		19265.0		18568.0		697.0
8309.0		8522.0		8309.0		213.0
4186.0		4299.0		4186.0		113.0
4423.0		4662.0		4423.0		239.0
0.60<|#eta|<0.80
76945.0		98620.0		76945.0		21675.0
165834.0		203945.0		165834.0		38111.0
279389.0		328245.0		279389.0		48856.0
350810.0		404244.0		350810.0		53434.0
244852.0		271811.0		244852.0		26959.0
140989.0		153683.0		140989.0		12694.0
61199.0		65032.0		61199.0		3833.0
12769.0		13350.0		12769.0		581.0
5889.0		6064.0		5889.0		175.0
2624.0		2677.0		2624.0		53.0
1349.0		1382.0		1349.0		33.0
1443.0		1474.0		1443.0		31.0
0.80<|#eta|<1.15
136139.0		171975.0		136139.0		35836.0
260043.0		315206.0		260043.0		55163.0
446812.0		524724.0		446812.0		77912.0
574098.0		666298.0		574098.0		92200.0
375554.0		429478.0		375554.0		53924.0
219956.0		244041.0		219956.0		24085.0
94892.0		101765.0		94892.0		6873.0
20091.0		21209.0		20091.0		1118.0
9703.0		9926.0		9703.0		223.0
4165.0		4296.0		4165.0		131.0
2103.0		2128.0		2103.0		25.0
2330.0		2379.0		2330.0		49.0
1.15<|#eta|<1.37
75271.0		100792.0		75271.0		25521.0
132749.0		172225.0		132749.0		39476.0
228641.0		280205.0		228641.0		51564.0
307177.0		372976.0		307177.0		65799.0
211210.0		239568.0		211210.0		28358.0
122276.0		136699.0		122276.0		14423.0
53415.0		57292.0		53415.0		3877.0
11205.0		11767.0		11205.0		562.0
5297.0		5411.0		5297.0		114.0
2410.0		2469.0		2410.0		59.0
1187.0		1213.0		1187.0		26.0
1262.0		1314.0		1262.0		52.0
1.52<|#eta|<1.81
95785.0		118965.0		95785.0		23180.0
154891.0		190841.0		154891.0		35950.0
237104.0		288987.0		237104.0		51883.0
309807.0		368565.0		309807.0		58758.0
227701.0		255295.0		227701.0		27594.0
134317.0		147273.0		134317.0		12956.0
55564.0		60984.0		55564.0		5420.0
11309.0		12044.0		11309.0		735.0
5367.0		5568.0		5367.0		201.0
2282.0		2346.0		2282.0		64.0
1187.0		1220.0		1187.0		33.0
1280.0		1317.0		1280.0		37.0
1.81<|#eta|<2.01
69855.0		77253.0		69855.0		7398.0
110330.0		123961.0		110330.0		13631.0
161040.0		176713.0		161040.0		15673.0
200415.0		220812.0		200415.0		20397.0
137839.0		147443.0		137839.0		9604.0
77398.0		82446.0		77398.0		5048.0
32268.0		34331.0		32268.0		2063.0
6479.0		6972.0		6479.0		493.0
2908.0		3009.0		2908.0		101.0
1189.0		1239.0		1189.0		50.0
582.0		609.0		582.0		27.0
525.0		549.0		525.0		24.0
2.01<|#eta|<2.37
123647.0		138377.0		123647.0		14730.0
193044.0		214201.0		193044.0		21157.0
257757.0		282456.0		257757.0		24699.0
294098.0		324092.0		294098.0		29994.0
192075.0		209451.0		192075.0		17376.0
103784.0		115298.0		103784.0		11514.0
43438.0		47173.0		43438.0		3735.0
8785.0		9469.0		8785.0		684.0
3852.0		4046.0		3852.0		194.0
1510.0		1609.0		1510.0		99.0
735.0		791.0		735.0		56.0
655.0		698.0		655.0		43.0
