0.00<|#eta|<0.60
282137.0		355753.0		282137.0		73616.0
518938.0		631542.0		518938.0		112604.0
825422.0		968210.0		825422.0		142794.0
1093300.0		1267390.0		1093300.0		174104.0
755988.0		847912.0		755988.0		91924.0
438621.0		480297.0		438621.0		41676.0
193139.0		205827.0		193139.0		12688.0
41290.0		43062.0		41290.0		1772.0
18569.0		19265.0		18569.0		696.0
8309.0		8522.0		8309.0		213.0
4186.0		4299.0		4186.0		113.0
4422.0		4662.0		4422.0		240.0
0.60<|#eta|<0.80
76921.0		98620.0		76921.0		21699.0
165807.0		203945.0		165807.0		38138.0
279366.0		328245.0		279366.0		48879.0
350732.0		404244.0		350732.0		53512.0
244804.0		271811.0		244804.0		27007.0
140967.0		153683.0		140967.0		12716.0
61190.0		65032.0		61190.0		3842.0
12767.0		13350.0		12767.0		583.0
5887.0		6064.0		5887.0		177.0
2624.0		2677.0		2624.0		53.0
1349.0		1382.0		1349.0		33.0
1443.0		1474.0		1443.0		31.0
0.80<|#eta|<1.15
136104.0		171975.0		136104.0		35871.0
260005.0		315206.0		260005.0		55201.0
446751.0		524724.0		446751.0		77973.0
574063.0		666298.0		574063.0		92235.0
375513.0		429478.0		375513.0		53965.0
219935.0		244041.0		219935.0		24106.0
94887.0		101765.0		94887.0		6878.0
20087.0		21209.0		20087.0		1122.0
9703.0		9926.0		9703.0		223.0
4165.0		4296.0		4165.0		131.0
2103.0		2128.0		2103.0		25.0
2330.0		2379.0		2330.0		49.0
1.15<|#eta|<1.37
75179.0		100792.0		75179.0		25613.0
132741.0		172225.0		132741.0		39484.0
228610.0		280205.0		228610.0		51595.0
306512.0		372976.0		306512.0		66464.0
210875.0		239568.0		210875.0		28693.0
121919.0		136699.0		121919.0		14780.0
53291.0		57292.0		53291.0		4001.0
11188.0		11767.0		11188.0		579.0
5297.0		5411.0		5297.0		114.0
2410.0		2469.0		2410.0		59.0
1187.0		1213.0		1187.0		26.0
1263.0		1314.0		1263.0		51.0
1.52<|#eta|<1.81
95758.0		118965.0		95758.0		23207.0
154840.0		190841.0		154840.0		36001.0
237064.0		288987.0		237064.0		51923.0
309771.0		368565.0		309771.0		58794.0
227687.0		255295.0		227687.0		27608.0
134301.0		147273.0		134301.0		12972.0
55556.0		60984.0		55556.0		5428.0
11308.0		12044.0		11308.0		736.0
5367.0		5568.0		5367.0		201.0
2282.0		2346.0		2282.0		64.0
1187.0		1220.0		1187.0		33.0
1280.0		1317.0		1280.0		37.0
1.81<|#eta|<2.01
69812.0		77253.0		69812.0		7441.0
110294.0		123961.0		110294.0		13667.0
161212.0		176713.0		161212.0		15501.0
203513.0		220812.0		203513.0		17299.0
139405.0		147443.0		139405.0		8038.0
77701.0		82446.0		77701.0		4745.0
32268.0		34331.0		32268.0		2063.0
6480.0		6972.0		6480.0		492.0
2908.0		3009.0		2908.0		101.0
1189.0		1239.0		1189.0		50.0
582.0		609.0		582.0		27.0
525.0		549.0		525.0		24.0
2.01<|#eta|<2.37
123640.0		138377.0		123640.0		14737.0
193021.0		214201.0		193021.0		21180.0
257732.0		282456.0		257732.0		24724.0
294084.0		324092.0		294084.0		30008.0
192073.0		209451.0		192073.0		17378.0
103777.0		115298.0		103777.0		11521.0
43432.0		47173.0		43432.0		3741.0
8782.0		9469.0		8782.0		687.0
3850.0		4046.0		3850.0		196.0
1509.0		1609.0		1509.0		100.0
735.0		791.0		735.0		56.0
655.0		698.0		655.0		43.0
