0.00<|#eta|<0.60
2.810939050412742e-06
0.0
1.0328337861631454e-06
0.0
5.896838351171496e-06
4.164090135816423e-06
4.85844908582056e-06
0.0
0.0
0.00011734334663227042
0.0
0.0
0.60<|#eta|<0.80
2.027986209696131e-05
4.412954473020925e-05
1.2186019588966701e-05
2.4737534757290902e-06
1.1037080912768005e-05
6.506900568026275e-06
0.0
0.0
0.0
0.0
0.0
0.0
0.80<|#eta|<1.15
6.97775839512138e-05
1.2690113766811173e-05
7.6230551681044645e-06
1.500829958978045e-06
2.3284079743168817e-06
5.326973746222485e-05
0.0
0.0
0.0
0.0
0.0
0.0
1.15<|#eta|<1.37
0.0
1.7419073885971414e-05
2.1412894131045412e-05
1.876796362232369e-05
3.3393441528084544e-05
1.4630684935568183e-05
0.0
0.0
0.0001848087229717743
0.0
0.0
0.0
1.52<|#eta|<1.81
5.884083553986397e-05
2.61998207932157e-05
5.5365812302921036e-05
3.7985158655828855e-05
2.350222291858106e-05
7.469121970760106e-05
6.55909746818395e-05
8.302889405509273e-05
0.0
0.0
0.0
0.0
1.81<|#eta|<2.01
2.5888962240983027e-05
5.646937343195546e-05
5.65889323367319e-06
4.528739380171842e-06
6.78228196659969e-06
1.2129151201967225e-05
2.9128193178240558e-05
0.0
0.0
0.0
0.0
0.0
2.01<|#eta|<2.37
4.33598069042862e-05
2.8011073711087242e-05
7.08074886002219e-06
9.256630833176516e-06
4.774386371986239e-05
4.3365886658874864e-05
0.0
0.0001056077727321636
0.00024715768660399373
0.0
0.0
0.0
