0.00<|#eta|<0.60
0.0
8.708842800631e-05
7.64297001683012e-05
3.94511555242838e-05
3.891913311759865e-05
0.00011451247873717207
0.0001603288198341879
2.322233059304235e-05
5.190760446405207e-05
0.0
0.0
0.00021450021450031276
0.60<|#eta|<0.80
0.0002129385520178717
0.00013238863419051672
6.093009794505555e-05
0.00019542652457427145
0.00016923524066358997
0.00014965871306527045
0.00013839340632293418
0.0001498127340824329
0.0003298153034300144
0.0
0.0
0.0
0.80<|#eta|<1.15
0.00014536996656488999
0.00011421102390174465
0.00011625159131278817
3.6019919015251034e-05
9.08079109989135e-05
7.785577013696976e-05
4.913280597462766e-05
0.0
0.0
0.0
0.0
0.0
1.15<|#eta|<1.37
0.0009028494324946346
4.645086369581275e-05
0.0001177709177209163
0.0017722319934795339
0.0014025245441794398
0.002611577260989484
0.0021643510437757696
0.0014447182799354197
0.0
0.0
0.0
0.0007610350076103778
1.52<|#eta|<1.81
8.405833648550409e-05
6.28795699038065e-05
3.8063995958292907e-05
7.868354292994706e-05
5.48385201433188e-05
8.14813305900497e-05
9.838646202287027e-05
8.302889405509273e-05
0.0
0.0
0.0
0.0
1.81<|#eta|<2.01
0.0005566126881804134
0.0002662127604650122
0.0002320146225801567
5.434487256128495e-05
6.78228196659969e-06
0.0
0.0
0.0
0.0
0.0
0.0
0.0
2.01<|#eta|<2.37
1.44532689680954e-05
0.00011204429484457101
8.850936074999982e-05
4.319761055493476e-05
2.3871931859931195e-05
6.071224132242481e-05
6.359570093061873e-05
0.0
0.0
0.0
0.0
0.0
