0.00<|#eta|<0.60
5.9029720058556556e-05
2.8501667347580195e-05
2.168950950731663e-05
1.5780462209735724e-05
1.5331779713023685e-05
1.873840561150697e-05
1.9433796343504284e-05
0.0
0.0
0.0
0.0
0.0
0.60<|#eta|<0.80
6.083958629077291e-05
2.9419696486843172e-05
2.132553428080275e-05
7.421260426854204e-06
2.5753188796606707e-05
2.602760227221612e-05
0.0
0.0
0.0
0.0
0.0
0.0
0.80<|#eta|<1.15
9.885157726408078e-05
3.1725284417194466e-05
3.8115275840189256e-05
3.0016599179338854e-05
2.7940895691913603e-05
2.8683704787257902e-05
0.0
0.0002357489744919672
0.0
0.0
0.0
0.0
1.15<|#eta|<1.37
0.00037701404873402566
1.7419073885860392e-05
3.56881568851497e-05
3.217365192398347e-05
3.7567621719136746e-05
2.9261369871025344e-05
0.0
0.0
0.0
0.0
0.0
0.0
1.52<|#eta|<1.81
0.0001597108393225355
0.00022531845882167723
0.00010381089806810184
2.9845481801071827e-05
0.0
2.7160443530127587e-05
6.55909746818395e-05
0.0002490866821653892
0.0
0.0004262574595055302
0.0
0.0
1.81<|#eta|<2.01
0.0
0.0
0.0011657320061342347
0.014084379472130149
0.010627835841647282
0.0036508745118015717
0.0
0.000430292598967319
0.0
0.0
0.0
0.0
2.01<|#eta|<2.37
0.00010117288277677883
6.069065970748522e-05
2.124224658006657e-05
4.9368697777274484e-05
8.116456832385488e-05
0.0001040781279814107
8.479426790741762e-05
0.00021121554546421617
0.0004943153732080985
0.0
0.0
0.0
