0.00<|#eta|<0.60
5.621878100825484e-06
5.541990873136893e-05
5.5773024447258734e-05
2.3670693314659097e-05
7.0762060213613864e-06
8.536384778579098e-05
0.0001749041670917606
0.00011611165296554482
0.00010381520892810414
0.0
0.0
0.0012870012870012104
0.60<|#eta|<0.80
0.00010139931048469553
8.82590894604185e-05
6.093009794516657e-05
0.000215216552379216
0.0001508401058087916
6.506900568048479e-05
0.0
0.0
0.0
0.0
0.0
0.0
0.80<|#eta|<1.15
9.885157726408078e-05
0.00014276377987731959
8.385360684848298e-05
8.254564774312634e-05
8.615109505027974e-05
4.507439323719886e-05
9.826561194903327e-05
9.429958979678688e-05
0.0
0.0
0.0
0.0
1.15<|#eta|<1.37
0.0013889991269148139
3.4838147771720784e-05
8.922039221281874e-05
0.0019867230063059793
0.0017448073198423897
0.0029115063021675214
0.0023039865949870952
0.0012747514234724422
0.0
0.0
0.0
0.0
1.52<|#eta|<1.81
0.00021014584121381574
3.143978495190325e-05
6.228653884088331e-05
8.953644540321548e-05
6.26725944495865e-05
0.00010864177412017728
0.00011478420569333014
0.0
0.0
0.0
0.0
0.0
1.81<|#eta|<2.01
0.00033655650913233526
0.00020974338703305673
0.00015844901054251626
4.075865442088045e-05
2.712912786639876e-05
1.2129151201967225e-05
0.0
0.0002868617326448053
0.0
0.0
0.0
0.0
2.01<|#eta|<2.37
1.44532689680954e-05
0.00012138131941497043
5.664599087995548e-05
4.628315416610462e-05
2.8646318231961843e-05
0.00019948307863104642
8.479426790741762e-05
0.0001056077727321636
0.0
0.0
0.0
0.0
