0.00<|#eta|<0.60
339534.0		413109.0		339534.0		73575.0
646847.0		766305.0		646847.0		119458.0
1049660.0		1205480.0		1049660.0		155823.0
1395700.0		1582460.0		1395700.0		186748.0
952020.0		1055180.0		952020.0		103150.0
547144.0		592638.0		547144.0		45494.0
240831.0		254812.0		240831.0		13981.0
51057.0		52638.0		51057.0		1581.0
23662.0		24393.0		23662.0		731.0
10361.0		10622.0		10361.0		261.0
5226.0		5357.0		5226.0		131.0
5489.0		5770.0		5489.0		281.0
0.60<|#eta|<0.80
99637.0		124486.0		99637.0		24849.0
213496.0		255996.0		213496.0		42500.0
354109.0		409638.0		354109.0		55529.0
439959.0		505608.0		439959.0		65649.0
309330.0		337397.0		309330.0		28067.0
172283.0		187491.0		172283.0		15208.0
75653.0		79655.0		75653.0		4002.0
15933.0		16589.0		15933.0		656.0
7346.0		7493.0		7346.0		147.0
3074.0		3177.0		3074.0		103.0
1665.0		1696.0		1665.0		31.0
1742.0		1805.0		1742.0		63.0
0.80<|#eta|<1.15
178275.0		216726.0		178275.0		38451.0
330733.0		397139.0		330733.0		66406.0
566665.0		658748.0		566665.0		92083.0
739027.0		835279.0		739027.0		96252.0
478187.0		531503.0		478187.0		53316.0
271757.0		296729.0		271757.0		24972.0
116626.0		124301.0		116626.0		7675.0
25325.0		26414.0		25325.0		1089.0
11949.0		12159.0		11949.0		210.0
5306.0		5385.0		5306.0		79.0
2560.0		2605.0		2560.0		45.0
2881.0		2950.0		2881.0		69.0
1.15<|#eta|<1.37
96484.0		125895.0		96484.0		29411.0
169878.0		215988.0		169878.0		46110.0
296126.0		353321.0		296126.0		57195.0
396940.0		470819.0		396940.0		73879.0
262460.0		297354.0		262460.0		34894.0
151076.0		167375.0		151076.0		16299.0
64349.0		68548.0		64349.0		4199.0
13672.0		14362.0		13672.0		690.0
6607.0		6789.0		6607.0		182.0
2951.0		3039.0		2951.0		88.0
1573.0		1615.0		1573.0		42.0
1591.0		1665.0		1591.0		74.0
1.52<|#eta|<1.81
118630.0		143951.0		118630.0		25321.0
197075.0		239433.0		197075.0		42358.0
306910.0		364819.0		306910.0		57909.0
395756.0		464536.0		395756.0		68780.0
288473.0		320284.0		288473.0		31811.0
168321.0		183135.0		168321.0		14814.0
67243.0		72997.0		67243.0		5754.0
13928.0		14878.0		13928.0		950.0
6594.0		6830.0		6594.0		236.0
3028.0		3108.0		3028.0		80.0
1480.0		1525.0		1480.0		45.0
1593.0		1642.0		1593.0		49.0
1.81<|#eta|<2.01
89060.0		96191.0		89060.0		7131.0
139134.0		154677.0		139134.0		15543.0
202830.0		221049.0		202830.0		18219.0
253776.0		279129.0		253776.0		25353.0
177642.0		189350.0		177642.0		11708.0
99015.0		105134.0		99015.0		6119.0
39324.0		41669.0		39324.0		2345.0
7809.0		8300.0		7809.0		491.0
3570.0		3708.0		3570.0		138.0
1473.0		1516.0		1473.0		43.0
695.0		723.0		695.0		28.0
762.0		797.0		762.0		35.0
2.01<|#eta|<2.37
156072.0		171938.0		156072.0		15866.0
244226.0		266840.0		244226.0		22614.0
323202.0		352631.0		323202.0		29429.0
378372.0		412847.0		378372.0		34475.0
251767.0		272757.0		251767.0		20990.0
135984.0		149605.0		135984.0		13621.0
53279.0		57403.0		53279.0		4124.0
10166.0		10987.0		10166.0		821.0
4729.0		4956.0		4729.0		227.0
1904.0		1956.0		1904.0		52.0
907.0		967.0		907.0		60.0
932.0		974.0		932.0		42.0
