0.00<|#eta|<0.60
675598.0	791545.0
1283677.0	1488651.0
1957122.0	2207308.0
2525255.0	2808023.0
1709115.0	1874096.0
1029975.0	1127264.0
438006.0	473419.0
73067.0	78963.0
22163.0	23952.0
6885.0	7423.0
2630.0	2811.0
2001.0	2171.0
0.60<|#eta|<1.37
683095.0	836920.0
1360334.0	1614912.0
2256221.0	2595030.0
2855270.0	3246429.0
1896808.0	2120942.0
1149746.0	1276352.0
485062.0	531983.0
80902.0	88334.0
24927.0	27122.0
7677.0	8320.0
2989.0	3223.0
2229.0	2391.0
1.52<|#eta|<1.81
211338.0	258396.0
378700.0	447618.0
589575.0	671873.0
767298.0	862486.0
547972.0	598657.0
338073.0	364059.0
140949.0	150019.0
23068.0	24480.0
6980.0	7378.0
2218.0	2305.0
879.0	917.0
648.0	673.0
1.81<|#eta|<2.37
374195.0	463550.0
653305.0	787796.0
913096.0	1064696.0
1129996.0	1292814.0
747434.0	844086.0
436044.0	486810.0
180155.0	199880.0
29181.0	32090.0
8430.0	9288.0
2540.0	2770.0
1014.0	1105.0
621.0	683.0
