0 < |eta| < 0.6
8.141594667010477e-05
0.00033682441937410434
0.0002732183712365055
0.00015090463524514153
0.0006931585447991218
0.0005768393747060951
0.0004627750263863639
0.0008675934141773034
0.0012340425531914834
0.0008857395925597755
0.004093567251461927
0.0023508137432188825
0.6 < |eta| < 0.8
0.00013760613885271944
1.956617868614785e-05
0.000746875045615325
0.0
2.1508482023535613e-05
0.0002323818587228743
0.0006238546418684265
0.0018218369141852486
0.0005574912891986861
0.001962708537782132
0.0012586532410321372
0.001697792869269965
0.8 < |eta| < 1.15
0.0005659104593834785
0.00026800554697714585
8.73381838099041e-05
2.979883403120276e-05
0.0007079387741418808
0.0006536224817869085
0.0005383625366970346
3.967624186640428e-05
0.00042778918548935785
0.0
0.001596806387225591
0.0007072135785006761
1.15 < |eta| < 1.37
0.0028831809292654276
0.0038168972144771995
0.0037089560379622855
0.00022483998537481398
0.00010170050254076912
4.388852315118097e-05
0.00019835215135799444
0.000292120061345158
0.0009177118384826599
0.001031282227569541
0.0006489292667098967
0.0012578616352201255
1.52 < |eta| < 1.81
0.0002496601847484792
0.0004979954636379347
0.0005102695150802639
0.00012765414237692063
0.0001806770635223165
8.94019567853066e-05
0.0
0.00020959966464051405
0.0001521838380763585
0.0006837606837606369
0.0
0.0
1.81 < |eta| < 2.01
0.00027968550918300306
0.00034115632684061925
4.4850692046183305e-05
0.0001633737387369827
0.00023962531314669633
2.9619683266868257e-05
0.00017466377223840368
0.0012711325791280315
0.0016968325791855143
0.003369272237196741
0.002849002849002802
0.0013495276653171517
2.01 < |eta| < 2.37
0.0002289600064108166
0.00041322466508508793
0.00019545974925305742
0.0001339520642970049
0.00031636884796004683
0.00030088235499925453
0.00018200349446717556
0.0008584509729110401
0.0010654165778819502
0.0032223415682062218
0.009922822491731043
0.007658643326039383
