0.00<|#eta|<0.60
283347.0		355753.0		283347.0		72406.0
510399.0		631542.0		510399.0		121143.0
777016.0		968210.0		777016.0		191200.0
1026000.0		1267390.0		1026000.0		241396.0
714361.0		847912.0		714361.0		133551.0
410701.0		480297.0		410701.0		69596.0
179333.0		205827.0		179333.0		26494.0
37825.0		43062.0		37825.0		5237.0
18084.0		19265.0		18084.0		1181.0
7904.0		8522.0		7904.0		618.0
3951.0		4299.0		3951.0		348.0
4297.0		4662.0		4297.0		365.0
0.60<|#eta|<0.80
75380.0		98620.0		75380.0		23240.0
163467.0		203945.0		163467.0		40478.0
261840.0		328245.0		261840.0		66405.0
326677.0		404244.0		326677.0		77567.0
227721.0		271811.0		227721.0		44090.0
130028.0		153683.0		130028.0		23655.0
57004.0		65032.0		57004.0		8028.0
11957.0		13350.0		11957.0		1393.0
5668.0		6064.0		5668.0		396.0
2477.0		2677.0		2477.0		200.0
1320.0		1382.0		1320.0		62.0
1389.0		1474.0		1389.0		85.0
0.80<|#eta|<1.15
124416.0		171975.0		124416.0		47559.0
225208.0		315206.0		225208.0		89998.0
375406.0		524724.0		375406.0		149318.0
491904.0		666298.0		491904.0		174394.0
331270.0		429478.0		331270.0		98208.0
191537.0		244041.0		191537.0		52504.0
83969.0		101765.0		83969.0		17796.0
17179.0		21209.0		17179.0		4030.0
8869.0		9926.0		8869.0		1057.0
3909.0		4296.0		3909.0		387.0
1979.0		2128.0		1979.0		149.0
2176.0		2379.0		2176.0		203.0
1.15<|#eta|<1.37
68946.0		100792.0		68946.0		31846.0
122416.0		172225.0		122416.0		49809.0
193616.0		280205.0		193616.0		86589.0
273588.0		372976.0		273588.0		99388.0
184539.0		239568.0		184539.0		55029.0
109902.0		136699.0		109902.0		26797.0
46789.0		57292.0		46789.0		10503.0
9852.0		11767.0		9852.0		1915.0
4589.0		5411.0		4589.0		822.0
2144.0		2469.0		2144.0		325.0
1079.0		1213.0		1079.0		134.0
1145.0		1314.0		1145.0		169.0
1.52<|#eta|<1.81
92632.0		118965.0		92632.0		26333.0
149407.0		190841.0		149407.0		41434.0
224390.0		288987.0		224390.0		64597.0
287946.0		368565.0		287946.0		80619.0
209003.0		255295.0		209003.0		46292.0
122661.0		147273.0		122661.0		24612.0
51590.0		60984.0		51590.0		9394.0
10276.0		12044.0		10276.0		1768.0
4808.0		5568.0		4808.0		760.0
2097.0		2346.0		2097.0		249.0
1141.0		1220.0		1141.0		79.0
1243.0		1317.0		1243.0		74.0
1.81<|#eta|<2.01
61657.0		77253.0		61657.0		15596.0
98595.0		123961.0		98595.0		25366.0
146210.0		176713.0		146210.0		30503.0
185709.0		220812.0		185709.0		35103.0
121922.0		147443.0		121922.0		25521.0
70135.0		82446.0		70135.0		12311.0
30204.0		34331.0		30204.0		4127.0
5932.0		6972.0		5932.0		1040.0
2666.0		3009.0		2666.0		343.0
1109.0		1239.0		1109.0		130.0
541.0		609.0		541.0		68.0
504.0		549.0		504.0		45.0
2.01<|#eta|<2.37
118688.0		138377.0		118688.0		19689.0
186725.0		214201.0		186725.0		27476.0
249745.0		282456.0		249745.0		32711.0
281314.0		324092.0		281314.0		42778.0
185348.0		209451.0		185348.0		24103.0
102014.0		115298.0		102014.0		13284.0
40774.0		47173.0		40774.0		6399.0
8331.0		9469.0		8331.0		1138.0
3619.0		4046.0		3619.0		427.0
1453.0		1609.0		1453.0		156.0
747.0		791.0		747.0		44.0
627.0		698.0		627.0		71.0
