0.00<|#eta|<0.60
335503.0		413109.0		335503.0		77606.0
629976.0		766305.0		629976.0		136329.0
987410.0		1205480.0		987410.0		218082.0
1302930.0		1582460.0		1302930.0		279528.0
902650.0		1055180.0		902650.0		152525.0
510793.0		592638.0		510793.0		81845.0
224583.0		254812.0		224583.0		30229.0
47104.0		52638.0		47104.0		5534.0
23206.0		24393.0		23206.0		1187.0
9909.0		10622.0		9909.0		713.0
4992.0		5357.0		4992.0		365.0
5332.0		5770.0		5332.0		438.0
0.60<|#eta|<0.80
97078.0		124486.0		97078.0		27408.0
210044.0		255996.0		210044.0		45952.0
331316.0		409638.0		331316.0		78322.0
418930.0		505608.0		418930.0		86678.0
288172.0		337397.0		288172.0		49225.0
160778.0		187491.0		160778.0		26713.0
70696.0		79655.0		70696.0		8959.0
14933.0		16589.0		14933.0		1656.0
7046.0		7493.0		7046.0		447.0
2953.0		3177.0		2953.0		224.0
1591.0		1696.0		1591.0		105.0
1701.0		1805.0		1701.0		104.0
0.80<|#eta|<1.15
160169.0		216726.0		160169.0		56557.0
288694.0		397139.0		288694.0		108445.0
481608.0		658748.0		481608.0		177140.0
648690.0		835279.0		648690.0		186589.0
427916.0		531503.0		427916.0		103587.0
235769.0		296729.0		235769.0		60960.0
102991.0		124301.0		102991.0		21310.0
21474.0		26414.0		21474.0		4940.0
10847.0		12159.0		10847.0		1312.0
4825.0		5385.0		4825.0		560.0
2390.0		2605.0		2390.0		215.0
2700.0		2950.0		2700.0		250.0
1.15<|#eta|<1.37
89650.0		125895.0		89650.0		36245.0
158173.0		215988.0		158173.0		57815.0
257849.0		353321.0		257849.0		95472.0
353424.0		470819.0		353424.0		117395.0
234653.0		297354.0		234653.0		62701.0
137347.0		167375.0		137347.0		30028.0
57532.0		68548.0		57532.0		11016.0
12156.0		14362.0		12156.0		2206.0
5818.0		6789.0		5818.0		971.0
2735.0		3039.0		2735.0		304.0
1440.0		1615.0		1440.0		175.0
1463.0		1665.0		1463.0		202.0
1.52<|#eta|<1.81
114494.0		143951.0		114494.0		29457.0
191848.0		239433.0		191848.0		47585.0
289092.0		364819.0		289092.0		75727.0
369741.0		464536.0		369741.0		94795.0
267294.0		320284.0		267294.0		52990.0
154982.0		183135.0		154982.0		28153.0
62354.0		72997.0		62354.0		10643.0
12805.0		14878.0		12805.0		2073.0
6045.0		6830.0		6045.0		785.0
2873.0		3108.0		2873.0		235.0
1452.0		1525.0		1452.0		73.0
1570.0		1642.0		1570.0		72.0
1.81<|#eta|<2.01
78118.0		96191.0		78118.0		18073.0
126748.0		154677.0		126748.0		27929.0
184592.0		221049.0		184592.0		36457.0
240278.0		279129.0		240278.0		38851.0
160173.0		189350.0		160173.0		29177.0
90546.0		105134.0		90546.0		14588.0
37029.0		41669.0		37029.0		4640.0
7326.0		8300.0		7326.0		974.0
3343.0		3708.0		3343.0		365.0
1378.0		1516.0		1378.0		138.0
658.0		723.0		658.0		65.0
741.0		797.0		741.0		56.0
2.01<|#eta|<2.37
148463.0		171938.0		148463.0		23475.0
237423.0		266840.0		237423.0		29417.0
315304.0		352631.0		315304.0		37327.0
364044.0		412847.0		364044.0		48803.0
244564.0		272757.0		244564.0		28193.0
134203.0		149605.0		134203.0		15402.0
50454.0		57403.0		50454.0		6949.0
9577.0		10987.0		9577.0		1410.0
4540.0		4956.0		4540.0		416.0
1834.0		1956.0		1834.0		122.0
902.0		967.0		902.0		65.0
863.0		974.0		863.0		111.0
