0.00<|#eta|<0.60
335509.0		413109.0		335509.0		77600.0
629989.0		766305.0		629989.0		136316.0
987410.0		1205480.0		987410.0		218071.0
1302930.0		1582460.0		1302930.0		279526.0
902656.0		1055180.0		902656.0		152519.0
510797.0		592638.0		510797.0		81841.0
224584.0		254812.0		224584.0		30228.0
47104.0		52638.0		47104.0		5534.0
23206.0		24393.0		23206.0		1187.0
9909.0		10622.0		9909.0		713.0
4992.0		5357.0		4992.0		365.0
5332.0		5770.0		5332.0		438.0
0.60<|#eta|<0.80
97084.0		124486.0		97084.0		27402.0
210045.0		255996.0		210045.0		45951.0
331322.0		409638.0		331322.0		78316.0
418935.0		505608.0		418935.0		86673.0
288177.0		337397.0		288177.0		49220.0
160786.0		187491.0		160786.0		26705.0
70696.0		79655.0		70696.0		8959.0
14933.0		16589.0		14933.0		1656.0
7047.0		7493.0		7047.0		446.0
2953.0		3177.0		2953.0		224.0
1591.0		1696.0		1591.0		105.0
1701.0		1805.0		1701.0		104.0
0.80<|#eta|<1.15
160198.0		216726.0		160198.0		56528.0
288702.0		397139.0		288702.0		108437.0
481647.0		658748.0		481647.0		177101.0
648718.0		835279.0		648718.0		186561.0
427930.0		531503.0		427930.0		103573.0
235809.0		296729.0		235809.0		60920.0
103002.0		124301.0		103002.0		21299.0
21475.0		26414.0		21475.0		4939.0
10848.0		12159.0		10848.0		1311.0
4826.0		5385.0		4826.0		559.0
2390.0		2605.0		2390.0		215.0
2699.0		2950.0		2699.0		251.0
1.15<|#eta|<1.37
89697.0		125895.0		89697.0		36198.0
158204.0		215988.0		158204.0		57784.0
257881.0		353321.0		257881.0		95440.0
353469.0		470819.0		353469.0		117350.0
234664.0		297354.0		234664.0		62690.0
137358.0		167375.0		137358.0		30017.0
57532.0		68548.0		57532.0		11016.0
12158.0		14362.0		12158.0		2204.0
5818.0		6789.0		5818.0		971.0
2734.0		3039.0		2734.0		305.0
1440.0		1615.0		1440.0		175.0
1463.0		1665.0		1463.0		202.0
1.52<|#eta|<1.81
114499.0		143951.0		114499.0		29452.0
191854.0		239433.0		191854.0		47579.0
289111.0		364819.0		289111.0		75708.0
369749.0		464536.0		369749.0		94787.0
267303.0		320284.0		267303.0		52981.0
154983.0		183135.0		154983.0		28152.0
62354.0		72997.0		62354.0		10643.0
12803.0		14878.0		12803.0		2075.0
6045.0		6830.0		6045.0		785.0
2873.0		3108.0		2873.0		235.0
1452.0		1525.0		1452.0		73.0
1570.0		1642.0		1570.0		72.0
1.81<|#eta|<2.01
78123.0		96191.0		78123.0		18068.0
126755.0		154677.0		126755.0		27922.0
184593.0		221049.0		184593.0		36456.0
240278.0		279129.0		240278.0		38851.0
160173.0		189350.0		160173.0		29177.0
90546.0		105134.0		90546.0		14588.0
37030.0		41669.0		37030.0		4639.0
7326.0		8300.0		7326.0		974.0
3344.0		3708.0		3344.0		364.0
1378.0		1516.0		1378.0		138.0
658.0		723.0		658.0		65.0
741.0		797.0		741.0		56.0
2.01<|#eta|<2.37
148465.0		171938.0		148465.0		23473.0
237424.0		266840.0		237424.0		29416.0
315306.0		352631.0		315306.0		37325.0
364044.0		412847.0		364044.0		48803.0
244566.0		272757.0		244566.0		28191.0
134204.0		149605.0		134204.0		15401.0
50454.0		57403.0		50454.0		6949.0
9577.0		10987.0		9577.0		1410.0
4540.0		4956.0		4540.0		416.0
1834.0		1956.0		1834.0		122.0
902.0		967.0		902.0		65.0
863.0		974.0		863.0		111.0
