0.00<|#eta|<0.60
335493.0		413109.0		335493.0		77616.0
629983.0		766305.0		629983.0		136322.0
987390.0		1205480.0		987390.0		218085.0
1302930.0		1582460.0		1302930.0		279531.0
902644.0		1055180.0		902644.0		152531.0
510787.0		592638.0		510787.0		81851.0
224576.0		254812.0		224576.0		30236.0
47104.0		52638.0		47104.0		5534.0
23206.0		24393.0		23206.0		1187.0
9909.0		10622.0		9909.0		713.0
4992.0		5357.0		4992.0		365.0
5332.0		5770.0		5332.0		438.0
0.60<|#eta|<0.80
97078.0		124486.0		97078.0		27408.0
210043.0		255996.0		210043.0		45953.0
331305.0		409638.0		331305.0		78333.0
418927.0		505608.0		418927.0		86681.0
288165.0		337397.0		288165.0		49232.0
160783.0		187491.0		160783.0		26708.0
70695.0		79655.0		70695.0		8960.0
14933.0		16589.0		14933.0		1656.0
7045.0		7493.0		7045.0		448.0
2953.0		3177.0		2953.0		224.0
1591.0		1696.0		1591.0		105.0
1701.0		1805.0		1701.0		104.0
0.80<|#eta|<1.15
160163.0		216726.0		160163.0		56563.0
288685.0		397139.0		288685.0		108454.0
481616.0		658748.0		481616.0		177132.0
648690.0		835279.0		648690.0		186589.0
427918.0		531503.0		427918.0		103585.0
235785.0		296729.0		235785.0		60944.0
102992.0		124301.0		102992.0		21309.0
21473.0		26414.0		21473.0		4941.0
10847.0		12159.0		10847.0		1312.0
4826.0		5385.0		4826.0		559.0
2390.0		2605.0		2390.0		215.0
2700.0		2950.0		2700.0		250.0
1.15<|#eta|<1.37
89652.0		125895.0		89652.0		36243.0
158179.0		215988.0		158179.0		57809.0
257859.0		353321.0		257859.0		95462.0
353446.0		470819.0		353446.0		117373.0
234650.0		297354.0		234650.0		62704.0
137353.0		167375.0		137353.0		30022.0
57529.0		68548.0		57529.0		11019.0
12157.0		14362.0		12157.0		2205.0
5818.0		6789.0		5818.0		971.0
2732.0		3039.0		2732.0		307.0
1440.0		1615.0		1440.0		175.0
1463.0		1665.0		1463.0		202.0
1.52<|#eta|<1.81
114497.0		143951.0		114497.0		29454.0
191841.0		239433.0		191841.0		47592.0
289101.0		364819.0		289101.0		75718.0
369725.0		464536.0		369725.0		94811.0
267300.0		320284.0		267300.0		52984.0
154972.0		183135.0		154972.0		28163.0
62355.0		72997.0		62355.0		10642.0
12802.0		14878.0		12802.0		2076.0
6045.0		6830.0		6045.0		785.0
2873.0		3108.0		2873.0		235.0
1452.0		1525.0		1452.0		73.0
1569.0		1642.0		1569.0		73.0
1.81<|#eta|<2.01
78118.0		96191.0		78118.0		18073.0
126735.0		154677.0		126735.0		27942.0
184580.0		221049.0		184580.0		36469.0
240251.0		279129.0		240251.0		38878.0
160136.0		189350.0		160136.0		29214.0
90524.0		105134.0		90524.0		14610.0
37021.0		41669.0		37021.0		4648.0
7326.0		8300.0		7326.0		974.0
3344.0		3708.0		3344.0		364.0
1378.0		1516.0		1378.0		138.0
655.0		723.0		655.0		68.0
741.0		797.0		741.0		56.0
2.01<|#eta|<2.37
148464.0		171938.0		148464.0		23474.0
237422.0		266840.0		237422.0		29418.0
315306.0		352631.0		315306.0		37325.0
364030.0		412847.0		364030.0		48817.0
244545.0		272757.0		244545.0		28212.0
134193.0		149605.0		134193.0		15412.0
50452.0		57403.0		50452.0		6951.0
9577.0		10987.0		9577.0		1410.0
4538.0		4956.0		4538.0		418.0
1834.0		1956.0		1834.0		122.0
902.0		967.0		902.0		65.0
863.0		974.0		863.0		111.0
