0 < |eta| < 0.6
0.007871633473074636
0.005376609036185654
0.005781627220423528
0.00439371952393258
0.0040176030719521975
0.0033837433149280696
0.001691932824754621
0.001077303072449338
0.0017885293305561845
0.0002490822171968228
0.0037299515106303804
0.0017346053772766545
0.6 < |eta| < 0.8
0.005427272329965282
0.004814728562625332
0.0039657265893147
0.0033227353867999
0.003535834628096186
0.0019199870318988242
0.0035187391629710697
0.00030794899828433524
0.00035314352790513117
0.007544797233574263
0.0067560413559877505
0.0022259321090707385
0.8 < |eta| < 1.15
0.00786692991220477
0.005565125209861635
0.004533589974938608
0.003200416455513759
0.00240194102024953
0.0017451504338139078
0.0016654885692703627
0.0009167651971737053
0.004048853903534013
0.0013197215027744129
0.003079291762894565
0.007363940722570073
1.15 < |eta| < 1.37
0.007806504795416035
0.006295705088738445
0.005562991292562571
0.005027541028605298
0.0025102254039275976
0.002622228782472194
0.00011352932154808224
0.0014720146718199664
0.006577275922644562
0.001978239366963397
0.001235330450895633
0.009603841536614643
1.52 < |eta| < 1.81
0.00022701358958615732
0.0021710318855661767
0.002926252733942072
0.0031930528099337902
0.001828920882984674
0.0016615555004161199
0.0006643396027818502
0.0012918323748602417
0.002926115581565636
0.002583144979012131
0.004255313773070745
0.0024405125076265577
1.81 < |eta| < 2.01
0.006095148746940009
0.018843043953976967
0.02396144435439351
0.004302061641788755
0.004454500301357473
0.0024647966179572943
0.0023995056813823352
0.0014442343892633377
0.006983615363953755
0.0046612180697861135
0.002395644270496364
0.022179006921437122
2.01 < |eta| < 2.37
0.00513161553919365
0.002921733048078203
0.0021780756311006446
0.0027220079812295965
0.0021512263119120847
0.0033121154421605773
0.003652552555711579
0.004419538190733825
0.006776783045547335
0.0010193679918450993
0.008324661810613865
0.005345835825829849
