0.00<|#eta|<0.60
283817.0		355753.0		283817.0		71936.0
510170.0		631542.0		510170.0		121372.0
781490.0		968210.0		781490.0		186726.0
1031320.0		1267390.0		1031320.0		236082.0
717119.0		847912.0		717119.0		130793.0
411457.0		480297.0		411457.0		68840.0
179304.0		205827.0		179304.0		26523.0
37953.0		43062.0		37953.0		5109.0
18123.0		19265.0		18123.0		1142.0
7956.0		8522.0		7956.0		566.0
3982.0		4299.0		3982.0		317.0
4327.0		4662.0		4327.0		335.0
0.60<|#eta|<0.80
75563.0		98620.0		75563.0		23057.0
163085.0		203945.0		163085.0		40860.0
262426.0		328245.0		262426.0		65819.0
327169.0		404244.0		327169.0		77075.0
227860.0		271811.0		227860.0		43951.0
130389.0		153683.0		130389.0		23294.0
57078.0		65032.0		57078.0		7954.0
11953.0		13350.0		11953.0		1397.0
5685.0		6064.0		5685.0		379.0
2474.0		2677.0		2474.0		203.0
1314.0		1382.0		1314.0		68.0
1390.0		1474.0		1390.0		84.0
0.80<|#eta|<1.15
124160.0		171975.0		124160.0		47815.0
225450.0		315206.0		225450.0		89756.0
379679.0		524724.0		379679.0		145045.0
497883.0		666298.0		497883.0		168415.0
334370.0		429478.0		334370.0		95108.0
192455.0		244041.0		192455.0		51586.0
84390.0		101765.0		84390.0		17375.0
17595.0		21209.0		17595.0		3614.0
9075.0		9926.0		9075.0		851.0
3970.0		4296.0		3970.0		326.0
1973.0		2128.0		1973.0		155.0
2176.0		2379.0		2176.0		203.0
1.15<|#eta|<1.37
69138.0		100792.0		69138.0		31654.0
122415.0		172225.0		122415.0		49810.0
196806.0		280205.0		196806.0		83399.0
279013.0		372976.0		279013.0		93963.0
186425.0		239568.0		186425.0		53143.0
110633.0		136699.0		110633.0		26066.0
47004.0		57292.0		47004.0		10288.0
10075.0		11767.0		10075.0		1692.0
4749.0		5411.0		4749.0		662.0
2195.0		2469.0		2195.0		274.0
1071.0		1213.0		1071.0		142.0
1118.0		1314.0		1118.0		196.0
1.52<|#eta|<1.81
92938.0		118965.0		92938.0		26027.0
149075.0		190841.0		149075.0		41766.0
225296.0		288987.0		225296.0		63691.0
290079.0		368565.0		290079.0		78486.0
210349.0		255295.0		210349.0		44946.0
123115.0		147273.0		123115.0		24158.0
51666.0		60984.0		51666.0		9318.0
10498.0		12044.0		10498.0		1546.0
4879.0		5568.0		4879.0		689.0
2136.0		2346.0		2136.0		210.0
1133.0		1220.0		1133.0		87.0
1243.0		1317.0		1243.0		74.0
1.81<|#eta|<2.01
61752.0		77253.0		61752.0		15501.0
98532.0		123961.0		98532.0		25429.0
146313.0		176713.0		146313.0		30400.0
185692.0		220812.0		185692.0		35120.0
122081.0		147443.0		122081.0		25362.0
70207.0		82446.0		70207.0		12239.0
30182.0		34331.0		30182.0		4149.0
5977.0		6972.0		5977.0		995.0
2709.0		3009.0		2709.0		300.0
1110.0		1239.0		1110.0		129.0
547.0		609.0		547.0		62.0
504.0		549.0		504.0		45.0
2.01<|#eta|<2.37
118813.0		138377.0		118813.0		19564.0
186339.0		214201.0		186339.0		27862.0
250525.0		282456.0		250525.0		31931.0
281991.0		324092.0		281991.0		42101.0
185758.0		209451.0		185758.0		23693.0
101899.0		115298.0		101899.0		13399.0
40888.0		47173.0		40888.0		6285.0
8325.0		9469.0		8325.0		1144.0
3641.0		4046.0		3641.0		405.0
1459.0		1609.0		1459.0		150.0
744.0		791.0		744.0		47.0
629.0		698.0		629.0		69.0
