0.00<|#eta|<0.60
283485.0		355753.0		283485.0		72268.0
510960.0		631542.0		510960.0		120582.0
778315.0		968210.0		778315.0		189901.0
1027590.0		1267390.0		1027590.0		239812.0
716516.0		847912.0		716516.0		131396.0
411534.0		480297.0		411534.0		68763.0
179542.0		205827.0		179542.0		26285.0
37978.0		43062.0		37978.0		5084.0
18109.0		19265.0		18109.0		1156.0
7938.0		8522.0		7938.0		584.0
3973.0		4299.0		3973.0		326.0
4297.0		4662.0		4297.0		365.0
0.60<|#eta|<0.80
75545.0		98620.0		75545.0		23075.0
164184.0		203945.0		164184.0		39761.0
262003.0		328245.0		262003.0		66242.0
326302.0		404244.0		326302.0		77942.0
227853.0		271811.0		227853.0		43958.0
130141.0		153683.0		130141.0		23542.0
57210.0		65032.0		57210.0		7822.0
11948.0		13350.0		11948.0		1402.0
5666.0		6064.0		5666.0		398.0
2485.0		2677.0		2485.0		192.0
1320.0		1382.0		1320.0		62.0
1396.0		1474.0		1396.0		78.0
0.80<|#eta|<1.15
124293.0		171975.0		124293.0		47682.0
225967.0		315206.0		225967.0		89239.0
375891.0		524724.0		375891.0		148833.0
492348.0		666298.0		492348.0		173950.0
332022.0		429478.0		332022.0		97456.0
191871.0		244041.0		191871.0		52170.0
84026.0		101765.0		84026.0		17739.0
17196.0		21209.0		17196.0		4013.0
8967.0		9926.0		8967.0		959.0
3931.0		4296.0		3931.0		365.0
1986.0		2128.0		1986.0		142.0
2172.0		2379.0		2172.0		207.0
1.15<|#eta|<1.37
69214.0		100792.0		69214.0		31578.0
121814.0		172225.0		121814.0		50411.0
193506.0		280205.0		193506.0		86699.0
274210.0		372976.0		274210.0		98766.0
185491.0		239568.0		185491.0		54077.0
110311.0		136699.0		110311.0		26388.0
46927.0		57292.0		46927.0		10365.0
9877.0		11767.0		9877.0		1890.0
4600.0		5411.0		4600.0		811.0
2152.0		2469.0		2152.0		317.0
1086.0		1213.0		1086.0		127.0
1135.0		1314.0		1135.0		179.0
1.52<|#eta|<1.81
92968.0		118965.0		92968.0		25997.0
149280.0		190841.0		149280.0		41561.0
224669.0		288987.0		224669.0		64318.0
288181.0		368565.0		288181.0		80384.0
209680.0		255295.0		209680.0		45615.0
122680.0		147273.0		122680.0		24593.0
51600.0		60984.0		51600.0		9384.0
10255.0		12044.0		10255.0		1789.0
4779.0		5568.0		4779.0		789.0
2098.0		2346.0		2098.0		248.0
1147.0		1220.0		1147.0		73.0
1241.0		1317.0		1241.0		76.0
1.81<|#eta|<2.01
61359.0		77253.0		61359.0		15894.0
99325.0		123961.0		99325.0		24636.0
146262.0		176713.0		146262.0		30451.0
186149.0		220812.0		186149.0		34663.0
122555.0		147443.0		122555.0		24888.0
70041.0		82446.0		70041.0		12405.0
30338.0		34331.0		30338.0		3993.0
5917.0		6972.0		5917.0		1055.0
2673.0		3009.0		2673.0		336.0
1112.0		1239.0		1112.0		127.0
531.0		609.0		531.0		78.0
503.0		549.0		503.0		46.0
2.01<|#eta|<2.37
118532.0		138377.0		118532.0		19845.0
186379.0		214201.0		186379.0		27822.0
249481.0		282456.0		249481.0		32975.0
281576.0		324092.0		281576.0		42516.0
185008.0		209451.0		185008.0		24443.0
101955.0		115298.0		101955.0		13343.0
40882.0		47173.0		40882.0		6291.0
8344.0		9469.0		8344.0		1125.0
3646.0		4046.0		3646.0		400.0
1453.0		1609.0		1453.0		156.0
746.0		791.0		746.0		45.0
627.0		698.0		627.0		71.0
