0.00<|#eta|<0.60
283908.0		355753.0		283908.0		71845.0
510951.0		631542.0		510951.0		120591.0
784345.0		968210.0		784345.0		183871.0
1037500.0		1267390.0		1037500.0		229894.0
722376.0		847912.0		722376.0		125536.0
412953.0		480297.0		412953.0		67344.0
180467.0		205827.0		180467.0		25360.0
37986.0		43062.0		37986.0		5076.0
18115.0		19265.0		18115.0		1150.0
7947.0		8522.0		7947.0		575.0
3968.0		4299.0		3968.0		331.0
4299.0		4662.0		4299.0		363.0
0.60<|#eta|<0.80
75808.0		98620.0		75808.0		22812.0
164125.0		203945.0		164125.0		39820.0
261483.0		328245.0		261483.0		66762.0
328539.0		404244.0		328539.0		75705.0
228300.0		271811.0		228300.0		43511.0
129927.0		153683.0		129927.0		23756.0
56982.0		65032.0		56982.0		8050.0
12057.0		13350.0		12057.0		1293.0
5675.0		6064.0		5675.0		389.0
2490.0		2677.0		2490.0		187.0
1320.0		1382.0		1320.0		62.0
1398.0		1474.0		1398.0		76.0
0.80<|#eta|<1.15
124508.0		171975.0		124508.0		47467.0
225312.0		315206.0		225312.0		89894.0
381808.0		524724.0		381808.0		142916.0
502794.0		666298.0		502794.0		163504.0
338573.0		429478.0		338573.0		90905.0
195878.0		244041.0		195878.0		48163.0
85104.0		101765.0		85104.0		16661.0
17188.0		21209.0		17188.0		4021.0
8902.0		9926.0		8902.0		1024.0
3921.0		4296.0		3921.0		375.0
1979.0		2128.0		1979.0		149.0
2171.0		2379.0		2171.0		208.0
1.15<|#eta|<1.37
69279.0		100792.0		69279.0		31513.0
122954.0		172225.0		122954.0		49271.0
200645.0		280205.0		200645.0		79560.0
285746.0		372976.0		285746.0		87230.0
190359.0		239568.0		190359.0		49209.0
113282.0		136699.0		113282.0		23417.0
47642.0		57292.0		47642.0		9650.0
9944.0		11767.0		9944.0		1823.0
4612.0		5411.0		4612.0		799.0
2131.0		2469.0		2131.0		338.0
1090.0		1213.0		1090.0		123.0
1136.0		1314.0		1136.0		178.0
1.52<|#eta|<1.81
92601.0		118965.0		92601.0		26364.0
149731.0		190841.0		149731.0		41110.0
226347.0		288987.0		226347.0		62640.0
293962.0		368565.0		293962.0		74603.0
212697.0		255295.0		212697.0		42598.0
125366.0		147273.0		125366.0		21907.0
52183.0		60984.0		52183.0		8801.0
10246.0		12044.0		10246.0		1798.0
4813.0		5568.0		4813.0		755.0
2110.0		2346.0		2110.0		236.0
1144.0		1220.0		1144.0		76.0
1235.0		1317.0		1235.0		82.0
1.81<|#eta|<2.01
61369.0		77253.0		61369.0		15884.0
99321.0		123961.0		99321.0		24640.0
146227.0		176713.0		146227.0		30486.0
186229.0		220812.0		186229.0		34583.0
121988.0		147443.0		121988.0		25455.0
69963.0		82446.0		69963.0		12483.0
30212.0		34331.0		30212.0		4119.0
5926.0		6972.0		5926.0		1046.0
2679.0		3009.0		2679.0		330.0
1103.0		1239.0		1103.0		136.0
547.0		609.0		547.0		62.0
504.0		549.0		504.0		45.0
2.01<|#eta|<2.37
118677.0		138377.0		118677.0		19700.0
186075.0		214201.0		186075.0		28126.0
251059.0		282456.0		251059.0		31397.0
281291.0		324092.0		281291.0		42801.0
185292.0		209451.0		185292.0		24159.0
101682.0		115298.0		101682.0		13616.0
40786.0		47173.0		40786.0		6387.0
8370.0		9469.0		8370.0		1099.0
3617.0		4046.0		3617.0		429.0
1452.0		1609.0		1452.0		157.0
750.0		791.0		750.0		41.0
625.0		698.0		625.0		73.0
