0.00<|#eta|<0.60
283475.0		355753.0		283475.0		72278.0
512752.0		631542.0		512752.0		118790.0
783840.0		968210.0		783840.0		184376.0
1039160.0		1267390.0		1039160.0		228237.0
722141.0		847912.0		722141.0		125771.0
411973.0		480297.0		411973.0		68324.0
179843.0		205827.0		179843.0		25984.0
37886.0		43062.0		37886.0		5176.0
18122.0		19265.0		18122.0		1143.0
7927.0		8522.0		7927.0		595.0
3941.0		4299.0		3941.0		358.0
4322.0		4662.0		4322.0		340.0
0.60<|#eta|<0.80
75419.0		98620.0		75419.0		23201.0
164044.0		203945.0		164044.0		39901.0
263195.0		328245.0		263195.0		65050.0
327431.0		404244.0		327431.0		76813.0
227962.0		271811.0		227962.0		43849.0
130369.0		153683.0		130369.0		23314.0
57035.0		65032.0		57035.0		7997.0
11972.0		13350.0		11972.0		1378.0
5667.0		6064.0		5667.0		397.0
2480.0		2677.0		2480.0		197.0
1326.0		1382.0		1326.0		56.0
1391.0		1474.0		1391.0		83.0
0.80<|#eta|<1.15
124811.0		171975.0		124811.0		47164.0
227759.0		315206.0		227759.0		87447.0
382239.0		524724.0		382239.0		142485.0
504743.0		666298.0		504743.0		161555.0
338641.0		429478.0		338641.0		90837.0
192483.0		244041.0		192483.0		51558.0
84009.0		101765.0		84009.0		17756.0
17222.0		21209.0		17222.0		3987.0
8870.0		9926.0		8870.0		1056.0
3899.0		4296.0		3899.0		397.0
2003.0		2128.0		2003.0		125.0
2184.0		2379.0		2184.0		195.0
1.15<|#eta|<1.37
69136.0		100792.0		69136.0		31656.0
123270.0		172225.0		123270.0		48955.0
201050.0		280205.0		201050.0		79155.0
287301.0		372976.0		287301.0		85675.0
190646.0		239568.0		190646.0		48922.0
110690.0		136699.0		110690.0		26009.0
46912.0		57292.0		46912.0		10380.0
9859.0		11767.0		9859.0		1908.0
4598.0		5411.0		4598.0		813.0
2136.0		2469.0		2136.0		333.0
1085.0		1213.0		1085.0		128.0
1131.0		1314.0		1131.0		183.0
1.52<|#eta|<1.81
93009.0		118965.0		93009.0		25956.0
149735.0		190841.0		149735.0		41106.0
226365.0		288987.0		226365.0		62622.0
293853.0		368565.0		293853.0		74712.0
212008.0		255295.0		212008.0		43287.0
123654.0		147273.0		123654.0		23619.0
51633.0		60984.0		51633.0		9351.0
10237.0		12044.0		10237.0		1807.0
4831.0		5568.0		4831.0		737.0
2149.0		2346.0		2149.0		197.0
1141.0		1220.0		1141.0		79.0
1242.0		1317.0		1242.0		75.0
1.81<|#eta|<2.01
61926.0		77253.0		61926.0		15327.0
98964.0		123961.0		98964.0		24997.0
146617.0		176713.0		146617.0		30096.0
185307.0		220812.0		185307.0		35505.0
122648.0		147443.0		122648.0		24795.0
70325.0		82446.0		70325.0		12121.0
30278.0		34331.0		30278.0		4053.0
5949.0		6972.0		5949.0		1023.0
2674.0		3009.0		2674.0		335.0
1120.0		1239.0		1120.0		119.0
542.0		609.0		542.0		67.0
509.0		549.0		509.0		40.0
2.01<|#eta|<2.37
118494.0		138377.0		118494.0		19883.0
186648.0		214201.0		186648.0		27553.0
250573.0		282456.0		250573.0		31883.0
280368.0		324092.0		280368.0		43724.0
185895.0		209451.0		185895.0		23556.0
101927.0		115298.0		101927.0		13371.0
40956.0		47173.0		40956.0		6217.0
8365.0		9469.0		8365.0		1104.0
3597.0		4046.0		3597.0		449.0
1455.0		1609.0		1455.0		154.0
750.0		791.0		750.0		41.0
622.0		698.0		622.0		76.0
