0.00<|#eta|<0.60
283872.0		355753.0		283872.0		71881.0
511012.0		631542.0		511012.0		120530.0
779216.0		968210.0		779216.0		189000.0
1028620.0		1267390.0		1028620.0		238773.0
717089.0		847912.0		717089.0		130823.0
410942.0		480297.0		410942.0		69355.0
179597.0		205827.0		179597.0		26230.0
37894.0		43062.0		37894.0		5168.0
18129.0		19265.0		18129.0		1136.0
7929.0		8522.0		7929.0		593.0
3962.0		4299.0		3962.0		337.0
4288.0		4662.0		4288.0		374.0
0.60<|#eta|<0.80
75801.0		98620.0		75801.0		22819.0
163525.0		203945.0		163525.0		40420.0
262436.0		328245.0		262436.0		65809.0
326951.0		404244.0		326951.0		77293.0
228410.0		271811.0		228410.0		43401.0
130380.0		153683.0		130380.0		23303.0
57213.0		65032.0		57213.0		7819.0
11971.0		13350.0		11971.0		1379.0
5668.0		6064.0		5668.0		396.0
2490.0		2677.0		2490.0		187.0
1323.0		1382.0		1323.0		59.0
1397.0		1474.0		1397.0		77.0
0.80<|#eta|<1.15
124162.0		171975.0		124162.0		47813.0
224473.0		315206.0		224473.0		90733.0
376024.0		524724.0		376024.0		148700.0
491770.0		666298.0		491770.0		174528.0
331303.0		429478.0		331303.0		98175.0
191325.0		244041.0		191325.0		52716.0
84122.0		101765.0		84122.0		17643.0
17208.0		21209.0		17208.0		4001.0
8921.0		9926.0		8921.0		1005.0
3913.0		4296.0		3913.0		383.0
1970.0		2128.0		1970.0		158.0
2161.0		2379.0		2161.0		218.0
1.15<|#eta|<1.37
69148.0		100792.0		69148.0		31644.0
122560.0		172225.0		122560.0		49665.0
193958.0		280205.0		193958.0		86247.0
273882.0		372976.0		273882.0		99094.0
184884.0		239568.0		184884.0		54684.0
109926.0		136699.0		109926.0		26773.0
46963.0		57292.0		46963.0		10329.0
9833.0		11767.0		9833.0		1934.0
4623.0		5411.0		4623.0		788.0
2157.0		2469.0		2157.0		312.0
1076.0		1213.0		1076.0		137.0
1138.0		1314.0		1138.0		176.0
1.52<|#eta|<1.81
92818.0		118965.0		92818.0		26147.0
149431.0		190841.0		149431.0		41410.0
224853.0		288987.0		224853.0		64134.0
289398.0		368565.0		289398.0		79167.0
209197.0		255295.0		209197.0		46098.0
122757.0		147273.0		122757.0		24516.0
51710.0		60984.0		51710.0		9274.0
10269.0		12044.0		10269.0		1775.0
4785.0		5568.0		4785.0		783.0
2110.0		2346.0		2110.0		236.0
1134.0		1220.0		1134.0		86.0
1250.0		1317.0		1250.0		67.0
1.81<|#eta|<2.01
62126.0		77253.0		62126.0		15127.0
99921.0		123961.0		99921.0		24040.0
146378.0		176713.0		146378.0		30335.0
186135.0		220812.0		186135.0		34677.0
121944.0		147443.0		121944.0		25499.0
70003.0		82446.0		70003.0		12443.0
30207.0		34331.0		30207.0		4124.0
5894.0		6972.0		5894.0		1078.0
2669.0		3009.0		2669.0		340.0
1121.0		1239.0		1121.0		118.0
548.0		609.0		548.0		61.0
503.0		549.0		503.0		46.0
2.01<|#eta|<2.37
118240.0		138377.0		118240.0		20137.0
186420.0		214201.0		186420.0		27781.0
249952.0		282456.0		249952.0		32504.0
281937.0		324092.0		281937.0		42155.0
186183.0		209451.0		186183.0		23268.0
102105.0		115298.0		102105.0		13193.0
40879.0		47173.0		40879.0		6294.0
8393.0		9469.0		8393.0		1076.0
3646.0		4046.0		3646.0		400.0
1455.0		1609.0		1455.0		154.0
753.0		791.0		753.0		38.0
630.0		698.0		630.0		68.0
