0.00<|#eta|<0.60
286249.0		355753.0		286249.0		69504.0
516523.0		631542.0		516523.0		115019.0
782803.0		968210.0		782803.0		185413.0
1033350.0		1267390.0		1033350.0		234049.0
717459.0		847912.0		717459.0		130453.0
411168.0		480297.0		411168.0		69129.0
179550.0		205827.0		179550.0		26277.0
37901.0		43062.0		37901.0		5161.0
18088.0		19265.0		18088.0		1177.0
7932.0		8522.0		7932.0		590.0
3971.0		4299.0		3971.0		328.0
4288.0		4662.0		4288.0		374.0
0.60<|#eta|<0.80
75429.0		98620.0		75429.0		23191.0
163080.0		203945.0		163080.0		40865.0
262342.0		328245.0		262342.0		65903.0
327591.0		404244.0		327591.0		76653.0
227891.0		271811.0		227891.0		43920.0
130487.0		153683.0		130487.0		23196.0
57061.0		65032.0		57061.0		7971.0
11962.0		13350.0		11962.0		1388.0
5672.0		6064.0		5672.0		392.0
2478.0		2677.0		2478.0		199.0
1325.0		1382.0		1325.0		57.0
1390.0		1474.0		1390.0		84.0
0.80<|#eta|<1.15
127506.0		171975.0		127506.0		44469.0
230199.0		315206.0		230199.0		85007.0
380867.0		524724.0		380867.0		143857.0
496997.0		666298.0		496997.0		169301.0
334393.0		429478.0		334393.0		95085.0
191918.0		244041.0		191918.0		52123.0
84229.0		101765.0		84229.0		17536.0
17225.0		21209.0		17225.0		3984.0
8857.0		9926.0		8857.0		1069.0
3942.0		4296.0		3942.0		354.0
1978.0		2128.0		1978.0		150.0
2168.0		2379.0		2168.0		211.0
1.15<|#eta|<1.37
72161.0		100792.0		72161.0		28631.0
127489.0		172225.0		127489.0		44736.0
199325.0		280205.0		199325.0		80880.0
279394.0		372976.0		279394.0		93582.0
186670.0		239568.0		186670.0		52898.0
110371.0		136699.0		110371.0		26328.0
46898.0		57292.0		46898.0		10394.0
9829.0		11767.0		9829.0		1938.0
4609.0		5411.0		4609.0		802.0
2177.0		2469.0		2177.0		292.0
1095.0		1213.0		1095.0		118.0
1167.0		1314.0		1167.0		147.0
1.52<|#eta|<1.81
94478.0		118965.0		94478.0		24487.0
151690.0		190841.0		151690.0		39151.0
228157.0		288987.0		228157.0		60830.0
289833.0		368565.0		289833.0		78732.0
209919.0		255295.0		209919.0		45376.0
123358.0		147273.0		123358.0		23915.0
51668.0		60984.0		51668.0		9316.0
10237.0		12044.0		10237.0		1807.0
4781.0		5568.0		4781.0		787.0
2112.0		2346.0		2112.0		234.0
1143.0		1220.0		1143.0		77.0
1241.0		1317.0		1241.0		76.0
1.81<|#eta|<2.01
62621.0		77253.0		62621.0		14632.0
99175.0		123961.0		99175.0		24786.0
146849.0		176713.0		146849.0		29864.0
186351.0		220812.0		186351.0		34461.0
122645.0		147443.0		122645.0		24798.0
70079.0		82446.0		70079.0		12367.0
30254.0		34331.0		30254.0		4077.0
5899.0		6972.0		5899.0		1073.0
2658.0		3009.0		2658.0		351.0
1108.0		1239.0		1108.0		131.0
543.0		609.0		543.0		66.0
509.0		549.0		509.0		40.0
2.01<|#eta|<2.37
118640.0		138377.0		118640.0		19737.0
187994.0		214201.0		187994.0		26207.0
249949.0		282456.0		249949.0		32507.0
281932.0		324092.0		281932.0		42160.0
185366.0		209451.0		185366.0		24085.0
102183.0		115298.0		102183.0		13115.0
40964.0		47173.0		40964.0		6209.0
8352.0		9469.0		8352.0		1117.0
3602.0		4046.0		3602.0		444.0
1447.0		1609.0		1447.0		162.0
752.0		791.0		752.0		39.0
630.0		698.0		630.0		68.0
