0.00<|#eta|<0.60
283763.0		355753.0		283763.0		71990.0
512448.0		631542.0		512448.0		119094.0
780101.0		968210.0		780101.0		188115.0
1030700.0		1267390.0		1030700.0		236696.0
717377.0		847912.0		717377.0		130535.0
413810.0		480297.0		413810.0		66487.0
180186.0		205827.0		180186.0		25641.0
38006.0		43062.0		38006.0		5056.0
18158.0		19265.0		18158.0		1107.0
7943.0		8522.0		7943.0		579.0
3934.0		4299.0		3934.0		365.0
4289.0		4662.0		4289.0		373.0
0.60<|#eta|<0.80
75316.0		98620.0		75316.0		23304.0
163976.0		203945.0		163976.0		39969.0
261751.0		328245.0		261751.0		66494.0
327689.0		404244.0		327689.0		76555.0
228242.0		271811.0		228242.0		43569.0
130583.0		153683.0		130583.0		23100.0
57273.0		65032.0		57273.0		7759.0
11987.0		13350.0		11987.0		1363.0
5699.0		6064.0		5699.0		365.0
2482.0		2677.0		2482.0		195.0
1313.0		1382.0		1313.0		69.0
1394.0		1474.0		1394.0		80.0
0.80<|#eta|<1.15
124781.0		171975.0		124781.0		47194.0
225554.0		315206.0		225554.0		89652.0
377927.0		524724.0		377927.0		146797.0
496799.0		666298.0		496799.0		169499.0
334793.0		429478.0		334793.0		94685.0
195867.0		244041.0		195867.0		48174.0
85550.0		101765.0		85550.0		16215.0
17528.0		21209.0		17528.0		3681.0
9097.0		9926.0		9097.0		829.0
3971.0		4296.0		3971.0		325.0
1987.0		2128.0		1987.0		141.0
2188.0		2379.0		2188.0		191.0
1.15<|#eta|<1.37
69009.0		100792.0		69009.0		31783.0
122678.0		172225.0		122678.0		49547.0
197148.0		280205.0		197148.0		83057.0
279054.0		372976.0		279054.0		93922.0
188552.0		239568.0		188552.0		51016.0
112804.0		136699.0		112804.0		23895.0
47868.0		57292.0		47868.0		9424.0
10121.0		11767.0		10121.0		1646.0
4817.0		5411.0		4817.0		594.0
2197.0		2469.0		2197.0		272.0
1075.0		1213.0		1075.0		138.0
1147.0		1314.0		1147.0		167.0
1.52<|#eta|<1.81
92325.0		118965.0		92325.0		26640.0
148489.0		190841.0		148489.0		42352.0
224380.0		288987.0		224380.0		64607.0
291983.0		368565.0		291983.0		76582.0
211633.0		255295.0		211633.0		43662.0
124738.0		147273.0		124738.0		22535.0
52531.0		60984.0		52531.0		8453.0
10453.0		12044.0		10453.0		1591.0
4956.0		5568.0		4956.0		612.0
2131.0		2346.0		2131.0		215.0
1154.0		1220.0		1154.0		66.0
1239.0		1317.0		1239.0		78.0
1.81<|#eta|<2.01
61388.0		77253.0		61388.0		15865.0
99044.0		123961.0		99044.0		24917.0
145738.0		176713.0		145738.0		30975.0
185833.0		220812.0		185833.0		34979.0
122090.0		147443.0		122090.0		25353.0
69930.0		82446.0		69930.0		12516.0
30226.0		34331.0		30226.0		4105.0
5889.0		6972.0		5889.0		1083.0
2662.0		3009.0		2662.0		347.0
1101.0		1239.0		1101.0		138.0
540.0		609.0		540.0		69.0
504.0		549.0		504.0		45.0
2.01<|#eta|<2.37
118715.0		138377.0		118715.0		19662.0
186542.0		214201.0		186542.0		27659.0
249380.0		282456.0		249380.0		33076.0
281828.0		324092.0		281828.0		42264.0
185570.0		209451.0		185570.0		23881.0
102027.0		115298.0		102027.0		13271.0
40925.0		47173.0		40925.0		6248.0
8318.0		9469.0		8318.0		1151.0
3624.0		4046.0		3624.0		422.0
1457.0		1609.0		1457.0		152.0
748.0		791.0		748.0		43.0
627.0		698.0		627.0		71.0
