0.00<|#eta|<0.60
283861.0		355753.0		283861.0		71892.0
511184.0		631542.0		511184.0		120358.0
779615.0		968210.0		779615.0		188601.0
1034320.0		1267390.0		1034320.0		233082.0
717416.0		847912.0		717416.0		130496.0
411638.0		480297.0		411638.0		68659.0
179558.0		205827.0		179558.0		26269.0
37904.0		43062.0		37904.0		5158.0
18122.0		19265.0		18122.0		1143.0
7902.0		8522.0		7902.0		620.0
3969.0		4299.0		3969.0		330.0
4310.0		4662.0		4310.0		352.0
0.60<|#eta|<0.80
75312.0		98620.0		75312.0		23308.0
163369.0		203945.0		163369.0		40576.0
262046.0		328245.0		262046.0		66199.0
327388.0		404244.0		327388.0		76856.0
228426.0		271811.0		228426.0		43385.0
130471.0		153683.0		130471.0		23212.0
56978.0		65032.0		56978.0		8054.0
12037.0		13350.0		12037.0		1313.0
5688.0		6064.0		5688.0		376.0
2491.0		2677.0		2491.0		186.0
1324.0		1382.0		1324.0		58.0
1398.0		1474.0		1398.0		76.0
0.80<|#eta|<1.15
125118.0		171975.0		125118.0		46857.0
226117.0		315206.0		226117.0		89089.0
378057.0		524724.0		378057.0		146667.0
497521.0		666298.0		497521.0		168777.0
334679.0		429478.0		334679.0		94799.0
192087.0		244041.0		192087.0		51954.0
84099.0		101765.0		84099.0		17666.0
17286.0		21209.0		17286.0		3923.0
8858.0		9926.0		8858.0		1068.0
3896.0		4296.0		3896.0		400.0
1977.0		2128.0		1977.0		151.0
2176.0		2379.0		2176.0		203.0
1.15<|#eta|<1.37
68991.0		100792.0		68991.0		31801.0
123352.0		172225.0		123352.0		48873.0
196600.0		280205.0		196600.0		83605.0
279875.0		372976.0		279875.0		93101.0
187034.0		239568.0		187034.0		52534.0
110084.0		136699.0		110084.0		26615.0
46988.0		57292.0		46988.0		10304.0
9864.0		11767.0		9864.0		1903.0
4627.0		5411.0		4627.0		784.0
2145.0		2469.0		2145.0		324.0
1075.0		1213.0		1075.0		138.0
1138.0		1314.0		1138.0		176.0
1.52<|#eta|<1.81
93056.0		118965.0		93056.0		25909.0
149869.0		190841.0		149869.0		40972.0
225027.0		288987.0		225027.0		63960.0
290918.0		368565.0		290918.0		77647.0
210058.0		255295.0		210058.0		45237.0
122911.0		147273.0		122911.0		24362.0
51683.0		60984.0		51683.0		9301.0
10261.0		12044.0		10261.0		1783.0
4814.0		5568.0		4814.0		754.0
2102.0		2346.0		2102.0		244.0
1149.0		1220.0		1149.0		71.0
1242.0		1317.0		1242.0		75.0
1.81<|#eta|<2.01
62247.0		77253.0		62247.0		15006.0
98377.0		123961.0		98377.0		25584.0
145882.0		176713.0		145882.0		30831.0
186733.0		220812.0		186733.0		34079.0
122180.0		147443.0		122180.0		25263.0
70109.0		82446.0		70109.0		12337.0
30267.0		34331.0		30267.0		4064.0
5941.0		6972.0		5941.0		1031.0
2677.0		3009.0		2677.0		332.0
1114.0		1239.0		1114.0		125.0
549.0		609.0		549.0		60.0
504.0		549.0		504.0		45.0
2.01<|#eta|<2.37
119322.0		138377.0		119322.0		19055.0
187067.0		214201.0		187067.0		27134.0
249973.0		282456.0		249973.0		32483.0
282092.0		324092.0		282092.0		42000.0
185826.0		209451.0		185826.0		23625.0
102106.0		115298.0		102106.0		13192.0
40763.0		47173.0		40763.0		6410.0
8346.0		9469.0		8346.0		1123.0
3620.0		4046.0		3620.0		426.0
1469.0		1609.0		1469.0		140.0
752.0		791.0		752.0		39.0
627.0		698.0		627.0		71.0
