0.00<|#eta|<0.60
285634.0		355753.0		285634.0		70119.0
515347.0		631542.0		515347.0		116195.0
786848.0		968210.0		786848.0		181368.0
1039340.0		1267390.0		1039340.0		228069.0
721017.0		847912.0		721017.0		126895.0
411463.0		480297.0		411463.0		68834.0
179384.0		205827.0		179384.0		26443.0
37751.0		43062.0		37751.0		5311.0
18122.0		19265.0		18122.0		1143.0
7933.0		8522.0		7933.0		589.0
3982.0		4299.0		3982.0		317.0
4327.0		4662.0		4327.0		335.0
0.60<|#eta|<0.80
75209.0		98620.0		75209.0		23411.0
164970.0		203945.0		164970.0		38975.0
262868.0		328245.0		262868.0		65377.0
328342.0		404244.0		328342.0		75902.0
228367.0		271811.0		228367.0		43444.0
130012.0		153683.0		130012.0		23671.0
57060.0		65032.0		57060.0		7972.0
11978.0		13350.0		11978.0		1372.0
5671.0		6064.0		5671.0		393.0
2480.0		2677.0		2480.0		197.0
1316.0		1382.0		1316.0		66.0
1396.0		1474.0		1396.0		78.0
0.80<|#eta|<1.15
127471.0		171975.0		127471.0		44504.0
231382.0		315206.0		231382.0		83824.0
384755.0		524724.0		384755.0		139969.0
503586.0		666298.0		503586.0		162712.0
338758.0		429478.0		338758.0		90720.0
192341.0		244041.0		192341.0		51700.0
84153.0		101765.0		84153.0		17612.0
17262.0		21209.0		17262.0		3947.0
8878.0		9926.0		8878.0		1048.0
3926.0		4296.0		3926.0		370.0
1988.0		2128.0		1988.0		140.0
2187.0		2379.0		2187.0		192.0
1.15<|#eta|<1.37
71329.0		100792.0		71329.0		29463.0
126674.0		172225.0		126674.0		45551.0
203463.0		280205.0		203463.0		76742.0
285641.0		372976.0		285641.0		87335.0
191003.0		239568.0		191003.0		48565.0
110945.0		136699.0		110945.0		25754.0
46832.0		57292.0		46832.0		10460.0
9896.0		11767.0		9896.0		1871.0
4610.0		5411.0		4610.0		801.0
2149.0		2469.0		2149.0		320.0
1081.0		1213.0		1081.0		132.0
1197.0		1314.0		1197.0		117.0
1.52<|#eta|<1.81
93771.0		118965.0		93771.0		25194.0
151755.0		190841.0		151755.0		39086.0
227621.0		288987.0		227621.0		61366.0
294609.0		368565.0		294609.0		73956.0
212151.0		255295.0		212151.0		43144.0
123734.0		147273.0		123734.0		23539.0
51663.0		60984.0		51663.0		9321.0
10305.0		12044.0		10305.0		1739.0
4798.0		5568.0		4798.0		770.0
2103.0		2346.0		2103.0		243.0
1144.0		1220.0		1144.0		76.0
1240.0		1317.0		1240.0		77.0
1.81<|#eta|<2.01
61338.0		77253.0		61338.0		15915.0
98764.0		123961.0		98764.0		25197.0
146661.0		176713.0		146661.0		30052.0
185488.0		220812.0		185488.0		35324.0
122152.0		147443.0		122152.0		25291.0
70270.0		82446.0		70270.0		12176.0
30343.0		34331.0		30343.0		3988.0
5969.0		6972.0		5969.0		1003.0
2655.0		3009.0		2655.0		354.0
1106.0		1239.0		1106.0		133.0
549.0		609.0		549.0		60.0
502.0		549.0		502.0		47.0
2.01<|#eta|<2.37
118849.0		138377.0		118849.0		19528.0
187396.0		214201.0		187396.0		26805.0
250037.0		282456.0		250037.0		32419.0
282274.0		324092.0		282274.0		41818.0
186220.0		209451.0		186220.0		23231.0
102076.0		115298.0		102076.0		13222.0
40858.0		47173.0		40858.0		6315.0
8327.0		9469.0		8327.0		1142.0
3613.0		4046.0		3613.0		433.0
1454.0		1609.0		1454.0		155.0
752.0		791.0		752.0		39.0
627.0		698.0		627.0		71.0
