0.00<|#eta|<0.60
287914.0		355753.0		287914.0		67839.0
515875.0		631542.0		515875.0		115667.0
783675.0		968210.0		783675.0		184541.0
1032190.0		1267390.0		1032190.0		235212.0
716955.0		847912.0		716955.0		130957.0
411733.0		480297.0		411733.0		68564.0
179897.0		205827.0		179897.0		25930.0
38048.0		43062.0		38048.0		5014.0
18182.0		19265.0		18182.0		1083.0
7975.0		8522.0		7975.0		547.0
3976.0		4299.0		3976.0		323.0
4311.0		4662.0		4311.0		351.0
0.60<|#eta|<0.80
75900.0		98620.0		75900.0		22720.0
164520.0		203945.0		164520.0		39425.0
262080.0		328245.0		262080.0		66165.0
327282.0		404244.0		327282.0		76962.0
228305.0		271811.0		228305.0		43506.0
130315.0		153683.0		130315.0		23368.0
57194.0		65032.0		57194.0		7838.0
11983.0		13350.0		11983.0		1367.0
5649.0		6064.0		5649.0		415.0
2488.0		2677.0		2488.0		189.0
1323.0		1382.0		1323.0		59.0
1391.0		1474.0		1391.0		83.0
0.80<|#eta|<1.15
128416.0		171975.0		128416.0		43559.0
232307.0		315206.0		232307.0		82899.0
381326.0		524724.0		381326.0		143398.0
497128.0		666298.0		497128.0		169170.0
334254.0		429478.0		334254.0		95224.0
192177.0		244041.0		192177.0		51864.0
84414.0		101765.0		84414.0		17351.0
17375.0		21209.0		17375.0		3834.0
9029.0		9926.0		9029.0		897.0
3969.0		4296.0		3969.0		327.0
1986.0		2128.0		1986.0		142.0
2184.0		2379.0		2184.0		195.0
1.15<|#eta|<1.37
73282.0		100792.0		73282.0		27510.0
128540.0		172225.0		128540.0		43685.0
198783.0		280205.0		198783.0		81422.0
279208.0		372976.0		279208.0		93768.0
187567.0		239568.0		187567.0		52001.0
110124.0		136699.0		110124.0		26575.0
47034.0		57292.0		47034.0		10258.0
10001.0		11767.0		10001.0		1766.0
4680.0		5411.0		4680.0		731.0
2217.0		2469.0		2217.0		252.0
1090.0		1213.0		1090.0		123.0
1152.0		1314.0		1152.0		162.0
1.52<|#eta|<1.81
94477.0		118965.0		94477.0		24488.0
152715.0		190841.0		152715.0		38126.0
228284.0		288987.0		228284.0		60703.0
290912.0		368565.0		290912.0		77653.0
209816.0		255295.0		209816.0		45479.0
122827.0		147273.0		122827.0		24446.0
51879.0		60984.0		51879.0		9105.0
10442.0		12044.0		10442.0		1602.0
4901.0		5568.0		4901.0		667.0
2149.0		2346.0		2149.0		197.0
1146.0		1220.0		1146.0		74.0
1247.0		1317.0		1247.0		70.0
1.81<|#eta|<2.01
61879.0		77253.0		61879.0		15374.0
99036.0		123961.0		99036.0		24925.0
146709.0		176713.0		146709.0		30004.0
186144.0		220812.0		186144.0		34668.0
121887.0		147443.0		121887.0		25556.0
70326.0		82446.0		70326.0		12120.0
30206.0		34331.0		30206.0		4125.0
5918.0		6972.0		5918.0		1054.0
2680.0		3009.0		2680.0		329.0
1114.0		1239.0		1114.0		125.0
546.0		609.0		546.0		63.0
500.0		549.0		500.0		49.0
2.01<|#eta|<2.37
118997.0		138377.0		118997.0		19380.0
187442.0		214201.0		187442.0		26759.0
250197.0		282456.0		250197.0		32259.0
281567.0		324092.0		281567.0		42525.0
186173.0		209451.0		186173.0		23278.0
102065.0		115298.0		102065.0		13233.0
40811.0		47173.0		40811.0		6362.0
8371.0		9469.0		8371.0		1098.0
3645.0		4046.0		3645.0		401.0
1448.0		1609.0		1448.0		161.0
746.0		791.0		746.0		45.0
628.0		698.0		628.0		70.0
