0.00<|#eta|<0.60
286519.0		355753.0		286519.0		69234.0
515247.0		631542.0		515247.0		116295.0
781012.0		968210.0		781012.0		187204.0
1029700.0		1267390.0		1029700.0		237694.0
713993.0		847912.0		713993.0		133919.0
411384.0		480297.0		411384.0		68913.0
179531.0		205827.0		179531.0		26296.0
38085.0		43062.0		38085.0		4977.0
18157.0		19265.0		18157.0		1108.0
7961.0		8522.0		7961.0		561.0
3982.0		4299.0		3982.0		317.0
4292.0		4662.0		4292.0		370.0
0.60<|#eta|<0.80
75728.0		98620.0		75728.0		22892.0
163678.0		203945.0		163678.0		40267.0
262070.0		328245.0		262070.0		66175.0
327870.0		404244.0		327870.0		76374.0
227949.0		271811.0		227949.0		43862.0
130225.0		153683.0		130225.0		23458.0
57146.0		65032.0		57146.0		7886.0
11969.0		13350.0		11969.0		1381.0
5685.0		6064.0		5685.0		379.0
2493.0		2677.0		2493.0		184.0
1308.0		1382.0		1308.0		74.0
1394.0		1474.0		1394.0		80.0
0.80<|#eta|<1.15
128343.0		171975.0		128343.0		43632.0
232375.0		315206.0		232375.0		82831.0
376967.0		524724.0		376967.0		147757.0
491195.0		666298.0		491195.0		175103.0
331672.0		429478.0		331672.0		97806.0
191779.0		244041.0		191779.0		52262.0
84631.0		101765.0		84631.0		17134.0
17830.0		21209.0		17830.0		3379.0
9266.0		9926.0		9266.0		660.0
4007.0		4296.0		4007.0		289.0
1995.0		2128.0		1995.0		133.0
2181.0		2379.0		2181.0		198.0
1.15<|#eta|<1.37
73488.0		100792.0		73488.0		27304.0
128911.0		172225.0		128911.0		43314.0
195979.0		280205.0		195979.0		84226.0
274459.0		372976.0		274459.0		98517.0
184993.0		239568.0		184993.0		54575.0
110235.0		136699.0		110235.0		26464.0
47215.0		57292.0		47215.0		10077.0
10371.0		11767.0		10371.0		1396.0
4944.0		5411.0		4944.0		467.0
2261.0		2469.0		2261.0		208.0
1099.0		1213.0		1099.0		114.0
1158.0		1314.0		1158.0		156.0
1.52<|#eta|<1.81
94402.0		118965.0		94402.0		24563.0
152606.0		190841.0		152606.0		38235.0
226447.0		288987.0		226447.0		62540.0
288288.0		368565.0		288288.0		80277.0
209292.0		255295.0		209292.0		46003.0
122928.0		147273.0		122928.0		24345.0
52015.0		60984.0		52015.0		8969.0
10683.0		12044.0		10683.0		1361.0
5042.0		5568.0		5042.0		526.0
2167.0		2346.0		2167.0		179.0
1139.0		1220.0		1139.0		81.0
1240.0		1317.0		1240.0		77.0
1.81<|#eta|<2.01
61749.0		77253.0		61749.0		15504.0
99192.0		123961.0		99192.0		24769.0
146104.0		176713.0		146104.0		30609.0
185212.0		220812.0		185212.0		35600.0
121961.0		147443.0		121961.0		25482.0
70241.0		82446.0		70241.0		12205.0
30114.0		34331.0		30114.0		4217.0
5930.0		6972.0		5930.0		1042.0
2715.0		3009.0		2715.0		294.0
1115.0		1239.0		1115.0		124.0
542.0		609.0		542.0		67.0
505.0		549.0		505.0		44.0
2.01<|#eta|<2.37
119260.0		138377.0		119260.0		19117.0
187399.0		214201.0		187399.0		26802.0
249800.0		282456.0		249800.0		32656.0
281739.0		324092.0		281739.0		42353.0
185127.0		209451.0		185127.0		24324.0
101808.0		115298.0		101808.0		13490.0
40879.0		47173.0		40879.0		6294.0
8386.0		9469.0		8386.0		1083.0
3646.0		4046.0		3646.0		400.0
1459.0		1609.0		1459.0		150.0
751.0		791.0		751.0		40.0
627.0		698.0		627.0		71.0
