0.00<|#eta|<0.60
286643.0		355753.0		286643.0		69110.0
515831.0		631542.0		515831.0		115711.0
789580.0		968210.0		789580.0		178636.0
1039600.0		1267390.0		1039600.0		227790.0
721536.0		847912.0		721536.0		126376.0
413808.0		480297.0		413808.0		66489.0
180182.0		205827.0		180182.0		25645.0
38017.0		43062.0		38017.0		5045.0
18138.0		19265.0		18138.0		1127.0
7953.0		8522.0		7953.0		569.0
3961.0		4299.0		3961.0		338.0
4310.0		4662.0		4310.0		352.0
0.60<|#eta|<0.80
75457.0		98620.0		75457.0		23163.0
164911.0		203945.0		164911.0		39034.0
261807.0		328245.0		261807.0		66438.0
327784.0		404244.0		327784.0		76460.0
228160.0		271811.0		228160.0		43651.0
130457.0		153683.0		130457.0		23226.0
57093.0		65032.0		57093.0		7939.0
11976.0		13350.0		11976.0		1374.0
5683.0		6064.0		5683.0		381.0
2473.0		2677.0		2473.0		204.0
1324.0		1382.0		1324.0		58.0
1389.0		1474.0		1389.0		85.0
0.80<|#eta|<1.15
127338.0		171975.0		127338.0		44637.0
230887.0		315206.0		230887.0		84319.0
385585.0		524724.0		385585.0		139139.0
506343.0		666298.0		506343.0		159955.0
339296.0		429478.0		339296.0		90182.0
196308.0		244041.0		196308.0		47733.0
85584.0		101765.0		85584.0		16181.0
17486.0		21209.0		17486.0		3723.0
9066.0		9926.0		9066.0		860.0
3959.0		4296.0		3959.0		337.0
1986.0		2128.0		1986.0		142.0
2178.0		2379.0		2178.0		201.0
1.15<|#eta|<1.37
71646.0		100792.0		71646.0		29146.0
127644.0		172225.0		127644.0		44581.0
203372.0		280205.0		203372.0		76833.0
287211.0		372976.0		287211.0		85765.0
191476.0		239568.0		191476.0		48092.0
113724.0		136699.0		113724.0		22975.0
47909.0		57292.0		47909.0		9383.0
10076.0		11767.0		10076.0		1691.0
4782.0		5411.0		4782.0		629.0
2219.0		2469.0		2219.0		250.0
1071.0		1213.0		1071.0		142.0
1188.0		1314.0		1188.0		126.0
1.52<|#eta|<1.81
94366.0		118965.0		94366.0		24599.0
152241.0		190841.0		152241.0		38600.0
229462.0		288987.0		229462.0		59525.0
294313.0		368565.0		294313.0		74252.0
213229.0		255295.0		213229.0		42066.0
125077.0		147273.0		125077.0		22196.0
52431.0		60984.0		52431.0		8553.0
10500.0		12044.0		10500.0		1544.0
4930.0		5568.0		4930.0		638.0
2154.0		2346.0		2154.0		192.0
1141.0		1220.0		1141.0		79.0
1247.0		1317.0		1247.0		70.0
1.81<|#eta|<2.01
61936.0		77253.0		61936.0		15317.0
99076.0		123961.0		99076.0		24885.0
146340.0		176713.0		146340.0		30373.0
186406.0		220812.0		186406.0		34406.0
122226.0		147443.0		122226.0		25217.0
70143.0		82446.0		70143.0		12303.0
30125.0		34331.0		30125.0		4206.0
5944.0		6972.0		5944.0		1028.0
2671.0		3009.0		2671.0		338.0
1104.0		1239.0		1104.0		135.0
545.0		609.0		545.0		64.0
497.0		549.0		497.0		52.0
2.01<|#eta|<2.37
118687.0		138377.0		118687.0		19690.0
186403.0		214201.0		186403.0		27798.0
250360.0		282456.0		250360.0		32096.0
282006.0		324092.0		282006.0		42086.0
186220.0		209451.0		186220.0		23231.0
102099.0		115298.0		102099.0		13199.0
41095.0		47173.0		41095.0		6078.0
8352.0		9469.0		8352.0		1117.0
3640.0		4046.0		3640.0		406.0
1443.0		1609.0		1443.0		166.0
749.0		791.0		749.0		42.0
624.0		698.0		624.0		74.0
