0.00<|#eta|<0.60
282925.0		355753.0		282925.0		72828.0
511718.0		631542.0		511718.0		119824.0
779723.0		968210.0		779723.0		188493.0
1029540.0		1267390.0		1029540.0		237856.0
717521.0		847912.0		717521.0		130391.0
414648.0		480297.0		414648.0		65649.0
180242.0		205827.0		180242.0		25585.0
37905.0		43062.0		37905.0		5157.0
18131.0		19265.0		18131.0		1134.0
7989.0		8522.0		7989.0		533.0
3958.0		4299.0		3958.0		341.0
4297.0		4662.0		4297.0		365.0
0.60<|#eta|<0.80
75488.0		98620.0		75488.0		23132.0
163172.0		203945.0		163172.0		40773.0
262242.0		328245.0		262242.0		66003.0
327784.0		404244.0		327784.0		76460.0
228341.0		271811.0		228341.0		43470.0
130236.0		153683.0		130236.0		23447.0
57029.0		65032.0		57029.0		8003.0
12025.0		13350.0		12025.0		1325.0
5666.0		6064.0		5666.0		398.0
2483.0		2677.0		2483.0		194.0
1318.0		1382.0		1318.0		64.0
1402.0		1474.0		1402.0		72.0
0.80<|#eta|<1.15
124407.0		171975.0		124407.0		47568.0
226838.0		315206.0		226838.0		88368.0
378596.0		524724.0		378596.0		146128.0
498286.0		666298.0		498286.0		168012.0
334594.0		429478.0		334594.0		94884.0
195930.0		244041.0		195930.0		48111.0
85523.0		101765.0		85523.0		16242.0
17579.0		21209.0		17579.0		3630.0
9132.0		9926.0		9132.0		794.0
3981.0		4296.0		3981.0		315.0
1996.0		2128.0		1996.0		132.0
2191.0		2379.0		2191.0		188.0
1.15<|#eta|<1.37
68758.0		100792.0		68758.0		32034.0
122627.0		172225.0		122627.0		49598.0
196286.0		280205.0		196286.0		83919.0
278473.0		372976.0		278473.0		94503.0
187458.0		239568.0		187458.0		52110.0
112676.0		136699.0		112676.0		24023.0
48002.0		57292.0		48002.0		9290.0
10083.0		11767.0		10083.0		1684.0
4749.0		5411.0		4749.0		662.0
2199.0		2469.0		2199.0		270.0
1086.0		1213.0		1086.0		127.0
1157.0		1314.0		1157.0		157.0
1.52<|#eta|<1.81
92893.0		118965.0		92893.0		26072.0
149195.0		190841.0		149195.0		41646.0
226033.0		288987.0		226033.0		62954.0
291188.0		368565.0		291188.0		77377.0
211073.0		255295.0		211073.0		44222.0
124654.0		147273.0		124654.0		22619.0
52439.0		60984.0		52439.0		8545.0
10492.0		12044.0		10492.0		1552.0
4894.0		5568.0		4894.0		674.0
2151.0		2346.0		2151.0		195.0
1142.0		1220.0		1142.0		78.0
1243.0		1317.0		1243.0		74.0
1.81<|#eta|<2.01
61391.0		77253.0		61391.0		15862.0
98630.0		123961.0		98630.0		25331.0
146125.0		176713.0		146125.0		30588.0
185386.0		220812.0		185386.0		35426.0
122139.0		147443.0		122139.0		25304.0
70108.0		82446.0		70108.0		12338.0
30186.0		34331.0		30186.0		4145.0
5929.0		6972.0		5929.0		1043.0
2663.0		3009.0		2663.0		346.0
1110.0		1239.0		1110.0		129.0
549.0		609.0		549.0		60.0
501.0		549.0		501.0		48.0
2.01<|#eta|<2.37
118881.0		138377.0		118881.0		19496.0
186746.0		214201.0		186746.0		27455.0
249927.0		282456.0		249927.0		32529.0
281226.0		324092.0		281226.0		42866.0
186077.0		209451.0		186077.0		23374.0
102133.0		115298.0		102133.0		13165.0
40834.0		47173.0		40834.0		6339.0
8329.0		9469.0		8329.0		1140.0
3614.0		4046.0		3614.0		432.0
1455.0		1609.0		1455.0		154.0
755.0		791.0		755.0		36.0
631.0		698.0		631.0		67.0
