0.00<|#eta|<0.60
284272.0		355753.0		284272.0		71481.0
512792.0		631542.0		512792.0		118750.0
785030.0		968210.0		785030.0		183186.0
1038450.0		1267390.0		1038450.0		228955.0
722142.0		847912.0		722142.0		125770.0
415380.0		480297.0		415380.0		64917.0
180902.0		205827.0		180902.0		24925.0
37825.0		43062.0		37825.0		5237.0
18088.0		19265.0		18088.0		1177.0
7947.0		8522.0		7947.0		575.0
3958.0		4299.0		3958.0		341.0
4292.0		4662.0		4292.0		370.0
0.60<|#eta|<0.80
75706.0		98620.0		75706.0		22914.0
163867.0		203945.0		163867.0		40078.0
262486.0		328245.0		262486.0		65759.0
328193.0		404244.0		328193.0		76051.0
228944.0		271811.0		228944.0		42867.0
130427.0		153683.0		130427.0		23256.0
57061.0		65032.0		57061.0		7971.0
11992.0		13350.0		11992.0		1358.0
5667.0		6064.0		5667.0		397.0
2470.0		2677.0		2470.0		207.0
1311.0		1382.0		1311.0		71.0
1395.0		1474.0		1395.0		79.0
0.80<|#eta|<1.15
124188.0		171975.0		124188.0		47787.0
225267.0		315206.0		225267.0		89939.0
383035.0		524724.0		383035.0		141689.0
504356.0		666298.0		504356.0		161942.0
338762.0		429478.0		338762.0		90716.0
200422.0		244041.0		200422.0		43619.0
86179.0		101765.0		86179.0		15586.0
17120.0		21209.0		17120.0		4089.0
8897.0		9926.0		8897.0		1029.0
3942.0		4296.0		3942.0		354.0
1984.0		2128.0		1984.0		144.0
2183.0		2379.0		2183.0		196.0
1.15<|#eta|<1.37
69046.0		100792.0		69046.0		31746.0
122441.0		172225.0		122441.0		49784.0
200265.0		280205.0		200265.0		79940.0
285941.0		372976.0		285941.0		87035.0
191968.0		239568.0		191968.0		47600.0
116448.0		136699.0		116448.0		20251.0
48450.0		57292.0		48450.0		8842.0
9818.0		11767.0		9818.0		1949.0
4609.0		5411.0		4609.0		802.0
2163.0		2469.0		2163.0		306.0
1079.0		1213.0		1079.0		134.0
1158.0		1314.0		1158.0		156.0
1.52<|#eta|<1.81
92494.0		118965.0		92494.0		26471.0
149705.0		190841.0		149705.0		41136.0
226739.0		288987.0		226739.0		62248.0
294570.0		368565.0		294570.0		73995.0
213518.0		255295.0		213518.0		41777.0
127540.0		147273.0		127540.0		19733.0
53111.0		60984.0		53111.0		7873.0
10310.0		12044.0		10310.0		1734.0
4803.0		5568.0		4803.0		765.0
2133.0		2346.0		2133.0		213.0
1142.0		1220.0		1142.0		78.0
1243.0		1317.0		1243.0		74.0
1.81<|#eta|<2.01
61929.0		77253.0		61929.0		15324.0
98594.0		123961.0		98594.0		25367.0
145900.0		176713.0		145900.0		30813.0
186168.0		220812.0		186168.0		34644.0
121968.0		147443.0		121968.0		25475.0
70028.0		82446.0		70028.0		12418.0
30274.0		34331.0		30274.0		4057.0
5978.0		6972.0		5978.0		994.0
2663.0		3009.0		2663.0		346.0
1094.0		1239.0		1094.0		145.0
536.0		609.0		536.0		73.0
503.0		549.0		503.0		46.0
2.01<|#eta|<2.37
118498.0		138377.0		118498.0		19879.0
186688.0		214201.0		186688.0		27513.0
250644.0		282456.0		250644.0		31812.0
281906.0		324092.0		281906.0		42186.0
186347.0		209451.0		186347.0		23104.0
102431.0		115298.0		102431.0		12867.0
40891.0		47173.0		40891.0		6282.0
8358.0		9469.0		8358.0		1111.0
3612.0		4046.0		3612.0		434.0
1460.0		1609.0		1460.0		149.0
750.0		791.0		750.0		41.0
631.0		698.0		631.0		67.0
