0.00<|#eta|<0.60
283455.0		355753.0		283455.0		72298.0
509633.0		631542.0		509633.0		121909.0
782224.0		968210.0		782224.0		185992.0
1034590.0		1267390.0		1034590.0		232797.0
718275.0		847912.0		718275.0		129637.0
411239.0		480297.0		411239.0		69058.0
179710.0		205827.0		179710.0		26117.0
37907.0		43062.0		37907.0		5155.0
18141.0		19265.0		18141.0		1124.0
7925.0		8522.0		7925.0		597.0
3961.0		4299.0		3961.0		338.0
4315.0		4662.0		4315.0		347.0
0.60<|#eta|<0.80
75371.0		98620.0		75371.0		23249.0
164324.0		203945.0		164324.0		39621.0
262885.0		328245.0		262885.0		65360.0
328083.0		404244.0		328083.0		76161.0
228367.0		271811.0		228367.0		43444.0
130556.0		153683.0		130556.0		23127.0
57001.0		65032.0		57001.0		8031.0
11967.0		13350.0		11967.0		1383.0
5688.0		6064.0		5688.0		376.0
2483.0		2677.0		2483.0		194.0
1327.0		1382.0		1327.0		55.0
1401.0		1474.0		1401.0		73.0
0.80<|#eta|<1.15
124081.0		171975.0		124081.0		47894.0
225696.0		315206.0		225696.0		89510.0
379349.0		524724.0		379349.0		145375.0
498408.0		666298.0		498408.0		167890.0
334562.0		429478.0		334562.0		94916.0
192044.0		244041.0		192044.0		51997.0
83945.0		101765.0		83945.0		17820.0
17171.0		21209.0		17171.0		4038.0
8926.0		9926.0		8926.0		1000.0
3932.0		4296.0		3932.0		364.0
1978.0		2128.0		1978.0		150.0
2174.0		2379.0		2174.0		205.0
1.15<|#eta|<1.37
69203.0		100792.0		69203.0		31589.0
122844.0		172225.0		122844.0		49381.0
197837.0		280205.0		197837.0		82368.0
279092.0		372976.0		279092.0		93884.0
187145.0		239568.0		187145.0		52423.0
110048.0		136699.0		110048.0		26651.0
46929.0		57292.0		46929.0		10363.0
9873.0		11767.0		9873.0		1894.0
4602.0		5411.0		4602.0		809.0
2153.0		2469.0		2153.0		316.0
1080.0		1213.0		1080.0		133.0
1147.0		1314.0		1147.0		167.0
1.52<|#eta|<1.81
92549.0		118965.0		92549.0		26416.0
149101.0		190841.0		149101.0		41740.0
224772.0		288987.0		224772.0		64215.0
290909.0		368565.0		290909.0		77656.0
210440.0		255295.0		210440.0		44855.0
123427.0		147273.0		123427.0		23846.0
51647.0		60984.0		51647.0		9337.0
10313.0		12044.0		10313.0		1731.0
4820.0		5568.0		4820.0		748.0
2070.0		2346.0		2070.0		276.0
1141.0		1220.0		1141.0		79.0
1245.0		1317.0		1245.0		72.0
1.81<|#eta|<2.01
61704.0		77253.0		61704.0		15549.0
98448.0		123961.0		98448.0		25513.0
146056.0		176713.0		146056.0		30657.0
184943.0		220812.0		184943.0		35869.0
122106.0		147443.0		122106.0		25337.0
70325.0		82446.0		70325.0		12121.0
30147.0		34331.0		30147.0		4184.0
5890.0		6972.0		5890.0		1082.0
2665.0		3009.0		2665.0		344.0
1108.0		1239.0		1108.0		131.0
543.0		609.0		543.0		66.0
504.0		549.0		504.0		45.0
2.01<|#eta|<2.37
118724.0		138377.0		118724.0		19653.0
186467.0		214201.0		186467.0		27734.0
248975.0		282456.0		248975.0		33481.0
281661.0		324092.0		281661.0		42431.0
185786.0		209451.0		185786.0		23665.0
101966.0		115298.0		101966.0		13332.0
40782.0		47173.0		40782.0		6391.0
8361.0		9469.0		8361.0		1108.0
3626.0		4046.0		3626.0		420.0
1461.0		1609.0		1461.0		148.0
756.0		791.0		756.0		35.0
625.0		698.0		625.0		73.0
