0.00<|#eta|<0.60
283638.0		355753.0		283638.0		72115.0
512705.0		631542.0		512705.0		118837.0
781642.0		968210.0		781642.0		186574.0
1031150.0		1267390.0		1031150.0		236249.0
717300.0		847912.0		717300.0		130612.0
413333.0		480297.0		413333.0		66964.0
180036.0		205827.0		180036.0		25791.0
37843.0		43062.0		37843.0		5219.0
18096.0		19265.0		18096.0		1169.0
7922.0		8522.0		7922.0		600.0
3965.0		4299.0		3965.0		334.0
4305.0		4662.0		4305.0		357.0
0.60<|#eta|<0.80
75515.0		98620.0		75515.0		23105.0
163734.0		203945.0		163734.0		40211.0
262580.0		328245.0		262580.0		65665.0
328057.0		404244.0		328057.0		76187.0
228080.0		271811.0		228080.0		43731.0
130158.0		153683.0		130158.0		23525.0
57078.0		65032.0		57078.0		7954.0
11997.0		13350.0		11997.0		1353.0
5652.0		6064.0		5652.0		412.0
2470.0		2677.0		2470.0		207.0
1316.0		1382.0		1316.0		66.0
1400.0		1474.0		1400.0		74.0
0.80<|#eta|<1.15
124249.0		171975.0		124249.0		47726.0
225680.0		315206.0		225680.0		89526.0
379432.0		524724.0		379432.0		145292.0
497870.0		666298.0		497870.0		168428.0
334128.0		429478.0		334128.0		95350.0
196118.0		244041.0		196118.0		47923.0
85240.0		101765.0		85240.0		16525.0
17278.0		21209.0		17278.0		3931.0
8897.0		9926.0		8897.0		1029.0
3911.0		4296.0		3911.0		385.0
1983.0		2128.0		1983.0		145.0
2172.0		2379.0		2172.0		207.0
1.15<|#eta|<1.37
68931.0		100792.0		68931.0		31861.0
123254.0		172225.0		123254.0		48971.0
197102.0		280205.0		197102.0		83103.0
279553.0		372976.0		279553.0		93423.0
187670.0		239568.0		187670.0		51898.0
112618.0		136699.0		112618.0		24081.0
47584.0		57292.0		47584.0		9708.0
9891.0		11767.0		9891.0		1876.0
4599.0		5411.0		4599.0		812.0
2151.0		2469.0		2151.0		318.0
1091.0		1213.0		1091.0		122.0
1142.0		1314.0		1142.0		172.0
1.52<|#eta|<1.81
92334.0		118965.0		92334.0		26631.0
149668.0		190841.0		149668.0		41173.0
226001.0		288987.0		226001.0		62986.0
290509.0		368565.0		290509.0		78056.0
210730.0		255295.0		210730.0		44565.0
124810.0		147273.0		124810.0		22463.0
52274.0		60984.0		52274.0		8710.0
10215.0		12044.0		10215.0		1829.0
4811.0		5568.0		4811.0		757.0
2102.0		2346.0		2102.0		244.0
1141.0		1220.0		1141.0		79.0
1248.0		1317.0		1248.0		69.0
1.81<|#eta|<2.01
62036.0		77253.0		62036.0		15217.0
98437.0		123961.0		98437.0		25524.0
146413.0		176713.0		146413.0		30300.0
185920.0		220812.0		185920.0		34892.0
122032.0		147443.0		122032.0		25411.0
70220.0		82446.0		70220.0		12226.0
30228.0		34331.0		30228.0		4103.0
5901.0		6972.0		5901.0		1071.0
2663.0		3009.0		2663.0		346.0
1107.0		1239.0		1107.0		132.0
547.0		609.0		547.0		62.0
505.0		549.0		505.0		44.0
2.01<|#eta|<2.37
118853.0		138377.0		118853.0		19524.0
188035.0		214201.0		188035.0		26166.0
250679.0		282456.0		250679.0		31777.0
281802.0		324092.0		281802.0		42290.0
185754.0		209451.0		185754.0		23697.0
102157.0		115298.0		102157.0		13141.0
40847.0		47173.0		40847.0		6326.0
8344.0		9469.0		8344.0		1125.0
3633.0		4046.0		3633.0		413.0
1453.0		1609.0		1453.0		156.0
745.0		791.0		745.0		46.0
632.0		698.0		632.0		66.0
