0.00<|#eta|<0.60
283741.0		355753.0		283741.0		72012.0
512253.0		631542.0		512253.0		119289.0
778636.0		968210.0		778636.0		189580.0
1026520.0		1267390.0		1026520.0		240874.0
716105.0		847912.0		716105.0		131807.0
412825.0		480297.0		412825.0		67472.0
180074.0		205827.0		180074.0		25753.0
37958.0		43062.0		37958.0		5104.0
18124.0		19265.0		18124.0		1141.0
7946.0		8522.0		7946.0		576.0
3971.0		4299.0		3971.0		328.0
4288.0		4662.0		4288.0		374.0
0.60<|#eta|<0.80
75329.0		98620.0		75329.0		23291.0
164138.0		203945.0		164138.0		39807.0
262950.0		328245.0		262950.0		65295.0
327629.0		404244.0		327629.0		76615.0
227276.0		271811.0		227276.0		44535.0
130644.0		153683.0		130644.0		23039.0
57141.0		65032.0		57141.0		7891.0
11997.0		13350.0		11997.0		1353.0
5655.0		6064.0		5655.0		409.0
2468.0		2677.0		2468.0		209.0
1321.0		1382.0		1321.0		61.0
1398.0		1474.0		1398.0		76.0
0.80<|#eta|<1.15
124284.0		171975.0		124284.0		47691.0
225187.0		315206.0		225187.0		90019.0
375624.0		524724.0		375624.0		149100.0
493990.0		666298.0		493990.0		172308.0
332111.0		429478.0		332111.0		97367.0
195245.0		244041.0		195245.0		48796.0
85280.0		101765.0		85280.0		16485.0
17102.0		21209.0		17102.0		4107.0
8915.0		9926.0		8915.0		1011.0
3930.0		4296.0		3930.0		366.0
1974.0		2128.0		1974.0		154.0
2192.0		2379.0		2192.0		187.0
1.15<|#eta|<1.37
68918.0		100792.0		68918.0		31874.0
122558.0		172225.0		122558.0		49667.0
194419.0		280205.0		194419.0		85786.0
275030.0		372976.0		275030.0		97946.0
185661.0		239568.0		185661.0		53907.0
112963.0		136699.0		112963.0		23736.0
47614.0		57292.0		47614.0		9678.0
9861.0		11767.0		9861.0		1906.0
4597.0		5411.0		4597.0		814.0
2129.0		2469.0		2129.0		340.0
1084.0		1213.0		1084.0		129.0
1149.0		1314.0		1149.0		165.0
1.52<|#eta|<1.81
92049.0		118965.0		92049.0		26916.0
150176.0		190841.0		150176.0		40665.0
224006.0		288987.0		224006.0		64981.0
289475.0		368565.0		289475.0		79090.0
208927.0		255295.0		208927.0		46368.0
124007.0		147273.0		124007.0		23266.0
52165.0		60984.0		52165.0		8819.0
10299.0		12044.0		10299.0		1745.0
4770.0		5568.0		4770.0		798.0
2150.0		2346.0		2150.0		196.0
1144.0		1220.0		1144.0		76.0
1241.0		1317.0		1241.0		76.0
1.81<|#eta|<2.01
62042.0		77253.0		62042.0		15211.0
98664.0		123961.0		98664.0		25297.0
146310.0		176713.0		146310.0		30403.0
185878.0		220812.0		185878.0		34934.0
122240.0		147443.0		122240.0		25203.0
70256.0		82446.0		70256.0		12190.0
30297.0		34331.0		30297.0		4034.0
5950.0		6972.0		5950.0		1022.0
2657.0		3009.0		2657.0		352.0
1105.0		1239.0		1105.0		134.0
543.0		609.0		543.0		66.0
502.0		549.0		502.0		47.0
2.01<|#eta|<2.37
118903.0		138377.0		118903.0		19474.0
186433.0		214201.0		186433.0		27768.0
249631.0		282456.0		249631.0		32825.0
282073.0		324092.0		282073.0		42019.0
186272.0		209451.0		186272.0		23179.0
102241.0		115298.0		102241.0		13057.0
40982.0		47173.0		40982.0		6191.0
8365.0		9469.0		8365.0		1104.0
3637.0		4046.0		3637.0		409.0
1475.0		1609.0		1475.0		134.0
739.0		791.0		739.0		52.0
625.0		698.0		625.0		73.0
