0.00<|#eta|<0.60
283052.0		355753.0		283052.0		72701.0
510930.0		631542.0		510930.0		120612.0
780671.0		968210.0		780671.0		187545.0
1033100.0		1267390.0		1033100.0		234286.0
718106.0		847912.0		718106.0		129806.0
413505.0		480297.0		413505.0		66792.0
180024.0		205827.0		180024.0		25803.0
37876.0		43062.0		37876.0		5186.0
18135.0		19265.0		18135.0		1130.0
7942.0		8522.0		7942.0		580.0
3969.0		4299.0		3969.0		330.0
4315.0		4662.0		4315.0		347.0
0.60<|#eta|<0.80
75632.0		98620.0		75632.0		22988.0
163341.0		203945.0		163341.0		40604.0
261785.0		328245.0		261785.0		66460.0
327214.0		404244.0		327214.0		77030.0
227729.0		271811.0		227729.0		44082.0
130278.0		153683.0		130278.0		23405.0
57156.0		65032.0		57156.0		7876.0
11977.0		13350.0		11977.0		1373.0
5671.0		6064.0		5671.0		393.0
2479.0		2677.0		2479.0		198.0
1324.0		1382.0		1324.0		58.0
1406.0		1474.0		1406.0		68.0
0.80<|#eta|<1.15
124334.0		171975.0		124334.0		47641.0
224750.0		315206.0		224750.0		90456.0
378457.0		524724.0		378457.0		146267.0
498072.0		666298.0		498072.0		168226.0
334683.0		429478.0		334683.0		94795.0
195937.0		244041.0		195937.0		48104.0
85172.0		101765.0		85172.0		16593.0
17172.0		21209.0		17172.0		4037.0
8883.0		9926.0		8883.0		1043.0
3908.0		4296.0		3908.0		388.0
1984.0		2128.0		1984.0		144.0
2178.0		2379.0		2178.0		201.0
1.15<|#eta|<1.37
68671.0		100792.0		68671.0		32121.0
122601.0		172225.0		122601.0		49624.0
196491.0		280205.0		196491.0		83714.0
279264.0		372976.0		279264.0		93712.0
188247.0		239568.0		188247.0		51321.0
112515.0		136699.0		112515.0		24184.0
47563.0		57292.0		47563.0		9729.0
9869.0		11767.0		9869.0		1898.0
4578.0		5411.0		4578.0		833.0
2153.0		2469.0		2153.0		316.0
1078.0		1213.0		1078.0		135.0
1129.0		1314.0		1129.0		185.0
1.52<|#eta|<1.81
92640.0		118965.0		92640.0		26325.0
150206.0		190841.0		150206.0		40635.0
225906.0		288987.0		225906.0		63081.0
290849.0		368565.0		290849.0		77716.0
211494.0		255295.0		211494.0		43801.0
125035.0		147273.0		125035.0		22238.0
52164.0		60984.0		52164.0		8820.0
10244.0		12044.0		10244.0		1800.0
4802.0		5568.0		4802.0		766.0
2134.0		2346.0		2134.0		212.0
1145.0		1220.0		1145.0		75.0
1244.0		1317.0		1244.0		73.0
1.81<|#eta|<2.01
62246.0		77253.0		62246.0		15007.0
98158.0		123961.0		98158.0		25803.0
145992.0		176713.0		145992.0		30721.0
186142.0		220812.0		186142.0		34670.0
121794.0		147443.0		121794.0		25649.0
69959.0		82446.0		69959.0		12487.0
30198.0		34331.0		30198.0		4133.0
5915.0		6972.0		5915.0		1057.0
2661.0		3009.0		2661.0		348.0
1114.0		1239.0		1114.0		125.0
545.0		609.0		545.0		64.0
503.0		549.0		503.0		46.0
2.01<|#eta|<2.37
118312.0		138377.0		118312.0		20065.0
186010.0		214201.0		186010.0		28191.0
251131.0		282456.0		251131.0		31325.0
282729.0		324092.0		282729.0		41363.0
185595.0		209451.0		185595.0		23856.0
102304.0		115298.0		102304.0		12994.0
40880.0		47173.0		40880.0		6293.0
8329.0		9469.0		8329.0		1140.0
3636.0		4046.0		3636.0		410.0
1461.0		1609.0		1461.0		148.0
750.0		791.0		750.0		41.0
633.0		698.0		633.0		65.0
