0.00<|#eta|<0.60
286215.0		355753.0		286215.0		69538.0
515804.0		631542.0		515804.0		115738.0
790933.0		968210.0		790933.0		177283.0
1050450.0		1267390.0		1050450.0		216940.0
726760.0		847912.0		726760.0		121152.0
412353.0		480297.0		412353.0		67944.0
179706.0		205827.0		179706.0		26121.0
38059.0		43062.0		38059.0		5003.0
18152.0		19265.0		18152.0		1113.0
7963.0		8522.0		7963.0		559.0
3978.0		4299.0		3978.0		321.0
4300.0		4662.0		4300.0		362.0
0.60<|#eta|<0.80
75701.0		98620.0		75701.0		22919.0
164582.0		203945.0		164582.0		39363.0
263061.0		328245.0		263061.0		65184.0
328698.0		404244.0		328698.0		75546.0
228506.0		271811.0		228506.0		43305.0
130444.0		153683.0		130444.0		23239.0
57102.0		65032.0		57102.0		7930.0
11957.0		13350.0		11957.0		1393.0
5684.0		6064.0		5684.0		380.0
2481.0		2677.0		2481.0		196.0
1307.0		1382.0		1307.0		75.0
1400.0		1474.0		1400.0		74.0
0.80<|#eta|<1.15
127620.0		171975.0		127620.0		44355.0
229663.0		315206.0		229663.0		85543.0
393181.0		524724.0		393181.0		131543.0
519550.0		666298.0		519550.0		146748.0
345891.0		429478.0		345891.0		83587.0
193097.0		244041.0		193097.0		50944.0
84408.0		101765.0		84408.0		17357.0
17579.0		21209.0		17579.0		3630.0
9100.0		9926.0		9100.0		826.0
3984.0		4296.0		3984.0		312.0
1999.0		2128.0		1999.0		129.0
2185.0		2379.0		2185.0		194.0
1.15<|#eta|<1.37
71867.0		100792.0		71867.0		28925.0
127494.0		172225.0		127494.0		44731.0
210640.0		280205.0		210640.0		69565.0
303342.0		372976.0		303342.0		69634.0
198624.0		239568.0		198624.0		40944.0
111455.0		136699.0		111455.0		25244.0
47119.0		57292.0		47119.0		10173.0
10076.0		11767.0		10076.0		1691.0
4759.0		5411.0		4759.0		652.0
2178.0		2469.0		2178.0		291.0
1087.0		1213.0		1087.0		126.0
1191.0		1314.0		1191.0		123.0
1.52<|#eta|<1.81
94427.0		118965.0		94427.0		24538.0
151913.0		190841.0		151913.0		38928.0
232791.0		288987.0		232791.0		56196.0
302819.0		368565.0		302819.0		65746.0
215912.0		255295.0		215912.0		39383.0
124761.0		147273.0		124761.0		22512.0
51829.0		60984.0		51829.0		9155.0
10506.0		12044.0		10506.0		1538.0
4953.0		5568.0		4953.0		615.0
2152.0		2346.0		2152.0		194.0
1140.0		1220.0		1140.0		80.0
1243.0		1317.0		1243.0		74.0
1.81<|#eta|<2.01
62234.0		77253.0		62234.0		15019.0
99035.0		123961.0		99035.0		24926.0
145673.0		176713.0		145673.0		31040.0
185413.0		220812.0		185413.0		35399.0
121457.0		147443.0		121457.0		25986.0
70151.0		82446.0		70151.0		12295.0
30280.0		34331.0		30280.0		4051.0
5924.0		6972.0		5924.0		1048.0
2675.0		3009.0		2675.0		334.0
1103.0		1239.0		1103.0		136.0
545.0		609.0		545.0		64.0
502.0		549.0		502.0		47.0
2.01<|#eta|<2.37
118913.0		138377.0		118913.0		19464.0
187732.0		214201.0		187732.0		26469.0
250156.0		282456.0		250156.0		32300.0
282180.0		324092.0		282180.0		41912.0
185259.0		209451.0		185259.0		24192.0
102008.0		115298.0		102008.0		13290.0
41012.0		47173.0		41012.0		6161.0
8350.0		9469.0		8350.0		1119.0
3606.0		4046.0		3606.0		440.0
1449.0		1609.0		1449.0		160.0
752.0		791.0		752.0		39.0
628.0		698.0		628.0		70.0
