0.00<|#eta|<0.60
287777.0		355753.0		287777.0		67976.0
517879.0		631542.0		517879.0		113663.0
791013.0		968210.0		791013.0		177203.0
1044820.0		1267390.0		1044820.0		222581.0
723352.0		847912.0		723352.0		124560.0
413799.0		480297.0		413799.0		66498.0
180250.0		205827.0		180250.0		25577.0
37914.0		43062.0		37914.0		5148.0
18153.0		19265.0		18153.0		1112.0
7937.0		8522.0		7937.0		585.0
3972.0		4299.0		3972.0		327.0
4314.0		4662.0		4314.0		348.0
0.60<|#eta|<0.80
75566.0		98620.0		75566.0		23054.0
164283.0		203945.0		164283.0		39662.0
262570.0		328245.0		262570.0		65675.0
328635.0		404244.0		328635.0		75609.0
228806.0		271811.0		228806.0		43005.0
130312.0		153683.0		130312.0		23371.0
57086.0		65032.0		57086.0		7946.0
11979.0		13350.0		11979.0		1371.0
5677.0		6064.0		5677.0		387.0
2493.0		2677.0		2493.0		184.0
1326.0		1382.0		1326.0		56.0
1398.0		1474.0		1398.0		76.0
0.80<|#eta|<1.15
128035.0		171975.0		128035.0		43940.0
232381.0		315206.0		232381.0		82825.0
390042.0		524724.0		390042.0		134682.0
511269.0		666298.0		511269.0		155029.0
342302.0		429478.0		342302.0		87176.0
196407.0		244041.0		196407.0		47634.0
85265.0		101765.0		85265.0		16500.0
17418.0		21209.0		17418.0		3791.0
9087.0		9926.0		9087.0		839.0
3971.0		4296.0		3971.0		325.0
2012.0		2128.0		2012.0		116.0
2172.0		2379.0		2172.0		207.0
1.15<|#eta|<1.37
73683.0		100792.0		73683.0		27109.0
129267.0		172225.0		129267.0		42958.0
206872.0		280205.0		206872.0		73333.0
294177.0		372976.0		294177.0		78799.0
194916.0		239568.0		194916.0		44652.0
113672.0		136699.0		113672.0		23027.0
47777.0		57292.0		47777.0		9515.0
10078.0		11767.0		10078.0		1689.0
4703.0		5411.0		4703.0		708.0
2215.0		2469.0		2215.0		254.0
1093.0		1213.0		1093.0		120.0
1186.0		1314.0		1186.0		128.0
1.52<|#eta|<1.81
94702.0		118965.0		94702.0		24263.0
153361.0		190841.0		153361.0		37480.0
230655.0		288987.0		230655.0		58332.0
298664.0		368565.0		298664.0		69901.0
214814.0		255295.0		214814.0		40481.0
125647.0		147273.0		125647.0		21626.0
52408.0		60984.0		52408.0		8576.0
10439.0		12044.0		10439.0		1605.0
4899.0		5568.0		4899.0		669.0
2129.0		2346.0		2129.0		217.0
1149.0		1220.0		1149.0		71.0
1246.0		1317.0		1246.0		71.0
1.81<|#eta|<2.01
61960.0		77253.0		61960.0		15293.0
99196.0		123961.0		99196.0		24765.0
146373.0		176713.0		146373.0		30340.0
185790.0		220812.0		185790.0		35022.0
122343.0		147443.0		122343.0		25100.0
70180.0		82446.0		70180.0		12266.0
30254.0		34331.0		30254.0		4077.0
5944.0		6972.0		5944.0		1028.0
2663.0		3009.0		2663.0		346.0
1113.0		1239.0		1113.0		126.0
551.0		609.0		551.0		58.0
507.0		549.0		507.0		42.0
2.01<|#eta|<2.37
119413.0		138377.0		119413.0		18964.0
187205.0		214201.0		187205.0		26996.0
249922.0		282456.0		249922.0		32534.0
281902.0		324092.0		281902.0		42190.0
186023.0		209451.0		186023.0		23428.0
102303.0		115298.0		102303.0		12995.0
40859.0		47173.0		40859.0		6314.0
8333.0		9469.0		8333.0		1136.0
3630.0		4046.0		3630.0		416.0
1454.0		1609.0		1454.0		155.0
751.0		791.0		751.0		40.0
626.0		698.0		626.0		72.0
