0.00<|#eta|<0.60
285671.0		355753.0		285671.0		70082.0
515877.0		631542.0		515877.0		115665.0
786748.0		968210.0		786748.0		181468.0
1039020.0		1267390.0		1039020.0		228368.0
719897.0		847912.0		719897.0		128015.0
410817.0		480297.0		410817.0		69480.0
179706.0		205827.0		179706.0		26121.0
37978.0		43062.0		37978.0		5084.0
18104.0		19265.0		18104.0		1161.0
7907.0		8522.0		7907.0		615.0
3963.0		4299.0		3963.0		336.0
4301.0		4662.0		4301.0		361.0
0.60<|#eta|<0.80
75621.0		98620.0		75621.0		22999.0
164282.0		203945.0		164282.0		39663.0
263694.0		328245.0		263694.0		64551.0
327679.0		404244.0		327679.0		76565.0
228333.0		271811.0		228333.0		43478.0
130343.0		153683.0		130343.0		23340.0
57032.0		65032.0		57032.0		8000.0
11971.0		13350.0		11971.0		1379.0
5658.0		6064.0		5658.0		406.0
2486.0		2677.0		2486.0		191.0
1317.0		1382.0		1317.0		65.0
1387.0		1474.0		1387.0		87.0
0.80<|#eta|<1.15
127099.0		171975.0		127099.0		44876.0
231152.0		315206.0		231152.0		84054.0
384736.0		524724.0		384736.0		139988.0
505396.0		666298.0		505396.0		160902.0
338197.0		429478.0		338197.0		91281.0
192495.0		244041.0		192495.0		51546.0
84071.0		101765.0		84071.0		17694.0
17235.0		21209.0		17235.0		3974.0
8920.0		9926.0		8920.0		1006.0
3939.0		4296.0		3939.0		357.0
1990.0		2128.0		1990.0		138.0
2186.0		2379.0		2186.0		193.0
1.15<|#eta|<1.37
71896.0		100792.0		71896.0		28896.0
126956.0		172225.0		126956.0		45269.0
202340.0		280205.0		202340.0		77865.0
286461.0		372976.0		286461.0		86515.0
190036.0		239568.0		190036.0		49532.0
110897.0		136699.0		110897.0		25802.0
46738.0		57292.0		46738.0		10554.0
9893.0		11767.0		9893.0		1874.0
4576.0		5411.0		4576.0		835.0
2169.0		2469.0		2169.0		300.0
1096.0		1213.0		1096.0		117.0
1186.0		1314.0		1186.0		128.0
1.52<|#eta|<1.81
94292.0		118965.0		94292.0		24673.0
152405.0		190841.0		152405.0		38436.0
229344.0		288987.0		229344.0		59643.0
294390.0		368565.0		294390.0		74175.0
211854.0		255295.0		211854.0		43441.0
123529.0		147273.0		123529.0		23744.0
51684.0		60984.0		51684.0		9300.0
10257.0		12044.0		10257.0		1787.0
4827.0		5568.0		4827.0		741.0
2119.0		2346.0		2119.0		227.0
1143.0		1220.0		1143.0		77.0
1242.0		1317.0		1242.0		75.0
1.81<|#eta|<2.01
61969.0		77253.0		61969.0		15284.0
99133.0		123961.0		99133.0		24828.0
146379.0		176713.0		146379.0		30334.0
186593.0		220812.0		186593.0		34219.0
122237.0		147443.0		122237.0		25206.0
70297.0		82446.0		70297.0		12149.0
30313.0		34331.0		30313.0		4018.0
5971.0		6972.0		5971.0		1001.0
2662.0		3009.0		2662.0		347.0
1107.0		1239.0		1107.0		132.0
538.0		609.0		538.0		71.0
506.0		549.0		506.0		43.0
2.01<|#eta|<2.37
118907.0		138377.0		118907.0		19470.0
187292.0		214201.0		187292.0		26909.0
249622.0		282456.0		249622.0		32834.0
281420.0		324092.0		281420.0		42672.0
185950.0		209451.0		185950.0		23501.0
102315.0		115298.0		102315.0		12983.0
40985.0		47173.0		40985.0		6188.0
8330.0		9469.0		8330.0		1139.0
3596.0		4046.0		3596.0		450.0
1456.0		1609.0		1456.0		153.0
743.0		791.0		743.0		48.0
629.0		698.0		629.0		69.0
