0.00<|#eta|<0.60
283940.0		355753.0		283940.0		71813.0
510536.0		631542.0		510536.0		121006.0
783364.0		968210.0		783364.0		184852.0
1038730.0		1267390.0		1038730.0		228672.0
721436.0		847912.0		721436.0		126476.0
411450.0		480297.0		411450.0		68847.0
180020.0		205827.0		180020.0		25807.0
37910.0		43062.0		37910.0		5152.0
18131.0		19265.0		18131.0		1134.0
7907.0		8522.0		7907.0		615.0
3970.0		4299.0		3970.0		329.0
4305.0		4662.0		4305.0		357.0
0.60<|#eta|<0.80
75327.0		98620.0		75327.0		23293.0
163355.0		203945.0		163355.0		40590.0
262460.0		328245.0		262460.0		65785.0
327976.0		404244.0		327976.0		76268.0
228143.0		271811.0		228143.0		43668.0
130117.0		153683.0		130117.0		23566.0
57015.0		65032.0		57015.0		8017.0
11989.0		13350.0		11989.0		1361.0
5641.0		6064.0		5641.0		423.0
2484.0		2677.0		2484.0		193.0
1322.0		1382.0		1322.0		60.0
1395.0		1474.0		1395.0		79.0
0.80<|#eta|<1.15
124476.0		171975.0		124476.0		47499.0
225676.0		315206.0		225676.0		89530.0
383427.0		524724.0		383427.0		141297.0
507015.0		666298.0		507015.0		159283.0
338331.0		429478.0		338331.0		91147.0
192741.0		244041.0		192741.0		51300.0
83860.0		101765.0		83860.0		17905.0
17218.0		21209.0		17218.0		3991.0
8868.0		9926.0		8868.0		1058.0
3912.0		4296.0		3912.0		384.0
1993.0		2128.0		1993.0		135.0
2186.0		2379.0		2186.0		193.0
1.15<|#eta|<1.37
69012.0		100792.0		69012.0		31780.0
123218.0		172225.0		123218.0		49007.0
200165.0		280205.0		200165.0		80040.0
285791.0		372976.0		285791.0		87185.0
190085.0		239568.0		190085.0		49483.0
110666.0		136699.0		110666.0		26033.0
46773.0		57292.0		46773.0		10519.0
9852.0		11767.0		9852.0		1915.0
4626.0		5411.0		4626.0		785.0
2155.0		2469.0		2155.0		314.0
1061.0		1213.0		1061.0		152.0
1143.0		1314.0		1143.0		171.0
1.52<|#eta|<1.81
92862.0		118965.0		92862.0		26103.0
150181.0		190841.0		150181.0		40660.0
226894.0		288987.0		226894.0		62093.0
293826.0		368565.0		293826.0		74739.0
211946.0		255295.0		211946.0		43349.0
123728.0		147273.0		123728.0		23545.0
51756.0		60984.0		51756.0		9228.0
10290.0		12044.0		10290.0		1754.0
4853.0		5568.0		4853.0		715.0
2099.0		2346.0		2099.0		247.0
1138.0		1220.0		1138.0		82.0
1238.0		1317.0		1238.0		79.0
1.81<|#eta|<2.01
62174.0		77253.0		62174.0		15079.0
99161.0		123961.0		99161.0		24800.0
146624.0		176713.0		146624.0		30089.0
186336.0		220812.0		186336.0		34476.0
122194.0		147443.0		122194.0		25249.0
70076.0		82446.0		70076.0		12370.0
30250.0		34331.0		30250.0		4081.0
5944.0		6972.0		5944.0		1028.0
2685.0		3009.0		2685.0		324.0
1106.0		1239.0		1106.0		133.0
542.0		609.0		542.0		67.0
500.0		549.0		500.0		49.0
2.01<|#eta|<2.37
118595.0		138377.0		118595.0		19782.0
187135.0		214201.0		187135.0		27066.0
249904.0		282456.0		249904.0		32552.0
282646.0		324092.0		282646.0		41446.0
185976.0		209451.0		185976.0		23475.0
101910.0		115298.0		101910.0		13388.0
40938.0		47173.0		40938.0		6235.0
8340.0		9469.0		8340.0		1129.0
3632.0		4046.0		3632.0		414.0
1451.0		1609.0		1451.0		158.0
749.0		791.0		749.0		42.0
630.0		698.0		630.0		68.0
