0.00<|#eta|<0.60
283591.0		355753.0		283591.0		72162.0
510997.0		631542.0		510997.0		120545.0
784947.0		968210.0		784947.0		183269.0
1038800.0		1267390.0		1038800.0		228608.0
721901.0		847912.0		721901.0		126011.0
413339.0		480297.0		413339.0		66958.0
180396.0		205827.0		180396.0		25431.0
37855.0		43062.0		37855.0		5207.0
18114.0		19265.0		18114.0		1151.0
7899.0		8522.0		7899.0		623.0
3952.0		4299.0		3952.0		347.0
4281.0		4662.0		4281.0		381.0
0.60<|#eta|<0.80
75979.0		98620.0		75979.0		22641.0
163510.0		203945.0		163510.0		40435.0
263147.0		328245.0		263147.0		65098.0
327968.0		404244.0		327968.0		76276.0
227897.0		271811.0		227897.0		43914.0
130406.0		153683.0		130406.0		23277.0
57074.0		65032.0		57074.0		7958.0
12002.0		13350.0		12002.0		1348.0
5678.0		6064.0		5678.0		386.0
2479.0		2677.0		2479.0		198.0
1315.0		1382.0		1315.0		67.0
1387.0		1474.0		1387.0		87.0
0.80<|#eta|<1.15
124600.0		171975.0		124600.0		47375.0
225230.0		315206.0		225230.0		89976.0
383250.0		524724.0		383250.0		141474.0
506889.0		666298.0		506889.0		159409.0
338246.0		429478.0		338246.0		91232.0
196118.0		244041.0		196118.0		47923.0
85006.0		101765.0		85006.0		16759.0
17178.0		21209.0		17178.0		4031.0
8912.0		9926.0		8912.0		1014.0
3922.0		4296.0		3922.0		374.0
1996.0		2128.0		1996.0		132.0
2167.0		2379.0		2167.0		212.0
1.15<|#eta|<1.37
69166.0		100792.0		69166.0		31626.0
122709.0		172225.0		122709.0		49516.0
201736.0		280205.0		201736.0		78469.0
286754.0		372976.0		286754.0		86222.0
191851.0		239568.0		191851.0		47717.0
113306.0		136699.0		113306.0		23393.0
47672.0		57292.0		47672.0		9620.0
9885.0		11767.0		9885.0		1882.0
4644.0		5411.0		4644.0		767.0
2143.0		2469.0		2143.0		326.0
1086.0		1213.0		1086.0		127.0
1144.0		1314.0		1144.0		170.0
1.52<|#eta|<1.81
92302.0		118965.0		92302.0		26663.0
149885.0		190841.0		149885.0		40956.0
226980.0		288987.0		226980.0		62007.0
293951.0		368565.0		293951.0		74614.0
213438.0		255295.0		213438.0		41857.0
125544.0		147273.0		125544.0		21729.0
52118.0		60984.0		52118.0		8866.0
10314.0		12044.0		10314.0		1730.0
4786.0		5568.0		4786.0		782.0
2093.0		2346.0		2093.0		253.0
1151.0		1220.0		1151.0		69.0
1247.0		1317.0		1247.0		70.0
1.81<|#eta|<2.01
61922.0		77253.0		61922.0		15331.0
98857.0		123961.0		98857.0		25104.0
146150.0		176713.0		146150.0		30563.0
185822.0		220812.0		185822.0		34990.0
121658.0		147443.0		121658.0		25785.0
69962.0		82446.0		69962.0		12484.0
30278.0		34331.0		30278.0		4053.0
5935.0		6972.0		5935.0		1037.0
2676.0		3009.0		2676.0		333.0
1117.0		1239.0		1117.0		122.0
538.0		609.0		538.0		71.0
500.0		549.0		500.0		49.0
2.01<|#eta|<2.37
118759.0		138377.0		118759.0		19618.0
187134.0		214201.0		187134.0		27067.0
249964.0		282456.0		249964.0		32492.0
281741.0		324092.0		281741.0		42351.0
185927.0		209451.0		185927.0		23524.0
102371.0		115298.0		102371.0		12927.0
41055.0		47173.0		41055.0		6118.0
8328.0		9469.0		8328.0		1141.0
3623.0		4046.0		3623.0		423.0
1452.0		1609.0		1452.0		157.0
748.0		791.0		748.0		43.0
629.0		698.0		629.0		69.0
