0.00<|#eta|<0.60
283514.0		355753.0		283514.0		72239.0
511132.0		631542.0		511132.0		120410.0
778043.0		968210.0		778043.0		190173.0
1028170.0		1267390.0		1028170.0		239221.0
715499.0		847912.0		715499.0		132413.0
411020.0		480297.0		411020.0		69277.0
179705.0		205827.0		179705.0		26122.0
37855.0		43062.0		37855.0		5207.0
18116.0		19265.0		18116.0		1149.0
7889.0		8522.0		7889.0		633.0
3980.0		4299.0		3980.0		319.0
4298.0		4662.0		4298.0		364.0
0.60<|#eta|<0.80
75196.0		98620.0		75196.0		23424.0
163867.0		203945.0		163867.0		40078.0
262304.0		328245.0		262304.0		65941.0
327687.0		404244.0		327687.0		76557.0
228368.0		271811.0		228368.0		43443.0
130287.0		153683.0		130287.0		23396.0
57039.0		65032.0		57039.0		7993.0
11993.0		13350.0		11993.0		1357.0
5646.0		6064.0		5646.0		418.0
2493.0		2677.0		2493.0		184.0
1325.0		1382.0		1325.0		57.0
1404.0		1474.0		1404.0		70.0
0.80<|#eta|<1.15
124585.0		171975.0		124585.0		47390.0
225255.0		315206.0		225255.0		89951.0
375365.0		524724.0		375365.0		149359.0
492702.0		666298.0		492702.0		173596.0
330910.0		429478.0		330910.0		98568.0
191620.0		244041.0		191620.0		52421.0
84347.0		101765.0		84347.0		17418.0
17180.0		21209.0		17180.0		4029.0
8876.0		9926.0		8876.0		1050.0
3933.0		4296.0		3933.0		363.0
1979.0		2128.0		1979.0		149.0
2169.0		2379.0		2169.0		210.0
1.15<|#eta|<1.37
69372.0		100792.0		69372.0		31420.0
122922.0		172225.0		122922.0		49303.0
193960.0		280205.0		193960.0		86245.0
273811.0		372976.0		273811.0		99165.0
184481.0		239568.0		184481.0		55087.0
110194.0		136699.0		110194.0		26505.0
46811.0		57292.0		46811.0		10481.0
9919.0		11767.0		9919.0		1848.0
4595.0		5411.0		4595.0		816.0
2147.0		2469.0		2147.0		322.0
1073.0		1213.0		1073.0		140.0
1150.0		1314.0		1150.0		164.0
1.52<|#eta|<1.81
92924.0		118965.0		92924.0		26041.0
149372.0		190841.0		149372.0		41469.0
224193.0		288987.0		224193.0		64794.0
287504.0		368565.0		287504.0		81061.0
209106.0		255295.0		209106.0		46189.0
122872.0		147273.0		122872.0		24401.0
51670.0		60984.0		51670.0		9314.0
10314.0		12044.0		10314.0		1730.0
4794.0		5568.0		4794.0		774.0
2119.0		2346.0		2119.0		227.0
1149.0		1220.0		1149.0		71.0
1242.0		1317.0		1242.0		75.0
1.81<|#eta|<2.01
61182.0		77253.0		61182.0		16071.0
99303.0		123961.0		99303.0		24658.0
146041.0		176713.0		146041.0		30672.0
186425.0		220812.0		186425.0		34387.0
122202.0		147443.0		122202.0		25241.0
70253.0		82446.0		70253.0		12193.0
30240.0		34331.0		30240.0		4091.0
5948.0		6972.0		5948.0		1024.0
2679.0		3009.0		2679.0		330.0
1110.0		1239.0		1110.0		129.0
544.0		609.0		544.0		65.0
502.0		549.0		502.0		47.0
2.01<|#eta|<2.37
118771.0		138377.0		118771.0		19606.0
187404.0		214201.0		187404.0		26797.0
250994.0		282456.0		250994.0		31462.0
282071.0		324092.0		282071.0		42021.0
185567.0		209451.0		185567.0		23884.0
102138.0		115298.0		102138.0		13160.0
40869.0		47173.0		40869.0		6304.0
8334.0		9469.0		8334.0		1135.0
3580.0		4046.0		3580.0		466.0
1465.0		1609.0		1465.0		144.0
749.0		791.0		749.0		42.0
622.0		698.0		622.0		76.0
