0.00<|#eta|<0.60
283358.0		355753.0		283358.0		72395.0
512621.0		631542.0		512621.0		118921.0
783991.0		968210.0		783991.0		184225.0
1033870.0		1267390.0		1033870.0		233534.0
718819.0		847912.0		718819.0		129093.0
411361.0		480297.0		411361.0		68936.0
179855.0		205827.0		179855.0		25972.0
37833.0		43062.0		37833.0		5229.0
18142.0		19265.0		18142.0		1123.0
7925.0		8522.0		7925.0		597.0
3985.0		4299.0		3985.0		314.0
4313.0		4662.0		4313.0		349.0
0.60<|#eta|<0.80
75430.0		98620.0		75430.0		23190.0
163276.0		203945.0		163276.0		40669.0
262742.0		328245.0		262742.0		65503.0
328079.0		404244.0		328079.0		76165.0
229006.0		271811.0		229006.0		42805.0
130249.0		153683.0		130249.0		23434.0
56913.0		65032.0		56913.0		8119.0
11968.0		13350.0		11968.0		1382.0
5663.0		6064.0		5663.0		401.0
2474.0		2677.0		2474.0		203.0
1319.0		1382.0		1319.0		63.0
1392.0		1474.0		1392.0		82.0
0.80<|#eta|<1.15
124405.0		171975.0		124405.0		47570.0
224738.0		315206.0		224738.0		90468.0
379635.0		524724.0		379635.0		145089.0
497403.0		666298.0		497403.0		168895.0
335556.0		429478.0		335556.0		93922.0
192443.0		244041.0		192443.0		51598.0
84014.0		101765.0		84014.0		17751.0
17231.0		21209.0		17231.0		3978.0
8902.0		9926.0		8902.0		1024.0
3914.0		4296.0		3914.0		382.0
2006.0		2128.0		2006.0		122.0
2173.0		2379.0		2173.0		206.0
1.15<|#eta|<1.37
69017.0		100792.0		69017.0		31775.0
122830.0		172225.0		122830.0		49395.0
197663.0		280205.0		197663.0		82542.0
279705.0		372976.0		279705.0		93271.0
186988.0		239568.0		186988.0		52580.0
110314.0		136699.0		110314.0		26385.0
46764.0		57292.0		46764.0		10528.0
9912.0		11767.0		9912.0		1855.0
4593.0		5411.0		4593.0		818.0
2132.0		2469.0		2132.0		337.0
1079.0		1213.0		1079.0		134.0
1142.0		1314.0		1142.0		172.0
1.52<|#eta|<1.81
92644.0		118965.0		92644.0		26321.0
150363.0		190841.0		150363.0		40478.0
225262.0		288987.0		225262.0		63725.0
289825.0		368565.0		289825.0		78740.0
211508.0		255295.0		211508.0		43787.0
123061.0		147273.0		123061.0		24212.0
51718.0		60984.0		51718.0		9266.0
10310.0		12044.0		10310.0		1734.0
4822.0		5568.0		4822.0		746.0
2102.0		2346.0		2102.0		244.0
1141.0		1220.0		1141.0		79.0
1244.0		1317.0		1244.0		73.0
1.81<|#eta|<2.01
61497.0		77253.0		61497.0		15756.0
98749.0		123961.0		98749.0		25212.0
146328.0		176713.0		146328.0		30385.0
186171.0		220812.0		186171.0		34641.0
121889.0		147443.0		121889.0		25554.0
70238.0		82446.0		70238.0		12208.0
30353.0		34331.0		30353.0		3978.0
5974.0		6972.0		5974.0		998.0
2671.0		3009.0		2671.0		338.0
1110.0		1239.0		1110.0		129.0
544.0		609.0		544.0		65.0
506.0		549.0		506.0		43.0
2.01<|#eta|<2.37
118322.0		138377.0		118322.0		20055.0
187491.0		214201.0		187491.0		26710.0
250838.0		282456.0		250838.0		31618.0
281354.0		324092.0		281354.0		42738.0
185933.0		209451.0		185933.0		23518.0
102070.0		115298.0		102070.0		13228.0
40938.0		47173.0		40938.0		6235.0
8305.0		9469.0		8305.0		1164.0
3651.0		4046.0		3651.0		395.0
1452.0		1609.0		1452.0		157.0
748.0		791.0		748.0		43.0
628.0		698.0		628.0		70.0
