0.00<|#eta|<0.60
286017.0		355753.0		286017.0		69736.0
514617.0		631542.0		514617.0		116925.0
781696.0		968210.0		781696.0		186520.0
1031160.0		1267390.0		1031160.0		236237.0
716911.0		847912.0		716911.0		131001.0
411615.0		480297.0		411615.0		68682.0
179618.0		205827.0		179618.0		26209.0
38031.0		43062.0		38031.0		5031.0
18151.0		19265.0		18151.0		1114.0
7905.0		8522.0		7905.0		617.0
3964.0		4299.0		3964.0		335.0
4317.0		4662.0		4317.0		345.0
0.60<|#eta|<0.80
75411.0		98620.0		75411.0		23209.0
164855.0		203945.0		164855.0		39090.0
263692.0		328245.0		263692.0		64553.0
327312.0		404244.0		327312.0		76932.0
227726.0		271811.0		227726.0		44085.0
130172.0		153683.0		130172.0		23511.0
57026.0		65032.0		57026.0		8006.0
12010.0		13350.0		12010.0		1340.0
5682.0		6064.0		5682.0		382.0
2477.0		2677.0		2477.0		200.0
1312.0		1382.0		1312.0		70.0
1388.0		1474.0		1388.0		86.0
0.80<|#eta|<1.15
127014.0		171975.0		127014.0		44961.0
230117.0		315206.0		230117.0		85089.0
380910.0		524724.0		380910.0		143814.0
497763.0		666298.0		497763.0		168535.0
334119.0		429478.0		334119.0		95359.0
192232.0		244041.0		192232.0		51809.0
84548.0		101765.0		84548.0		17217.0
17509.0		21209.0		17509.0		3700.0
9103.0		9926.0		9103.0		823.0
3984.0		4296.0		3984.0		312.0
1988.0		2128.0		1988.0		140.0
2174.0		2379.0		2174.0		205.0
1.15<|#eta|<1.37
71429.0		100792.0		71429.0		29363.0
127314.0		172225.0		127314.0		44911.0
198999.0		280205.0		198999.0		81206.0
279246.0		372976.0		279246.0		93730.0
187424.0		239568.0		187424.0		52144.0
110664.0		136699.0		110664.0		26035.0
47069.0		57292.0		47069.0		10223.0
10150.0		11767.0		10150.0		1617.0
4754.0		5411.0		4754.0		657.0
2227.0		2469.0		2227.0		242.0
1103.0		1213.0		1103.0		110.0
1187.0		1314.0		1187.0		127.0
1.52<|#eta|<1.81
93456.0		118965.0		93456.0		25509.0
152068.0		190841.0		152068.0		38773.0
227833.0		288987.0		227833.0		61154.0
289721.0		368565.0		289721.0		78844.0
210375.0		255295.0		210375.0		44920.0
123103.0		147273.0		123103.0		24170.0
51949.0		60984.0		51949.0		9035.0
10457.0		12044.0		10457.0		1587.0
4923.0		5568.0		4923.0		645.0
2136.0		2346.0		2136.0		210.0
1136.0		1220.0		1136.0		84.0
1241.0		1317.0		1241.0		76.0
1.81<|#eta|<2.01
61931.0		77253.0		61931.0		15322.0
98770.0		123961.0		98770.0		25191.0
146609.0		176713.0		146609.0		30104.0
185610.0		220812.0		185610.0		35202.0
122184.0		147443.0		122184.0		25259.0
69969.0		82446.0		69969.0		12477.0
30231.0		34331.0		30231.0		4100.0
5964.0		6972.0		5964.0		1008.0
2677.0		3009.0		2677.0		332.0
1112.0		1239.0		1112.0		127.0
536.0		609.0		536.0		73.0
505.0		549.0		505.0		44.0
2.01<|#eta|<2.37
118851.0		138377.0		118851.0		19526.0
187037.0		214201.0		187037.0		27164.0
249946.0		282456.0		249946.0		32510.0
282257.0		324092.0		282257.0		41835.0
186169.0		209451.0		186169.0		23282.0
102322.0		115298.0		102322.0		12976.0
40855.0		47173.0		40855.0		6318.0
8314.0		9469.0		8314.0		1155.0
3645.0		4046.0		3645.0		401.0
1461.0		1609.0		1461.0		148.0
750.0		791.0		750.0		41.0
626.0		698.0		626.0		72.0
