0.00<|#eta|<0.60
284154.0		355753.0		284154.0		71599.0
513925.0		631542.0		513925.0		117617.0
789634.0		968210.0		789634.0		178582.0
1042760.0		1267390.0		1042760.0		224630.0
724241.0		847912.0		724241.0		123671.0
411287.0		480297.0		411287.0		69010.0
179575.0		205827.0		179575.0		26252.0
37802.0		43062.0		37802.0		5260.0
18101.0		19265.0		18101.0		1164.0
7932.0		8522.0		7932.0		590.0
3968.0		4299.0		3968.0		331.0
4302.0		4662.0		4302.0		360.0
0.60<|#eta|<0.80
75045.0		98620.0		75045.0		23575.0
164353.0		203945.0		164353.0		39592.0
262698.0		328245.0		262698.0		65547.0
328745.0		404244.0		328745.0		75499.0
228232.0		271811.0		228232.0		43579.0
130451.0		153683.0		130451.0		23232.0
57058.0		65032.0		57058.0		7974.0
11955.0		13350.0		11955.0		1395.0
5633.0		6064.0		5633.0		431.0
2480.0		2677.0		2480.0		197.0
1308.0		1382.0		1308.0		74.0
1395.0		1474.0		1395.0		79.0
0.80<|#eta|<1.15
124394.0		171975.0		124394.0		47581.0
226351.0		315206.0		226351.0		88855.0
386135.0		524724.0		386135.0		138589.0
510944.0		666298.0		510944.0		155354.0
341535.0		429478.0		341535.0		87943.0
192378.0		244041.0		192378.0		51663.0
83920.0		101765.0		83920.0		17845.0
17293.0		21209.0		17293.0		3916.0
8900.0		9926.0		8900.0		1026.0
3905.0		4296.0		3905.0		391.0
1984.0		2128.0		1984.0		144.0
2177.0		2379.0		2177.0		202.0
1.15<|#eta|<1.37
68955.0		100792.0		68955.0		31837.0
122118.0		172225.0		122118.0		50107.0
203233.0		280205.0		203233.0		76972.0
292925.0		372976.0		292925.0		80051.0
194888.0		239568.0		194888.0		44680.0
111197.0		136699.0		111197.0		25502.0
46860.0		57292.0		46860.0		10432.0
9853.0		11767.0		9853.0		1914.0
4647.0		5411.0		4647.0		764.0
2155.0		2469.0		2155.0		314.0
1084.0		1213.0		1084.0		129.0
1145.0		1314.0		1145.0		169.0
1.52<|#eta|<1.81
92661.0		118965.0		92661.0		26304.0
150132.0		190841.0		150132.0		40709.0
228830.0		288987.0		228830.0		60157.0
296439.0		368565.0		296439.0		72126.0
214088.0		255295.0		214088.0		41207.0
124161.0		147273.0		124161.0		23112.0
51547.0		60984.0		51547.0		9437.0
10301.0		12044.0		10301.0		1743.0
4829.0		5568.0		4829.0		739.0
2100.0		2346.0		2100.0		246.0
1149.0		1220.0		1149.0		71.0
1246.0		1317.0		1246.0		71.0
1.81<|#eta|<2.01
61819.0		77253.0		61819.0		15434.0
99099.0		123961.0		99099.0		24862.0
145573.0		176713.0		145573.0		31140.0
186281.0		220812.0		186281.0		34531.0
122653.0		147443.0		122653.0		24790.0
70520.0		82446.0		70520.0		11926.0
30323.0		34331.0		30323.0		4008.0
5960.0		6972.0		5960.0		1012.0
2658.0		3009.0		2658.0		351.0
1103.0		1239.0		1103.0		136.0
537.0		609.0		537.0		72.0
500.0		549.0		500.0		49.0
2.01<|#eta|<2.37
119033.0		138377.0		119033.0		19344.0
187096.0		214201.0		187096.0		27105.0
249311.0		282456.0		249311.0		33145.0
282025.0		324092.0		282025.0		42067.0
185972.0		209451.0		185972.0		23479.0
102300.0		115298.0		102300.0		12998.0
40937.0		47173.0		40937.0		6236.0
8319.0		9469.0		8319.0		1150.0
3620.0		4046.0		3620.0		426.0
1455.0		1609.0		1455.0		154.0
751.0		791.0		751.0		40.0
631.0		698.0		631.0		67.0
