0.00<|#eta|<0.60
283214.0		355753.0		283214.0		72539.0
510010.0		631542.0		510010.0		121532.0
789338.0		968210.0		789338.0		178878.0
1043290.0		1267390.0		1043290.0		224100.0
722921.0		847912.0		722921.0		124991.0
412494.0		480297.0		412494.0		67803.0
179688.0		205827.0		179688.0		26139.0
38037.0		43062.0		38037.0		5025.0
18153.0		19265.0		18153.0		1112.0
7943.0		8522.0		7943.0		579.0
3982.0		4299.0		3982.0		317.0
4284.0		4662.0		4284.0		378.0
0.60<|#eta|<0.80
75291.0		98620.0		75291.0		23329.0
163565.0		203945.0		163565.0		40380.0
262647.0		328245.0		262647.0		65598.0
328759.0		404244.0		328759.0		75485.0
228167.0		271811.0		228167.0		43644.0
130642.0		153683.0		130642.0		23041.0
57083.0		65032.0		57083.0		7949.0
11997.0		13350.0		11997.0		1353.0
5686.0		6064.0		5686.0		378.0
2476.0		2677.0		2476.0		201.0
1323.0		1382.0		1323.0		59.0
1402.0		1474.0		1402.0		72.0
0.80<|#eta|<1.15
124969.0		171975.0		124969.0		47006.0
227165.0		315206.0		227165.0		88041.0
386886.0		524724.0		386886.0		137838.0
511825.0		666298.0		511825.0		154473.0
341571.0		429478.0		341571.0		87907.0
193126.0		244041.0		193126.0		50915.0
84513.0		101765.0		84513.0		17252.0
17509.0		21209.0		17509.0		3700.0
9085.0		9926.0		9085.0		841.0
3974.0		4296.0		3974.0		322.0
1981.0		2128.0		1981.0		147.0
2176.0		2379.0		2176.0		203.0
1.15<|#eta|<1.37
69017.0		100792.0		69017.0		31775.0
122375.0		172225.0		122375.0		49850.0
204333.0		280205.0		204333.0		75872.0
293772.0		372976.0		293772.0		79204.0
195356.0		239568.0		195356.0		44212.0
111103.0		136699.0		111103.0		25596.0
47051.0		57292.0		47051.0		10241.0
10086.0		11767.0		10086.0		1681.0
4781.0		5411.0		4781.0		630.0
2201.0		2469.0		2201.0		268.0
1089.0		1213.0		1089.0		124.0
1147.0		1314.0		1147.0		167.0
1.52<|#eta|<1.81
92992.0		118965.0		92992.0		25973.0
150084.0		190841.0		150084.0		40757.0
229058.0		288987.0		229058.0		59929.0
296315.0		368565.0		296315.0		72250.0
214297.0		255295.0		214297.0		40998.0
124094.0		147273.0		124094.0		23179.0
51898.0		60984.0		51898.0		9086.0
10520.0		12044.0		10520.0		1524.0
4934.0		5568.0		4934.0		634.0
2126.0		2346.0		2126.0		220.0
1144.0		1220.0		1144.0		76.0
1248.0		1317.0		1248.0		69.0
1.81<|#eta|<2.01
60999.0		77253.0		60999.0		16254.0
98245.0		123961.0		98245.0		25716.0
145713.0		176713.0		145713.0		31000.0
186843.0		220812.0		186843.0		33969.0
122572.0		147443.0		122572.0		24871.0
70382.0		82446.0		70382.0		12064.0
30103.0		34331.0		30103.0		4228.0
5934.0		6972.0		5934.0		1038.0
2663.0		3009.0		2663.0		346.0
1096.0		1239.0		1096.0		143.0
551.0		609.0		551.0		58.0
505.0		549.0		505.0		44.0
2.01<|#eta|<2.37
119414.0		138377.0		119414.0		18963.0
186614.0		214201.0		186614.0		27587.0
249929.0		282456.0		249929.0		32527.0
281635.0		324092.0		281635.0		42457.0
186101.0		209451.0		186101.0		23350.0
101894.0		115298.0		101894.0		13404.0
40869.0		47173.0		40869.0		6304.0
8349.0		9469.0		8349.0		1120.0
3628.0		4046.0		3628.0		418.0
1464.0		1609.0		1464.0		145.0
754.0		791.0		754.0		37.0
620.0		698.0		620.0		78.0
