0.00<|#eta|<0.60
282876.0		355753.0		282876.0		72877.0
509061.0		631542.0		509061.0		122481.0
777857.0		968210.0		777857.0		190359.0
1027330.0		1267390.0		1027330.0		240063.0
715429.0		847912.0		715429.0		132483.0
413681.0		480297.0		413681.0		66616.0
179982.0		205827.0		179982.0		25845.0
37819.0		43062.0		37819.0		5243.0
18107.0		19265.0		18107.0		1158.0
7902.0		8522.0		7902.0		620.0
3937.0		4299.0		3937.0		362.0
4302.0		4662.0		4302.0		360.0
0.60<|#eta|<0.80
75603.0		98620.0		75603.0		23017.0
162602.0		203945.0		162602.0		41343.0
262929.0		328245.0		262929.0		65316.0
327426.0		404244.0		327426.0		76818.0
227947.0		271811.0		227947.0		43864.0
130109.0		153683.0		130109.0		23574.0
56997.0		65032.0		56997.0		8035.0
12019.0		13350.0		12019.0		1331.0
5682.0		6064.0		5682.0		382.0
2483.0		2677.0		2483.0		194.0
1318.0		1382.0		1318.0		64.0
1390.0		1474.0		1390.0		84.0
0.80<|#eta|<1.15
124359.0		171975.0		124359.0		47616.0
225486.0		315206.0		225486.0		89720.0
375051.0		524724.0		375051.0		149673.0
493271.0		666298.0		493271.0		173027.0
330564.0		429478.0		330564.0		98914.0
195503.0		244041.0		195503.0		48538.0
85119.0		101765.0		85119.0		16646.0
17243.0		21209.0		17243.0		3966.0
8894.0		9926.0		8894.0		1032.0
3929.0		4296.0		3929.0		367.0
1969.0		2128.0		1969.0		159.0
2193.0		2379.0		2193.0		186.0
1.15<|#eta|<1.37
69548.0		100792.0		69548.0		31244.0
122864.0		172225.0		122864.0		49361.0
194377.0		280205.0		194377.0		85828.0
273419.0		372976.0		273419.0		99557.0
184928.0		239568.0		184928.0		54640.0
112894.0		136699.0		112894.0		23805.0
47510.0		57292.0		47510.0		9782.0
9856.0		11767.0		9856.0		1911.0
4574.0		5411.0		4574.0		837.0
2131.0		2469.0		2131.0		338.0
1087.0		1213.0		1087.0		126.0
1133.0		1314.0		1133.0		181.0
1.52<|#eta|<1.81
93077.0		118965.0		93077.0		25888.0
149663.0		190841.0		149663.0		41178.0
225297.0		288987.0		225297.0		63690.0
288233.0		368565.0		288233.0		80332.0
209229.0		255295.0		209229.0		46066.0
124374.0		147273.0		124374.0		22899.0
52179.0		60984.0		52179.0		8805.0
10291.0		12044.0		10291.0		1753.0
4817.0		5568.0		4817.0		751.0
2103.0		2346.0		2103.0		243.0
1144.0		1220.0		1144.0		76.0
1241.0		1317.0		1241.0		76.0
1.81<|#eta|<2.01
61498.0		77253.0		61498.0		15755.0
98978.0		123961.0		98978.0		24983.0
146561.0		176713.0		146561.0		30152.0
185553.0		220812.0		185553.0		35259.0
122725.0		147443.0		122725.0		24718.0
70369.0		82446.0		70369.0		12077.0
30198.0		34331.0		30198.0		4133.0
5945.0		6972.0		5945.0		1027.0
2684.0		3009.0		2684.0		325.0
1117.0		1239.0		1117.0		122.0
545.0		609.0		545.0		64.0
502.0		549.0		502.0		47.0
2.01<|#eta|<2.37
118841.0		138377.0		118841.0		19536.0
186533.0		214201.0		186533.0		27668.0
249991.0		282456.0		249991.0		32465.0
281505.0		324092.0		281505.0		42587.0
186265.0		209451.0		186265.0		23186.0
102099.0		115298.0		102099.0		13199.0
40854.0		47173.0		40854.0		6319.0
8331.0		9469.0		8331.0		1138.0
3630.0		4046.0		3630.0		416.0
1454.0		1609.0		1454.0		155.0
743.0		791.0		743.0		48.0
626.0		698.0		626.0		72.0
