0.00<|#eta|<0.60
283696.0		355753.0		283696.0		72057.0
510603.0		631542.0		510603.0		120939.0
785802.0		968210.0		785802.0		182414.0
1040080.0		1267390.0		1040080.0		227316.0
721083.0		847912.0		721083.0		126829.0
413695.0		480297.0		413695.0		66602.0
180296.0		205827.0		180296.0		25531.0
37888.0		43062.0		37888.0		5174.0
18118.0		19265.0		18118.0		1147.0
7915.0		8522.0		7915.0		607.0
3939.0		4299.0		3939.0		360.0
4322.0		4662.0		4322.0		340.0
0.60<|#eta|<0.80
75340.0		98620.0		75340.0		23280.0
162756.0		203945.0		162756.0		41189.0
262871.0		328245.0		262871.0		65374.0
328656.0		404244.0		328656.0		75588.0
228282.0		271811.0		228282.0		43529.0
130147.0		153683.0		130147.0		23536.0
57218.0		65032.0		57218.0		7814.0
11997.0		13350.0		11997.0		1353.0
5689.0		6064.0		5689.0		375.0
2479.0		2677.0		2479.0		198.0
1322.0		1382.0		1322.0		60.0
1398.0		1474.0		1398.0		76.0
0.80<|#eta|<1.15
124274.0		171975.0		124274.0		47701.0
227509.0		315206.0		227509.0		87697.0
381476.0		524724.0		381476.0		143248.0
504600.0		666298.0		504600.0		161698.0
337841.0		429478.0		337841.0		91637.0
195836.0		244041.0		195836.0		48205.0
85070.0		101765.0		85070.0		16695.0
17163.0		21209.0		17163.0		4046.0
8900.0		9926.0		8900.0		1026.0
3916.0		4296.0		3916.0		380.0
1992.0		2128.0		1992.0		136.0
2177.0		2379.0		2177.0		202.0
1.15<|#eta|<1.37
69176.0		100792.0		69176.0		31616.0
123184.0		172225.0		123184.0		49041.0
199071.0		280205.0		199071.0		81134.0
286674.0		372976.0		286674.0		86302.0
191885.0		239568.0		191885.0		47683.0
112957.0		136699.0		112957.0		23742.0
47498.0		57292.0		47498.0		9794.0
9886.0		11767.0		9886.0		1881.0
4609.0		5411.0		4609.0		802.0
2167.0		2469.0		2167.0		302.0
1096.0		1213.0		1096.0		117.0
1132.0		1314.0		1132.0		182.0
1.52<|#eta|<1.81
92775.0		118965.0		92775.0		26190.0
149323.0		190841.0		149323.0		41518.0
226569.0		288987.0		226569.0		62418.0
293685.0		368565.0		293685.0		74880.0
212773.0		255295.0		212773.0		42522.0
124717.0		147273.0		124717.0		22556.0
52062.0		60984.0		52062.0		8922.0
10285.0		12044.0		10285.0		1759.0
4828.0		5568.0		4828.0		740.0
2126.0		2346.0		2126.0		220.0
1137.0		1220.0		1137.0		83.0
1246.0		1317.0		1246.0		71.0
1.81<|#eta|<2.01
62185.0		77253.0		62185.0		15068.0
98487.0		123961.0		98487.0		25474.0
145972.0		176713.0		145972.0		30741.0
185710.0		220812.0		185710.0		35102.0
121946.0		147443.0		121946.0		25497.0
70161.0		82446.0		70161.0		12285.0
30247.0		34331.0		30247.0		4084.0
5940.0		6972.0		5940.0		1032.0
2660.0		3009.0		2660.0		349.0
1108.0		1239.0		1108.0		131.0
534.0		609.0		534.0		75.0
502.0		549.0		502.0		47.0
2.01<|#eta|<2.37
118921.0		138377.0		118921.0		19456.0
187176.0		214201.0		187176.0		27025.0
250446.0		282456.0		250446.0		32010.0
281840.0		324092.0		281840.0		42252.0
186290.0		209451.0		186290.0		23161.0
102079.0		115298.0		102079.0		13219.0
41019.0		47173.0		41019.0		6154.0
8333.0		9469.0		8333.0		1136.0
3642.0		4046.0		3642.0		404.0
1459.0		1609.0		1459.0		150.0
746.0		791.0		746.0		45.0
627.0		698.0		627.0		71.0
