0.00<|#eta|<0.60
284098.0		355753.0		284098.0		71655.0
511281.0		631542.0		511281.0		120261.0
782544.0		968210.0		782544.0		185672.0
1032390.0		1267390.0		1032390.0		235004.0
717431.0		847912.0		717431.0		130481.0
411574.0		480297.0		411574.0		68723.0
179642.0		205827.0		179642.0		26185.0
37874.0		43062.0		37874.0		5188.0
18157.0		19265.0		18157.0		1108.0
7959.0		8522.0		7959.0		563.0
3992.0		4299.0		3992.0		307.0
4319.0		4662.0		4319.0		343.0
0.60<|#eta|<0.80
75469.0		98620.0		75469.0		23151.0
164549.0		203945.0		164549.0		39396.0
262446.0		328245.0		262446.0		65799.0
327756.0		404244.0		327756.0		76488.0
228656.0		271811.0		228656.0		43155.0
130450.0		153683.0		130450.0		23233.0
57000.0		65032.0		57000.0		8032.0
11983.0		13350.0		11983.0		1367.0
5684.0		6064.0		5684.0		380.0
2478.0		2677.0		2478.0		199.0
1320.0		1382.0		1320.0		62.0
1398.0		1474.0		1398.0		76.0
0.80<|#eta|<1.15
124062.0		171975.0		124062.0		47913.0
226120.0		315206.0		226120.0		89086.0
377105.0		524724.0		377105.0		147619.0
496640.0		666298.0		496640.0		169658.0
334466.0		429478.0		334466.0		95012.0
192267.0		244041.0		192267.0		51774.0
84586.0		101765.0		84586.0		17179.0
17527.0		21209.0		17527.0		3682.0
9040.0		9926.0		9040.0		886.0
3954.0		4296.0		3954.0		342.0
1975.0		2128.0		1975.0		153.0
2165.0		2379.0		2165.0		214.0
1.15<|#eta|<1.37
68990.0		100792.0		68990.0		31802.0
122341.0		172225.0		122341.0		49884.0
197064.0		280205.0		197064.0		83141.0
279369.0		372976.0		279369.0		93607.0
187890.0		239568.0		187890.0		51678.0
110682.0		136699.0		110682.0		26017.0
46970.0		57292.0		46970.0		10322.0
10097.0		11767.0		10097.0		1670.0
4755.0		5411.0		4755.0		656.0
2183.0		2469.0		2183.0		286.0
1091.0		1213.0		1091.0		122.0
1150.0		1314.0		1150.0		164.0
1.52<|#eta|<1.81
92649.0		118965.0		92649.0		26316.0
149681.0		190841.0		149681.0		41160.0
226082.0		288987.0		226082.0		62905.0
290208.0		368565.0		290208.0		78357.0
211113.0		255295.0		211113.0		44182.0
123493.0		147273.0		123493.0		23780.0
51893.0		60984.0		51893.0		9091.0
10491.0		12044.0		10491.0		1553.0
4918.0		5568.0		4918.0		650.0
2127.0		2346.0		2127.0		219.0
1140.0		1220.0		1140.0		80.0
1244.0		1317.0		1244.0		73.0
1.81<|#eta|<2.01
62028.0		77253.0		62028.0		15225.0
98905.0		123961.0		98905.0		25056.0
146735.0		176713.0		146735.0		29978.0
186374.0		220812.0		186374.0		34438.0
122076.0		147443.0		122076.0		25367.0
70393.0		82446.0		70393.0		12053.0
30131.0		34331.0		30131.0		4200.0
5925.0		6972.0		5925.0		1047.0
2670.0		3009.0		2670.0		339.0
1119.0		1239.0		1119.0		120.0
545.0		609.0		545.0		64.0
508.0		549.0		508.0		41.0
2.01<|#eta|<2.37
118175.0		138377.0		118175.0		20202.0
186935.0		214201.0		186935.0		27266.0
251242.0		282456.0		251242.0		31214.0
282325.0		324092.0		282325.0		41767.0
185985.0		209451.0		185985.0		23466.0
102106.0		115298.0		102106.0		13192.0
40931.0		47173.0		40931.0		6242.0
8325.0		9469.0		8325.0		1144.0
3620.0		4046.0		3620.0		426.0
1454.0		1609.0		1454.0		155.0
742.0		791.0		742.0		49.0
629.0		698.0		629.0		69.0
