0.00<|#eta|<0.60
287448.0		355753.0		287448.0		68305.0
518167.0		631542.0		518167.0		113375.0
784682.0		968210.0		784682.0		183534.0
1033760.0		1267390.0		1033760.0		233624.0
719025.0		847912.0		719025.0		128887.0
411479.0		480297.0		411479.0		68818.0
179830.0		205827.0		179830.0		25997.0
38095.0		43062.0		38095.0		4967.0
18117.0		19265.0		18117.0		1148.0
7956.0		8522.0		7956.0		566.0
3958.0		4299.0		3958.0		341.0
4331.0		4662.0		4331.0		331.0
0.60<|#eta|<0.80
75698.0		98620.0		75698.0		22922.0
164287.0		203945.0		164287.0		39658.0
262926.0		328245.0		262926.0		65319.0
327755.0		404244.0		327755.0		76489.0
228068.0		271811.0		228068.0		43743.0
130231.0		153683.0		130231.0		23452.0
57075.0		65032.0		57075.0		7957.0
11969.0		13350.0		11969.0		1381.0
5663.0		6064.0		5663.0		401.0
2478.0		2677.0		2478.0		199.0
1324.0		1382.0		1324.0		58.0
1407.0		1474.0		1407.0		67.0
0.80<|#eta|<1.15
128238.0		171975.0		128238.0		43737.0
231605.0		315206.0		231605.0		83601.0
381334.0		524724.0		381334.0		143390.0
497701.0		666298.0		497701.0		168597.0
333752.0		429478.0		333752.0		95726.0
192180.0		244041.0		192180.0		51861.0
84527.0		101765.0		84527.0		17238.0
17366.0		21209.0		17366.0		3843.0
9028.0		9926.0		9028.0		898.0
3970.0		4296.0		3970.0		326.0
1986.0		2128.0		1986.0		142.0
2183.0		2379.0		2183.0		196.0
1.15<|#eta|<1.37
73326.0		100792.0		73326.0		27466.0
128986.0		172225.0		128986.0		43239.0
199543.0		280205.0		199543.0		80662.0
279629.0		372976.0		279629.0		93347.0
187446.0		239568.0		187446.0		52122.0
110319.0		136699.0		110319.0		26380.0
46919.0		57292.0		46919.0		10373.0
10036.0		11767.0		10036.0		1731.0
4727.0		5411.0		4727.0		684.0
2204.0		2469.0		2204.0		265.0
1098.0		1213.0		1098.0		115.0
1175.0		1314.0		1175.0		139.0
1.52<|#eta|<1.81
94811.0		118965.0		94811.0		24154.0
151516.0		190841.0		151516.0		39325.0
227747.0		288987.0		227747.0		61240.0
291168.0		368565.0		291168.0		77397.0
211423.0		255295.0		211423.0		43872.0
123129.0		147273.0		123129.0		24144.0
51870.0		60984.0		51870.0		9114.0
10403.0		12044.0		10403.0		1641.0
4903.0		5568.0		4903.0		665.0
2136.0		2346.0		2136.0		210.0
1142.0		1220.0		1142.0		78.0
1244.0		1317.0		1244.0		73.0
1.81<|#eta|<2.01
61924.0		77253.0		61924.0		15329.0
99315.0		123961.0		99315.0		24646.0
146448.0		176713.0		146448.0		30265.0
185981.0		220812.0		185981.0		34831.0
121688.0		147443.0		121688.0		25755.0
70236.0		82446.0		70236.0		12210.0
30263.0		34331.0		30263.0		4068.0
5989.0		6972.0		5989.0		983.0
2682.0		3009.0		2682.0		327.0
1109.0		1239.0		1109.0		130.0
545.0		609.0		545.0		64.0
505.0		549.0		505.0		44.0
2.01<|#eta|<2.37
118728.0		138377.0		118728.0		19649.0
186290.0		214201.0		186290.0		27911.0
250008.0		282456.0		250008.0		32448.0
281954.0		324092.0		281954.0		42138.0
185601.0		209451.0		185601.0		23850.0
101867.0		115298.0		101867.0		13431.0
40970.0		47173.0		40970.0		6203.0
8341.0		9469.0		8341.0		1128.0
3630.0		4046.0		3630.0		416.0
1455.0		1609.0		1455.0		154.0
752.0		791.0		752.0		39.0
630.0		698.0		630.0		68.0
