0.00<|#eta|<0.60
283309.0		355753.0		283309.0		72444.0
509461.0		631542.0		509461.0		122081.0
785020.0		968210.0		785020.0		183196.0
1038360.0		1267390.0		1038360.0		229036.0
721022.0		847912.0		721022.0		126890.0
411846.0		480297.0		411846.0		68451.0
179683.0		205827.0		179683.0		26144.0
37905.0		43062.0		37905.0		5157.0
18124.0		19265.0		18124.0		1141.0
7924.0		8522.0		7924.0		598.0
3979.0		4299.0		3979.0		320.0
4309.0		4662.0		4309.0		353.0
0.60<|#eta|<0.80
75466.0		98620.0		75466.0		23154.0
163845.0		203945.0		163845.0		40100.0
262145.0		328245.0		262145.0		66100.0
327902.0		404244.0		327902.0		76342.0
228293.0		271811.0		228293.0		43518.0
130219.0		153683.0		130219.0		23464.0
56939.0		65032.0		56939.0		8093.0
11954.0		13350.0		11954.0		1396.0
5651.0		6064.0		5651.0		413.0
2483.0		2677.0		2483.0		194.0
1318.0		1382.0		1318.0		64.0
1393.0		1474.0		1393.0		81.0
0.80<|#eta|<1.15
124716.0		171975.0		124716.0		47259.0
225878.0		315206.0		225878.0		89328.0
383589.0		524724.0		383589.0		141135.0
505564.0		666298.0		505564.0		160734.0
338136.0		429478.0		338136.0		91342.0
192477.0		244041.0		192477.0		51564.0
83874.0		101765.0		83874.0		17891.0
17167.0		21209.0		17167.0		4042.0
8890.0		9926.0		8890.0		1036.0
3921.0		4296.0		3921.0		375.0
1976.0		2128.0		1976.0		152.0
2190.0		2379.0		2190.0		189.0
1.15<|#eta|<1.37
69301.0		100792.0		69301.0		31491.0
123023.0		172225.0		123023.0		49202.0
201759.0		280205.0		201759.0		78446.0
286390.0		372976.0		286390.0		86586.0
190869.0		239568.0		190869.0		48699.0
110598.0		136699.0		110598.0		26101.0
46920.0		57292.0		46920.0		10372.0
9910.0		11767.0		9910.0		1857.0
4610.0		5411.0		4610.0		801.0
2155.0		2469.0		2155.0		314.0
1090.0		1213.0		1090.0		123.0
1140.0		1314.0		1140.0		174.0
1.52<|#eta|<1.81
92296.0		118965.0		92296.0		26669.0
149331.0		190841.0		149331.0		41510.0
228410.0		288987.0		228410.0		60577.0
294343.0		368565.0		294343.0		74222.0
212267.0		255295.0		212267.0		43028.0
123934.0		147273.0		123934.0		23339.0
51881.0		60984.0		51881.0		9103.0
10282.0		12044.0		10282.0		1762.0
4836.0		5568.0		4836.0		732.0
2078.0		2346.0		2078.0		268.0
1147.0		1220.0		1147.0		73.0
1236.0		1317.0		1236.0		81.0
1.81<|#eta|<2.01
61823.0		77253.0		61823.0		15430.0
98511.0		123961.0		98511.0		25450.0
146248.0		176713.0		146248.0		30465.0
186113.0		220812.0		186113.0		34699.0
122218.0		147443.0		122218.0		25225.0
70270.0		82446.0		70270.0		12176.0
30294.0		34331.0		30294.0		4037.0
5937.0		6972.0		5937.0		1035.0
2710.0		3009.0		2710.0		299.0
1105.0		1239.0		1105.0		134.0
543.0		609.0		543.0		66.0
497.0		549.0		497.0		52.0
2.01<|#eta|<2.37
118914.0		138377.0		118914.0		19463.0
186531.0		214201.0		186531.0		27670.0
249674.0		282456.0		249674.0		32782.0
281088.0		324092.0		281088.0		43004.0
186203.0		209451.0		186203.0		23248.0
102243.0		115298.0		102243.0		13055.0
40933.0		47173.0		40933.0		6240.0
8378.0		9469.0		8378.0		1091.0
3634.0		4046.0		3634.0		412.0
1456.0		1609.0		1456.0		153.0
751.0		791.0		751.0		40.0
624.0		698.0		624.0		74.0
