0.00<|#eta|<0.60
284461.0		355753.0		284461.0		71292.0
511765.0		631542.0		511765.0		119777.0
788912.0		968210.0		788912.0		179304.0
1043760.0		1267390.0		1043760.0		223631.0
724840.0		847912.0		724840.0		123072.0
415991.0		480297.0		415991.0		64306.0
180733.0		205827.0		180733.0		25094.0
37923.0		43062.0		37923.0		5139.0
18100.0		19265.0		18100.0		1165.0
7921.0		8522.0		7921.0		601.0
3967.0		4299.0		3967.0		332.0
4279.0		4662.0		4279.0		383.0
0.60<|#eta|<0.80
75295.0		98620.0		75295.0		23325.0
163958.0		203945.0		163958.0		39987.0
263056.0		328245.0		263056.0		65189.0
328174.0		404244.0		328174.0		76070.0
228594.0		271811.0		228594.0		43217.0
130427.0		153683.0		130427.0		23256.0
57142.0		65032.0		57142.0		7890.0
11976.0		13350.0		11976.0		1374.0
5657.0		6064.0		5657.0		407.0
2481.0		2677.0		2481.0		196.0
1320.0		1382.0		1320.0		62.0
1390.0		1474.0		1390.0		84.0
0.80<|#eta|<1.15
124082.0		171975.0		124082.0		47893.0
225540.0		315206.0		225540.0		89666.0
385532.0		524724.0		385532.0		139192.0
510741.0		666298.0		510741.0		155557.0
342533.0		429478.0		342533.0		86945.0
200572.0		244041.0		200572.0		43469.0
86314.0		101765.0		86314.0		15451.0
17195.0		21209.0		17195.0		4014.0
8916.0		9926.0		8916.0		1010.0
3911.0		4296.0		3911.0		385.0
1977.0		2128.0		1977.0		151.0
2185.0		2379.0		2185.0		194.0
1.15<|#eta|<1.37
69243.0		100792.0		69243.0		31549.0
122937.0		172225.0		122937.0		49288.0
205112.0		280205.0		205112.0		75093.0
294410.0		372976.0		294410.0		78566.0
196078.0		239568.0		196078.0		43490.0
117320.0		136699.0		117320.0		19379.0
48479.0		57292.0		48479.0		8813.0
9861.0		11767.0		9861.0		1906.0
4607.0		5411.0		4607.0		804.0
2164.0		2469.0		2164.0		305.0
1084.0		1213.0		1084.0		129.0
1140.0		1314.0		1140.0		174.0
1.52<|#eta|<1.81
92720.0		118965.0		92720.0		26245.0
150176.0		190841.0		150176.0		40665.0
227778.0		288987.0		227778.0		61209.0
297762.0		368565.0		297762.0		70803.0
215933.0		255295.0		215933.0		39362.0
127611.0		147273.0		127611.0		19662.0
52790.0		60984.0		52790.0		8194.0
10304.0		12044.0		10304.0		1740.0
4835.0		5568.0		4835.0		733.0
2134.0		2346.0		2134.0		212.0
1140.0		1220.0		1140.0		80.0
1246.0		1317.0		1246.0		71.0
1.81<|#eta|<2.01
62329.0		77253.0		62329.0		14924.0
98633.0		123961.0		98633.0		25328.0
145155.0		176713.0		145155.0		31558.0
186659.0		220812.0		186659.0		34153.0
122272.0		147443.0		122272.0		25171.0
70029.0		82446.0		70029.0		12417.0
30301.0		34331.0		30301.0		4030.0
5963.0		6972.0		5963.0		1009.0
2661.0		3009.0		2661.0		348.0
1109.0		1239.0		1109.0		130.0
542.0		609.0		542.0		67.0
501.0		549.0		501.0		48.0
2.01<|#eta|<2.37
119213.0		138377.0		119213.0		19164.0
187137.0		214201.0		187137.0		27064.0
250286.0		282456.0		250286.0		32170.0
281615.0		324092.0		281615.0		42477.0
186120.0		209451.0		186120.0		23331.0
102357.0		115298.0		102357.0		12941.0
40747.0		47173.0		40747.0		6426.0
8359.0		9469.0		8359.0		1110.0
3638.0		4046.0		3638.0		408.0
1447.0		1609.0		1447.0		162.0
751.0		791.0		751.0		40.0
624.0		698.0		624.0		74.0
