0.00<|#eta|<0.60
286596.0		355753.0		286596.0		69157.0
515796.0		631542.0		515796.0		115746.0
782425.0		968210.0		782425.0		185791.0
1028380.0		1267390.0		1028380.0		239028.0
716086.0		847912.0		716086.0		131826.0
415057.0		480297.0		415057.0		65240.0
180786.0		205827.0		180786.0		25041.0
38041.0		43062.0		38041.0		5021.0
18168.0		19265.0		18168.0		1097.0
7980.0		8522.0		7980.0		542.0
3970.0		4299.0		3970.0		329.0
4311.0		4662.0		4311.0		351.0
0.60<|#eta|<0.80
75832.0		98620.0		75832.0		22788.0
163621.0		203945.0		163621.0		40324.0
263159.0		328245.0		263159.0		65086.0
326638.0		404244.0		326638.0		77606.0
228157.0		271811.0		228157.0		43654.0
130144.0		153683.0		130144.0		23539.0
57106.0		65032.0		57106.0		7926.0
12012.0		13350.0		12012.0		1338.0
5677.0		6064.0		5677.0		387.0
2478.0		2677.0		2478.0		199.0
1327.0		1382.0		1327.0		55.0
1411.0		1474.0		1411.0		63.0
0.80<|#eta|<1.15
128304.0		171975.0		128304.0		43671.0
230877.0		315206.0		230877.0		84329.0
377107.0		524724.0		377107.0		147617.0
493609.0		666298.0		493609.0		172689.0
331893.0		429478.0		331893.0		97585.0
199293.0		244041.0		199293.0		44748.0
86668.0		101765.0		86668.0		15097.0
17400.0		21209.0		17400.0		3809.0
8987.0		9926.0		8987.0		939.0
3970.0		4296.0		3970.0		326.0
1999.0		2128.0		1999.0		129.0
2186.0		2379.0		2186.0		193.0
1.15<|#eta|<1.37
73262.0		100792.0		73262.0		27530.0
128298.0		172225.0		128298.0		43927.0
195870.0		280205.0		195870.0		84335.0
274410.0		372976.0		274410.0		98566.0
186697.0		239568.0		186697.0		52871.0
115804.0		136699.0		115804.0		20895.0
48506.0		57292.0		48506.0		8786.0
10079.0		11767.0		10079.0		1688.0
4715.0		5411.0		4715.0		696.0
2196.0		2469.0		2196.0		273.0
1099.0		1213.0		1099.0		114.0
1154.0		1314.0		1154.0		160.0
1.52<|#eta|<1.81
93949.0		118965.0		93949.0		25016.0
152034.0		190841.0		152034.0		38807.0
226631.0		288987.0		226631.0		62356.0
289291.0		368565.0		289291.0		79274.0
209847.0		255295.0		209847.0		45448.0
126012.0		147273.0		126012.0		21261.0
53208.0		60984.0		53208.0		7776.0
10447.0		12044.0		10447.0		1597.0
4894.0		5568.0		4894.0		674.0
2151.0		2346.0		2151.0		195.0
1144.0		1220.0		1144.0		76.0
1244.0		1317.0		1244.0		73.0
1.81<|#eta|<2.01
62148.0		77253.0		62148.0		15105.0
99381.0		123961.0		99381.0		24580.0
146886.0		176713.0		146886.0		29827.0
186552.0		220812.0		186552.0		34260.0
121768.0		147443.0		121768.0		25675.0
69975.0		82446.0		69975.0		12471.0
30244.0		34331.0		30244.0		4087.0
5939.0		6972.0		5939.0		1033.0
2674.0		3009.0		2674.0		335.0
1102.0		1239.0		1102.0		137.0
543.0		609.0		543.0		66.0
502.0		549.0		502.0		47.0
2.01<|#eta|<2.37
118793.0		138377.0		118793.0		19584.0
187588.0		214201.0		187588.0		26613.0
249362.0		282456.0		249362.0		33094.0
281833.0		324092.0		281833.0		42259.0
185792.0		209451.0		185792.0		23659.0
102001.0		115298.0		102001.0		13297.0
40933.0		47173.0		40933.0		6240.0
8343.0		9469.0		8343.0		1126.0
3637.0		4046.0		3637.0		409.0
1463.0		1609.0		1463.0		146.0
743.0		791.0		743.0		48.0
621.0		698.0		621.0		77.0
