0.00<|#eta|<0.60
286004.0		355753.0		286004.0		69749.0
515643.0		631542.0		515643.0		115899.0
782216.0		968210.0		782216.0		186000.0
1030870.0		1267390.0		1030870.0		236522.0
718224.0		847912.0		718224.0		129688.0
411376.0		480297.0		411376.0		68921.0
179840.0		205827.0		179840.0		25987.0
37963.0		43062.0		37963.0		5099.0
18136.0		19265.0		18136.0		1129.0
7952.0		8522.0		7952.0		570.0
3982.0		4299.0		3982.0		317.0
4324.0		4662.0		4324.0		338.0
0.60<|#eta|<0.80
75941.0		98620.0		75941.0		22679.0
164335.0		203945.0		164335.0		39610.0
261719.0		328245.0		261719.0		66526.0
327461.0		404244.0		327461.0		76783.0
228131.0		271811.0		228131.0		43680.0
130082.0		153683.0		130082.0		23601.0
57085.0		65032.0		57085.0		7947.0
11999.0		13350.0		11999.0		1351.0
5693.0		6064.0		5693.0		371.0
2480.0		2677.0		2480.0		197.0
1321.0		1382.0		1321.0		61.0
1400.0		1474.0		1400.0		74.0
0.80<|#eta|<1.15
127687.0		171975.0		127687.0		44288.0
229440.0		315206.0		229440.0		85766.0
381628.0		524724.0		381628.0		143096.0
497613.0		666298.0		497613.0		168685.0
335077.0		429478.0		335077.0		94401.0
192419.0		244041.0		192419.0		51622.0
84491.0		101765.0		84491.0		17274.0
17507.0		21209.0		17507.0		3702.0
9052.0		9926.0		9052.0		874.0
3994.0		4296.0		3994.0		302.0
1981.0		2128.0		1981.0		147.0
2177.0		2379.0		2177.0		202.0
1.15<|#eta|<1.37
71565.0		100792.0		71565.0		29227.0
126893.0		172225.0		126893.0		45332.0
198945.0		280205.0		198945.0		81260.0
278949.0		372976.0		278949.0		94027.0
187728.0		239568.0		187728.0		51840.0
110444.0		136699.0		110444.0		26255.0
46972.0		57292.0		46972.0		10320.0
10125.0		11767.0		10125.0		1642.0
4787.0		5411.0		4787.0		624.0
2203.0		2469.0		2203.0		266.0
1080.0		1213.0		1080.0		133.0
1187.0		1314.0		1187.0		127.0
1.52<|#eta|<1.81
93740.0		118965.0		93740.0		25225.0
151883.0		190841.0		151883.0		38958.0
228243.0		288987.0		228243.0		60744.0
291024.0		368565.0		291024.0		77541.0
210119.0		255295.0		210119.0		45176.0
123163.0		147273.0		123163.0		24110.0
51936.0		60984.0		51936.0		9048.0
10473.0		12044.0		10473.0		1571.0
4914.0		5568.0		4914.0		654.0
2133.0		2346.0		2133.0		213.0
1133.0		1220.0		1133.0		87.0
1245.0		1317.0		1245.0		72.0
1.81<|#eta|<2.01
62507.0		77253.0		62507.0		14746.0
99268.0		123961.0		99268.0		24693.0
146326.0		176713.0		146326.0		30387.0
186354.0		220812.0		186354.0		34458.0
122531.0		147443.0		122531.0		24912.0
70417.0		82446.0		70417.0		12029.0
30338.0		34331.0		30338.0		3993.0
5966.0		6972.0		5966.0		1006.0
2659.0		3009.0		2659.0		350.0
1118.0		1239.0		1118.0		121.0
539.0		609.0		539.0		70.0
507.0		549.0		507.0		42.0
2.01<|#eta|<2.37
118925.0		138377.0		118925.0		19452.0
187310.0		214201.0		187310.0		26891.0
249789.0		282456.0		249789.0		32667.0
281736.0		324092.0		281736.0		42356.0
185820.0		209451.0		185820.0		23631.0
102461.0		115298.0		102461.0		12837.0
40775.0		47173.0		40775.0		6398.0
8338.0		9469.0		8338.0		1131.0
3628.0		4046.0		3628.0		418.0
1452.0		1609.0		1452.0		157.0
751.0		791.0		751.0		40.0
623.0		698.0		623.0		75.0
