0.00<|#eta|<0.60
283186.0		355753.0		283186.0		72567.0
512746.0		631542.0		512746.0		118796.0
778731.0		968210.0		778731.0		189485.0
1027110.0		1267390.0		1027110.0		240286.0
715881.0		847912.0		715881.0		132031.0
411910.0		480297.0		411910.0		68387.0
179594.0		205827.0		179594.0		26233.0
37831.0		43062.0		37831.0		5231.0
18127.0		19265.0		18127.0		1138.0
7904.0		8522.0		7904.0		618.0
3980.0		4299.0		3980.0		319.0
4286.0		4662.0		4286.0		376.0
0.60<|#eta|<0.80
75632.0		98620.0		75632.0		22988.0
163248.0		203945.0		163248.0		40697.0
261651.0		328245.0		261651.0		66594.0
326546.0		404244.0		326546.0		77698.0
227393.0		271811.0		227393.0		44418.0
129983.0		153683.0		129983.0		23700.0
57165.0		65032.0		57165.0		7867.0
11899.0		13350.0		11899.0		1451.0
5689.0		6064.0		5689.0		375.0
2489.0		2677.0		2489.0		188.0
1315.0		1382.0		1315.0		67.0
1397.0		1474.0		1397.0		77.0
0.80<|#eta|<1.15
123741.0		171975.0		123741.0		48234.0
225208.0		315206.0		225208.0		89998.0
376039.0		524724.0		376039.0		148685.0
493137.0		666298.0		493137.0		173161.0
331844.0		429478.0		331844.0		97634.0
191548.0		244041.0		191548.0		52493.0
83748.0		101765.0		83748.0		18017.0
17165.0		21209.0		17165.0		4044.0
8898.0		9926.0		8898.0		1028.0
3921.0		4296.0		3921.0		375.0
2002.0		2128.0		2002.0		126.0
2182.0		2379.0		2182.0		197.0
1.15<|#eta|<1.37
68745.0		100792.0		68745.0		32047.0
123114.0		172225.0		123114.0		49111.0
194571.0		280205.0		194571.0		85634.0
273727.0		372976.0		273727.0		99249.0
185116.0		239568.0		185116.0		54452.0
110029.0		136699.0		110029.0		26670.0
46901.0		57292.0		46901.0		10391.0
9873.0		11767.0		9873.0		1894.0
4616.0		5411.0		4616.0		795.0
2151.0		2469.0		2151.0		318.0
1088.0		1213.0		1088.0		125.0
1138.0		1314.0		1138.0		176.0
1.52<|#eta|<1.81
92887.0		118965.0		92887.0		26078.0
149805.0		190841.0		149805.0		41036.0
223783.0		288987.0		223783.0		65204.0
288557.0		368565.0		288557.0		80008.0
209007.0		255295.0		209007.0		46288.0
123226.0		147273.0		123226.0		24047.0
51590.0		60984.0		51590.0		9394.0
10268.0		12044.0		10268.0		1776.0
4833.0		5568.0		4833.0		735.0
2131.0		2346.0		2131.0		215.0
1136.0		1220.0		1136.0		84.0
1250.0		1317.0		1250.0		67.0
1.81<|#eta|<2.01
61960.0		77253.0		61960.0		15293.0
98929.0		123961.0		98929.0		25032.0
146625.0		176713.0		146625.0		30088.0
186217.0		220812.0		186217.0		34595.0
122316.0		147443.0		122316.0		25127.0
70025.0		82446.0		70025.0		12421.0
30455.0		34331.0		30455.0		3876.0
5940.0		6972.0		5940.0		1032.0
2661.0		3009.0		2661.0		348.0
1107.0		1239.0		1107.0		132.0
538.0		609.0		538.0		71.0
508.0		549.0		508.0		41.0
2.01<|#eta|<2.37
118591.0		138377.0		118591.0		19786.0
187338.0		214201.0		187338.0		26863.0
250405.0		282456.0		250405.0		32051.0
281257.0		324092.0		281257.0		42835.0
185633.0		209451.0		185633.0		23818.0
102146.0		115298.0		102146.0		13152.0
40923.0		47173.0		40923.0		6250.0
8359.0		9469.0		8359.0		1110.0
3618.0		4046.0		3618.0		428.0
1455.0		1609.0		1455.0		154.0
746.0		791.0		746.0		45.0
625.0		698.0		625.0		73.0
