0.00<|#eta|<0.60
283588.0		355753.0		283588.0		72165.0
511338.0		631542.0		511338.0		120204.0
778435.0		968210.0		778435.0		189781.0
1026660.0		1267390.0		1026660.0		240740.0
714925.0		847912.0		714925.0		132987.0
413398.0		480297.0		413398.0		66899.0
180202.0		205827.0		180202.0		25625.0
37963.0		43062.0		37963.0		5099.0
18106.0		19265.0		18106.0		1159.0
7901.0		8522.0		7901.0		621.0
3944.0		4299.0		3944.0		355.0
4284.0		4662.0		4284.0		378.0
0.60<|#eta|<0.80
75251.0		98620.0		75251.0		23369.0
163163.0		203945.0		163163.0		40782.0
260344.0		328245.0		260344.0		67901.0
327421.0		404244.0		327421.0		76823.0
227837.0		271811.0		227837.0		43974.0
130615.0		153683.0		130615.0		23068.0
57136.0		65032.0		57136.0		7896.0
11994.0		13350.0		11994.0		1356.0
5673.0		6064.0		5673.0		391.0
2482.0		2677.0		2482.0		195.0
1314.0		1382.0		1314.0		68.0
1401.0		1474.0		1401.0		73.0
0.80<|#eta|<1.15
124548.0		171975.0		124548.0		47427.0
224718.0		315206.0		224718.0		90488.0
376307.0		524724.0		376307.0		148417.0
492307.0		666298.0		492307.0		173991.0
333502.0		429478.0		333502.0		95976.0
195596.0		244041.0		195596.0		48445.0
85021.0		101765.0		85021.0		16744.0
17217.0		21209.0		17217.0		3992.0
8844.0		9926.0		8844.0		1082.0
3925.0		4296.0		3925.0		371.0
1993.0		2128.0		1993.0		135.0
2165.0		2379.0		2165.0		214.0
1.15<|#eta|<1.37
69391.0		100792.0		69391.0		31401.0
122018.0		172225.0		122018.0		50207.0
194504.0		280205.0		194504.0		85701.0
273705.0		372976.0		273705.0		99271.0
185692.0		239568.0		185692.0		53876.0
112562.0		136699.0		112562.0		24137.0
47535.0		57292.0		47535.0		9757.0
9897.0		11767.0		9897.0		1870.0
4617.0		5411.0		4617.0		794.0
2161.0		2469.0		2161.0		308.0
1080.0		1213.0		1080.0		133.0
1131.0		1314.0		1131.0		183.0
1.52<|#eta|<1.81
92540.0		118965.0		92540.0		26425.0
149458.0		190841.0		149458.0		41383.0
224382.0		288987.0		224382.0		64605.0
288566.0		368565.0		288566.0		79999.0
209039.0		255295.0		209039.0		46256.0
124045.0		147273.0		124045.0		23228.0
52209.0		60984.0		52209.0		8775.0
10245.0		12044.0		10245.0		1799.0
4806.0		5568.0		4806.0		762.0
2111.0		2346.0		2111.0		235.0
1138.0		1220.0		1138.0		82.0
1247.0		1317.0		1247.0		70.0
1.81<|#eta|<2.01
61882.0		77253.0		61882.0		15371.0
98709.0		123961.0		98709.0		25252.0
145805.0		176713.0		145805.0		30908.0
185430.0		220812.0		185430.0		35382.0
122344.0		147443.0		122344.0		25099.0
70157.0		82446.0		70157.0		12289.0
30257.0		34331.0		30257.0		4074.0
5953.0		6972.0		5953.0		1019.0
2674.0		3009.0		2674.0		335.0
1116.0		1239.0		1116.0		123.0
536.0		609.0		536.0		73.0
505.0		549.0		505.0		44.0
2.01<|#eta|<2.37
118451.0		138377.0		118451.0		19926.0
187283.0		214201.0		187283.0		26918.0
249926.0		282456.0		249926.0		32530.0
280890.0		324092.0		280890.0		43202.0
185497.0		209451.0		185497.0		23954.0
102091.0		115298.0		102091.0		13207.0
40833.0		47173.0		40833.0		6340.0
8358.0		9469.0		8358.0		1111.0
3634.0		4046.0		3634.0		412.0
1455.0		1609.0		1455.0		154.0
746.0		791.0		746.0		45.0
617.0		698.0		617.0		81.0
