0.00<|#eta|<0.60
285527.0		355753.0		285527.0		70226.0
516412.0		631542.0		516412.0		115130.0
780784.0		968210.0		780784.0		187432.0
1032620.0		1267390.0		1032620.0		234772.0
720453.0		847912.0		720453.0		127459.0
413428.0		480297.0		413428.0		66869.0
180201.0		205827.0		180201.0		25626.0
38069.0		43062.0		38069.0		4993.0
18105.0		19265.0		18105.0		1160.0
7910.0		8522.0		7910.0		612.0
3999.0		4299.0		3999.0		300.0
4281.0		4662.0		4281.0		381.0
0.60<|#eta|<0.80
75670.0		98620.0		75670.0		22950.0
164425.0		203945.0		164425.0		39520.0
261653.0		328245.0		261653.0		66592.0
328258.0		404244.0		328258.0		75986.0
228429.0		271811.0		228429.0		43382.0
130217.0		153683.0		130217.0		23466.0
57109.0		65032.0		57109.0		7923.0
11995.0		13350.0		11995.0		1355.0
5661.0		6064.0		5661.0		403.0
2463.0		2677.0		2463.0		214.0
1317.0		1382.0		1317.0		65.0
1394.0		1474.0		1394.0		80.0
0.80<|#eta|<1.15
127335.0		171975.0		127335.0		44640.0
231423.0		315206.0		231423.0		83783.0
380140.0		524724.0		380140.0		144584.0
496525.0		666298.0		496525.0		169773.0
334104.0		429478.0		334104.0		95374.0
195237.0		244041.0		195237.0		48804.0
85177.0		101765.0		85177.0		16588.0
17192.0		21209.0		17192.0		4017.0
8902.0		9926.0		8902.0		1024.0
3919.0		4296.0		3919.0		377.0
1995.0		2128.0		1995.0		133.0
2178.0		2379.0		2178.0		201.0
1.15<|#eta|<1.37
71711.0		100792.0		71711.0		29081.0
126708.0		172225.0		126708.0		45517.0
199245.0		280205.0		199245.0		80960.0
280520.0		372976.0		280520.0		92456.0
188615.0		239568.0		188615.0		50953.0
112883.0		136699.0		112883.0		23816.0
47677.0		57292.0		47677.0		9615.0
9907.0		11767.0		9907.0		1860.0
4624.0		5411.0		4624.0		787.0
2161.0		2469.0		2161.0		308.0
1076.0		1213.0		1076.0		137.0
1182.0		1314.0		1182.0		132.0
1.52<|#eta|<1.81
94156.0		118965.0		94156.0		24809.0
152494.0		190841.0		152494.0		38347.0
228896.0		288987.0		228896.0		60091.0
290294.0		368565.0		290294.0		78271.0
211563.0		255295.0		211563.0		43732.0
124529.0		147273.0		124529.0		22744.0
52194.0		60984.0		52194.0		8790.0
10208.0		12044.0		10208.0		1836.0
4787.0		5568.0		4787.0		781.0
2138.0		2346.0		2138.0		208.0
1136.0		1220.0		1136.0		84.0
1247.0		1317.0		1247.0		70.0
1.81<|#eta|<2.01
61753.0		77253.0		61753.0		15500.0
98763.0		123961.0		98763.0		25198.0
146631.0		176713.0		146631.0		30082.0
186803.0		220812.0		186803.0		34009.0
122169.0		147443.0		122169.0		25274.0
70010.0		82446.0		70010.0		12436.0
30314.0		34331.0		30314.0		4017.0
5963.0		6972.0		5963.0		1009.0
2705.0		3009.0		2705.0		304.0
1120.0		1239.0		1120.0		119.0
541.0		609.0		541.0		68.0
503.0		549.0		503.0		46.0
2.01<|#eta|<2.37
118503.0		138377.0		118503.0		19874.0
186586.0		214201.0		186586.0		27615.0
250155.0		282456.0		250155.0		32301.0
280461.0		324092.0		280461.0		43631.0
186309.0		209451.0		186309.0		23142.0
102196.0		115298.0		102196.0		13102.0
41048.0		47173.0		41048.0		6125.0
8311.0		9469.0		8311.0		1158.0
3645.0		4046.0		3645.0		401.0
1460.0		1609.0		1460.0		149.0
748.0		791.0		748.0		43.0
628.0		698.0		628.0		70.0
