0.00<|#eta|<0.60
286951.0		355753.0		286951.0		68802.0
517699.0		631542.0		517699.0		113843.0
784825.0		968210.0		784825.0		183391.0
1031620.0		1267390.0		1031620.0		235774.0
716192.0		847912.0		716192.0		131720.0
413388.0		480297.0		413388.0		66909.0
180268.0		205827.0		180268.0		25559.0
38039.0		43062.0		38039.0		5023.0
18147.0		19265.0		18147.0		1118.0
7969.0		8522.0		7969.0		553.0
3941.0		4299.0		3941.0		358.0
4308.0		4662.0		4308.0		354.0
0.60<|#eta|<0.80
75308.0		98620.0		75308.0		23312.0
163365.0		203945.0		163365.0		40580.0
262110.0		328245.0		262110.0		66135.0
327425.0		404244.0		327425.0		76819.0
228777.0		271811.0		228777.0		43034.0
130527.0		153683.0		130527.0		23156.0
57069.0		65032.0		57069.0		7963.0
11978.0		13350.0		11978.0		1372.0
5676.0		6064.0		5676.0		388.0
2477.0		2677.0		2477.0		200.0
1323.0		1382.0		1323.0		59.0
1387.0		1474.0		1387.0		87.0
0.80<|#eta|<1.15
128359.0		171975.0		128359.0		43616.0
231863.0		315206.0		231863.0		83343.0
381748.0		524724.0		381748.0		142976.0
496537.0		666298.0		496537.0		169761.0
334905.0		429478.0		334905.0		94573.0
195389.0		244041.0		195389.0		48652.0
85298.0		101765.0		85298.0		16467.0
17368.0		21209.0		17368.0		3841.0
9022.0		9926.0		9022.0		904.0
3972.0		4296.0		3972.0		324.0
2000.0		2128.0		2000.0		128.0
2173.0		2379.0		2173.0		206.0
1.15<|#eta|<1.37
73193.0		100792.0		73193.0		27599.0
129156.0		172225.0		129156.0		43069.0
199314.0		280205.0		199314.0		80891.0
278772.0		372976.0		278772.0		94204.0
188090.0		239568.0		188090.0		51478.0
112835.0		136699.0		112835.0		23864.0
47763.0		57292.0		47763.0		9529.0
10078.0		11767.0		10078.0		1689.0
4708.0		5411.0		4708.0		703.0
2216.0		2469.0		2216.0		253.0
1086.0		1213.0		1086.0		127.0
1181.0		1314.0		1181.0		133.0
1.52<|#eta|<1.81
94462.0		118965.0		94462.0		24503.0
152039.0		190841.0		152039.0		38802.0
227887.0		288987.0		227887.0		61100.0
290620.0		368565.0		290620.0		77945.0
211785.0		255295.0		211785.0		43510.0
124750.0		147273.0		124750.0		22523.0
52598.0		60984.0		52598.0		8386.0
10418.0		12044.0		10418.0		1626.0
4894.0		5568.0		4894.0		674.0
2152.0		2346.0		2152.0		194.0
1148.0		1220.0		1148.0		72.0
1241.0		1317.0		1241.0		76.0
1.81<|#eta|<2.01
61982.0		77253.0		61982.0		15271.0
99405.0		123961.0		99405.0		24556.0
146753.0		176713.0		146753.0		29960.0
185849.0		220812.0		185849.0		34963.0
122365.0		147443.0		122365.0		25078.0
69868.0		82446.0		69868.0		12578.0
30208.0		34331.0		30208.0		4123.0
5905.0		6972.0		5905.0		1067.0
2666.0		3009.0		2666.0		343.0
1110.0		1239.0		1110.0		129.0
543.0		609.0		543.0		66.0
505.0		549.0		505.0		44.0
2.01<|#eta|<2.37
118415.0		138377.0		118415.0		19962.0
187109.0		214201.0		187109.0		27092.0
251214.0		282456.0		251214.0		31242.0
282568.0		324092.0		282568.0		41524.0
186044.0		209451.0		186044.0		23407.0
102216.0		115298.0		102216.0		13082.0
40882.0		47173.0		40882.0		6291.0
8329.0		9469.0		8329.0		1140.0
3618.0		4046.0		3618.0		428.0
1456.0		1609.0		1456.0		153.0
746.0		791.0		746.0		45.0
621.0		698.0		621.0		77.0
