0.00<|#eta|<0.60
287100.0		355753.0		287100.0		68653.0
514950.0		631542.0		514950.0		116592.0
783147.0		968210.0		783147.0		185069.0
1031740.0		1267390.0		1031740.0		235657.0
717703.0		847912.0		717703.0		130209.0
413818.0		480297.0		413818.0		66479.0
180586.0		205827.0		180586.0		25241.0
38091.0		43062.0		38091.0		4971.0
18184.0		19265.0		18184.0		1081.0
7975.0		8522.0		7975.0		547.0
3987.0		4299.0		3987.0		312.0
4323.0		4662.0		4323.0		339.0
0.60<|#eta|<0.80
75996.0		98620.0		75996.0		22624.0
165599.0		203945.0		165599.0		38346.0
262225.0		328245.0		262225.0		66020.0
327868.0		404244.0		327868.0		76376.0
228753.0		271811.0		228753.0		43058.0
130406.0		153683.0		130406.0		23277.0
57188.0		65032.0		57188.0		7844.0
11978.0		13350.0		11978.0		1372.0
5680.0		6064.0		5680.0		384.0
2502.0		2677.0		2502.0		175.0
1308.0		1382.0		1308.0		74.0
1401.0		1474.0		1401.0		73.0
0.80<|#eta|<1.15
128181.0		171975.0		128181.0		43794.0
232250.0		315206.0		232250.0		82956.0
380636.0		524724.0		380636.0		144088.0
497407.0		666298.0		497407.0		168891.0
334122.0		429478.0		334122.0		95356.0
196252.0		244041.0		196252.0		47789.0
85947.0		101765.0		85947.0		15818.0
17842.0		21209.0		17842.0		3367.0
9263.0		9926.0		9263.0		663.0
3995.0		4296.0		3995.0		301.0
1984.0		2128.0		1984.0		144.0
2175.0		2379.0		2175.0		204.0
1.15<|#eta|<1.37
73511.0		100792.0		73511.0		27281.0
129196.0		172225.0		129196.0		43029.0
199144.0		280205.0		199144.0		81061.0
279708.0		372976.0		279708.0		93268.0
187169.0		239568.0		187169.0		52399.0
113204.0		136699.0		113204.0		23495.0
48048.0		57292.0		48048.0		9244.0
10362.0		11767.0		10362.0		1405.0
4952.0		5411.0		4952.0		459.0
2252.0		2469.0		2252.0		217.0
1095.0		1213.0		1095.0		118.0
1156.0		1314.0		1156.0		158.0
1.52<|#eta|<1.81
94397.0		118965.0		94397.0		24568.0
152149.0		190841.0		152149.0		38692.0
228116.0		288987.0		228116.0		60871.0
290621.0		368565.0		290621.0		77944.0
210982.0		255295.0		210982.0		44313.0
124751.0		147273.0		124751.0		22522.0
52855.0		60984.0		52855.0		8129.0
10687.0		12044.0		10687.0		1357.0
5021.0		5568.0		5021.0		547.0
2167.0		2346.0		2167.0		179.0
1147.0		1220.0		1147.0		73.0
1249.0		1317.0		1249.0		68.0
1.81<|#eta|<2.01
62333.0		77253.0		62333.0		14920.0
99165.0		123961.0		99165.0		24796.0
146134.0		176713.0		146134.0		30579.0
186317.0		220812.0		186317.0		34495.0
122025.0		147443.0		122025.0		25418.0
70257.0		82446.0		70257.0		12189.0
30212.0		34331.0		30212.0		4119.0
5960.0		6972.0		5960.0		1012.0
2667.0		3009.0		2667.0		342.0
1103.0		1239.0		1103.0		136.0
539.0		609.0		539.0		70.0
507.0		549.0		507.0		42.0
2.01<|#eta|<2.37
118718.0		138377.0		118718.0		19659.0
186152.0		214201.0		186152.0		28049.0
250095.0		282456.0		250095.0		32361.0
282417.0		324092.0		282417.0		41675.0
186062.0		209451.0		186062.0		23389.0
102368.0		115298.0		102368.0		12930.0
40917.0		47173.0		40917.0		6256.0
8313.0		9469.0		8313.0		1156.0
3613.0		4046.0		3613.0		433.0
1447.0		1609.0		1447.0		162.0
753.0		791.0		753.0		38.0
628.0		698.0		628.0		70.0
