0.00<|#eta|<0.60
283936.0		355753.0		283936.0		71817.0
510739.0		631542.0		510739.0		120803.0
781406.0		968210.0		781406.0		186810.0
1032170.0		1267390.0		1032170.0		235226.0
719155.0		847912.0		719155.0		128757.0
412881.0		480297.0		412881.0		67416.0
180135.0		205827.0		180135.0		25692.0
38041.0		43062.0		38041.0		5021.0
18083.0		19265.0		18083.0		1182.0
7919.0		8522.0		7919.0		603.0
3963.0		4299.0		3963.0		336.0
4297.0		4662.0		4297.0		365.0
0.60<|#eta|<0.80
75478.0		98620.0		75478.0		23142.0
163874.0		203945.0		163874.0		40071.0
261761.0		328245.0		261761.0		66484.0
328389.0		404244.0		328389.0		75855.0
227851.0		271811.0		227851.0		43960.0
130293.0		153683.0		130293.0		23390.0
57094.0		65032.0		57094.0		7938.0
12008.0		13350.0		12008.0		1342.0
5670.0		6064.0		5670.0		394.0
2478.0		2677.0		2478.0		199.0
1321.0		1382.0		1321.0		61.0
1403.0		1474.0		1403.0		71.0
0.80<|#eta|<1.15
124309.0		171975.0		124309.0		47666.0
225204.0		315206.0		225204.0		90002.0
380476.0		524724.0		380476.0		144248.0
496785.0		666298.0		496785.0		169513.0
333930.0		429478.0		333930.0		95548.0
195626.0		244041.0		195626.0		48415.0
84982.0		101765.0		84982.0		16783.0
17191.0		21209.0		17191.0		4018.0
8917.0		9926.0		8917.0		1009.0
3923.0		4296.0		3923.0		373.0
2001.0		2128.0		2001.0		127.0
2170.0		2379.0		2170.0		209.0
1.15<|#eta|<1.37
68934.0		100792.0		68934.0		31858.0
123297.0		172225.0		123297.0		48928.0
196937.0		280205.0		196937.0		83268.0
280731.0		372976.0		280731.0		92245.0
187798.0		239568.0		187798.0		51770.0
112893.0		136699.0		112893.0		23806.0
47533.0		57292.0		47533.0		9759.0
9864.0		11767.0		9864.0		1903.0
4622.0		5411.0		4622.0		789.0
2159.0		2469.0		2159.0		310.0
1083.0		1213.0		1083.0		130.0
1131.0		1314.0		1131.0		183.0
1.52<|#eta|<1.81
92614.0		118965.0		92614.0		26351.0
149245.0		190841.0		149245.0		41596.0
225094.0		288987.0		225094.0		63893.0
290933.0		368565.0		290933.0		77632.0
211378.0		255295.0		211378.0		43917.0
124680.0		147273.0		124680.0		22593.0
52194.0		60984.0		52194.0		8790.0
10270.0		12044.0		10270.0		1774.0
4798.0		5568.0		4798.0		770.0
2103.0		2346.0		2103.0		243.0
1147.0		1220.0		1147.0		73.0
1243.0		1317.0		1243.0		74.0
1.81<|#eta|<2.01
61392.0		77253.0		61392.0		15861.0
98373.0		123961.0		98373.0		25588.0
147332.0		176713.0		147332.0		29381.0
185707.0		220812.0		185707.0		35105.0
122309.0		147443.0		122309.0		25134.0
69973.0		82446.0		69973.0		12473.0
30212.0		34331.0		30212.0		4119.0
5955.0		6972.0		5955.0		1017.0
2671.0		3009.0		2671.0		338.0
1118.0		1239.0		1118.0		121.0
535.0		609.0		535.0		74.0
508.0		549.0		508.0		41.0
2.01<|#eta|<2.37
118622.0		138377.0		118622.0		19755.0
186894.0		214201.0		186894.0		27307.0
249921.0		282456.0		249921.0		32535.0
282003.0		324092.0		282003.0		42089.0
185455.0		209451.0		185455.0		23996.0
102373.0		115298.0		102373.0		12925.0
40886.0		47173.0		40886.0		6287.0
8327.0		9469.0		8327.0		1142.0
3644.0		4046.0		3644.0		402.0
1458.0		1609.0		1458.0		151.0
753.0		791.0		753.0		38.0
616.0		698.0		616.0		82.0
