0.00<|#eta|<0.60
286434.0		355753.0		286434.0		69319.0
514543.0		631542.0		514543.0		116999.0
788866.0		968210.0		788866.0		179350.0
1039530.0		1267390.0		1039530.0		227868.0
721429.0		847912.0		721429.0		126483.0
413928.0		480297.0		413928.0		66369.0
180406.0		205827.0		180406.0		25421.0
37935.0		43062.0		37935.0		5127.0
18116.0		19265.0		18116.0		1149.0
7972.0		8522.0		7972.0		550.0
3983.0		4299.0		3983.0		316.0
4310.0		4662.0		4310.0		352.0
0.60<|#eta|<0.80
75627.0		98620.0		75627.0		22993.0
163004.0		203945.0		163004.0		40941.0
262639.0		328245.0		262639.0		65606.0
328104.0		404244.0		328104.0		76140.0
228638.0		271811.0		228638.0		43173.0
130588.0		153683.0		130588.0		23095.0
57255.0		65032.0		57255.0		7777.0
11980.0		13350.0		11980.0		1370.0
5703.0		6064.0		5703.0		361.0
2497.0		2677.0		2497.0		180.0
1311.0		1382.0		1311.0		71.0
1398.0		1474.0		1398.0		76.0
0.80<|#eta|<1.15
126967.0		171975.0		126967.0		45008.0
230457.0		315206.0		230457.0		84749.0
384404.0		524724.0		384404.0		140320.0
503870.0		666298.0		503870.0		162428.0
339451.0		429478.0		339451.0		90027.0
196697.0		244041.0		196697.0		47344.0
85765.0		101765.0		85765.0		16000.0
17389.0		21209.0		17389.0		3820.0
9134.0		9926.0		9134.0		792.0
3981.0		4296.0		3981.0		315.0
2015.0		2128.0		2015.0		113.0
2177.0		2379.0		2177.0		202.0
1.15<|#eta|<1.37
72003.0		100792.0		72003.0		28789.0
127858.0		172225.0		127858.0		44367.0
203275.0		280205.0		203275.0		76930.0
287570.0		372976.0		287570.0		85406.0
191833.0		239568.0		191833.0		47735.0
113562.0		136699.0		113562.0		23137.0
47905.0		57292.0		47905.0		9387.0
10132.0		11767.0		10132.0		1635.0
4770.0		5411.0		4770.0		641.0
2228.0		2469.0		2228.0		241.0
1092.0		1213.0		1092.0		121.0
1178.0		1314.0		1178.0		136.0
1.52<|#eta|<1.81
94280.0		118965.0		94280.0		24685.0
152092.0		190841.0		152092.0		38749.0
228988.0		288987.0		228988.0		59999.0
295453.0		368565.0		295453.0		73112.0
213420.0		255295.0		213420.0		41875.0
125491.0		147273.0		125491.0		21782.0
52469.0		60984.0		52469.0		8515.0
10507.0		12044.0		10507.0		1537.0
4909.0		5568.0		4909.0		659.0
2125.0		2346.0		2125.0		221.0
1142.0		1220.0		1142.0		78.0
1245.0		1317.0		1245.0		72.0
1.81<|#eta|<2.01
62220.0		77253.0		62220.0		15033.0
98306.0		123961.0		98306.0		25655.0
145728.0		176713.0		145728.0		30985.0
186425.0		220812.0		186425.0		34387.0
121821.0		147443.0		121821.0		25622.0
70151.0		82446.0		70151.0		12295.0
30085.0		34331.0		30085.0		4246.0
5926.0		6972.0		5926.0		1046.0
2693.0		3009.0		2693.0		316.0
1119.0		1239.0		1119.0		120.0
548.0		609.0		548.0		61.0
505.0		549.0		505.0		44.0
2.01<|#eta|<2.37
118397.0		138377.0		118397.0		19980.0
186791.0		214201.0		186791.0		27410.0
249882.0		282456.0		249882.0		32574.0
282075.0		324092.0		282075.0		42017.0
186030.0		209451.0		186030.0		23421.0
102191.0		115298.0		102191.0		13107.0
40927.0		47173.0		40927.0		6246.0
8323.0		9469.0		8323.0		1146.0
3629.0		4046.0		3629.0		417.0
1451.0		1609.0		1451.0		158.0
750.0		791.0		750.0		41.0
623.0		698.0		623.0		75.0
