0.00<|#eta|<0.60
287534.0		355753.0		287534.0		68219.0
517986.0		631542.0		517986.0		113556.0
781221.0		968210.0		781221.0		186995.0
1028530.0		1267390.0		1028530.0		238871.0
716031.0		847912.0		716031.0		131881.0
411365.0		480297.0		411365.0		68932.0
179701.0		205827.0		179701.0		26126.0
38100.0		43062.0		38100.0		4962.0
18101.0		19265.0		18101.0		1164.0
7969.0		8522.0		7969.0		553.0
3973.0		4299.0		3973.0		326.0
4340.0		4662.0		4340.0		322.0
0.60<|#eta|<0.80
75395.0		98620.0		75395.0		23225.0
164008.0		203945.0		164008.0		39937.0
261960.0		328245.0		261960.0		66285.0
325579.0		404244.0		325579.0		78665.0
227376.0		271811.0		227376.0		44435.0
129972.0		153683.0		129972.0		23711.0
56992.0		65032.0		56992.0		8040.0
11964.0		13350.0		11964.0		1386.0
5644.0		6064.0		5644.0		420.0
2472.0		2677.0		2472.0		205.0
1323.0		1382.0		1323.0		59.0
1387.0		1474.0		1387.0		87.0
0.80<|#eta|<1.15
128464.0		171975.0		128464.0		43511.0
231079.0		315206.0		231079.0		84127.0
377579.0		524724.0		377579.0		147145.0
492461.0		666298.0		492461.0		173837.0
332041.0		429478.0		332041.0		97437.0
191727.0		244041.0		191727.0		52314.0
84484.0		101765.0		84484.0		17281.0
17450.0		21209.0		17450.0		3759.0
9053.0		9926.0		9053.0		873.0
3947.0		4296.0		3947.0		349.0
1982.0		2128.0		1982.0		146.0
2192.0		2379.0		2192.0		187.0
1.15<|#eta|<1.37
73509.0		100792.0		73509.0		27283.0
128138.0		172225.0		128138.0		44087.0
196382.0		280205.0		196382.0		83823.0
274368.0		372976.0		274368.0		98608.0
184463.0		239568.0		184463.0		55105.0
110113.0		136699.0		110113.0		26586.0
47053.0		57292.0		47053.0		10239.0
10092.0		11767.0		10092.0		1675.0
4727.0		5411.0		4727.0		684.0
2193.0		2469.0		2193.0		276.0
1099.0		1213.0		1099.0		114.0
1162.0		1314.0		1162.0		152.0
1.52<|#eta|<1.81
94067.0		118965.0		94067.0		24898.0
152260.0		190841.0		152260.0		38581.0
225833.0		288987.0		225833.0		63154.0
288241.0		368565.0		288241.0		80324.0
208599.0		255295.0		208599.0		46696.0
122780.0		147273.0		122780.0		24493.0
51764.0		60984.0		51764.0		9220.0
10407.0		12044.0		10407.0		1637.0
4896.0		5568.0		4896.0		672.0
2147.0		2346.0		2147.0		199.0
1133.0		1220.0		1133.0		87.0
1246.0		1317.0		1246.0		71.0
1.81<|#eta|<2.01
61793.0		77253.0		61793.0		15460.0
98424.0		123961.0		98424.0		25537.0
146268.0		176713.0		146268.0		30445.0
186046.0		220812.0		186046.0		34766.0
122341.0		147443.0		122341.0		25102.0
70211.0		82446.0		70211.0		12235.0
30254.0		34331.0		30254.0		4077.0
6001.0		6972.0		6001.0		971.0
2691.0		3009.0		2691.0		318.0
1111.0		1239.0		1111.0		128.0
545.0		609.0		545.0		64.0
506.0		549.0		506.0		43.0
2.01<|#eta|<2.37
119061.0		138377.0		119061.0		19316.0
187112.0		214201.0		187112.0		27089.0
249591.0		282456.0		249591.0		32865.0
281724.0		324092.0		281724.0		42368.0
186171.0		209451.0		186171.0		23280.0
102183.0		115298.0		102183.0		13115.0
40829.0		47173.0		40829.0		6344.0
8331.0		9469.0		8331.0		1138.0
3623.0		4046.0		3623.0		423.0
1459.0		1609.0		1459.0		150.0
749.0		791.0		749.0		42.0
628.0		698.0		628.0		70.0
