0.00<|#eta|<0.60
283082.0		355753.0		283082.0		72671.0
512016.0		631542.0		512016.0		119526.0
776020.0		968210.0		776020.0		192196.0
1025570.0		1267390.0		1025570.0		241816.0
715438.0		847912.0		715438.0		132474.0
415581.0		480297.0		415581.0		64716.0
180784.0		205827.0		180784.0		25043.0
37996.0		43062.0		37996.0		5066.0
18137.0		19265.0		18137.0		1128.0
7909.0		8522.0		7909.0		613.0
3933.0		4299.0		3933.0		366.0
4318.0		4662.0		4318.0		344.0
0.60<|#eta|<0.80
75369.0		98620.0		75369.0		23251.0
164398.0		203945.0		164398.0		39547.0
261930.0		328245.0		261930.0		66315.0
327139.0		404244.0		327139.0		77105.0
227873.0		271811.0		227873.0		43938.0
130598.0		153683.0		130598.0		23085.0
56944.0		65032.0		56944.0		8088.0
11967.0		13350.0		11967.0		1383.0
5694.0		6064.0		5694.0		370.0
2488.0		2677.0		2488.0		189.0
1321.0		1382.0		1321.0		61.0
1410.0		1474.0		1410.0		64.0
0.80<|#eta|<1.15
124641.0		171975.0		124641.0		47334.0
226163.0		315206.0		226163.0		89043.0
376361.0		524724.0		376361.0		148363.0
492556.0		666298.0		492556.0		173742.0
332944.0		429478.0		332944.0		96534.0
198956.0		244041.0		198956.0		45085.0
86138.0		101765.0		86138.0		15627.0
17220.0		21209.0		17220.0		3989.0
8891.0		9926.0		8891.0		1035.0
3921.0		4296.0		3921.0		375.0
1980.0		2128.0		1980.0		148.0
2169.0		2379.0		2169.0		210.0
1.15<|#eta|<1.37
69306.0		100792.0		69306.0		31486.0
123112.0		172225.0		123112.0		49113.0
193214.0		280205.0		193214.0		86991.0
273108.0		372976.0		273108.0		99868.0
185667.0		239568.0		185667.0		53901.0
115759.0		136699.0		115759.0		20940.0
48561.0		57292.0		48561.0		8731.0
9879.0		11767.0		9879.0		1888.0
4630.0		5411.0		4630.0		781.0
2162.0		2469.0		2162.0		307.0
1078.0		1213.0		1078.0		135.0
1150.0		1314.0		1150.0		164.0
1.52<|#eta|<1.81
92659.0		118965.0		92659.0		26306.0
150132.0		190841.0		150132.0		40709.0
224212.0		288987.0		224212.0		64775.0
288530.0		368565.0		288530.0		80035.0
209380.0		255295.0		209380.0		45915.0
126201.0		147273.0		126201.0		21072.0
53003.0		60984.0		53003.0		7981.0
10261.0		12044.0		10261.0		1783.0
4830.0		5568.0		4830.0		738.0
2125.0		2346.0		2125.0		221.0
1142.0		1220.0		1142.0		78.0
1243.0		1317.0		1243.0		74.0
1.81<|#eta|<2.01
61587.0		77253.0		61587.0		15666.0
98254.0		123961.0		98254.0		25707.0
146658.0		176713.0		146658.0		30055.0
186188.0		220812.0		186188.0		34624.0
122424.0		147443.0		122424.0		25019.0
70133.0		82446.0		70133.0		12313.0
30271.0		34331.0		30271.0		4060.0
5944.0		6972.0		5944.0		1028.0
2684.0		3009.0		2684.0		325.0
1104.0		1239.0		1104.0		135.0
543.0		609.0		543.0		66.0
503.0		549.0		503.0		46.0
2.01<|#eta|<2.37
118155.0		138377.0		118155.0		20222.0
187418.0		214201.0		187418.0		26783.0
249764.0		282456.0		249764.0		32692.0
281706.0		324092.0		281706.0		42386.0
185871.0		209451.0		185871.0		23580.0
102209.0		115298.0		102209.0		13089.0
40764.0		47173.0		40764.0		6409.0
8361.0		9469.0		8361.0		1108.0
3653.0		4046.0		3653.0		393.0
1457.0		1609.0		1457.0		152.0
748.0		791.0		748.0		43.0
624.0		698.0		624.0		74.0
