0.00<|#eta|<0.60
284251.0		355753.0		284251.0		71502.0
513333.0		631542.0		513333.0		118209.0
776365.0		968210.0		776365.0		191851.0
1026590.0		1267390.0		1026590.0		240814.0
716236.0		847912.0		716236.0		131676.0
413081.0		480297.0		413081.0		67216.0
180398.0		205827.0		180398.0		25429.0
37975.0		43062.0		37975.0		5087.0
18181.0		19265.0		18181.0		1084.0
7935.0		8522.0		7935.0		587.0
3969.0		4299.0		3969.0		330.0
4286.0		4662.0		4286.0		376.0
0.60<|#eta|<0.80
75310.0		98620.0		75310.0		23310.0
163648.0		203945.0		163648.0		40297.0
262676.0		328245.0		262676.0		65569.0
326722.0		404244.0		326722.0		77522.0
228641.0		271811.0		228641.0		43170.0
130322.0		153683.0		130322.0		23361.0
57059.0		65032.0		57059.0		7973.0
11991.0		13350.0		11991.0		1359.0
5684.0		6064.0		5684.0		380.0
2502.0		2677.0		2502.0		175.0
1321.0		1382.0		1321.0		61.0
1394.0		1474.0		1394.0		80.0
0.80<|#eta|<1.15
124853.0		171975.0		124853.0		47122.0
225930.0		315206.0		225930.0		89276.0
374349.0		524724.0		374349.0		150375.0
493328.0		666298.0		493328.0		172970.0
332590.0		429478.0		332590.0		96888.0
195071.0		244041.0		195071.0		48970.0
85334.0		101765.0		85334.0		16431.0
17504.0		21209.0		17504.0		3705.0
9110.0		9926.0		9110.0		816.0
3982.0		4296.0		3982.0		314.0
1980.0		2128.0		1980.0		148.0
2188.0		2379.0		2188.0		191.0
1.15<|#eta|<1.37
69262.0		100792.0		69262.0		31530.0
122412.0		172225.0		122412.0		49813.0
194749.0		280205.0		194749.0		85456.0
273802.0		372976.0		273802.0		99174.0
184738.0		239568.0		184738.0		54830.0
112930.0		136699.0		112930.0		23769.0
47838.0		57292.0		47838.0		9454.0
10109.0		11767.0		10109.0		1658.0
4742.0		5411.0		4742.0		669.0
2217.0		2469.0		2217.0		252.0
1076.0		1213.0		1076.0		137.0
1165.0		1314.0		1165.0		149.0
1.52<|#eta|<1.81
92621.0		118965.0		92621.0		26344.0
149221.0		190841.0		149221.0		41620.0
224889.0		288987.0		224889.0		64098.0
287892.0		368565.0		287892.0		80673.0
210143.0		255295.0		210143.0		45152.0
124328.0		147273.0		124328.0		22945.0
52514.0		60984.0		52514.0		8470.0
10535.0		12044.0		10535.0		1509.0
4906.0		5568.0		4906.0		662.0
2143.0		2346.0		2143.0		203.0
1151.0		1220.0		1151.0		69.0
1233.0		1317.0		1233.0		84.0
1.81<|#eta|<2.01
61204.0		77253.0		61204.0		16049.0
98537.0		123961.0		98537.0		25424.0
147039.0		176713.0		147039.0		29674.0
186120.0		220812.0		186120.0		34692.0
122171.0		147443.0		122171.0		25272.0
70192.0		82446.0		70192.0		12254.0
30236.0		34331.0		30236.0		4095.0
5920.0		6972.0		5920.0		1052.0
2674.0		3009.0		2674.0		335.0
1110.0		1239.0		1110.0		129.0
549.0		609.0		549.0		60.0
501.0		549.0		501.0		48.0
2.01<|#eta|<2.37
118818.0		138377.0		118818.0		19559.0
186670.0		214201.0		186670.0		27531.0
249474.0		282456.0		249474.0		32982.0
281835.0		324092.0		281835.0		42257.0
185670.0		209451.0		185670.0		23781.0
101991.0		115298.0		101991.0		13307.0
40844.0		47173.0		40844.0		6329.0
8345.0		9469.0		8345.0		1124.0
3635.0		4046.0		3635.0		411.0
1445.0		1609.0		1445.0		164.0
746.0		791.0		746.0		45.0
629.0		698.0		629.0		69.0
