0.00<|#eta|<0.60
285486.0		355753.0		285486.0		70267.0
517658.0		631542.0		517658.0		113884.0
784014.0		968210.0		784014.0		184202.0
1033960.0		1267390.0		1033960.0		233443.0
715981.0		847912.0		715981.0		131931.0
413096.0		480297.0		413096.0		67201.0
180090.0		205827.0		180090.0		25737.0
37934.0		43062.0		37934.0		5128.0
18113.0		19265.0		18113.0		1152.0
7897.0		8522.0		7897.0		625.0
3997.0		4299.0		3997.0		302.0
4296.0		4662.0		4296.0		366.0
0.60<|#eta|<0.80
75830.0		98620.0		75830.0		22790.0
162949.0		203945.0		162949.0		40996.0
262594.0		328245.0		262594.0		65651.0
327525.0		404244.0		327525.0		76719.0
228180.0		271811.0		228180.0		43631.0
130077.0		153683.0		130077.0		23606.0
57134.0		65032.0		57134.0		7898.0
12016.0		13350.0		12016.0		1334.0
5676.0		6064.0		5676.0		388.0
2485.0		2677.0		2485.0		192.0
1321.0		1382.0		1321.0		61.0
1397.0		1474.0		1397.0		77.0
0.80<|#eta|<1.15
127307.0		171975.0		127307.0		44668.0
230157.0		315206.0		230157.0		85049.0
381806.0		524724.0		381806.0		142918.0
497491.0		666298.0		497491.0		168807.0
336595.0		429478.0		336595.0		92883.0
195950.0		244041.0		195950.0		48091.0
85025.0		101765.0		85025.0		16740.0
17169.0		21209.0		17169.0		4040.0
8892.0		9926.0		8892.0		1034.0
3946.0		4296.0		3946.0		350.0
2000.0		2128.0		2000.0		128.0
2173.0		2379.0		2173.0		206.0
1.15<|#eta|<1.37
71801.0		100792.0		71801.0		28991.0
127311.0		172225.0		127311.0		44914.0
197856.0		280205.0		197856.0		82349.0
280085.0		372976.0		280085.0		92891.0
188248.0		239568.0		188248.0		51320.0
113170.0		136699.0		113170.0		23529.0
47465.0		57292.0		47465.0		9827.0
9859.0		11767.0		9859.0		1908.0
4589.0		5411.0		4589.0		822.0
2165.0		2469.0		2165.0		304.0
1081.0		1213.0		1081.0		132.0
1203.0		1314.0		1203.0		111.0
1.52<|#eta|<1.81
93976.0		118965.0		93976.0		24989.0
150940.0		190841.0		150940.0		39901.0
228801.0		288987.0		228801.0		60186.0
291200.0		368565.0		291200.0		77365.0
210897.0		255295.0		210897.0		44398.0
124453.0		147273.0		124453.0		22820.0
52171.0		60984.0		52171.0		8813.0
10316.0		12044.0		10316.0		1728.0
4795.0		5568.0		4795.0		773.0
2141.0		2346.0		2141.0		205.0
1134.0		1220.0		1134.0		86.0
1244.0		1317.0		1244.0		73.0
1.81<|#eta|<2.01
60676.0		77253.0		60676.0		16577.0
98731.0		123961.0		98731.0		25230.0
146252.0		176713.0		146252.0		30461.0
186161.0		220812.0		186161.0		34651.0
121856.0		147443.0		121856.0		25587.0
70020.0		82446.0		70020.0		12426.0
30276.0		34331.0		30276.0		4055.0
5927.0		6972.0		5927.0		1045.0
2668.0		3009.0		2668.0		341.0
1110.0		1239.0		1110.0		129.0
539.0		609.0		539.0		70.0
507.0		549.0		507.0		42.0
2.01<|#eta|<2.37
118672.0		138377.0		118672.0		19705.0
187049.0		214201.0		187049.0		27152.0
250034.0		282456.0		250034.0		32422.0
281832.0		324092.0		281832.0		42260.0
185251.0		209451.0		185251.0		24200.0
102368.0		115298.0		102368.0		12930.0
40882.0		47173.0		40882.0		6291.0
8349.0		9469.0		8349.0		1120.0
3605.0		4046.0		3605.0		441.0
1453.0		1609.0		1453.0		156.0
751.0		791.0		751.0		40.0
636.0		698.0		636.0		62.0
