0.00<|#eta|<0.60
283914.0		355753.0		283914.0		71839.0
510635.0		631542.0		510635.0		120907.0
777925.0		968210.0		777925.0		190291.0
1028890.0		1267390.0		1028890.0		238519.0
715960.0		847912.0		715960.0		131952.0
413096.0		480297.0		413096.0		67201.0
180235.0		205827.0		180235.0		25592.0
37897.0		43062.0		37897.0		5165.0
18086.0		19265.0		18086.0		1179.0
7933.0		8522.0		7933.0		589.0
3970.0		4299.0		3970.0		329.0
4308.0		4662.0		4308.0		354.0
0.60<|#eta|<0.80
75229.0		98620.0		75229.0		23391.0
163885.0		203945.0		163885.0		40060.0
263246.0		328245.0		263246.0		64999.0
327779.0		404244.0		327779.0		76465.0
228556.0		271811.0		228556.0		43255.0
130403.0		153683.0		130403.0		23280.0
57135.0		65032.0		57135.0		7897.0
12022.0		13350.0		12022.0		1328.0
5681.0		6064.0		5681.0		383.0
2480.0		2677.0		2480.0		197.0
1320.0		1382.0		1320.0		62.0
1394.0		1474.0		1394.0		80.0
0.80<|#eta|<1.15
124735.0		171975.0		124735.0		47240.0
225126.0		315206.0		225126.0		90080.0
375826.0		524724.0		375826.0		148898.0
493194.0		666298.0		493194.0		173104.0
333369.0		429478.0		333369.0		96109.0
195396.0		244041.0		195396.0		48645.0
84987.0		101765.0		84987.0		16778.0
17155.0		21209.0		17155.0		4054.0
8882.0		9926.0		8882.0		1044.0
3893.0		4296.0		3893.0		403.0
1989.0		2128.0		1989.0		139.0
2180.0		2379.0		2180.0		199.0
1.15<|#eta|<1.37
68885.0		100792.0		68885.0		31907.0
122984.0		172225.0		122984.0		49241.0
193153.0		280205.0		193153.0		87052.0
274034.0		372976.0		274034.0		98942.0
185123.0		239568.0		185123.0		54445.0
112799.0		136699.0		112799.0		23900.0
47535.0		57292.0		47535.0		9757.0
9931.0		11767.0		9931.0		1836.0
4593.0		5411.0		4593.0		818.0
2151.0		2469.0		2151.0		318.0
1091.0		1213.0		1091.0		122.0
1152.0		1314.0		1152.0		162.0
1.52<|#eta|<1.81
93074.0		118965.0		93074.0		25891.0
149669.0		190841.0		149669.0		41172.0
225229.0		288987.0		225229.0		63758.0
288071.0		368565.0		288071.0		80494.0
210026.0		255295.0		210026.0		45269.0
124299.0		147273.0		124299.0		22974.0
52111.0		60984.0		52111.0		8873.0
10324.0		12044.0		10324.0		1720.0
4824.0		5568.0		4824.0		744.0
2116.0		2346.0		2116.0		230.0
1142.0		1220.0		1142.0		78.0
1247.0		1317.0		1247.0		70.0
1.81<|#eta|<2.01
61438.0		77253.0		61438.0		15815.0
99209.0		123961.0		99209.0		24752.0
146385.0		176713.0		146385.0		30328.0
185837.0		220812.0		185837.0		34975.0
122337.0		147443.0		122337.0		25106.0
69910.0		82446.0		69910.0		12536.0
30242.0		34331.0		30242.0		4089.0
5988.0		6972.0		5988.0		984.0
2684.0		3009.0		2684.0		325.0
1102.0		1239.0		1102.0		137.0
544.0		609.0		544.0		65.0
506.0		549.0		506.0		43.0
2.01<|#eta|<2.37
118221.0		138377.0		118221.0		20156.0
186798.0		214201.0		186798.0		27403.0
250397.0		282456.0		250397.0		32059.0
280981.0		324092.0		280981.0		43111.0
185799.0		209451.0		185799.0		23652.0
102181.0		115298.0		102181.0		13117.0
40856.0		47173.0		40856.0		6317.0
8325.0		9469.0		8325.0		1144.0
3645.0		4046.0		3645.0		401.0
1450.0		1609.0		1450.0		159.0
750.0		791.0		750.0		41.0
629.0		698.0		629.0		69.0
