0.00<|#eta|<0.60
287893.0		355753.0		287893.0		67860.0
517167.0		631542.0		517167.0		114375.0
787135.0		968210.0		787135.0		181081.0
1039370.0		1267390.0		1039370.0		228017.0
723397.0		847912.0		723397.0		124515.0
413555.0		480297.0		413555.0		66742.0
180362.0		205827.0		180362.0		25465.0
38021.0		43062.0		38021.0		5041.0
18142.0		19265.0		18142.0		1123.0
7943.0		8522.0		7943.0		579.0
3955.0		4299.0		3955.0		344.0
4296.0		4662.0		4296.0		366.0
0.60<|#eta|<0.80
75558.0		98620.0		75558.0		23062.0
163937.0		203945.0		163937.0		40008.0
262350.0		328245.0		262350.0		65895.0
327585.0		404244.0		327585.0		76659.0
228811.0		271811.0		228811.0		43000.0
130995.0		153683.0		130995.0		22688.0
57258.0		65032.0		57258.0		7774.0
11949.0		13350.0		11949.0		1401.0
5673.0		6064.0		5673.0		391.0
2477.0		2677.0		2477.0		200.0
1323.0		1382.0		1323.0		59.0
1392.0		1474.0		1392.0		82.0
0.80<|#eta|<1.15
128312.0		171975.0		128312.0		43663.0
231514.0		315206.0		231514.0		83692.0
386644.0		524724.0		386644.0		138080.0
505697.0		666298.0		505697.0		160601.0
337933.0		429478.0		337933.0		91545.0
195700.0		244041.0		195700.0		48341.0
85260.0		101765.0		85260.0		16505.0
17395.0		21209.0		17395.0		3814.0
9049.0		9926.0		9049.0		877.0
3952.0		4296.0		3952.0		344.0
1985.0		2128.0		1985.0		143.0
2191.0		2379.0		2191.0		188.0
1.15<|#eta|<1.37
73024.0		100792.0		73024.0		27768.0
129267.0		172225.0		129267.0		42958.0
203036.0		280205.0		203036.0		77169.0
286332.0		372976.0		286332.0		86644.0
190948.0		239568.0		190948.0		48620.0
113285.0		136699.0		113285.0		23414.0
47689.0		57292.0		47689.0		9603.0
10122.0		11767.0		10122.0		1645.0
4710.0		5411.0		4710.0		701.0
2218.0		2469.0		2218.0		251.0
1093.0		1213.0		1093.0		120.0
1169.0		1314.0		1169.0		145.0
1.52<|#eta|<1.81
94791.0		118965.0		94791.0		24174.0
152975.0		190841.0		152975.0		37866.0
228542.0		288987.0		228542.0		60445.0
295486.0		368565.0		295486.0		73079.0
213531.0		255295.0		213531.0		41764.0
124997.0		147273.0		124997.0		22276.0
52511.0		60984.0		52511.0		8473.0
10393.0		12044.0		10393.0		1651.0
4893.0		5568.0		4893.0		675.0
2125.0		2346.0		2125.0		221.0
1137.0		1220.0		1137.0		83.0
1245.0		1317.0		1245.0		72.0
1.81<|#eta|<2.01
62313.0		77253.0		62313.0		14940.0
99192.0		123961.0		99192.0		24769.0
146378.0		176713.0		146378.0		30335.0
186289.0		220812.0		186289.0		34523.0
122037.0		147443.0		122037.0		25406.0
70453.0		82446.0		70453.0		11993.0
30230.0		34331.0		30230.0		4101.0
5971.0		6972.0		5971.0		1001.0
2668.0		3009.0		2668.0		341.0
1109.0		1239.0		1109.0		130.0
543.0		609.0		543.0		66.0
504.0		549.0		504.0		45.0
2.01<|#eta|<2.37
118996.0		138377.0		118996.0		19381.0
187661.0		214201.0		187661.0		26540.0
250451.0		282456.0		250451.0		32005.0
282499.0		324092.0		282499.0		41593.0
185947.0		209451.0		185947.0		23504.0
102321.0		115298.0		102321.0		12977.0
40752.0		47173.0		40752.0		6421.0
8325.0		9469.0		8325.0		1144.0
3632.0		4046.0		3632.0		414.0
1454.0		1609.0		1454.0		155.0
751.0		791.0		751.0		40.0
621.0		698.0		621.0		77.0
