0.00<|#eta|<0.60
286011.0		355753.0		286011.0		69742.0
513421.0		631542.0		513421.0		118121.0
780205.0		968210.0		780205.0		188011.0
1031260.0		1267390.0		1031260.0		236135.0
717689.0		847912.0		717689.0		130223.0
416125.0		480297.0		416125.0		64172.0
180541.0		205827.0		180541.0		25286.0
37826.0		43062.0		37826.0		5236.0
18139.0		19265.0		18139.0		1126.0
7915.0		8522.0		7915.0		607.0
3984.0		4299.0		3984.0		315.0
4320.0		4662.0		4320.0		342.0
0.60<|#eta|<0.80
76340.0		98620.0		76340.0		22280.0
164117.0		203945.0		164117.0		39828.0
261305.0		328245.0		261305.0		66940.0
327689.0		404244.0		327689.0		76555.0
227567.0		271811.0		227567.0		44244.0
130121.0		153683.0		130121.0		23562.0
57087.0		65032.0		57087.0		7945.0
11994.0		13350.0		11994.0		1356.0
5658.0		6064.0		5658.0		406.0
2476.0		2677.0		2476.0		201.0
1322.0		1382.0		1322.0		60.0
1404.0		1474.0		1404.0		70.0
0.80<|#eta|<1.15
127875.0		171975.0		127875.0		44100.0
230672.0		315206.0		230672.0		84534.0
381242.0		524724.0		381242.0		143482.0
497583.0		666298.0		497583.0		168715.0
335752.0		429478.0		335752.0		93726.0
199945.0		244041.0		199945.0		44096.0
86374.0		101765.0		86374.0		15391.0
17220.0		21209.0		17220.0		3989.0
8847.0		9926.0		8847.0		1079.0
3953.0		4296.0		3953.0		343.0
1977.0		2128.0		1977.0		151.0
2181.0		2379.0		2181.0		198.0
1.15<|#eta|<1.37
72195.0		100792.0		72195.0		28597.0
127024.0		172225.0		127024.0		45201.0
198624.0		280205.0		198624.0		81581.0
278649.0		372976.0		278649.0		94327.0
188282.0		239568.0		188282.0		51286.0
116444.0		136699.0		116444.0		20255.0
48637.0		57292.0		48637.0		8655.0
9893.0		11767.0		9893.0		1874.0
4636.0		5411.0		4636.0		775.0
2155.0		2469.0		2155.0		314.0
1094.0		1213.0		1094.0		119.0
1189.0		1314.0		1189.0		125.0
1.52<|#eta|<1.81
94784.0		118965.0		94784.0		24181.0
152269.0		190841.0		152269.0		38572.0
227471.0		288987.0		227471.0		61516.0
290345.0		368565.0		290345.0		78220.0
211859.0		255295.0		211859.0		43436.0
126655.0		147273.0		126655.0		20618.0
53091.0		60984.0		53091.0		7893.0
10327.0		12044.0		10327.0		1717.0
4810.0		5568.0		4810.0		758.0
2132.0		2346.0		2132.0		214.0
1131.0		1220.0		1131.0		89.0
1243.0		1317.0		1243.0		74.0
1.81<|#eta|<2.01
62072.0		77253.0		62072.0		15181.0
98770.0		123961.0		98770.0		25191.0
146597.0		176713.0		146597.0		30116.0
186483.0		220812.0		186483.0		34329.0
121376.0		147443.0		121376.0		26067.0
69872.0		82446.0		69872.0		12574.0
30173.0		34331.0		30173.0		4158.0
5968.0		6972.0		5968.0		1004.0
2652.0		3009.0		2652.0		357.0
1103.0		1239.0		1103.0		136.0
543.0		609.0		543.0		66.0
508.0		549.0		508.0		41.0
2.01<|#eta|<2.37
118822.0		138377.0		118822.0		19555.0
186033.0		214201.0		186033.0		28168.0
250890.0		282456.0		250890.0		31566.0
281825.0		324092.0		281825.0		42267.0
185587.0		209451.0		185587.0		23864.0
102036.0		115298.0		102036.0		13262.0
40804.0		47173.0		40804.0		6369.0
8304.0		9469.0		8304.0		1165.0
3630.0		4046.0		3630.0		416.0
1462.0		1609.0		1462.0		147.0
751.0		791.0		751.0		40.0
629.0		698.0		629.0		69.0
