0.00<|#eta|<0.60
283911.0		355753.0		283911.0		71842.0
511183.0		631542.0		511183.0		120359.0
778692.0		968210.0		778692.0		189524.0
1026970.0		1267390.0		1026970.0		240439.0
716000.0		847912.0		716000.0		131912.0
413171.0		480297.0		413171.0		67126.0
180101.0		205827.0		180101.0		25726.0
37948.0		43062.0		37948.0		5114.0
18127.0		19265.0		18127.0		1138.0
7916.0		8522.0		7916.0		606.0
3971.0		4299.0		3971.0		328.0
4302.0		4662.0		4302.0		360.0
0.60<|#eta|<0.80
75550.0		98620.0		75550.0		23070.0
163366.0		203945.0		163366.0		40579.0
261551.0		328245.0		261551.0		66694.0
327782.0		404244.0		327782.0		76462.0
228366.0		271811.0		228366.0		43445.0
130346.0		153683.0		130346.0		23337.0
57250.0		65032.0		57250.0		7782.0
11997.0		13350.0		11997.0		1353.0
5683.0		6064.0		5683.0		381.0
2476.0		2677.0		2476.0		201.0
1321.0		1382.0		1321.0		61.0
1399.0		1474.0		1399.0		75.0
0.80<|#eta|<1.15
124511.0		171975.0		124511.0		47464.0
225793.0		315206.0		225793.0		89413.0
375439.0		524724.0		375439.0		149285.0
491548.0		666298.0		491548.0		174750.0
332975.0		429478.0		332975.0		96503.0
195428.0		244041.0		195428.0		48613.0
84985.0		101765.0		84985.0		16780.0
17194.0		21209.0		17194.0		4015.0
8917.0		9926.0		8917.0		1009.0
3900.0		4296.0		3900.0		396.0
1993.0		2128.0		1993.0		135.0
2172.0		2379.0		2172.0		207.0
1.15<|#eta|<1.37
69014.0		100792.0		69014.0		31778.0
122188.0		172225.0		122188.0		50037.0
194709.0		280205.0		194709.0		85496.0
274674.0		372976.0		274674.0		98302.0
185461.0		239568.0		185461.0		54107.0
112425.0		136699.0		112425.0		24274.0
47734.0		57292.0		47734.0		9558.0
9880.0		11767.0		9880.0		1887.0
4581.0		5411.0		4581.0		830.0
2157.0		2469.0		2157.0		312.0
1082.0		1213.0		1082.0		131.0
1167.0		1314.0		1167.0		147.0
1.52<|#eta|<1.81
92266.0		118965.0		92266.0		26699.0
149163.0		190841.0		149163.0		41678.0
224311.0		288987.0		224311.0		64676.0
288635.0		368565.0		288635.0		79930.0
209085.0		255295.0		209085.0		46210.0
124255.0		147273.0		124255.0		23018.0
52356.0		60984.0		52356.0		8628.0
10308.0		12044.0		10308.0		1736.0
4802.0		5568.0		4802.0		766.0
2109.0		2346.0		2109.0		237.0
1137.0		1220.0		1137.0		83.0
1241.0		1317.0		1241.0		76.0
1.81<|#eta|<2.01
61836.0		77253.0		61836.0		15417.0
97973.0		123961.0		97973.0		25988.0
145939.0		176713.0		145939.0		30774.0
185639.0		220812.0		185639.0		35173.0
121896.0		147443.0		121896.0		25547.0
70302.0		82446.0		70302.0		12144.0
30290.0		34331.0		30290.0		4041.0
5932.0		6972.0		5932.0		1040.0
2657.0		3009.0		2657.0		352.0
1111.0		1239.0		1111.0		128.0
544.0		609.0		544.0		65.0
501.0		549.0		501.0		48.0
2.01<|#eta|<2.37
118794.0		138377.0		118794.0		19583.0
185709.0		214201.0		185709.0		28492.0
250193.0		282456.0		250193.0		32263.0
281726.0		324092.0		281726.0		42366.0
186075.0		209451.0		186075.0		23376.0
102093.0		115298.0		102093.0		13205.0
41016.0		47173.0		41016.0		6157.0
8308.0		9469.0		8308.0		1161.0
3642.0		4046.0		3642.0		404.0
1450.0		1609.0		1450.0		159.0
751.0		791.0		751.0		40.0
625.0		698.0		625.0		73.0
