0.00<|#eta|<0.60
285876.0		355753.0		285876.0		69877.0
515821.0		631542.0		515821.0		115721.0
779969.0		968210.0		779969.0		188247.0
1027070.0		1267390.0		1027070.0		240335.0
715074.0		847912.0		715074.0		132838.0
413271.0		480297.0		413271.0		67026.0
180531.0		205827.0		180531.0		25296.0
37963.0		43062.0		37963.0		5099.0
18149.0		19265.0		18149.0		1116.0
7962.0		8522.0		7962.0		560.0
3971.0		4299.0		3971.0		328.0
4307.0		4662.0		4307.0		355.0
0.60<|#eta|<0.80
76015.0		98620.0		76015.0		22605.0
163824.0		203945.0		163824.0		40121.0
262083.0		328245.0		262083.0		66162.0
327149.0		404244.0		327149.0		77095.0
227279.0		271811.0		227279.0		44532.0
130087.0		153683.0		130087.0		23596.0
57083.0		65032.0		57083.0		7949.0
12009.0		13350.0		12009.0		1341.0
5683.0		6064.0		5683.0		381.0
2511.0		2677.0		2511.0		166.0
1321.0		1382.0		1321.0		61.0
1389.0		1474.0		1389.0		85.0
0.80<|#eta|<1.15
127254.0		171975.0		127254.0		44721.0
231568.0		315206.0		231568.0		83638.0
376091.0		524724.0		376091.0		148633.0
493215.0		666298.0		493215.0		173083.0
332395.0		429478.0		332395.0		97083.0
195397.0		244041.0		195397.0		48644.0
85472.0		101765.0		85472.0		16293.0
17399.0		21209.0		17399.0		3810.0
9082.0		9926.0		9082.0		844.0
3989.0		4296.0		3989.0		307.0
1982.0		2128.0		1982.0		146.0
2184.0		2379.0		2184.0		195.0
1.15<|#eta|<1.37
72135.0		100792.0		72135.0		28657.0
127217.0		172225.0		127217.0		45008.0
195846.0		280205.0		195846.0		84359.0
273665.0		372976.0		273665.0		99311.0
184972.0		239568.0		184972.0		54596.0
112823.0		136699.0		112823.0		23876.0
47899.0		57292.0		47899.0		9393.0
10118.0		11767.0		10118.0		1649.0
4754.0		5411.0		4754.0		657.0
2197.0		2469.0		2197.0		272.0
1104.0		1213.0		1104.0		109.0
1199.0		1314.0		1199.0		115.0
1.52<|#eta|<1.81
93858.0		118965.0		93858.0		25107.0
151710.0		190841.0		151710.0		39131.0
226300.0		288987.0		226300.0		62687.0
289203.0		368565.0		289203.0		79362.0
209262.0		255295.0		209262.0		46033.0
124393.0		147273.0		124393.0		22880.0
52535.0		60984.0		52535.0		8449.0
10495.0		12044.0		10495.0		1549.0
4946.0		5568.0		4946.0		622.0
2128.0		2346.0		2128.0		218.0
1136.0		1220.0		1136.0		84.0
1248.0		1317.0		1248.0		69.0
1.81<|#eta|<2.01
62010.0		77253.0		62010.0		15243.0
99258.0		123961.0		99258.0		24703.0
147377.0		176713.0		147377.0		29336.0
186180.0		220812.0		186180.0		34632.0
121887.0		147443.0		121887.0		25556.0
69812.0		82446.0		69812.0		12634.0
30332.0		34331.0		30332.0		3999.0
5931.0		6972.0		5931.0		1041.0
2726.0		3009.0		2726.0		283.0
1110.0		1239.0		1110.0		129.0
547.0		609.0		547.0		62.0
508.0		549.0		508.0		41.0
2.01<|#eta|<2.37
118827.0		138377.0		118827.0		19550.0
186722.0		214201.0		186722.0		27479.0
249830.0		282456.0		249830.0		32626.0
282213.0		324092.0		282213.0		41879.0
185633.0		209451.0		185633.0		23818.0
101802.0		115298.0		101802.0		13496.0
40846.0		47173.0		40846.0		6327.0
8376.0		9469.0		8376.0		1093.0
3626.0		4046.0		3626.0		420.0
1450.0		1609.0		1450.0		159.0
737.0		791.0		737.0		54.0
615.0		698.0		615.0		83.0
