0.00<|#eta|<0.60
283266.0		355753.0		283266.0		72487.0
510599.0		631542.0		510599.0		120943.0
782520.0		968210.0		782520.0		185696.0
1033140.0		1267390.0		1033140.0		234255.0
717604.0		847912.0		717604.0		130308.0
411013.0		480297.0		411013.0		69284.0
179621.0		205827.0		179621.0		26206.0
37837.0		43062.0		37837.0		5225.0
18079.0		19265.0		18079.0		1186.0
7906.0		8522.0		7906.0		616.0
3980.0		4299.0		3980.0		319.0
4308.0		4662.0		4308.0		354.0
0.60<|#eta|<0.80
75604.0		98620.0		75604.0		23016.0
164307.0		203945.0		164307.0		39638.0
262189.0		328245.0		262189.0		66056.0
328038.0		404244.0		328038.0		76206.0
228566.0		271811.0		228566.0		43245.0
130409.0		153683.0		130409.0		23274.0
57068.0		65032.0		57068.0		7964.0
12029.0		13350.0		12029.0		1321.0
5657.0		6064.0		5657.0		407.0
2490.0		2677.0		2490.0		187.0
1317.0		1382.0		1317.0		65.0
1399.0		1474.0		1399.0		75.0
0.80<|#eta|<1.15
124064.0		171975.0		124064.0		47911.0
226243.0		315206.0		226243.0		88963.0
378070.0		524724.0		378070.0		146654.0
497647.0		666298.0		497647.0		168651.0
333874.0		429478.0		333874.0		95604.0
192231.0		244041.0		192231.0		51810.0
84148.0		101765.0		84148.0		17617.0
17238.0		21209.0		17238.0		3971.0
8896.0		9926.0		8896.0		1030.0
3915.0		4296.0		3915.0		381.0
1977.0		2128.0		1977.0		151.0
2160.0		2379.0		2160.0		219.0
1.15<|#eta|<1.37
69088.0		100792.0		69088.0		31704.0
122765.0		172225.0		122765.0		49460.0
195619.0		280205.0		195619.0		84586.0
279512.0		372976.0		279512.0		93464.0
187000.0		239568.0		187000.0		52568.0
110655.0		136699.0		110655.0		26044.0
46876.0		57292.0		46876.0		10416.0
9895.0		11767.0		9895.0		1872.0
4597.0		5411.0		4597.0		814.0
2138.0		2469.0		2138.0		331.0
1085.0		1213.0		1085.0		128.0
1164.0		1314.0		1164.0		150.0
1.52<|#eta|<1.81
92804.0		118965.0		92804.0		26161.0
149023.0		190841.0		149023.0		41818.0
225496.0		288987.0		225496.0		63491.0
291022.0		368565.0		291022.0		77543.0
211004.0		255295.0		211004.0		44291.0
122805.0		147273.0		122805.0		24468.0
51672.0		60984.0		51672.0		9312.0
10314.0		12044.0		10314.0		1730.0
4829.0		5568.0		4829.0		739.0
2074.0		2346.0		2074.0		272.0
1152.0		1220.0		1152.0		68.0
1246.0		1317.0		1246.0		71.0
1.81<|#eta|<2.01
61974.0		77253.0		61974.0		15279.0
98489.0		123961.0		98489.0		25472.0
146374.0		176713.0		146374.0		30339.0
185879.0		220812.0		185879.0		34933.0
122286.0		147443.0		122286.0		25157.0
70361.0		82446.0		70361.0		12085.0
30328.0		34331.0		30328.0		4003.0
5951.0		6972.0		5951.0		1021.0
2667.0		3009.0		2667.0		342.0
1108.0		1239.0		1108.0		131.0
543.0		609.0		543.0		66.0
503.0		549.0		503.0		46.0
2.01<|#eta|<2.37
118814.0		138377.0		118814.0		19563.0
186911.0		214201.0		186911.0		27290.0
250860.0		282456.0		250860.0		31596.0
282146.0		324092.0		282146.0		41946.0
185922.0		209451.0		185922.0		23529.0
102103.0		115298.0		102103.0		13195.0
41014.0		47173.0		41014.0		6159.0
8380.0		9469.0		8380.0		1089.0
3620.0		4046.0		3620.0		426.0
1463.0		1609.0		1463.0		146.0
754.0		791.0		754.0		37.0
629.0		698.0		629.0		69.0
