0.00<|#eta|<0.60
284227.0		355753.0		284227.0		71526.0
511117.0		631542.0		511117.0		120425.0
781310.0		968210.0		781310.0		186906.0
1030660.0		1267390.0		1030660.0		236737.0
718512.0		847912.0		718512.0		129400.0
415745.0		480297.0		415745.0		64552.0
181015.0		205827.0		181015.0		24812.0
37915.0		43062.0		37915.0		5147.0
18098.0		19265.0		18098.0		1167.0
7902.0		8522.0		7902.0		620.0
3972.0		4299.0		3972.0		327.0
4299.0		4662.0		4299.0		363.0
0.60<|#eta|<0.80
75271.0		98620.0		75271.0		23349.0
164644.0		203945.0		164644.0		39301.0
262155.0		328245.0		262155.0		66090.0
325752.0		404244.0		325752.0		78492.0
228168.0		271811.0		228168.0		43643.0
130261.0		153683.0		130261.0		23422.0
57106.0		65032.0		57106.0		7926.0
11965.0		13350.0		11965.0		1385.0
5680.0		6064.0		5680.0		384.0
2484.0		2677.0		2484.0		193.0
1325.0		1382.0		1325.0		57.0
1399.0		1474.0		1399.0		75.0
0.80<|#eta|<1.15
124707.0		171975.0		124707.0		47268.0
226373.0		315206.0		226373.0		88833.0
378252.0		524724.0		378252.0		146472.0
497674.0		666298.0		497674.0		168624.0
335451.0		429478.0		335451.0		94027.0
200060.0		244041.0		200060.0		43981.0
86411.0		101765.0		86411.0		15354.0
17249.0		21209.0		17249.0		3960.0
8870.0		9926.0		8870.0		1056.0
3925.0		4296.0		3925.0		371.0
1999.0		2128.0		1999.0		129.0
2175.0		2379.0		2175.0		204.0
1.15<|#eta|<1.37
69141.0		100792.0		69141.0		31651.0
122649.0		172225.0		122649.0		49576.0
197406.0		280205.0		197406.0		82799.0
280617.0		372976.0		280617.0		92359.0
188156.0		239568.0		188156.0		51412.0
116225.0		136699.0		116225.0		20474.0
48415.0		57292.0		48415.0		8877.0
9863.0		11767.0		9863.0		1904.0
4601.0		5411.0		4601.0		810.0
2143.0		2469.0		2143.0		326.0
1088.0		1213.0		1088.0		125.0
1141.0		1314.0		1141.0		173.0
1.52<|#eta|<1.81
92816.0		118965.0		92816.0		26149.0
149470.0		190841.0		149470.0		41371.0
225504.0		288987.0		225504.0		63483.0
291111.0		368565.0		291111.0		77454.0
211832.0		255295.0		211832.0		43463.0
126490.0		147273.0		126490.0		20783.0
53037.0		60984.0		53037.0		7947.0
10236.0		12044.0		10236.0		1808.0
4837.0		5568.0		4837.0		731.0
2114.0		2346.0		2114.0		232.0
1145.0		1220.0		1145.0		75.0
1250.0		1317.0		1250.0		67.0
1.81<|#eta|<2.01
61922.0		77253.0		61922.0		15331.0
98073.0		123961.0		98073.0		25888.0
145833.0		176713.0		145833.0		30880.0
185357.0		220812.0		185357.0		35455.0
122543.0		147443.0		122543.0		24900.0
70148.0		82446.0		70148.0		12298.0
30217.0		34331.0		30217.0		4114.0
5913.0		6972.0		5913.0		1059.0
2677.0		3009.0		2677.0		332.0
1125.0		1239.0		1125.0		114.0
542.0		609.0		542.0		67.0
501.0		549.0		501.0		48.0
2.01<|#eta|<2.37
119240.0		138377.0		119240.0		19137.0
186525.0		214201.0		186525.0		27676.0
249480.0		282456.0		249480.0		32976.0
282265.0		324092.0		282265.0		41827.0
186045.0		209451.0		186045.0		23406.0
102121.0		115298.0		102121.0		13177.0
40774.0		47173.0		40774.0		6399.0
8358.0		9469.0		8358.0		1111.0
3642.0		4046.0		3642.0		404.0
1457.0		1609.0		1457.0		152.0
753.0		791.0		753.0		38.0
630.0		698.0		630.0		68.0
