0.00<|#eta|<0.60
285802.0		355753.0		285802.0		69951.0
515992.0		631542.0		515992.0		115550.0
783815.0		968210.0		783815.0		184401.0
1031930.0		1267390.0		1031930.0		235477.0
717743.0		847912.0		717743.0		130169.0
413348.0		480297.0		413348.0		66949.0
180262.0		205827.0		180262.0		25565.0
38117.0		43062.0		38117.0		4945.0
18158.0		19265.0		18158.0		1107.0
7962.0		8522.0		7962.0		560.0
3993.0		4299.0		3993.0		306.0
4319.0		4662.0		4319.0		343.0
0.60<|#eta|<0.80
76047.0		98620.0		76047.0		22573.0
163862.0		203945.0		163862.0		40083.0
261373.0		328245.0		261373.0		66872.0
326536.0		404244.0		326536.0		77708.0
227876.0		271811.0		227876.0		43935.0
130131.0		153683.0		130131.0		23552.0
57119.0		65032.0		57119.0		7913.0
11928.0		13350.0		11928.0		1422.0
5695.0		6064.0		5695.0		369.0
2480.0		2677.0		2480.0		197.0
1318.0		1382.0		1318.0		64.0
1392.0		1474.0		1392.0		82.0
0.80<|#eta|<1.15
127233.0		171975.0		127233.0		44742.0
231100.0		315206.0		231100.0		84106.0
380838.0		524724.0		380838.0		143886.0
499137.0		666298.0		499137.0		167161.0
335861.0		429478.0		335861.0		93617.0
196346.0		244041.0		196346.0		47695.0
85441.0		101765.0		85441.0		16324.0
17449.0		21209.0		17449.0		3760.0
9082.0		9926.0		9082.0		844.0
3969.0		4296.0		3969.0		327.0
1979.0		2128.0		1979.0		149.0
2178.0		2379.0		2178.0		201.0
1.15<|#eta|<1.37
72247.0		100792.0		72247.0		28545.0
127332.0		172225.0		127332.0		44893.0
198565.0		280205.0		198565.0		81640.0
278868.0		372976.0		278868.0		94108.0
188409.0		239568.0		188409.0		51159.0
113031.0		136699.0		113031.0		23668.0
48106.0		57292.0		48106.0		9186.0
10106.0		11767.0		10106.0		1661.0
4710.0		5411.0		4710.0		701.0
2202.0		2469.0		2202.0		267.0
1091.0		1213.0		1091.0		122.0
1202.0		1314.0		1202.0		112.0
1.52<|#eta|<1.81
94177.0		118965.0		94177.0		24788.0
151497.0		190841.0		151497.0		39344.0
228043.0		288987.0		228043.0		60944.0
290747.0		368565.0		290747.0		77818.0
211555.0		255295.0		211555.0		43740.0
125063.0		147273.0		125063.0		22210.0
52530.0		60984.0		52530.0		8454.0
10371.0		12044.0		10371.0		1673.0
4943.0		5568.0		4943.0		625.0
2132.0		2346.0		2132.0		214.0
1149.0		1220.0		1149.0		71.0
1238.0		1317.0		1238.0		79.0
1.81<|#eta|<2.01
61986.0		77253.0		61986.0		15267.0
98001.0		123961.0		98001.0		25960.0
146016.0		176713.0		146016.0		30697.0
185582.0		220812.0		185582.0		35230.0
121952.0		147443.0		121952.0		25491.0
70134.0		82446.0		70134.0		12312.0
30241.0		34331.0		30241.0		4090.0
5964.0		6972.0		5964.0		1008.0
2673.0		3009.0		2673.0		336.0
1110.0		1239.0		1110.0		129.0
543.0		609.0		543.0		66.0
504.0		549.0		504.0		45.0
2.01<|#eta|<2.37
119171.0		138377.0		119171.0		19206.0
187147.0		214201.0		187147.0		27054.0
250772.0		282456.0		250772.0		31684.0
281789.0		324092.0		281789.0		42303.0
185780.0		209451.0		185780.0		23671.0
102050.0		115298.0		102050.0		13248.0
41013.0		47173.0		41013.0		6160.0
8353.0		9469.0		8353.0		1116.0
3617.0		4046.0		3617.0		429.0
1456.0		1609.0		1456.0		153.0
740.0		791.0		740.0		51.0
623.0		698.0		623.0		75.0
