0.00<|#eta|<0.60
283656.0		355753.0		283656.0		72097.0
511838.0		631542.0		511838.0		119704.0
781353.0		968210.0		781353.0		186863.0
1031620.0		1267390.0		1031620.0		235764.0
716572.0		847912.0		716572.0		131340.0
411699.0		480297.0		411699.0		68598.0
179770.0		205827.0		179770.0		26057.0
38007.0		43062.0		38007.0		5055.0
18143.0		19265.0		18143.0		1122.0
7930.0		8522.0		7930.0		592.0
3952.0		4299.0		3952.0		347.0
4288.0		4662.0		4288.0		374.0
0.60<|#eta|<0.80
75740.0		98620.0		75740.0		22880.0
164726.0		203945.0		164726.0		39219.0
261955.0		328245.0		261955.0		66290.0
327193.0		404244.0		327193.0		77051.0
228131.0		271811.0		228131.0		43680.0
130319.0		153683.0		130319.0		23364.0
57244.0		65032.0		57244.0		7788.0
11907.0		13350.0		11907.0		1443.0
5682.0		6064.0		5682.0		382.0
2483.0		2677.0		2483.0		194.0
1318.0		1382.0		1318.0		64.0
1396.0		1474.0		1396.0		78.0
0.80<|#eta|<1.15
124567.0		171975.0		124567.0		47408.0
226158.0		315206.0		226158.0		89048.0
379073.0		524724.0		379073.0		145651.0
497308.0		666298.0		497308.0		168990.0
335204.0		429478.0		335204.0		94274.0
192090.0		244041.0		192090.0		51951.0
84426.0		101765.0		84426.0		17339.0
17546.0		21209.0		17546.0		3663.0
9075.0		9926.0		9075.0		851.0
3968.0		4296.0		3968.0		328.0
1973.0		2128.0		1973.0		155.0
2170.0		2379.0		2170.0		209.0
1.15<|#eta|<1.37
68779.0		100792.0		68779.0		32013.0
123182.0		172225.0		123182.0		49043.0
197111.0		280205.0		197111.0		83094.0
279340.0		372976.0		279340.0		93636.0
187289.0		239568.0		187289.0		52279.0
110208.0		136699.0		110208.0		26491.0
47258.0		57292.0		47258.0		10034.0
10134.0		11767.0		10134.0		1633.0
4757.0		5411.0		4757.0		654.0
2186.0		2469.0		2186.0		283.0
1083.0		1213.0		1083.0		130.0
1151.0		1314.0		1151.0		163.0
1.52<|#eta|<1.81
92652.0		118965.0		92652.0		26313.0
150054.0		190841.0		150054.0		40787.0
225304.0		288987.0		225304.0		63683.0
290899.0		368565.0		290899.0		77666.0
210113.0		255295.0		210113.0		45182.0
123369.0		147273.0		123369.0		23904.0
51903.0		60984.0		51903.0		9081.0
10529.0		12044.0		10529.0		1515.0
4961.0		5568.0		4961.0		607.0
2133.0		2346.0		2133.0		213.0
1146.0		1220.0		1146.0		74.0
1239.0		1317.0		1239.0		78.0
1.81<|#eta|<2.01
61660.0		77253.0		61660.0		15593.0
98856.0		123961.0		98856.0		25105.0
146129.0		176713.0		146129.0		30584.0
186023.0		220812.0		186023.0		34789.0
122102.0		147443.0		122102.0		25341.0
70104.0		82446.0		70104.0		12342.0
30149.0		34331.0		30149.0		4182.0
5924.0		6972.0		5924.0		1048.0
2666.0		3009.0		2666.0		343.0
1100.0		1239.0		1100.0		139.0
546.0		609.0		546.0		63.0
503.0		549.0		503.0		46.0
2.01<|#eta|<2.37
118194.0		138377.0		118194.0		20183.0
186973.0		214201.0		186973.0		27228.0
249673.0		282456.0		249673.0		32783.0
281904.0		324092.0		281904.0		42188.0
185460.0		209451.0		185460.0		23991.0
102097.0		115298.0		102097.0		13201.0
40789.0		47173.0		40789.0		6384.0
8318.0		9469.0		8318.0		1151.0
3619.0		4046.0		3619.0		427.0
1452.0		1609.0		1452.0		157.0
754.0		791.0		754.0		37.0
624.0		698.0		624.0		74.0
