0.00<|#eta|<0.60
283697.0		355753.0		283697.0		72056.0
511615.0		631542.0		511615.0		119927.0
785935.0		968210.0		785935.0		182281.0
1037230.0		1267390.0		1037230.0		230160.0
722434.0		847912.0		722434.0		125478.0
413524.0		480297.0		413524.0		66773.0
180362.0		205827.0		180362.0		25465.0
38036.0		43062.0		38036.0		5026.0
18149.0		19265.0		18149.0		1116.0
7942.0		8522.0		7942.0		580.0
3955.0		4299.0		3955.0		344.0
4298.0		4662.0		4298.0		364.0
0.60<|#eta|<0.80
74931.0		98620.0		74931.0		23689.0
164403.0		203945.0		164403.0		39542.0
262505.0		328245.0		262505.0		65740.0
327389.0		404244.0		327389.0		76855.0
228705.0		271811.0		228705.0		43106.0
130494.0		153683.0		130494.0		23189.0
56969.0		65032.0		56969.0		8063.0
12008.0		13350.0		12008.0		1342.0
5670.0		6064.0		5670.0		394.0
2483.0		2677.0		2483.0		194.0
1327.0		1382.0		1327.0		55.0
1398.0		1474.0		1398.0		76.0
0.80<|#eta|<1.15
124323.0		171975.0		124323.0		47652.0
224975.0		315206.0		224975.0		90231.0
382131.0		524724.0		382131.0		142593.0
505369.0		666298.0		505369.0		160929.0
337888.0		429478.0		337888.0		91590.0
196182.0		244041.0		196182.0		47859.0
85563.0		101765.0		85563.0		16202.0
17534.0		21209.0		17534.0		3675.0
9101.0		9926.0		9101.0		825.0
3975.0		4296.0		3975.0		321.0
1997.0		2128.0		1997.0		131.0
2164.0		2379.0		2164.0		215.0
1.15<|#eta|<1.37
69078.0		100792.0		69078.0		31714.0
122412.0		172225.0		122412.0		49813.0
200970.0		280205.0		200970.0		79235.0
286595.0		372976.0		286595.0		86381.0
191485.0		239568.0		191485.0		48083.0
113800.0		136699.0		113800.0		22899.0
47828.0		57292.0		47828.0		9464.0
10120.0		11767.0		10120.0		1647.0
4755.0		5411.0		4755.0		656.0
2199.0		2469.0		2199.0		270.0
1082.0		1213.0		1082.0		131.0
1161.0		1314.0		1161.0		153.0
1.52<|#eta|<1.81
92499.0		118965.0		92499.0		26466.0
149792.0		190841.0		149792.0		41049.0
226511.0		288987.0		226511.0		62476.0
294226.0		368565.0		294226.0		74339.0
213102.0		255295.0		213102.0		42193.0
125314.0		147273.0		125314.0		21959.0
52550.0		60984.0		52550.0		8434.0
10477.0		12044.0		10477.0		1567.0
4918.0		5568.0		4918.0		650.0
2156.0		2346.0		2156.0		190.0
1150.0		1220.0		1150.0		70.0
1242.0		1317.0		1242.0		75.0
1.81<|#eta|<2.01
61291.0		77253.0		61291.0		15962.0
98545.0		123961.0		98545.0		25416.0
145587.0		176713.0		145587.0		31126.0
185808.0		220812.0		185808.0		35004.0
122154.0		147443.0		122154.0		25289.0
70295.0		82446.0		70295.0		12151.0
30166.0		34331.0		30166.0		4165.0
5936.0		6972.0		5936.0		1036.0
2665.0		3009.0		2665.0		344.0
1111.0		1239.0		1111.0		128.0
544.0		609.0		544.0		65.0
502.0		549.0		502.0		47.0
2.01<|#eta|<2.37
118646.0		138377.0		118646.0		19731.0
187335.0		214201.0		187335.0		26866.0
250470.0		282456.0		250470.0		31986.0
281860.0		324092.0		281860.0		42232.0
186864.0		209451.0		186864.0		22587.0
101988.0		115298.0		101988.0		13310.0
41035.0		47173.0		41035.0		6138.0
8314.0		9469.0		8314.0		1155.0
3599.0		4046.0		3599.0		447.0
1452.0		1609.0		1452.0		157.0
750.0		791.0		750.0		41.0
624.0		698.0		624.0		74.0
