0.00<|#eta|<0.60
283108.0		355753.0		283108.0		72645.0
511191.0		631542.0		511191.0		120351.0
778991.0		968210.0		778991.0		189225.0
1027760.0		1267390.0		1027760.0		239643.0
714914.0		847912.0		714914.0		132998.0
410680.0		480297.0		410680.0		69617.0
179506.0		205827.0		179506.0		26321.0
38014.0		43062.0		38014.0		5048.0
18121.0		19265.0		18121.0		1144.0
7936.0		8522.0		7936.0		586.0
3960.0		4299.0		3960.0		339.0
4295.0		4662.0		4295.0		367.0
0.60<|#eta|<0.80
75505.0		98620.0		75505.0		23115.0
163390.0		203945.0		163390.0		40555.0
262010.0		328245.0		262010.0		66235.0
327159.0		404244.0		327159.0		77085.0
227098.0		271811.0		227098.0		44713.0
130200.0		153683.0		130200.0		23483.0
57113.0		65032.0		57113.0		7919.0
11983.0		13350.0		11983.0		1367.0
5688.0		6064.0		5688.0		376.0
2486.0		2677.0		2486.0		191.0
1301.0		1382.0		1301.0		81.0
1391.0		1474.0		1391.0		83.0
0.80<|#eta|<1.15
124556.0		171975.0		124556.0		47419.0
226932.0		315206.0		226932.0		88274.0
375871.0		524724.0		375871.0		148853.0
494564.0		666298.0		494564.0		171734.0
330705.0		429478.0		330705.0		98773.0
191775.0		244041.0		191775.0		52266.0
84572.0		101765.0		84572.0		17193.0
17588.0		21209.0		17588.0		3621.0
9077.0		9926.0		9077.0		849.0
3974.0		4296.0		3974.0		322.0
1977.0		2128.0		1977.0		151.0
2187.0		2379.0		2187.0		192.0
1.15<|#eta|<1.37
69472.0		100792.0		69472.0		31320.0
122772.0		172225.0		122772.0		49453.0
193172.0		280205.0		193172.0		87033.0
273334.0		372976.0		273334.0		99642.0
184491.0		239568.0		184491.0		55077.0
110499.0		136699.0		110499.0		26200.0
47130.0		57292.0		47130.0		10162.0
10125.0		11767.0		10125.0		1642.0
4753.0		5411.0		4753.0		658.0
2204.0		2469.0		2204.0		265.0
1078.0		1213.0		1078.0		135.0
1149.0		1314.0		1149.0		165.0
1.52<|#eta|<1.81
92255.0		118965.0		92255.0		26710.0
150194.0		190841.0		150194.0		40647.0
224082.0		288987.0		224082.0		64905.0
289364.0		368565.0		289364.0		79201.0
208299.0		255295.0		208299.0		46996.0
123242.0		147273.0		123242.0		24031.0
51721.0		60984.0		51721.0		9263.0
10471.0		12044.0		10471.0		1573.0
4917.0		5568.0		4917.0		651.0
2141.0		2346.0		2141.0		205.0
1143.0		1220.0		1143.0		77.0
1246.0		1317.0		1246.0		71.0
1.81<|#eta|<2.01
61146.0		77253.0		61146.0		16107.0
98860.0		123961.0		98860.0		25101.0
146492.0		176713.0		146492.0		30221.0
186631.0		220812.0		186631.0		34181.0
122523.0		147443.0		122523.0		24920.0
70196.0		82446.0		70196.0		12250.0
30275.0		34331.0		30275.0		4056.0
5987.0		6972.0		5987.0		985.0
2681.0		3009.0		2681.0		328.0
1116.0		1239.0		1116.0		123.0
539.0		609.0		539.0		70.0
508.0		549.0		508.0		41.0
2.01<|#eta|<2.37
118408.0		138377.0		118408.0		19969.0
186781.0		214201.0		186781.0		27420.0
249909.0		282456.0		249909.0		32547.0
282201.0		324092.0		282201.0		41891.0
186193.0		209451.0		186193.0		23258.0
102064.0		115298.0		102064.0		13234.0
40905.0		47173.0		40905.0		6268.0
8281.0		9469.0		8281.0		1188.0
3613.0		4046.0		3613.0		433.0
1450.0		1609.0		1450.0		159.0
750.0		791.0		750.0		41.0
630.0		698.0		630.0		68.0
