0.00<|#eta|<0.60
285639.0		355753.0		285639.0		70114.0
516397.0		631542.0		516397.0		115145.0
780304.0		968210.0		780304.0		187912.0
1028920.0		1267390.0		1028920.0		238472.0
713612.0		847912.0		713612.0		134300.0
411104.0		480297.0		411104.0		69193.0
179555.0		205827.0		179555.0		26272.0
37965.0		43062.0		37965.0		5097.0
18105.0		19265.0		18105.0		1160.0
7922.0		8522.0		7922.0		600.0
3965.0		4299.0		3965.0		334.0
4284.0		4662.0		4284.0		378.0
0.60<|#eta|<0.80
75968.0		98620.0		75968.0		22652.0
164635.0		203945.0		164635.0		39310.0
262256.0		328245.0		262256.0		65989.0
327030.0		404244.0		327030.0		77214.0
227894.0		271811.0		227894.0		43917.0
130503.0		153683.0		130503.0		23180.0
56985.0		65032.0		56985.0		8047.0
11963.0		13350.0		11963.0		1387.0
5673.0		6064.0		5673.0		391.0
2495.0		2677.0		2495.0		182.0
1321.0		1382.0		1321.0		61.0
1406.0		1474.0		1406.0		68.0
0.80<|#eta|<1.15
127727.0		171975.0		127727.0		44248.0
230473.0		315206.0		230473.0		84733.0
376646.0		524724.0		376646.0		148078.0
492426.0		666298.0		492426.0		173872.0
331910.0		429478.0		331910.0		97568.0
191563.0		244041.0		191563.0		52478.0
84073.0		101765.0		84073.0		17692.0
17243.0		21209.0		17243.0		3966.0
8887.0		9926.0		8887.0		1039.0
3918.0		4296.0		3918.0		378.0
2018.0		2128.0		2018.0		110.0
2155.0		2379.0		2155.0		224.0
1.15<|#eta|<1.37
71630.0		100792.0		71630.0		29162.0
126384.0		172225.0		126384.0		45841.0
195069.0		280205.0		195069.0		85136.0
273870.0		372976.0		273870.0		99106.0
184343.0		239568.0		184343.0		55225.0
110078.0		136699.0		110078.0		26621.0
46815.0		57292.0		46815.0		10477.0
9829.0		11767.0		9829.0		1938.0
4608.0		5411.0		4608.0		803.0
2162.0		2469.0		2162.0		307.0
1087.0		1213.0		1087.0		126.0
1181.0		1314.0		1181.0		133.0
1.52<|#eta|<1.81
94024.0		118965.0		94024.0		24941.0
151741.0		190841.0		151741.0		39100.0
226802.0		288987.0		226802.0		62185.0
288435.0		368565.0		288435.0		80130.0
209204.0		255295.0		209204.0		46091.0
122948.0		147273.0		122948.0		24325.0
51755.0		60984.0		51755.0		9229.0
10326.0		12044.0		10326.0		1718.0
4758.0		5568.0		4758.0		810.0
2103.0		2346.0		2103.0		243.0
1150.0		1220.0		1150.0		70.0
1236.0		1317.0		1236.0		81.0
1.81<|#eta|<2.01
62083.0		77253.0		62083.0		15170.0
98647.0		123961.0		98647.0		25314.0
146272.0		176713.0		146272.0		30441.0
185677.0		220812.0		185677.0		35135.0
122286.0		147443.0		122286.0		25157.0
70332.0		82446.0		70332.0		12114.0
30257.0		34331.0		30257.0		4074.0
5914.0		6972.0		5914.0		1058.0
2663.0		3009.0		2663.0		346.0
1113.0		1239.0		1113.0		126.0
536.0		609.0		536.0		73.0
505.0		549.0		505.0		44.0
2.01<|#eta|<2.37
119626.0		138377.0		119626.0		18751.0
187117.0		214201.0		187117.0		27084.0
249713.0		282456.0		249713.0		32743.0
281644.0		324092.0		281644.0		42448.0
185436.0		209451.0		185436.0		24015.0
102149.0		115298.0		102149.0		13149.0
40816.0		47173.0		40816.0		6357.0
8363.0		9469.0		8363.0		1106.0
3617.0		4046.0		3617.0		429.0
1459.0		1609.0		1459.0		150.0
748.0		791.0		748.0		43.0
629.0		698.0		629.0		69.0
