0.00<|#eta|<0.60
284179.0		355753.0		284179.0		71574.0
510860.0		631542.0		510860.0		120682.0
781543.0		968210.0		781543.0		186673.0
1032450.0		1267390.0		1032450.0		234942.0
719192.0		847912.0		719192.0		128720.0
413229.0		480297.0		413229.0		67068.0
180115.0		205827.0		180115.0		25712.0
37837.0		43062.0		37837.0		5225.0
18138.0		19265.0		18138.0		1127.0
7907.0		8522.0		7907.0		615.0
3957.0		4299.0		3957.0		342.0
4323.0		4662.0		4323.0		339.0
0.60<|#eta|<0.80
75358.0		98620.0		75358.0		23262.0
164746.0		203945.0		164746.0		39199.0
262463.0		328245.0		262463.0		65782.0
328268.0		404244.0		328268.0		75976.0
228101.0		271811.0		228101.0		43710.0
130488.0		153683.0		130488.0		23195.0
57148.0		65032.0		57148.0		7884.0
11992.0		13350.0		11992.0		1358.0
5676.0		6064.0		5676.0		388.0
2473.0		2677.0		2473.0		204.0
1320.0		1382.0		1320.0		62.0
1389.0		1474.0		1389.0		85.0
0.80<|#eta|<1.15
124121.0		171975.0		124121.0		47854.0
224746.0		315206.0		224746.0		90460.0
378882.0		524724.0		378882.0		145842.0
499156.0		666298.0		499156.0		167142.0
334548.0		429478.0		334548.0		94930.0
195779.0		244041.0		195779.0		48262.0
85269.0		101765.0		85269.0		16496.0
17164.0		21209.0		17164.0		4045.0
8908.0		9926.0		8908.0		1018.0
3937.0		4296.0		3937.0		359.0
2000.0		2128.0		2000.0		128.0
2180.0		2379.0		2180.0		199.0
1.15<|#eta|<1.37
69204.0		100792.0		69204.0		31588.0
122490.0		172225.0		122490.0		49735.0
197328.0		280205.0		197328.0		82877.0
279090.0		372976.0		279090.0		93886.0
187908.0		239568.0		187908.0		51660.0
113316.0		136699.0		113316.0		23383.0
47582.0		57292.0		47582.0		9710.0
9879.0		11767.0		9879.0		1888.0
4602.0		5411.0		4602.0		809.0
2147.0		2469.0		2147.0		322.0
1087.0		1213.0		1087.0		126.0
1169.0		1314.0		1169.0		145.0
1.52<|#eta|<1.81
92619.0		118965.0		92619.0		26346.0
149448.0		190841.0		149448.0		41393.0
225083.0		288987.0		225083.0		63904.0
290021.0		368565.0		290021.0		78544.0
211265.0		255295.0		211265.0		44030.0
124567.0		147273.0		124567.0		22706.0
52247.0		60984.0		52247.0		8737.0
10257.0		12044.0		10257.0		1787.0
4833.0		5568.0		4833.0		735.0
2157.0		2346.0		2157.0		189.0
1151.0		1220.0		1151.0		69.0
1241.0		1317.0		1241.0		76.0
1.81<|#eta|<2.01
61993.0		77253.0		61993.0		15260.0
99154.0		123961.0		99154.0		24807.0
146142.0		176713.0		146142.0		30571.0
185961.0		220812.0		185961.0		34851.0
122009.0		147443.0		122009.0		25434.0
69896.0		82446.0		69896.0		12550.0
30216.0		34331.0		30216.0		4115.0
5941.0		6972.0		5941.0		1031.0
2665.0		3009.0		2665.0		344.0
1110.0		1239.0		1110.0		129.0
537.0		609.0		537.0		72.0
502.0		549.0		502.0		47.0
2.01<|#eta|<2.37
118518.0		138377.0		118518.0		19859.0
187432.0		214201.0		187432.0		26769.0
250839.0		282456.0		250839.0		31617.0
281889.0		324092.0		281889.0		42203.0
185902.0		209451.0		185902.0		23549.0
102081.0		115298.0		102081.0		13217.0
40943.0		47173.0		40943.0		6230.0
8309.0		9469.0		8309.0		1160.0
3611.0		4046.0		3611.0		435.0
1447.0		1609.0		1447.0		162.0
747.0		791.0		747.0		44.0
628.0		698.0		628.0		70.0
