0.00<|#eta|<0.60
287344.0		355753.0		287344.0		68409.0
516102.0		631542.0		516102.0		115440.0
785688.0		968210.0		785688.0		182528.0
1029230.0		1267390.0		1029230.0		238175.0
718262.0		847912.0		718262.0		129650.0
412993.0		480297.0		412993.0		67304.0
180342.0		205827.0		180342.0		25485.0
38133.0		43062.0		38133.0		4929.0
18160.0		19265.0		18160.0		1105.0
7921.0		8522.0		7921.0		601.0
3963.0		4299.0		3963.0		336.0
4306.0		4662.0		4306.0		356.0
0.60<|#eta|<0.80
75646.0		98620.0		75646.0		22974.0
164008.0		203945.0		164008.0		39937.0
262048.0		328245.0		262048.0		66197.0
327801.0		404244.0		327801.0		76443.0
228209.0		271811.0		228209.0		43602.0
130490.0		153683.0		130490.0		23193.0
57056.0		65032.0		57056.0		7976.0
12010.0		13350.0		12010.0		1340.0
5653.0		6064.0		5653.0		411.0
2482.0		2677.0		2482.0		195.0
1321.0		1382.0		1321.0		61.0
1397.0		1474.0		1397.0		77.0
0.80<|#eta|<1.15
127983.0		171975.0		127983.0		43992.0
232796.0		315206.0		232796.0		82410.0
382001.0		524724.0		382001.0		142723.0
498334.0		666298.0		498334.0		167964.0
334777.0		429478.0		334777.0		94701.0
195619.0		244041.0		195619.0		48422.0
85276.0		101765.0		85276.0		16489.0
17406.0		21209.0		17406.0		3803.0
9076.0		9926.0		9076.0		850.0
3960.0		4296.0		3960.0		336.0
1987.0		2128.0		1987.0		141.0
2174.0		2379.0		2174.0		205.0
1.15<|#eta|<1.37
73698.0		100792.0		73698.0		27094.0
129347.0		172225.0		129347.0		42878.0
197506.0		280205.0		197506.0		82699.0
280689.0		372976.0		280689.0		92287.0
188292.0		239568.0		188292.0		51276.0
112858.0		136699.0		112858.0		23841.0
47976.0		57292.0		47976.0		9316.0
10056.0		11767.0		10056.0		1711.0
4684.0		5411.0		4684.0		727.0
2207.0		2469.0		2207.0		262.0
1090.0		1213.0		1090.0		123.0
1169.0		1314.0		1169.0		145.0
1.52<|#eta|<1.81
94815.0		118965.0		94815.0		24150.0
152479.0		190841.0		152479.0		38362.0
227658.0		288987.0		227658.0		61329.0
291212.0		368565.0		291212.0		77353.0
212117.0		255295.0		212117.0		43178.0
124572.0		147273.0		124572.0		22701.0
52423.0		60984.0		52423.0		8561.0
10451.0		12044.0		10451.0		1593.0
4906.0		5568.0		4906.0		662.0
2156.0		2346.0		2156.0		190.0
1142.0		1220.0		1142.0		78.0
1245.0		1317.0		1245.0		72.0
1.81<|#eta|<2.01
62338.0		77253.0		62338.0		14915.0
98962.0		123961.0		98962.0		24999.0
146268.0		176713.0		146268.0		30445.0
185918.0		220812.0		185918.0		34894.0
122059.0		147443.0		122059.0		25384.0
70120.0		82446.0		70120.0		12326.0
30243.0		34331.0		30243.0		4088.0
5953.0		6972.0		5953.0		1019.0
2665.0		3009.0		2665.0		344.0
1105.0		1239.0		1105.0		134.0
543.0		609.0		543.0		66.0
505.0		549.0		505.0		44.0
2.01<|#eta|<2.37
119037.0		138377.0		119037.0		19340.0
187437.0		214201.0		187437.0		26764.0
249756.0		282456.0		249756.0		32700.0
282203.0		324092.0		282203.0		41889.0
185771.0		209451.0		185771.0		23680.0
102108.0		115298.0		102108.0		13190.0
40882.0		47173.0		40882.0		6291.0
8314.0		9469.0		8314.0		1155.0
3627.0		4046.0		3627.0		419.0
1452.0		1609.0		1452.0		157.0
751.0		791.0		751.0		40.0
625.0		698.0		625.0		73.0
