0.00<|#eta|<0.60
283231.0		355753.0		283231.0		72522.0
510795.0		631542.0		510795.0		120747.0
776520.0		968210.0		776520.0		191696.0
1024000.0		1267390.0		1024000.0		243409.0
714475.0		847912.0		714475.0		133437.0
411424.0		480297.0		411424.0		68873.0
179535.0		205827.0		179535.0		26292.0
38029.0		43062.0		38029.0		5033.0
18149.0		19265.0		18149.0		1116.0
7982.0		8522.0		7982.0		540.0
3953.0		4299.0		3953.0		346.0
4302.0		4662.0		4302.0		360.0
0.60<|#eta|<0.80
75171.0		98620.0		75171.0		23449.0
162848.0		203945.0		162848.0		41097.0
261577.0		328245.0		261577.0		66668.0
326455.0		404244.0		326455.0		77789.0
227875.0		271811.0		227875.0		43936.0
129813.0		153683.0		129813.0		23870.0
57021.0		65032.0		57021.0		8011.0
11995.0		13350.0		11995.0		1355.0
5701.0		6064.0		5701.0		363.0
2468.0		2677.0		2468.0		209.0
1311.0		1382.0		1311.0		71.0
1395.0		1474.0		1395.0		79.0
0.80<|#eta|<1.15
124320.0		171975.0		124320.0		47655.0
225220.0		315206.0		225220.0		89986.0
375259.0		524724.0		375259.0		149465.0
494113.0		666298.0		494113.0		172185.0
332233.0		429478.0		332233.0		97245.0
192249.0		244041.0		192249.0		51792.0
84283.0		101765.0		84283.0		17482.0
17588.0		21209.0		17588.0		3621.0
9099.0		9926.0		9099.0		827.0
3966.0		4296.0		3966.0		330.0
1992.0		2128.0		1992.0		136.0
2182.0		2379.0		2182.0		197.0
1.15<|#eta|<1.37
68981.0		100792.0		68981.0		31811.0
122430.0		172225.0		122430.0		49795.0
195320.0		280205.0		195320.0		84885.0
274144.0		372976.0		274144.0		98832.0
185723.0		239568.0		185723.0		53845.0
110220.0		136699.0		110220.0		26479.0
47102.0		57292.0		47102.0		10190.0
10129.0		11767.0		10129.0		1638.0
4755.0		5411.0		4755.0		656.0
2219.0		2469.0		2219.0		250.0
1070.0		1213.0		1070.0		143.0
1171.0		1314.0		1171.0		143.0
1.52<|#eta|<1.81
92420.0		118965.0		92420.0		26545.0
149032.0		190841.0		149032.0		41809.0
224413.0		288987.0		224413.0		64574.0
288553.0		368565.0		288553.0		80012.0
209205.0		255295.0		209205.0		46090.0
122879.0		147273.0		122879.0		24394.0
51823.0		60984.0		51823.0		9161.0
10474.0		12044.0		10474.0		1570.0
4930.0		5568.0		4930.0		638.0
2096.0		2346.0		2096.0		250.0
1145.0		1220.0		1145.0		75.0
1245.0		1317.0		1245.0		72.0
1.81<|#eta|<2.01
61560.0		77253.0		61560.0		15693.0
98594.0		123961.0		98594.0		25367.0
146527.0		176713.0		146527.0		30186.0
186760.0		220812.0		186760.0		34052.0
122084.0		147443.0		122084.0		25359.0
70165.0		82446.0		70165.0		12281.0
30097.0		34331.0		30097.0		4234.0
5966.0		6972.0		5966.0		1006.0
2671.0		3009.0		2671.0		338.0
1110.0		1239.0		1110.0		129.0
547.0		609.0		547.0		62.0
505.0		549.0		505.0		44.0
2.01<|#eta|<2.37
118927.0		138377.0		118927.0		19450.0
186959.0		214201.0		186959.0		27242.0
249376.0		282456.0		249376.0		33080.0
281569.0		324092.0		281569.0		42523.0
185741.0		209451.0		185741.0		23710.0
101995.0		115298.0		101995.0		13303.0
40923.0		47173.0		40923.0		6250.0
8340.0		9469.0		8340.0		1129.0
3655.0		4046.0		3655.0		391.0
1453.0		1609.0		1453.0		156.0
750.0		791.0		750.0		41.0
626.0		698.0		626.0		72.0
