0.00<|#eta|<0.60
283421.0		355753.0		283421.0		72332.0
511174.0		631542.0		511174.0		120368.0
780775.0		968210.0		780775.0		187441.0
1031140.0		1267390.0		1031140.0		236254.0
718197.0		847912.0		718197.0		129715.0
415981.0		480297.0		415981.0		64316.0
180901.0		205827.0		180901.0		24926.0
37819.0		43062.0		37819.0		5243.0
18132.0		19265.0		18132.0		1133.0
7910.0		8522.0		7910.0		612.0
3968.0		4299.0		3968.0		331.0
4325.0		4662.0		4325.0		337.0
0.60<|#eta|<0.80
75790.0		98620.0		75790.0		22830.0
163319.0		203945.0		163319.0		40626.0
261495.0		328245.0		261495.0		66750.0
328024.0		404244.0		328024.0		76220.0
227487.0		271811.0		227487.0		44324.0
130635.0		153683.0		130635.0		23048.0
57207.0		65032.0		57207.0		7825.0
12017.0		13350.0		12017.0		1333.0
5670.0		6064.0		5670.0		394.0
2482.0		2677.0		2482.0		195.0
1327.0		1382.0		1327.0		55.0
1403.0		1474.0		1403.0		71.0
0.80<|#eta|<1.15
124730.0		171975.0		124730.0		47245.0
224907.0		315206.0		224907.0		90299.0
378412.0		524724.0		378412.0		146312.0
498215.0		666298.0		498215.0		168083.0
333659.0		429478.0		333659.0		95819.0
199664.0		244041.0		199664.0		44377.0
86352.0		101765.0		86352.0		15413.0
17204.0		21209.0		17204.0		4005.0
8898.0		9926.0		8898.0		1028.0
3887.0		4296.0		3887.0		409.0
1998.0		2128.0		1998.0		130.0
2167.0		2379.0		2167.0		212.0
1.15<|#eta|<1.37
69079.0		100792.0		69079.0		31713.0
123069.0		172225.0		123069.0		49156.0
196785.0		280205.0		196785.0		83420.0
278731.0		372976.0		278731.0		94245.0
189324.0		239568.0		189324.0		50244.0
115878.0		136699.0		115878.0		20821.0
48502.0		57292.0		48502.0		8790.0
9885.0		11767.0		9885.0		1882.0
4570.0		5411.0		4570.0		841.0
2146.0		2469.0		2146.0		323.0
1078.0		1213.0		1078.0		135.0
1166.0		1314.0		1166.0		148.0
1.52<|#eta|<1.81
92975.0		118965.0		92975.0		25990.0
149665.0		190841.0		149665.0		41176.0
225973.0		288987.0		225973.0		63014.0
290473.0		368565.0		290473.0		78092.0
212175.0		255295.0		212175.0		43120.0
126367.0		147273.0		126367.0		20906.0
53060.0		60984.0		53060.0		7924.0
10269.0		12044.0		10269.0		1775.0
4796.0		5568.0		4796.0		772.0
2116.0		2346.0		2116.0		230.0
1146.0		1220.0		1146.0		74.0
1245.0		1317.0		1245.0		72.0
1.81<|#eta|<2.01
61908.0		77253.0		61908.0		15345.0
98323.0		123961.0		98323.0		25638.0
145838.0		176713.0		145838.0		30875.0
186040.0		220812.0		186040.0		34772.0
121978.0		147443.0		121978.0		25465.0
70101.0		82446.0		70101.0		12345.0
30293.0		34331.0		30293.0		4038.0
5906.0		6972.0		5906.0		1066.0
2671.0		3009.0		2671.0		338.0
1110.0		1239.0		1110.0		129.0
542.0		609.0		542.0		67.0
502.0		549.0		502.0		47.0
2.01<|#eta|<2.37
118831.0		138377.0		118831.0		19546.0
186639.0		214201.0		186639.0		27562.0
250114.0		282456.0		250114.0		32342.0
281475.0		324092.0		281475.0		42617.0
185238.0		209451.0		185238.0		24213.0
102210.0		115298.0		102210.0		13088.0
40813.0		47173.0		40813.0		6360.0
8373.0		9469.0		8373.0		1096.0
3623.0		4046.0		3623.0		423.0
1461.0		1609.0		1461.0		148.0
753.0		791.0		753.0		38.0
624.0		698.0		624.0		74.0
