0.00<|#eta|<0.60
286239.0		355753.0		286239.0		69514.0
514920.0		631542.0		514920.0		116622.0
779181.0		968210.0		779181.0		189035.0
1026300.0		1267390.0		1026300.0		241094.0
714879.0		847912.0		714879.0		133033.0
412723.0		480297.0		412723.0		67574.0
180391.0		205827.0		180391.0		25436.0
37821.0		43062.0		37821.0		5241.0
18106.0		19265.0		18106.0		1159.0
7906.0		8522.0		7906.0		616.0
3959.0		4299.0		3959.0		340.0
4320.0		4662.0		4320.0		342.0
0.60<|#eta|<0.80
75874.0		98620.0		75874.0		22746.0
163778.0		203945.0		163778.0		40167.0
262089.0		328245.0		262089.0		66156.0
328379.0		404244.0		328379.0		75865.0
228437.0		271811.0		228437.0		43374.0
130249.0		153683.0		130249.0		23434.0
57111.0		65032.0		57111.0		7921.0
11942.0		13350.0		11942.0		1408.0
5675.0		6064.0		5675.0		389.0
2478.0		2677.0		2478.0		199.0
1320.0		1382.0		1320.0		62.0
1395.0		1474.0		1395.0		79.0
0.80<|#eta|<1.15
127346.0		171975.0		127346.0		44629.0
230046.0		315206.0		230046.0		85160.0
377037.0		524724.0		377037.0		147687.0
492340.0		666298.0		492340.0		173958.0
332181.0		429478.0		332181.0		97297.0
195591.0		244041.0		195591.0		48450.0
85185.0		101765.0		85185.0		16580.0
17205.0		21209.0		17205.0		4004.0
8878.0		9926.0		8878.0		1048.0
3945.0		4296.0		3945.0		351.0
1972.0		2128.0		1972.0		156.0
2171.0		2379.0		2171.0		208.0
1.15<|#eta|<1.37
71942.0		100792.0		71942.0		28850.0
126933.0		172225.0		126933.0		45292.0
195011.0		280205.0		195011.0		85194.0
274183.0		372976.0		274183.0		98793.0
185388.0		239568.0		185388.0		54180.0
112453.0		136699.0		112453.0		24246.0
47521.0		57292.0		47521.0		9771.0
9847.0		11767.0		9847.0		1920.0
4579.0		5411.0		4579.0		832.0
2154.0		2469.0		2154.0		315.0
1100.0		1213.0		1100.0		113.0
1187.0		1314.0		1187.0		127.0
1.52<|#eta|<1.81
93810.0		118965.0		93810.0		25155.0
150460.0		190841.0		150460.0		40381.0
226220.0		288987.0		226220.0		62767.0
288825.0		368565.0		288825.0		79740.0
209744.0		255295.0		209744.0		45551.0
124611.0		147273.0		124611.0		22662.0
52284.0		60984.0		52284.0		8700.0
10262.0		12044.0		10262.0		1782.0
4832.0		5568.0		4832.0		736.0
2149.0		2346.0		2149.0		197.0
1142.0		1220.0		1142.0		78.0
1251.0		1317.0		1251.0		66.0
1.81<|#eta|<2.01
61141.0		77253.0		61141.0		16112.0
99274.0		123961.0		99274.0		24687.0
146500.0		176713.0		146500.0		30213.0
184672.0		220812.0		184672.0		36140.0
122206.0		147443.0		122206.0		25237.0
70201.0		82446.0		70201.0		12245.0
30240.0		34331.0		30240.0		4091.0
5936.0		6972.0		5936.0		1036.0
2685.0		3009.0		2685.0		324.0
1116.0		1239.0		1116.0		123.0
545.0		609.0		545.0		64.0
504.0		549.0		504.0		45.0
2.01<|#eta|<2.37
118944.0		138377.0		118944.0		19433.0
186482.0		214201.0		186482.0		27719.0
249712.0		282456.0		249712.0		32744.0
282118.0		324092.0		282118.0		41974.0
186022.0		209451.0		186022.0		23429.0
102230.0		115298.0		102230.0		13068.0
40859.0		47173.0		40859.0		6314.0
8348.0		9469.0		8348.0		1121.0
3625.0		4046.0		3625.0		421.0
1457.0		1609.0		1457.0		152.0
748.0		791.0		748.0		43.0
632.0		698.0		632.0		66.0
