0.00<|#eta|<0.60
283577.0		355753.0		283577.0		72176.0
510767.0		631542.0		510767.0		120775.0
779031.0		968210.0		779031.0		189185.0
1033440.0		1267390.0		1033440.0		233960.0
718118.0		847912.0		718118.0		129794.0
413124.0		480297.0		413124.0		67173.0
180060.0		205827.0		180060.0		25767.0
37976.0		43062.0		37976.0		5086.0
18153.0		19265.0		18153.0		1112.0
7892.0		8522.0		7892.0		630.0
3939.0		4299.0		3939.0		360.0
4295.0		4662.0		4295.0		367.0
0.60<|#eta|<0.80
75635.0		98620.0		75635.0		22985.0
163774.0		203945.0		163774.0		40171.0
261868.0		328245.0		261868.0		66377.0
326727.0		404244.0		326727.0		77517.0
228014.0		271811.0		228014.0		43797.0
130729.0		153683.0		130729.0		22954.0
57002.0		65032.0		57002.0		8030.0
12054.0		13350.0		12054.0		1296.0
5673.0		6064.0		5673.0		391.0
2489.0		2677.0		2489.0		188.0
1317.0		1382.0		1317.0		65.0
1402.0		1474.0		1402.0		72.0
0.80<|#eta|<1.15
124729.0		171975.0		124729.0		47246.0
226317.0		315206.0		226317.0		88889.0
378696.0		524724.0		378696.0		146028.0
496021.0		666298.0		496021.0		170277.0
336239.0		429478.0		336239.0		93239.0
195514.0		244041.0		195514.0		48527.0
84879.0		101765.0		84879.0		16886.0
17231.0		21209.0		17231.0		3978.0
8896.0		9926.0		8896.0		1030.0
3895.0		4296.0		3895.0		401.0
1982.0		2128.0		1982.0		146.0
2176.0		2379.0		2176.0		203.0
1.15<|#eta|<1.37
69558.0		100792.0		69558.0		31234.0
122709.0		172225.0		122709.0		49516.0
196750.0		280205.0		196750.0		83455.0
278958.0		372976.0		278958.0		94018.0
187816.0		239568.0		187816.0		51752.0
112959.0		136699.0		112959.0		23740.0
47528.0		57292.0		47528.0		9764.0
9870.0		11767.0		9870.0		1897.0
4579.0		5411.0		4579.0		832.0
2141.0		2469.0		2141.0		328.0
1097.0		1213.0		1097.0		116.0
1146.0		1314.0		1146.0		168.0
1.52<|#eta|<1.81
92924.0		118965.0		92924.0		26041.0
149317.0		190841.0		149317.0		41524.0
225113.0		288987.0		225113.0		63874.0
291620.0		368565.0		291620.0		76945.0
210833.0		255295.0		210833.0		44462.0
124607.0		147273.0		124607.0		22666.0
52430.0		60984.0		52430.0		8554.0
10269.0		12044.0		10269.0		1775.0
4798.0		5568.0		4798.0		770.0
2112.0		2346.0		2112.0		234.0
1145.0		1220.0		1145.0		75.0
1239.0		1317.0		1239.0		78.0
1.81<|#eta|<2.01
61861.0		77253.0		61861.0		15392.0
98441.0		123961.0		98441.0		25520.0
146673.0		176713.0		146673.0		30040.0
186667.0		220812.0		186667.0		34145.0
121703.0		147443.0		121703.0		25740.0
70117.0		82446.0		70117.0		12329.0
30312.0		34331.0		30312.0		4019.0
5987.0		6972.0		5987.0		985.0
2675.0		3009.0		2675.0		334.0
1108.0		1239.0		1108.0		131.0
547.0		609.0		547.0		62.0
504.0		549.0		504.0		45.0
2.01<|#eta|<2.37
119273.0		138377.0		119273.0		19104.0
187226.0		214201.0		187226.0		26975.0
249881.0		282456.0		249881.0		32575.0
281525.0		324092.0		281525.0		42567.0
186063.0		209451.0		186063.0		23388.0
102397.0		115298.0		102397.0		12901.0
40988.0		47173.0		40988.0		6185.0
8334.0		9469.0		8334.0		1135.0
3632.0		4046.0		3632.0		414.0
1445.0		1609.0		1445.0		164.0
754.0		791.0		754.0		37.0
630.0		698.0		630.0		68.0
