0.00<|#eta|<0.60
290693.0		355753.0		290693.0		65060.0
519797.0		631542.0		519797.0		111745.0
786629.0		968210.0		786629.0		181587.0
1030980.0		1267390.0		1030980.0		236421.0
719158.0		847912.0		719158.0		128754.0
411361.0		480297.0		411361.0		68936.0
179832.0		205827.0		179832.0		25995.0
37976.0		43062.0		37976.0		5086.0
18162.0		19265.0		18162.0		1103.0
7946.0		8522.0		7946.0		576.0
3985.0		4299.0		3985.0		314.0
4331.0		4662.0		4331.0		331.0
0.60<|#eta|<0.80
75678.0		98620.0		75678.0		22942.0
165110.0		203945.0		165110.0		38835.0
262667.0		328245.0		262667.0		65578.0
327702.0		404244.0		327702.0		76542.0
228708.0		271811.0		228708.0		43103.0
130474.0		153683.0		130474.0		23209.0
57085.0		65032.0		57085.0		7947.0
11991.0		13350.0		11991.0		1359.0
5681.0		6064.0		5681.0		383.0
2488.0		2677.0		2488.0		189.0
1320.0		1382.0		1320.0		62.0
1384.0		1474.0		1384.0		90.0
0.80<|#eta|<1.15
131452.0		171975.0		131452.0		40523.0
238767.0		315206.0		238767.0		76439.0
384960.0		524724.0		384960.0		139764.0
497101.0		666298.0		497101.0		169197.0
334652.0		429478.0		334652.0		94826.0
192178.0		244041.0		192178.0		51863.0
84317.0		101765.0		84317.0		17448.0
17341.0		21209.0		17341.0		3868.0
9047.0		9926.0		9047.0		879.0
3944.0		4296.0		3944.0		352.0
2002.0		2128.0		2002.0		126.0
2177.0		2379.0		2177.0		202.0
1.15<|#eta|<1.37
77501.0		100792.0		77501.0		23291.0
134563.0		172225.0		134563.0		37662.0
201418.0		280205.0		201418.0		78787.0
280976.0		372976.0		280976.0		92000.0
187812.0		239568.0		187812.0		51756.0
110467.0		136699.0		110467.0		26232.0
47045.0		57292.0		47045.0		10247.0
10012.0		11767.0		10012.0		1755.0
4689.0		5411.0		4689.0		722.0
2212.0		2469.0		2212.0		257.0
1103.0		1213.0		1103.0		110.0
1210.0		1314.0		1210.0		104.0
1.52<|#eta|<1.81
96367.0		118965.0		96367.0		22598.0
156174.0		190841.0		156174.0		34667.0
230132.0		288987.0		230132.0		58855.0
291188.0		368565.0		291188.0		77377.0
210629.0		255295.0		210629.0		44666.0
123135.0		147273.0		123135.0		24138.0
51629.0		60984.0		51629.0		9355.0
10422.0		12044.0		10422.0		1622.0
4888.0		5568.0		4888.0		680.0
2126.0		2346.0		2126.0		220.0
1141.0		1220.0		1141.0		79.0
1247.0		1317.0		1247.0		70.0
1.81<|#eta|<2.01
61476.0		77253.0		61476.0		15777.0
98762.0		123961.0		98762.0		25199.0
146504.0		176713.0		146504.0		30209.0
185288.0		220812.0		185288.0		35524.0
122339.0		147443.0		122339.0		25104.0
70269.0		82446.0		70269.0		12177.0
30254.0		34331.0		30254.0		4077.0
5951.0		6972.0		5951.0		1021.0
2669.0		3009.0		2669.0		340.0
1104.0		1239.0		1104.0		135.0
542.0		609.0		542.0		67.0
504.0		549.0		504.0		45.0
2.01<|#eta|<2.37
118460.0		138377.0		118460.0		19917.0
185958.0		214201.0		185958.0		28243.0
250819.0		282456.0		250819.0		31637.0
281885.0		324092.0		281885.0		42207.0
185544.0		209451.0		185544.0		23907.0
102228.0		115298.0		102228.0		13070.0
41061.0		47173.0		41061.0		6112.0
8367.0		9469.0		8367.0		1102.0
3641.0		4046.0		3641.0		405.0
1446.0		1609.0		1446.0		163.0
749.0		791.0		749.0		42.0
629.0		698.0		629.0		69.0
