0 < |eta| < 0.6
367868	490621
718815	887685
1133883	1334812
1447428	1681530
1009339	1153037
624161	712004
271521	298203
56638	63631
25703	28515
11305	12408
5467	6126
5918	6649
0.6 < |eta| < 0.8
114726	154467
241158	298036
385648	454674
482432	540794
326168	370033
205302	226085
85003	93583
18563	19976
7859	8826
3056	3671
1799	1973
1744	1987
0.8 < |eta| < 1.15
200738	275259
386006	481454
632056	744579
753160	901644
534774	588327
330351	358330
132156	146281
28279	31657
13312	14247
5716	6224
2828	2986
3131	3378
1.15 < |eta| < 1.37
120690	165529
213768	270730
345861	407744
453385	512022
301289	333219
188426	204194
75333	81415
16173	17397
7371	7949
3269	3455
1752	1851
1729	1888
1.52 < |eta| < 1.81
143873	191317
243649	301050
357580	422222
442723	505765
323867	356686
204465	225785
81749	87993
16652	18082
7610	8051
3397	3603
1688	1787
1778	1871
1.81 < |eta| < 2.01
89346	117709
154711	184868
218852	253033
269321	303553
185952	209401
113747	127089
43724	49128
9047	9944
3982	4299
1637	1781
756	849
835	910
2.01 < |eta| < 2.37
157822	207909
250347	316541
346364	404254
394344	452485
264458	302563
159046	180171
60288	67921
11759	13255
4901	5739
2026	2294
958	1117
931	1102
