0 < |eta| < 0.6
333749	440347
661692	812970
1069326	1256031
1395614	1619713
960576	1096430
570096	649461
251966	276019
51905	58103
23927	26440
10526	11515
5138	5744
5548	6207
0.6 < |eta| < 0.8
102661	136864
222509	273782
364451	428964
464766	520528
310326	351795
187307	206056
78750	86471
17032	18267
7298	8159
2852	3426
1677	1840
1663	1892
0.8 < |eta| < 1.15
179895	244040
352894	437905
596650	701463
726043	868296
507983	558424
301807	326893
122464	135238
26003	28986
12377	13201
5344	5791
2653	2792
2931	3150
1.15 < |eta| < 1.37
107500	145641
193599	243860
325037	382313
437270	493293
285826	315757
171822	185955
69658	75105
14843	15904
6866	7358
3074	3244
1652	1735
1639	1777
1.52 < |eta| < 1.81
127890	166070
220342	268773
333848	392532
425396	484942
307738	338293
185719	204470
75138	80528
15252	16486
7069	7443
3175	3350
1577	1664
1668	1755
1.81 < |eta| < 2.01
81275	106158
142145	169222
205229	236929
258966	291557
177234	199304
104029	116118
40487	45411
8310	9112
3718	4011
1514	1649
698	786
785	850
2.01 < |eta| < 2.37
144802	189500
231797	291912
325657	379404
378667	434155
251810	287891
145876	165000
55743	62730
10784	12134
4577	5342
1890	2128
890	1039
877	1037
