0 < |eta| < 0.6
395516	490621
738602	887685
1150921	1334812
1483280	1681530
1034487	1153037
639666	712004
271438	298203
58219	63631
26207	28515
11514	12408
5631	6126
6067	6649
0.6 < |eta| < 0.8
122632	154467
243066	298036
384056	454674
469305	540794
327562	370033
201322	226085
84944	93583
18380	19976
8159	8826
3391	3671
1831	1973
1820	1987
0.8 < |eta| < 1.15
202632	275259
378507	481454
616036	744579
759292	901644
508320	588327
314761	358330
130578	146281
28350	31657
12822	14247
5574	6224
2664	2986
3042	3378
1.15 < |eta| < 1.37
132387	165529
228319	270730
351739	407744
448495	512022
296777	333219
183870	204194
73662	81415
15751	17397
7236	7949
3185	3455
1670	1851
1723	1888
1.52 < |eta| < 1.81
147899	191317
242617	301050
357411	422222
437821	505765
320310	356686
208205	225785
81705	87993
16631	18082
7578	8051
3415	3603
1692	1787
1781	1871
1.81 < |eta| < 2.01
89156	117709
144067	184868
209149	253033
256562	303553
180223	209401
109697	127089
43404	49128
8870	9944
3844	4299
1621	1781
775	849
819	910
2.01 < |eta| < 2.37
164788	207909
258883	316541
342649	404254
391799	452485
266359	302563
158897	180171
59751	67921
11754	13255
5151	5739
2065	2294
993	1117
989	1102
