0 < |eta| < 0.6
1961442	2334792
2910833	3390692
4613024	5215916
6445028	7187046
6313588	6961822
4421347	4870565
2023763	2194682
439154	476380
197129	212375
83383	90335
41915	45305
44948	49150
0.6 < |eta| < 0.8
568151	685843
864619	1023837
1481873	1699803
2089436	2353739
2019112	2244298
1401088	1554711
636665	693071
140514	151574
62558	66879
26761	28150
13144	14041
14562	15238
0.8 < |eta| < 1.15
936762	1204432
1314220	1602231
2145131	2493608
3169852	3635343
3099738	3502143
2225613	2488511
990061	1091323
218824	240220
97239	107162
41304	45290
20587	22674
22237	24315
1.15 < |eta| < 1.37
549944	662777
708343	819689
1105011	1252163
1711899	1911713
1792490	1977606
1285493	1416014
565693	615269
121908	132336
55991	60121
23857	25643
12255	12801
12737	13644
1.52 < |eta| < 1.81
669727	848167
784351	954816
1158578	1345116
1775519	2024012
1868330	2075096
1408541	1541749
620831	669108
131251	140640
58485	62428
25247	26552
12329	13019
13040	13839
1.81 < |eta| < 2.01
410245	523903
550642	670544
870037	1013539
1245429	1435501
1124370	1291666
759143	859083
340070	378476
73801	81711
32424	35423
13515	14717
6479	7170
6352	7162
2.01 < |eta| < 2.37
763068	935654
1024129	1227438
1520825	1764676
1958728	2231972
1729811	1951047
1148203	1277146
499668	554010
107511	117722
45949	50182
18759	20315
8765	9451
8393	9077
