0 < |eta| < 0.6
1872811	2334792
2824615	3390692
4618639	5215916
6448455	7187046
6353773	6961822
4472301	4870565
2053240	2194682
450850	476380
203382	212375
87296	90335
43774	45305
47563	49150
0.6 < |eta| < 0.8
557547	685843
877301	1023837
1510632	1699803
2145188	2353739
2094785	2244298
1445994	1554711
653793	693071
145851	151574
64878	66879
27705	28150
13667	14041
14944	15238
0.8 < |eta| < 1.15
975115	1204432
1362018	1602231
2217429	2493608
3308577	3635343
3246322	3502143
2328274	2488511
1041326	1091323
227749	240220
104023	107162
44467	45290
22166	22674
23887	24315
1.15 < |eta| < 1.37
531214	662777
710244	819689
1141866	1252163
1770201	1911713
1859234	1977606
1278465	1416014
581141	615269
125426	132336
57929	60121
24678	25643
12453	12801
13032	13644
1.52 < |eta| < 1.81
674702	848167
784314	954816
1171396	1345116
1806529	2024012
1901713	2075096
1416230	1541749
623630	669108
133444	140640
59516	62428
25694	26552
12514	13019
13341	13839
1.81 < |eta| < 2.01
423502	523903
582519	670544
915169	1013539
1325180	1435501
1206578	1291666
799112	859083
354135	378476
76198	81711
33692	35423
14098	14717
6862	7170
6900	7162
2.01 < |eta| < 2.37
752968	935654
1012090	1227438
1532289	1764676
1971035	2231972
1766992	1951047
1164846	1277146
510622	554010
109502	117722
47232	50182
19241	20315
8946	9451
8704	9077
