0 < |eta| < 0.6
456065.54400000005	569859.842	 294863.8620000001		73587.12999999999
797938.3300000002	973668.73	 515069.983		113406.17
1192297.5199999998	1401232.0099999995	 768422.41		134600.662
1524069.6800000002	1744727.4100000001	 980267.76		141994.209
1061668.24	1188978.8799999997	 683401.3599999999		81940.25800000002
679591.9099999999	757755.44	 439433.902		50540.51110000001
314721.95600000006	344272.533	 203541.58399999997		19125.434500000003
70891.996	76689.51899999997	 45746.11719999999		3749.650580000001
31996.594	34403.811700000006	 20636.196699999997		1549.1284789999997
13548.442000000003	14567.7451	 8735.1538		659.0661469999999
6869.5794	7416.093289999999	 4414.7730200000005		348.1096660000001
7301.709070000001	7901.602899999999	 4682.923220000001		384.4551880000001
0.6 < |eta| < 0.8
135002.968	167999.24599999996	 87338.77300000002		21344.151199999993
258936.384	314974.094	 167139.57599999997		36188.4837
402032.5100000001	470501.638	 258986.891		44202.388499999994
488716.399	558019.7769999999	 314451.366		44563.874200000006
340743.316	382561.4490000001	 219219.91400000002		26914.698899999996
219199.008	243177.054	 141630.12800000003		15479.972299999998
100530.738	109324.553	 65042.056		5662.637589999999
22879.327500000003	24558.9023	 14741.355699999998		1081.0786000000003
10141.6831	10790.512999999999	 6531.297559999999		421.20467
4288.879599999998	4562.772249999999	 2757.81928		175.67023900000004
2120.6095799999994	2259.1462899999997	 1362.1503699999998		88.844667
2263.592719999999	2420.5567799999994	 1448.9756200000004		101.36371999999999
0.8 < |eta| < 1.15
223074.35100000005	296284.789	 144246.82600000003		47395.4127
404266.314	503826.14799999987	 261010.43899999995		64228.24
643217.57	765559.96	 414359.886		78773.09100000001
792846.63	925848.61	 509462.1460000001		85485.877
531999.7160000001	608806.0000000001	 342152.296		49387.6402
344006.505	387711.6450000001	 222632.24599999996		28227.973599999998
155528.46000000002	172304.809	 100533.157		10826.533399999998
35529.253000000004	39114.6453	 22898.102799999993		2312.383930000001
16060.582700000003	17597.180500000002	 10330.618400000001		991.8299199999999
6937.574490000002	7572.425070000001	 4454.753240000001		412.32026600000006
3310.8709699999995	3636.8721199999995	 2122.5803500000006		210.400324
3657.8444499999987	4001.0057499999994	 2334.1938000000005		218.880996
1.15 < |eta| < 1.37
143066.483	176162.529	 92449.35799999998		21404.307800000002
240735.16500000004	281724.593	 155289.52899999998		26468.8572
364759.47699999984	419066.52900000004	 234794.92		34959.5893
467908.03099999996	529186.9720000001	 301137.49		39381.0198
311951.382	349409.17000000004	 200591.62		24072.5534
200455.07399999996	221345.04299999998	 129327.58300000001		13475.835400000002
89942.54500000001	98234.32600000002	 58085.038799999995		5358.142350000001
20129.559400000002	21852.376899999996	 12974.5626		1105.3085100000003
9278.0616	9987.897300000004	 5969.55561		455.93472900000006
3931.73972	4215.798470000001	 2518.7466700000004		180.516338
2010.6698700000002	2184.1584899999993	 1292.2854599999998		111.05585799999999
2095.1887599999995	2241.3505699999987	 1339.534819		92.883058
1.52 < |eta| < 1.81
159562.64899999998	204362.21299999996	 103073.40400000001		28958.105199999984
255097.00300000006	315564.58599999995	 164420.8799999999		38959.216400000005
370635.38999999996	437346.998	 238367.72899999993		42923.285200000006
458620.1389999999	534482.9580000001	 294302.427		48712.427899999995
324101.72000000003	365991.421	 208192.80500000002		26911.863700000005
214048.22999999998	236209.287	 139979.78699999998		14255.163300000006
95485.98900000002	103401.56100000003	 61501.62		5085.955640000001
21015.459899999994	22780.189200000004	 13493.9039		1139.23121
9541.1508	10174.095000000001	 6114.935939999999		404.64731900000004
4140.808959999999	4361.322939999999	 2647.5729800000004		140.940039
2079.93829	2198.77338	 1329.843229		76.325669
2151.747029999999	2262.9575599999994	 1374.6700700000001		70.671918
1.81 < |eta| < 2.01
100526.008	129751.34299999998	 65594.48599999999		18856.4189
160305.61500000002	199113.16599999997	 103267.51599999999		25061.829100000003
224625.48600000003	266613.14499999996	 144641.13999999998		27024.1411
273756.151	318144.715	 175701.15899999999		28450.480799999998
179638.39200000002	207352.5870000001	 115337.52100000001		17777.411900000006
111719.31700000001	127387.78499999999	 72242.831		10105.680699999999
51177.22439999999	57326.39470000001	 33046.107099999994		3951.8598
11548.643600000001	12860.287200000002	 7405.206580000001		839.9861289999998
5203.974730000001	5768.2847999999985	 3333.6957799999996		358.609455
2125.05709	2345.5703399999998	 1361.7469190000002		140.93985900000004
1103.8347	1207.41987	 703.892238		66.633528
1093.03157	1202.9706239999998	 695.4114279999999		70.671909
2.01 < |eta| < 2.37
179191.34699999995	223171.321	 115516.49599999998		28356.399299999994
274997.57600000006	334445.832	 176997.607		38256.5188
357197.41599999997	420840.5609999999	 230025.20799999993		40922.268500000006
410546.591	475058.989	 263164.973		41331.7595
271303.4380000001	308751.58999999997	 174000.549		23997.190099999993
165410.75700000004	187960.95799999996	 106285.303		14495.116300000003
73313.083	82854.764	 47136.52939999999		6133.4622899999995
16381.515499999998	18214.8844	 10498.213300000001		1173.1546600000001
7274.380000000002	8062.3803	 4646.982690000001		502.3762680000001
2943.560129999999	3282.90882	 1880.2764500000005		216.45776000000004
1344.6844199999996	1488.93783	 860.178059		91.67157900000002
1389.80354	1516.8996700000005	 886.427649		81.57557899999999