0 < |eta| < 0.6
439047.642	578561.3160000001	 427298.28800000006		140636.126
801036.1	986486.91	 778759.0899999999		186574.424
1207140.85	1418853.8	 1175999.4399999997		213168.29799999998
1522015.9	1765096.82	 1481765.41		244623.39799999996
1051718.4	1201991.2999999998	 1026182.1799999999		151700.934
671772.9900000001	766455.11	 659998.3700000001		95712.73200000002
317415.612	347667.477	 312016.31799999997		30669.732799999998
69396.18100000001	77426.64599999998	 68488.5		8128.067440000001
31383.704400000002	34468.8447	 30864.4535		3125.662577
13192.650399999999	14456.8397	 12873.3304		1299.4012400000001
6607.247899999999	7372.4976	 6465.735159999998		786.132472
7064.509190000002	7904.056350000001	 6955.514		835.303906
0.6 < |eta| < 0.8
129711.08600000001	170451.072	 126701.283		41120.8505
261982.04300000006	319311.46200000006	 255692.88300000003		57816.47199999999
408600.08199999994	476586.72500000003	 398663.7740000001		68469.761
505354.03300000005	564303.6259999999	 493413.829		59152.684100000006
341078.63399999996	386087.15499999997	 332612.979		45143.883
224058.74300000002	245702.259	 220056.69100000002		21938.365099999995
101021.025	110398.84499999999	 99408.368		9273.3131
23222.551199999998	24719.2837	 22836.4555		1512.1408800000004
9904.8307	10918.778599999998	 9846.753299999998		1054.004183
3950.04596	4645.622199999999	 3933.97351		691.2408340000001
2052.36067	2230.50727	 2018.2744099999995		172.4432
2184.49197	2420.4129500000004	 2148.95021		255.40569200000002
0.8 < |eta| < 1.15
223174.723	299758.40400000004	 218374.17599999998		76368.631
414625.4730000001	509182.28400000004	 405058.98600000003		94506.99
665865.9700000001	774219.8900000001	 650456.55		108088.131
788969.93	937095.41	 768982.78		146494.47
564217.702	615526.5299999999	 551441.6		51499.6346
363644.43200000003	391998.41899999994	 357631.28300000005		28420.9156
159232.508	174013.87300000002	 156639.073		14741.784399999999
35927.7931	39567.7204	 35438.543300000005		3671.56001
16668.6797	17667.098199999997	 16446.998700000004		973.8761309999999
7138.540599999999	7616.308399999999	 7040.9305699999995		470.58077000000003
3454.4976099999994	3623.13821	 3421.9749799999995		152.501645999
3794.16138	4005.732389999999	 3696.44358		218.8925400463252
1.15 < |eta| < 1.37
132030.03	178550.29399999997	 128579.14499999999		46926.6386
228255.81300000002	285888.71900000004	 223011.90799999997		58101.924
361381.56599999993	423780.9369999999	 352716.698		62614.734000000004
477021.71499999997	535847.5790000001	 465935.016		58925.879
320763.384	354187.394	 313956.054		33488.5691
207168.147	223542.78100000002	 203279.81699999998		16419.957499999997
92517.521	99115.276	 90854.52900000002		6544.426599999999
20712.2422	21980.735800000002	 20381.770800000002		1265.7797979999998
9595.970400000002	10152.4	 9494.070600000001		544.104462
4021.1715999999997	4238.896129999999	 3970.63162		218.8385402
2108.7833699999996	2207.53347	 2108.4056299999997		86.28185200000001
2077.54231	2216.3644099999997	 2019.1273099999996		135.112937
1.52 < |eta| < 1.81
157815.016	207147.89700000003	 153713.18699999998		49112.32400000001
260017.805	319771.0460000001	 253604.26800000004		59475.417799999996
371995.4980000001	442576.0459999999	 362940.63899999997		70154.766
468029.02200000006	540510.831	 455743.02300000004		71885.095
328683.023	370053.34599999996	 320666.8389999999		41298.87400000001
211266.185	238571.493	 223772.72800000006		27231.172499999993
95952.77	104244.65400000001	 93739.06499999999		8289.143000000002
21119.6043	22934.783099999997	 20742.873400000004		1800.2728419999999
9674.70027	10255.18827	 9519.00436		589.313115953
4105.93888	4322.39623	 3934.07398		230.90928200000005
2136.2742599999997	2252.7629600000005	 2104.44755		123.529417
2148.7033309999997	2265.3510599999995	 2061.30502		112.482996
1.81 < |eta| < 2.01
103591.458	131885.84699999998	 101426.105		28182.7838
172121.875	202156.264	 167507.662		29950.176699999996
235462.86899999998	269828.24600000004	 229531.93500000003		34171.4265
288763.399	321623.291	 281190.17000000004		32602.4011
187771.03900000002	209709.87699999998	 182942.26499999996		21939.2607
115787.064	128811.768	 113336.95899999999		12948.211000000001
51810.68319999999	57792.54799999999	 50692.662500000006		6017.81877
11710.061500000002	12870.987700000001	 11391.0778		1165.4388230000002
5455.96374	5833.349020000001	 5380.4130399999995		368.207456
2153.16	2335.0464999999995	 2113.879692		171.813052
1076.669625	1206.777945	 1045.5191879999998		126.21476599999998
1111.91346	1195.0535599999998	 1112.329449		77.77324000000002
2.01 < |eta| < 2.37
175230.81900000002	226352.56100000002	 170335.962		50570.187
269781.60699999996	338503.8700000001	 262233.16500000004		67927.33
365634.605	426443.573	 356674.30700000003		60565.6275
415304.21400000004	479930.28200000006	 403935.24100000004		64068.9823
271782.747	312879.524	 264278.97		40706.19179999999
165068.61300000004	189617.05	 160388.71099999995		24271.515600000006
74639.30200000001	83935.694	 72994.17099999999		9217.400800000001
16274.6312	18216.6064	 15813.931900000001		1894.2232999999999
7105.458	8100.868199999999	 6980.214899999999		962.5101190000001
2932.22758	3283.29643	 2885.10763		335.073105
1323.4586399999998	1495.90374	 1309.529446		173.00082
1347.32067	1523.55213	 1313.08121		179.57220999999998