0 < |eta| < 0.6
453570.718	578336.7899999999	 441473.2639999999		125767.44000000002
818415.48	986102.8499999996	 795471.4300000002		168681.996
1238505.99	1418297.8799999997	 1206404.5699999998		181055.78799999997
1572628.49	1764406.8199999998	 1531176.76		193092.68100000004
1096028.18	1201517.1200000003	 1070278.9000000001		106150.85100000002
705444.51	766149.83	 693365.8799999999		61408.8783
327992.5799999999	347526.703	 322501.77200000006		19753.846799999996
73714.914	77393.43800000001	 72827.874		3691.4743099999996
33281.4993	34453.5138	 32744.8587		1201.4494699999998
14017.352300000002	14451.016800000001	 13724.746800000004		431.0925590000001
7082.991399999999	7369.7363	 6941.939200000002		301.244544
7621.79354	7899.062239999998	 7502.53557		276.88383397900003
0.6 < |eta| < 0.8
135214.24300000002	170384.151	 132077.563		35539.4071
267366.84099999996	319184.21499999997	 260804.179		52317.27610000001
415467.27499999997	476399.66	 405115.849		61445.051299999985
510983.961	564080.199	 498535.20100000006		53347.1509
356565.685	385936.1009999999	 347942.08800000005		29350.0572
229868.42799999996	245603.61000000002	 225739.99499999994		15957.680200000003
105353.08600000001	110354.53400000003	 103608.13400000002		4937.737489999999
23936.484800000002	24709.436699999995	 23556.2173		762.2916010252849
10595.8171	10914.189699999995	 10561.11523		325.815023
4519.65239	4644.00389	 4494.31484		125.758568
2171.2160539999995	2228.419184	 2135.4162079999996		52.060919000000005
2357.4126800000004	2418.7895700000004	 2337.836209999999		63.28504897899999
0.8 < |eta| < 1.15
230575.421	299637.79999999993	 225523.88700000002		68851.00600000001
421612.45999999996	508980.3669999999	 411721.4500000001		87226.22099999999
678265.89	773917.6800000002	 662296.2500000001		95318.69299999997
845063.05	936727.1499999999	 823360.3700000002		90989.032
571602.7	615280.8300000001	 558354.7299999999		43837.6029
367600.2149999999	391841.96499999997	 361317.8079999999		24255.074900000003
167481.959	173944.96300000005	 164749.60100000002		6419.756889999999
37762.4114	39551.66969999999	 37252.541		1808.3306129999999
17240.7315	17660.3078	 16998.4751		401.36107200000004
7476.1131	7613.3231	 7362.405190000001		139.74615129999998
3561.7934700000005	3620.8792799999997	 3517.1491099999994		52.183319025284895
3924.9245600000004	4001.22677	 3831.54802		76.69543397900001
1.15 < |eta| < 1.37
134183.79700000002	178480.35300000003	 130623.012		44666.575499999984
233027.16100000005	285776.37600000005	 227520.143		53248.06370000001
371897.1730000001	423614.65499999997	 362906.3569999999		51913.83789999999
486178.32300000015	535634.6560000001	 474784.4530000001		49427.3311
325865.07699999993	354044.33799999993	 318804.536		28205.000000000004
209218.693	223454.06999999995	 205180.895		14246.992300000002
94296.01800000003	99076.07400000001	 92502.86600000002		4775.90771
21076.847799999992	21971.794300000005	 20748.5119		871.5998682999999
9844.535200000002	10146.400100000004	 9741.853799999997		282.66143804628496
4119.034229999999	4237.36313	 4064.80435		119.74431599999998
2138.8896900000004	2206.13149	 2133.61683		58.127241999999995
2126.5928900000004	2214.729280000001	 2061.592349		89.43787800000001
1.52 < |eta| < 1.81
160673.365	207068.724	 156372.318		46208.0022
266841.42299999995	319645.57399999996	 260275.562		52421.90179999999
379644.44899999996	442401.744	 370190.5829999999		62370.931
474941.151	540300.0530000001	 462330.27800000005		64652.29500000001
333335.121	369906.882	 325079.466		36438.403699999995
218439.06600000002	238474.662	 230666.14600000004		20025.768600000003
97473.55199999998	104202.823	 95158.991		6742.50785
21749.139400000004	22923.5022	 21354.056899999996		1159.2304369999997
9830.809200000002	10249.8622	 9658.5475		435.75938130000003
4175.436239999999	4320.46404	 4009.4412700000003		150.14875899999998
2184.9544419999997	2251.8348519999995	 2161.4130680000003		63.802974999999996
2195.7357299999994	2263.9811199999995	 2104.05989		66.844153
1.81 < |eta| < 2.01
107688.08299999998	131835.196	 105402.73100000001		24049.415599999997
174945.635	202078.00499999998	 170144.74399999998		27073.004800000006
240662.028	269722.38599999994	 234462.50300000006		28916.968300000004
294343.824	321497.32100000005	 286470.78799999994		26931.795400000003
193250.748	209627.84399999992	 188265.785		16364.7722
120164.215	128762.815	 117633.39400000001		8500.284900000002
54206.532199999994	57770.239599999986	 53070.66459999998		3571.13782
12001.952600000002	12865.468500000003	 11667.505500000003		873.578848
5538.20578	5830.409180000001	 5460.23108		281.0062972790001
2239.3510999999994	2334.2682000000004	 2198.1763800000003		85.00358430000001
1152.954641	1206.3621309999999	 1118.365467		52.035248
1140.4931000000001	1194.5838800000004	 1137.0780892999999		51.56453800000001
2.01 < |eta| < 2.37
180811.467	226264.54099999994	 175774.96200000006		44861.179299999996
285969.797	338372.96699999995	 277989.8		51768.962
375164.348	426276.781	 365943.778		50786.85330000001
426015.17600000004	479740.10400000005	 414197.6229999999		53228.242300000005
283116.0040000001	312756.36799999996	 275284.86500000005		29323.055000000004
171971.76599999997	189542.793	 167072.04200000004		17360.988000000005
77113.682	83902.088	 75317.064		6792.847629999998
16916.774800000003	18208.334100000004	 16437.3403		1247.7635899999998
7585.107779999999	8097.778980000001	 7433.950600000001		499.152334
3075.61091	3279.68193	 3017.199679999999		197.14516129999998
1400.89258	1495.30256	 1387.4405730000003		93.29538527900002
1419.6376799999998	1521.6749100000002	 1382.024766		107.96103530000002