0 < |eta| < 0.6
327796.5			429979.49999999994
652809.0			796848.9999999999
1064448.0			1238690.0
1399181.5			1607258.0
966421.9999999999			1087582.5
572558.5			640820.9999999999
252641.49999999997			272642.0
52599.49999999999			57267.99999999999
24410.499999999996			26093.999999999996
10729.5			11367.0
5296.0			5682.5
5710.5			6139.0
0.6 < |eta| < 0.8
100707.99999999999			133243.0
219809.99999999997			268415.0
362436.5			423284.0
462817.0			516475.0
311683.5			348977.0
186856.49999999997			203220.49999999997
79209.0			85372.0
17091.5			18009.0
7470.499999999999			8044.499999999999
2998.5			3385.5
1711.4999999999998			1813.4999999999998
1739.0			1880.0
0.8 < |eta| < 1.15
176849.49999999997			237480.99999999997
346710.5			428221.49999999994
590964.5			691429.5
736298.0			861338.5
506596.99999999994			553628.0
299542.0			322413.99999999994
123726.49999999999			133625.5
25706.499999999996			28558.499999999996
12414.499999999998			13005.499999999998
5466.5			5725.5
2685.0			2765.5
2979.0			3108.5
1.15 < |eta| < 1.37
105739.49999999999			141532.99999999997
191904.49999999997			237813.99999999997
324258.5			376261.49999999994
435960.5			489239.5
285210.0			312905.0
170245.99999999997			183344.49999999997
69481.0			74168.0
14771.999999999998			15664.999999999998
6894.499999999999			7265.999999999999
3080.5			3211.5
1647.5			1711.4999999999998
1658.5			1758.5
1.52 < |eta| < 1.81
125333.49999999999			160442.49999999997
215543.49999999997			261202.99999999997
330974.99999999994			385316.99999999994
425179.5			480391.99999999994
307000.0			335094.0
185172.99999999997			201396.49999999997
74563.0			79459.99999999999
15223.999999999998			16232.499999999998
7054.499999999999			7340.499999999999
3188.4999999999995			3308.4999999999995
1577.5			1641.5
1683.5			1733.9999999999998
1.81 < |eta| < 2.01
80640.99999999999			103648.49999999999
139006.0			165779.5
200671.99999999997			233300.99999999997
258801.5			288980.0
178139.0			197599.5
104184.99999999999			114581.99999999999
40902.5			44845.49999999999
8352.5			8980.0
3746.9999999999995			3967.9999999999995
1523.0			1629.5
715.5			778.0
805.0			840.9999999999999
2.01 < |eta| < 2.37
142853.5			185537.99999999997
232744.49999999997			286565.0
324691.0			373963.99999999994
380508.0			430274.5
254754.49999999997			285487.0
146299.0			162808.49999999997
56203.49999999999			61944.99999999999
10961.5			11975.0
4737.5			5269.0
1929.9999999999998			2100.0
921.9999999999999			1029.0
922.0			1029.5
