0 < |eta| < 0.6
449740.39	570202.77	 290967.48		77926.65
791625.2000000001	974255.3	 511278.31999999995		117954.15
1205372.2	1402072.7	 777249.4000000001		126858.56999999999
1508136.7	1745774.8	 970628.8999999999		152981.82
1055422.0999999999	1189693.9	 679786.01		86475.34999999999
676689.99	758210.9999999999	 437863.39999999997		52700.090000000004
309070.33	344479.88	 200017.51		22917.536999999997
68466.151	76737.48	 44212.059		5344.362999999999
31427.624999999993	34427.01500000001	 20282.132999999998		1931.4574
13325.117	14577.154	 8597.663999999999		808.2452
6510.625	7420.5470000000005	 4185.9756		582.63182
7084.81	7907.622000000001	 4549.4625		524.81345
0.6 < |eta| < 0.8
135056.76	168100.81	 87406.92		21407.017
266979.87	315164.30000000005	 172440.18999999997		31133.007999999998
409922.69999999995	470785.3900000001	 264224.69		39329.604999999996
497046.66000000003	558354.88	 319982.16000000003		39464.287999999986
350285.6400000001	382790.77	 225491.31999999998		20939.157000000003
224238.21999999997	243324.96000000002	 144966.0		12333.923000000003
97007.37999999999	109390.22999999998	 62806.65999999999		7982.989
22962.353999999996	24573.654000000002	 14804.759000000002		1036.6885
9768.797000000002	10796.999	 6292.5038		668.3487
4284.4623	4565.512500000001	 2757.4947		179.52008999999998
2136.5085000000004	2261.7739	 1373.0876		80.46059899999999
2235.7021	2423.2827999999995	 1430.5011		122.51024000000001
0.8 < |eta| < 1.15
239853.46000000002	296463.79	 155221.47		36651.652
426138.6	504131.31	 275291.66		50339.221999999994
677976.67	766019.7000000001	 437007.7900000001		56717.613
835848.9000000001	926404.7000000001	 537430.4099999999		58232.35100000001
563120.4	609172.7699999999	 362377.45		29633.433000000005
359099.82000000007	387945.3599999999	 232538.79000000007		18623.185000000005
162273.80000000002	172408.78999999998	 104960.44		6533.4821
36384.21	39138.151	 23469.427000000003		1771.3459
16568.754	17607.75	 10666.489000000001		669.56169
7174.468999999999	7576.973999999999	 4613.7480000000005		259.17223
3418.4118999999996	3639.6926000000003	 2194.6717999999996		141.5137
3695.0132	4006.5879999999997	 2359.2342000000003		198.92755000000005
1.15 < |eta| < 1.37
140015.65	176268.72999999998	 90519.79999999999		23471.054999999997
241276.06000000003	281893.67999999993	 155737.62000000002		26239.057999999997
376124.64	419318.37	 242236.44		27842.195
478544.83	529504.39	 308155.85000000003		32771.599
321816.69	349619.79000000004	 207043.64000000004		17890.635000000002
203243.81	221478.53999999998	 131204.18		11771.1
90670.56	98293.33	 58583.408		4935.995200000001
20161.367	21865.512	 13005.108		1091.676
9319.243	9995.802	 6000.1783000000005		434.2447
3996.4136000000003	4218.329100000001	 2560.5885000000003		141.91788999999997
2060.8376	2186.1047000000003	 1324.9716999999998		80.460589
2089.4552000000003	2243.3324	 1336.6971999999998		97.846549
1.52 < |eta| < 1.81
160454.06000000003	204485.01000000004	 103718.41		28471.739999999998
257267.95	315755.91	 165916.38		37709.42799999999
377420.69	437609.15	 242886.22999999998		38742.388999999996
469443.39	534803.21	 301436.15		41990.39199999999
329110.44999999995	366210.05999999994	 211537.27		23849.114
213104.51	236353.19000000003	 139467.1		14954.380000000001
94260.79	103464.29000000001	 60745.445		5922.547699999998
21009.635999999995	22795.769000000004	 13499.197		1152.7286
9459.767000000002	10180.836000000001	 6065.274899999999		462.54749
4079.7121	4364.5797	 2610.3200999999995		181.94600000000003
2046.8509000000001	2200.095	 1310.4159		97.44216
2105.35	2264.9523	 1345.9983		101.48540899999999
1.81 < |eta| < 2.01
102426.06000000001	129829.85999999999	 66860.931		17691.828
168066.30000000002	199232.64	 108399.91000000002		20083.613
233561.97999999998	266773.23	 150477.92		21393.662999999997
286850.93	318335.78	 184218.2		20178.631000000005
188205.39	207476.91000000003	 120906.62		12368.286
116498.81	127464.25	 75368.12000000001		7079.321000000001
52171.295	57360.833	 33696.721		3345.6729000000005
11663.038	12868.633999999996	 7483.241999999999		772.2601
5196.292	5772.3847	 3330.8280999999997		366.31824
2128.8773	2346.9777	 1364.1914		140.300609
1103.227	1208.1451	 703.9294		67.52222
1078.4276	1203.6936999999998	 686.5434		80.46056999999999
2.01 < |eta| < 2.37
177247.77999999994	223306.05000000005	 114321.96		29724.331000000002
270115.93	334646.82	 173971.80000000002		41540.721999999994
357804.80000000005	421093.17	 230558.44999999998		40714.514
406363.03	475344.83	 260652.86999999997		44210.07699999999
274611.25	308936.73	 176232.82999999996		22002.779000000002
163768.58000000002	188073.66999999998	 105315.26		15610.255000000001
73743.04999999999	82905.80000000002	 47439.419		5895.404100000001
16261.630000000001	18227.075000000004	 10428.342999999999		1257.8536000000001
7164.93	8067.859	 4579.3833		576.56691
2876.0188	3286.7884	 1836.8480999999997		263.61971
1304.1604000000002	1489.8318	 834.1216999999999		118.87141
1307.9750000000004	1519.7166000000002	 834.9304999999999		135.44879999999998