0 < |eta| < 0.6
4.50453e+07	5.67088e+07
2.69219e+07	3.26668e+07
1.67758e+07	1.9215e+07
1.06919e+07	1.20507e+07
7.07152e+06	7.82197e+06
8.06273e+06	8.85643e+06
6.3107e+06	6.81182e+06
2.13384e+06	2.26803e+06
1.03015e+06	1.07865e+06
420273	435009
194036	200529
190477	195804
0.6 < |eta| < 0.8
1.3164e+07	1.62352e+07
8.22791e+06	9.65709e+06
4.87011e+06	5.51288e+06
3.17298e+06	3.49425e+06
2.11315e+06	2.27796e+06
2.32353e+06	2.50885e+06
1.84494e+06	1.95581e+06
625796	652909
301107	310289
124725	127292
57885.4	59193
56524	57406.2
0.8 < |eta| < 1.15
3.78824e+07	4.68005e+07
2.21129e+07	2.61652e+07
1.37961e+07	1.55845e+07
8.74322e+06	9.6594e+06
5.86843e+06	6.34467e+06
6.665e+06	7.16977e+06
5.35139e+06	5.63935e+06
1.82145e+06	1.92919e+06
869403	896369
366986	373484
173009	176044
174836	177048
1.15 < |eta| < 1.37
3.19087e+07	3.97409e+07
1.83446e+07	2.12247e+07
1.10718e+07	1.21923e+07
6.96553e+06	7.56876e+06
4.61092e+06	4.93074e+06
5.20328e+06	5.65227e+06
4.08413e+06	4.34992e+06
1.39436e+06	1.47052e+06
682215	709159
282887	292306
131420	135612
132696	136825
1.52 < |eta| < 1.81
5.40513e+07	6.75438e+07
2.9827e+07	3.59446e+07
1.79566e+07	2.05901e+07
1.12059e+07	1.25693e+07
7.21426e+06	7.91738e+06
8.0434e+06	8.79907e+06
6.34356e+06	6.82297e+06
2.16396e+06	2.28312e+06
1.05474e+06	1.09914e+06
432830	446460
203671	210070
197558	202589
1.81 < |eta| < 2.01
2.97935e+07	3.67381e+07
1.69885e+07	1.95969e+07
9.84157e+06	1.0967e+07
6.09401e+06	6.6451e+06
4.07845e+06	4.39565e+06
4.57948e+06	4.94619e+06
3.57237e+06	3.83019e+06
1.20619e+06	1.2911e+06
583693	614186
245126	254543
114661	118558
108170	111518
2.01 < |eta| < 2.37
4.93371e+07	6.18411e+07
2.74703e+07	3.34051e+07
1.62597e+07	1.8873e+07
1.00312e+07	1.14018e+07
6.8639e+06	7.60492e+06
7.76891e+06	8.56002e+06
6.13897e+06	6.67295e+06
2.05532e+06	2.21543e+06
989067	1.05371e+06
396283	418184
179362	188289
160701	167599
