0 < |eta| < 0.6
376421	510918
723146	912653
1163083	1366047
1484349	1700079
1005098	1126740
618063	690355
268053	288486
57307	61171
25937	27454
11362	11867
5526	5874
5969	6348
0.6 < |eta| < 0.8
117776	160367
244732	306011
390672	463666
483185	545089
325865	360285
199439	218763
84854	90581
18200	19112
8032	8463
3358	3505
1750	1845
1843	1927
0.8 < |eta| < 1.15
208069	286965
393972	498506
647643	765279
793733	905483
512091	564346
311779	341960
131480	139641
28193	30266
13062	13656
5740	5948
2774	2859
3131	3254
1.15 < |eta| < 1.37
122947	171685
220668	278758
351151	419894
454346	513348
287157	318163
177440	193533
72154	77292
15592	16557
7271	7680
3169	3325
1687	1765
1662	1794
1.52 < |eta| < 1.81
144861	193992
248002	303864
360748	427019
446184	511714
318102	350812
200678	219153
78853	84918
16194	17321
7342	7713
3285	3407
1649	1700
1734	1796
1.81 < |eta| < 2.01
92406	120221
154359	187662
217654	256106
272635	305547
180933	202834
110833	121934
43292	47119
8773	9475
3837	4092
1649	1728
762	804
816	869
2.01 < |eta| < 2.37
164694	212741
269219	321789
357308	409194
400014	454378
263287	290022
156525	171309
58894	64544
11559	12644
5069	5431
2031	2162
959	1049
942	1044
