0 < |eta| < 0.6
402784	510918
744136	912653
1159654	1366047
1482222	1700079
1004476	1126740
617937	690355
262747	288486
56116	61171
25345	27454
11036	11867
5431	5874
5845	6348
0.6 < |eta| < 0.8
126224	160367
246931	306011
390336	463666
472290	545089
318661	360285
195242	218763
82400	90581
17612	19112
7812	8463
3267	3505
1712	1845
1762	1927
0.8 < |eta| < 1.15
206013	286965
383728	498506
623762	765279
754306	905483
481949	564346
298364	341960
123983	139641
26966	30266
12306	13656
5330	5948
2577	2859
2937	3254
1.15 < |eta| < 1.37
130461	171685
225642	278758
354688	419894
439084	513348
278063	318163
172151	193533
69322	77292
14886	16557
6978	7680
3078	3325
1594	1765
1654	1794
1.52 < |eta| < 1.81
144813	193992
237933	303864
353695	427019
434295	511714
309191	350812
199112	219153
78062	84918
15838	17321
7237	7713
3230	3407
1617	1700
1709	1796
1.81 < |eta| < 2.01
90897	120221
146199	187662
212017	256106
258905	305547
174297	202834
105842	121934
41842	47119
8472	9475
3691	4092
1576	1728
737	804
790	869
2.01 < |eta| < 2.37
169583	212741
263934	321789
348226	409194
394631	454378
255508	290022
151264	171309
56826	64544
11206	12644
4917	5431
1960	2162
936	1049
937	1044
