0 < |eta| < 0.6
366026	458122
685128	834862
1093720	1285106
1430240	1638617
957211	1072633
565793	631219
244297	267413
51539	55943
23620	25477
10283	11014
5105	5502
5491	5939
0.6 < |eta| < 0.8
113225	141954
227941	280777
368997	437356
455393	525056
303567	342869
178509	199750
76403	83761
16200	17515
7257	7819
3059	3281
1593	1717
1698	1847
0.8 < |eta| < 1.15
185098	253924
350972	452607
588873	720407
727404	872221
457959	535726
273101	312499
115151	129260
24843	27735
11465	12672
4993	5546
2432	2682
2751	3041
1.15 < |eta| < 1.37
116298	150528
204049	250202
333207	393287
423556	494621
263960	301657
157315	176514
64246	71416
13661	15125
6506	7109
2901	3117
1503	1653
1572	1692
1.52 < |eta| < 1.81
129481	169094
215652	271411
330111	396746
417568	490867
294219	333146
181352	199060
71962	77873
14536	15817
6736	7142
3019	3166
1512	1583
1606	1686
1.81 < |eta| < 2.01
82900	108379
134465	171508
198734	239534
249051	293555
166257	193227
97018	111609
38808	43598
7769	8671
3443	3814
1460	1606
687	753
735	805
2.01 < |eta| < 2.37
155438	193722
244154	296414
327111	383662
379223	436219
243576	276187
138956	157111
52701	59744
10286	11564
4598	5062
1831	2012
876	978
879	979
