0 < |eta| < 0.6
457541693	550844695
234904601	275887025
133131479	152250271
79519020	89340406
50252190	55713189
53800194	59628912
39901771	43621520
12715156	13788760
5794959	6235925
1781342	1907963
250338	272923
164474	182534
0.6 < |eta| < 0.8
157686943	190811151
80552572	95866559
45461898	52556582
27650353	31371820
17332897	19419012
18546913	20824161
13794141	15108021
4364039	4723096
2059425	2198817
616046	659803
88275	96820
695755	701960
0.8 < |eta| < 1.15
224942937	288519411
116702415	141958603
67222315	78587559
39894763	45993519
25184361	28649739
26974100	30275059
19897591	21952011
6329932	6912837
2858391	3097950
871922	944644
127864	140536
83900	96584
1.15 < |eta| < 1.37
135559853	162522038
69473939	80300181
38337583	43589258
22733884	25485090
14168338	15683719
15169925	16781866
11047623	12054385
3518370	3824929
1606167	1729613
493031	534434
70792	76585
46441	50980
1.52 < |eta| < 1.81
135790332	169279426
71016606	85743240
39975500	46076083
23255810	26670346
15330513	17159309
16303187	18019288
12077878	13165201
3872291	4208234
1779323	1910715
552535	590158
80461	87393
52197	56897
1.81 < |eta| < 2.01
94381366	119260798
49325655	60420515
27869678	32851920
16805980	19613769
10644111	12361330
11531276	13173524
8623948	9702446
2799286	3114008
1291169	1423479
388154	427243
57338	64346
39074	43836
2.01 < |eta| < 2.37
196748990	242207246
100079043	121517287
56569266	66856592
33717423	39085725
21572382	24610217
23240363	26237301
17091193	19159241
5475819	6080322
2475039	2725786
732173	802189
106333	118555
66072	74194
