0 < |eta| < 0.6
1.41942e+13	1.72398e+13
7.02124e+12	8.29085e+12
4.78656e+12	5.4872e+12
2.84838e+12	3.21381e+12
1.74125e+12	1.9404e+12
1.81129e+12	2.02121e+12
1.15356e+12	1.2758e+12
2.74565e+11	3.01724e+11
1.182e+11	1.29395e+11
4.31009e+10	4.6772e+10
1.71232e+10	1.85925e+10
1.51051e+10	1.65454e+10
0.6 < |eta| < 0.8
4.91064e+12	5.98428e+12
2.44222e+12	2.92476e+12
1.64949e+12	1.91143e+12
9.99092e+11	1.13865e+12
6.0368e+11	6.80981e+11
6.29559e+11	7.1263e+11
4.00823e+11	4.44138e+11
9.46844e+10	1.03842e+11
4.33485e+10	4.67834e+10
1.47526e+10	1.6079e+10
6.05411e+09	6.59043e+09
3.15018e+10	3.19893e+10
0.8 < |eta| < 1.15
7.035e+12	9.07984e+12
3.51737e+12	4.29649e+12
2.43361e+12	2.85252e+12
1.4397e+12	1.66727e+12
8.77569e+11	1.00581e+12
9.17974e+11	1.03456e+12
5.79843e+11	6.45341e+11
1.38233e+11	1.52522e+11
5.85648e+10	6.42322e+10
2.11222e+10	2.32153e+10
8.75471e+09	9.58559e+09
7.7489e+09	8.65058e+09
1.15 < |eta| < 1.37
4.25927e+12	5.13841e+12
2.11322e+12	2.45593e+12
1.38789e+12	1.58363e+12
8.28129e+11	9.30106e+11
5.0076e+11	5.5698e+11
5.18827e+11	5.76033e+11
3.2316e+11	3.54469e+11
7.69963e+10	8.44159e+10
3.30288e+10	3.58876e+10
1.20385e+10	1.32428e+10
4.8631e+09	5.25516e+09
4.30064e+09	4.67746e+09
1.52 < |eta| < 1.81
4.27411e+12	5.35216e+12
2.17126e+12	2.64424e+12
1.44884e+12	1.66533e+12
8.43874e+11	9.72108e+11
5.44416e+11	6.10974e+11
5.5892e+11	6.20976e+11
3.53832e+11	3.88993e+11
8.53785e+10	9.3853e+10
3.69508e+10	4.0094e+10
1.35668e+10	1.46597e+10
5.48319e+09	5.93563e+09
4.78946e+09	5.17931e+09
1.81 < |eta| < 2.01
2.95532e+12	3.73812e+12
1.48398e+12	1.83182e+12
1.01832e+12	1.20227e+12
6.08668e+11	7.12778e+11
3.72647e+11	4.34692e+11
3.92401e+11	4.51476e+11
2.49822e+11	2.84119e+11
6.11737e+10	6.89133e+10
2.66058e+10	2.98147e+10
9.61288e+09	1.07714e+10
3.87464e+09	4.33061e+09
3.34028e+09	3.72455e+09
2.01 < |eta| < 2.37
6.19235e+12	7.63498e+12
3.03533e+12	3.70372e+12
2.08946e+12	2.47535e+12
1.21231e+12	1.41487e+12
7.54483e+11	8.6652e+11
7.90955e+11	8.99103e+11
4.95493e+11	5.617e+11
1.2006e+11	1.35212e+11
5.09553e+10	5.69913e+10
1.80585e+10	2.0022e+10
7.14007e+09	7.94154e+09
5.87921e+09	6.54854e+09
