0 < |eta| < 0.6
1.07558e+10	1.29565e+10
7.10556e+09	8.41798e+09
5.10452e+09	5.87736e+09
3.76309e+09	4.25485e+09
2.8364e+09	3.16403e+09
3.89123e+09	4.34364e+09
4.1872e+09	4.60998e+09
2.0673e+09	2.26236e+09
1.41217e+09	1.53897e+09
5.71598e+09	6.11428e+09
1.01887e+10	1.08541e+10
1.67277e+10	1.79224e+10
0.6 < |eta| < 0.8
3.70486e+09	4.52303e+09
2.50917e+09	3.0119e+09
1.76739e+09	2.0719e+09
1.32042e+09	1.52081e+09
9.8753e+08	1.11891e+09
1.35328e+09	1.52282e+09
1.4732e+09	1.62807e+09
7.23644e+08	7.88387e+08
4.93155e+08	5.36445e+08
2.00842e+09	2.13284e+09
3.59653e+09	3.8174e+09
5.94459e+09	6.31151e+09
0.8 < |eta| < 1.15
5.4089e+09	6.95379e+09
3.72066e+09	4.55866e+09
2.64474e+09	3.11353e+09
1.93301e+09	2.24256e+09
1.44293e+09	1.65829e+09
1.98315e+09	2.24069e+09
2.12112e+09	2.35607e+09
1.06252e+09	1.17453e+09
7.24141e+08	7.92415e+08
2.93583e+09	3.17479e+09
5.16417e+09	5.56161e+09
8.49204e+09	9.17254e+09
1.15 < |eta| < 1.37
3.30453e+09	3.95764e+09
2.20885e+09	2.55818e+09
1.53778e+09	1.75797e+09
1.1095e+09	1.24807e+09
8.32739e+08	9.30485e+08
1.13738e+09	1.25528e+09
1.19642e+09	1.31443e+09
5.85572e+08	6.4704e+08
3.91259e+08	4.29642e+08
1.61698e+09	1.73963e+09
2.83553e+09	3.04324e+09
4.62271e+09	4.96263e+09
1.52 < |eta| < 1.81
3.3524e+09	4.18789e+09
2.25583e+09	2.72252e+09
1.60744e+09	1.85785e+09
1.17803e+09	1.35033e+09
8.83602e+08	9.9946e+08
1.20199e+09	1.33604e+09
1.28824e+09	1.4121e+09
6.33337e+08	6.91998e+08
4.27059e+08	4.60841e+08
1.7266e+09	1.84667e+09
3.03212e+09	3.23331e+09
4.85799e+09	5.18683e+09
1.81 < |eta| < 2.01
2.37229e+09	2.99554e+09
1.58174e+09	1.94259e+09
1.14459e+09	1.3551e+09
8.30093e+08	9.75662e+08
6.1275e+08	7.23137e+08
8.51583e+08	9.85164e+08
9.22686e+08	1.04266e+09
4.58998e+08	5.12027e+08
3.06941e+08	3.42719e+08
1.24302e+09	1.36273e+09
2.08353e+09	2.28652e+09
3.24228e+09	3.56882e+09
2.01 < |eta| < 2.37
4.866e+09	6.03423e+09
3.21429e+09	3.91246e+09
2.28007e+09	2.69648e+09
1.64382e+09	1.91528e+09
1.25666e+09	1.4434e+09
1.69301e+09	1.9263e+09
1.7625e+09	1.99938e+09
8.53455e+08	9.59396e+08
5.53552e+08	6.14205e+08
2.19153e+09	2.39262e+09
3.6047e+09	3.94858e+09
5.30462e+09	5.8178e+09
