0 < |eta| < 0.6
1.5775855999999997	1.9804982000000002
2.944162599999998	3.5733642000000003
4.342660900000001	4.955437399999997
5.2375430000000005	5.894016100000001
3.6134245999999997	3.9869484999999987
2.501850099999999	2.7388697999999994
1.2672945900000003	1.36408869
0.28266144000000004	0.29966216
0.11601119000000006	0.12136371600000007
0.04638894700000001	0.04793816900000001
0.023196637000000006	0.024030741000000005
0.023812260300000002	0.024475702300000013
0.6 < |eta| < 0.8
0.45591342999999973	0.5619707900000002
0.92478775	1.08371397
1.4328283000000006	1.6189590000000016
1.751866	1.9307952000000004
1.21330375	1.3038747000000006
0.8230460999999998	0.88938598
0.41675637000000004	0.44279859000000016
0.09364666699999993	0.09742147500000002
0.03706856400000002	0.038236843000000006
0.0156137165	0.01592419729999999
0.0073043627999999985	0.0074805272999999995
0.007744811799999998	0.007894106500000003
0.8 < |eta| < 1.15
0.7533578500000001	0.9340582600000003
1.4197892299999997	1.6747058000000004
2.2978818000000008	2.598407899999999
2.9251323000000005	3.2237278999999996
2.0122226	2.1781346000000004
1.3784421900000003	1.4779256999999997
0.6880543999999998	0.7230605099999998
0.151922038	0.16017160000000003
0.06246995100000003	0.06423454300000002
0.025489435999999997	0.025912617000000016
0.012712125499999997	0.012939728600000002
0.0130009683	0.0132102263
1.15 < |eta| < 1.37
0.45095884999999997	0.56346874
0.8195473800000002	0.9496716600000004
1.3026558	1.43080426
1.7193110999999994	1.8646359
1.1931995599999998	1.27326964
0.7721988500000002	0.86010419
0.39205641999999985	0.41607590999999994
0.08505242699999994	0.089840232
0.03528923000000002	0.036636686
0.014559163499999996	0.015080061099999997
0.0069201366000000005	0.007155572400000002
0.007477754704000004	0.007744863604000006
1.52 < |eta| < 1.81
0.5158674499999997	0.6424512399999999
0.8770173400000003	1.0645662099999993
1.3086175399999997	1.4992624
1.7089379000000005	1.9175863
1.2671028999999998	1.3873646199999992
0.8656677999999998	0.9454668999999998
0.41612778000000017	0.44770135
0.09097231000000003	0.09612806200000001
0.03661000199999999	0.03834611899999998
0.015244955000000001	0.015798869500000003
0.0072294381999999996	0.007503576199999997
0.0075521913999999956	0.0077990271999999975
1.81 < |eta| < 2.01
0.34825059000000014	0.4306397199999999
0.5957941	0.6906463200000003
0.8306734700000005	0.92321499
1.0705391700000002	1.1638617399999995
0.7286763899999998	0.7822939900000001
0.4713700000000001	0.5068146100000002
0.23214273000000002	0.24834440000000008
0.049648943999999993	0.05319312400000002
0.020275878299999984	0.021342159999999995
0.0082881861	0.008624696300000003
0.0038500224550000023	0.003987231655000001
0.0038813089800000013	0.004017695180000001
2.01 < |eta| < 2.37
0.60774121	0.76009425
0.9829426000000002	1.1986310600000003
1.3475970099999997	1.5612453
1.6124272000000002	1.8339946000000003
1.06619642	1.17913618
0.68506509	0.7539406399999996
0.33203541999999986	0.36029542000000003
0.07144401500000001	0.07716674100000001
0.029116935000000004	0.031093287999999997
0.011203217899999998	0.011855231400000003
0.005044041120000001	0.00530134562
0.004742358009999999	0.004948446499999998