0.00<|#eta|<0.60
282048.0		355753.0		282048.0		73705.0
518856.0		631542.0		518856.0		112686.0
825360.0		968210.0		825360.0		142856.0
1093170.0		1267390.0		1093170.0		174224.0
755882.0		847912.0		755882.0		92030.0
438459.0		480297.0		438459.0		41838.0
193056.0		205827.0		193056.0		12771.0
41272.0		43062.0		41272.0		1790.0
18560.0		19265.0		18560.0		705.0
8307.0		8522.0		8307.0		215.0
4184.0		4299.0		4184.0		115.0
4411.0		4662.0		4411.0		251.0
0.60<|#eta|<0.80
76927.0		98620.0		76927.0		21693.0
165799.0		203945.0		165799.0		38146.0
279369.0		328245.0		279369.0		48876.0
350695.0		404244.0		350695.0		53549.0
244716.0		271811.0		244716.0		27095.0
140932.0		153683.0		140932.0		12751.0
61180.0		65032.0		61180.0		3852.0
12760.0		13350.0		12760.0		590.0
5886.0		6064.0		5886.0		178.0
2624.0		2677.0		2624.0		53.0
1348.0		1382.0		1348.0		34.0
1443.0		1474.0		1443.0		31.0
0.80<|#eta|<1.15
136087.0		171975.0		136087.0		35888.0
260012.0		315206.0		260012.0		55194.0
446715.0		524724.0		446715.0		78009.0
573992.0		666298.0		573992.0		92306.0
375468.0		429478.0		375468.0		54010.0
219908.0		244041.0		219908.0		24133.0
94859.0		101765.0		94859.0		6906.0
20086.0		21209.0		20086.0		1123.0
9702.0		9926.0		9702.0		224.0
4160.0		4296.0		4160.0		136.0
2100.0		2128.0		2100.0		28.0
2330.0		2379.0		2330.0		49.0
1.15<|#eta|<1.37
75170.0		100792.0		75170.0		25622.0
132745.0		172225.0		132745.0		39480.0
228620.0		280205.0		228620.0		51585.0
306492.0		372976.0		306492.0		66484.0
210878.0		239568.0		210878.0		28690.0
121915.0		136699.0		121915.0		14784.0
53287.0		57292.0		53287.0		4005.0
11187.0		11767.0		11187.0		580.0
5294.0		5411.0		5294.0		117.0
2409.0		2469.0		2409.0		60.0
1186.0		1213.0		1186.0		27.0
1262.0		1314.0		1262.0		52.0
1.52<|#eta|<1.81
95779.0		118965.0		95779.0		23186.0
154883.0		190841.0		154883.0		35958.0
237112.0		288987.0		237112.0		51875.0
309769.0		368565.0		309769.0		58796.0
227688.0		255295.0		227688.0		27607.0
134302.0		147273.0		134302.0		12971.0
55554.0		60984.0		55554.0		5430.0
11307.0		12044.0		11307.0		737.0
5366.0		5568.0		5366.0		202.0
2282.0		2346.0		2282.0		64.0
1187.0		1220.0		1187.0		33.0
1279.0		1317.0		1279.0		38.0
1.81<|#eta|<2.01
69811.0		77253.0		69811.0		7442.0
110296.0		123961.0		110296.0		13665.0
161001.0		176713.0		161001.0		15712.0
200401.0		220812.0		200401.0		20411.0
137833.0		147443.0		137833.0		9610.0
77395.0		82446.0		77395.0		5051.0
32267.0		34331.0		32267.0		2064.0
6477.0		6972.0		6477.0		495.0
2908.0		3009.0		2908.0		101.0
1189.0		1239.0		1189.0		50.0
582.0		609.0		582.0		27.0
525.0		549.0		525.0		24.0
2.01<|#eta|<2.37
123646.0		138377.0		123646.0		14731.0
193017.0		214201.0		193017.0		21184.0
257730.0		282456.0		257730.0		24726.0
294047.0		324092.0		294047.0		30045.0
192054.0		209451.0		192054.0		17397.0
103774.0		115298.0		103774.0		11524.0
43427.0		47173.0		43427.0		3746.0
8781.0		9469.0		8781.0		688.0
3851.0		4046.0		3851.0		195.0
1510.0		1609.0		1510.0		99.0
731.0		791.0		731.0		60.0
653.0		698.0		653.0		45.0
