0.00<|#eta|<0.60
0.0005003471509726909
0.00027868296962041406
9.915204346155893e-05
0.0001893655465168287
0.000278330770174251
0.0006808287372188637
0.0006947582192812218
0.0006734475871997825
0.0007786140669607811
0.0007040600797935115
0.0009304489416143147
0.004290004290004257
0.60<|#eta|<0.80
1.0139931048480655e-05
0.00010787222045149925
2.74185440752861e-05
0.00011379265987865317
0.0005481750186709933
0.0004619899403317529
0.00023065567720514935
0.0011985018726592411
0.00016490765171506272
0.0
0.0007235890014472002
0.0006784260515603213
0.80<|#eta|<1.15
0.000232591946503935
4.758792662573619e-05
0.00014102652060887788
0.00024463528331164497
0.0001536749263059134
0.00024995799886085024
0.0005109811821353283
0.0002828987693903606
0.0003022365504734559
0.0013966480446927498
0.0014097744360902498
0.0008406893652794789
1.15<|#eta|<1.37
0.00010913564568626466
2.3225431847961886e-05
9.278920790134482e-05
8.847754279095454e-05
3.3393441528084544e-05
3.6576712338809436e-05
0.0001570899951127691
0.00025495028469446623
0.0005544261689151009
0.001620089104900746
0.0008244023083264773
0.0007610350076103778
1.52<|#eta|<1.81
3.362333459422384e-05
5.239964158687549e-06
0.00013495416748843247
4.883806112887523e-05
3.5253334377927104e-05
8.827144147260935e-05
0.00019677292404562952
0.0002490866821653892
0.0003591954022987842
0.0
0.0
0.0015186028853455547
1.81<|#eta|<2.01
1.2944481120436002e-05
1.6134106694876138e-05
5.65889323367319e-06
1.3586218140293482e-05
0.00016277476719817052
2.425830240393445e-05
8.738457953449963e-05
0.0002868617326448053
0.0
0.0
0.0
0.0
2.01<|#eta|<2.37
0.0
9.337024570399421e-06
2.1242246579955548e-05
0.00018821816027547733
0.00014800597753172884
8.673177331786075e-05
0.0002543828037224749
0.0003168233181961577
0.00024715768660410475
0.0
0.005056890012642201
0.002865329512893977
