0 < |eta| < 0.6
843806	1003398
657449	772406
2673232	3002770
1877882	2094663
1334828	1469764
3448117	3768509
2575939	2790379
743211	800567
406996	435652
1442177	1534243
2084838	2210206
2233375	2375283
0.6 < |eta| < 0.8
290054	348976
238741	284477
911856	1039401
646976	729048
465285	517344
1179400	1303863
892289	968144
257836	277685
142171	151817
503312	531538
729042	768268
784999	827632
0.8 < |eta| < 1.15
415243	528738
359933	440826
1343940	1549445
937246	1074638
682112	770531
1712860	1907491
1282728	1408042
377059	410224
203642	220284
729124	783735
1045588	1119978
1121857	1203110
1.15 < |eta| < 1.37
250556	297077
215416	250325
761007	851812
532456	592814
387623	427352
955319	1044172
712766	775887
208747	226538
113790	122764
407350	435662
576066	614896
615160	657137
1.52 < |eta| < 1.81
251111	313362
221742	271973
771428	874393
555808	631859
412104	461936
1013245	1109601
770531	836172
227061	246080
125181	134411
441812	469537
634025	669968
666077	703869
1.81 < |eta| < 2.01
175495	222101
151251	187358
585748	681262
394498	458614
288656	333289
741979	839173
552202	618129
163886	181908
90719	99789
329614	357950
450414	488962
459590	499145
2.01 < |eta| < 2.37
360506	443625
308256	371964
1170710	1356932
795034	914738
586942	665292
1485396	1660340
1087404	1213256
317852	352105
171382	188595
610748	662140
812667	881978
788037	854438
