0 < |eta| < 0.6
377221	458122
703201	834862
1117829	1285106
1456519	1638617
970887	1072633
572323	631219
245504	267413
51644	55943
23640	25477
10266	11014
5097	5502
5478	5939
0.6 < |eta| < 0.8
114363	141954
230489	280777
371024	437356
456535	525056
303900	342869
179794	199750
76643	83761
16202	17515
7264	7819
3071	3281
1593	1717
1695	1847
0.8 < |eta| < 1.15
189967	253924
360311	452607
599320	720407
738069	872221
463611	535726
275605	312499
115981	129260
24987	27735
11483	12672
4980	5546
2426	2682
2744	3041
1.15 < |eta| < 1.37
121843	150528
212793	250202
340423	393287
435069	494621
268779	301657
159260	176514
64945	71416
13787	15125
6515	7109
2889	3117
1500	1653
1566	1692
1.52 < |eta| < 1.81
134606	169094
222178	271411
339293	396746
425336	490867
300560	333146
183403	199060
72487	77873
14597	15817
6755	7142
3015	3166
1511	1583
1608	1686
1.81 < |eta| < 2.01
83823	108379
136307	171508
199537	239534
251347	293555
167291	193227
97644	111609
38814	43598
7771	8671
3457	3814
1459	1606
687	753
733	805
2.01 < |eta| < 2.37
155599	193722
245449	296414
327914	383662
380005	436219
244673	276187
139320	157111
52909	59744
10320	11564
4601	5062
1836	2012
880	978
884	979
