0 < |eta| < 0.6
318093.0			405326.0
627190.0			757071.0
1046398.0			1204165.0
1396707.0			1577155.0
925466.0			1018526.0
525953.0			572083.0
233130.0			246340.0
48554.0			50715.0
22814.0			23500.0
9880.0			10161.0
4964.0			5130.0
5336.0			5530.0
0.6 < |eta| < 0.8
96761.0			123541.0
211055.0			255543.0
354693.0			411046.0
453642.0			505023.0
298776.0			325453.0
168478.0			180737.0
73189.0			76941.0
15399.0			15918.0
6951.0			7175.0
2957.0			3057.0
1541.0			1589.0
1711.0			1767.0
0.8 < |eta| < 1.15
168189.0			220883.0
332157.0			406708.0
582499.0			675535.0
747129.0			838959.0
466884.0			507106.0
264024.0			283038.0
113741.0			118879.0
24022.0			25204.0
11390.0			11688.0
5056.0			5144.0
2464.0			2505.0
2759.0			2828.0
1.15 < |eta| < 1.37
97311.0			129371.0
179556.0			221646.0
319338.0			366680.0
427572.0			475894.0
261055.0			285151.0
148406.0			159495.0
62181.0			65540.0
13098.0			13693.0
6334.0			6538.0
2830.0			2909.0
1505.0			1541.0
1518.0			1590.0
1.52 < |eta| < 1.81
115489.0			144196.0
202922.0			238958.0
317065.0			366473.0
416325.0			470020.0
289059.0			315480.0
166671.0			178967.0
67130.0			70828.0
13633.0			14313.0
6371.0			6571.0
2857.0			2925.0
1433.0			1466.0
1542.0			1576.0
1.81 < |eta| < 2.01
77261.0			96537.0
130847.0			155354.0
193775.0			222962.0
254804.0			281563.0
168210.0			183620.0
94261.0			101284.0
37762.0			40077.0
7428.0			7867.0
3377.0			3536.0
1431.0			1484.0
670.0			702.0
719.0			741.0
2.01 < |eta| < 2.37
138998.0			174703.0
230776.0			271039.0
317003.0			358130.0
376205.0			418060.0
239983.0			262352.0
131895.0			142913.0
50901.0			54944.0
9797.0			10484.0
4452.0			4693.0
1772.0			1862.0
839.0			907.0
842.0			914.0
