0 < |eta| < 0.6
659693.9399999998	833777.2300000001	 811051.2699999999		220089.487
1214011.58	1490674.7200000002	 1497718.97		350248.641
1790400.4200000002	2081617.92	 2212969.5900000003		368685.561
2212918.25	2559872.53	 2729215.59		439696.7
1569401.66	1769846.4	 1944134.84		255051.97799999997
1063136.63	1193238.6799999997	 1322419.45		165926.547
524666.0819999999	586567.42	 655902.3200000001		79135.982
112844.51099999998	127265.93600000002	 141417.99800000002		18240.315800000004
45886.6528	50471.25280000002	 56704.514899999995		5833.362820000001
18742.1204	20487.0707	 23329.193799999997		2208.44407
8919.328199999998	10084.397500000001	 11028.508700000002		1510.507932
9289.463000000002	10393.961299999999	 11389.873		1388.848355588
0.6 < |eta| < 0.8
187304.432	232070.18399999998	 230698.57700000002		56250.1773
399271.26699999993	470180.12	 492544.66500000004		89814.21599999999
612880.01	703747.8499999999	 759730.1		114871.61900000002
735099.5299999999	825625.7700000001	 909924.6099999999		114367.78700000001
524181.70600000006	572416.11	 649748.4299999999		61179.3807
354725.613	384984.1810000001	 441802.692		38569.402899999994
166297.978	187925.96600000001	 207638.80699999994		27616.994999999995
38197.1415	40929.181099999994	 47583.8132		3398.0896989999997
14339.8182	15905.398600000002	 17885.422700000003		1930.9173799999999
6124.7537600000005	6552.43814	 7772.883330000001		526.4431918999999
3029.9863400000004	3175.6039100000003	 3687.96618		205.872728
2972.2924099999996	3211.44549	 3746.36768		296.70455699999997
0.8 < |eta| < 1.15
334760.89999999997	412213.497	 413373.045		98170.54399999998
630051.4199999999	743608.4000000001	 781400.6099999999		142543.53399999999
1012263.69	1143348.65	 1253308.16		165004.819
1255699.0899999999	1392317.53	 1553952.3000000003		170072.459
859464.4299999998	930097.8300000001	 1066477.46		88378.83599999998
579915.264	627104.36	 722368.23		59324.075000000004
282709.839	301019.297	 354494.495		23098.2799
60726.4501	65507.92149999999	 75754.61799999999		5904.049639999998
25095.2655	26654.973700000002	 31413.893100000005		2045.1155936000005
10186.538219999999	10734.84577	 12693.982590000001		698.2371990000001
4639.564880000001	4923.19118	 5651.575150000001		364.93678918800003
4955.590520000001	5407.36634	 6175.605189999998		544.9103810000001
1.15 < |eta| < 1.37
200130.84600000002	250682.536	 247499.64600000004		63722.526000000005
361215.1269999999	421493.918	 446894.153		75997.026
562939.1479999999	627135.26	 696316.5199999999		81113.60900000001
728840.7400000001	806200.5	 902562.0299999999		97792.818
498332.4800000001	541612.2450000001	 616742.78		54337.636099999996
333107.7569999999	362852.938	 414534.272		37817.108
160897.57699999996	174571.87900000004	 201450.273		17431.293400000002
33977.620299999995	36770.10970000001	 42089.2941		3585.125449999999
14319.012200000001	15363.7394	 17810.6388		1325.7571000000003
5759.761030000001	6069.586990000001	 7198.731409999999		369.92536199999995
2849.9797799999997	3047.6077499999997	 3568.32251		228.42168900000001
2814.70552	3036.23423	 3422.29374		261.22593570000004
1.52 < |eta| < 1.81
227146.46899999998	288637.12700000004	 281028.434		76795.07659999999
388015.6390000001	476278.5420000001	 479692.48799999995		110790.36600000001
568231.902	658863.2899999999	 701334.1499999999		113284.32
722072.3	823093.9400000001	 891819.78		126281.571
520380.8739999999	579134.907	 644362.6699999998		74112.69320000001
352206.143	390643.4919999999	 438137.26900000003		48580.46979999999
167166.05800000002	183908.18699999998	 208088.281		20991.849300000005
36008.328199999996	39221.7497	 44853.48590000001		4120.0166800000015
14588.4068	15659.4998	 17930.215300000003		1310.7780870000001
5893.61305	6367.900689999999	 7351.40349		544.969555
2933.90897	3193.0345999999995	 3668.817449999999		297.73608160000003
2957.2667	3180.75322	 3576.0412599999995		270.215133
1.81 < |eta| < 2.01
149250.39299999998	188975.70999999996	 184406.953		49734.4472
256178.066	303771.39200000005	 315964.789		59660.33410000001
348385.657	397142.63300000003	 429296.554		61870.908500000005
440727.48899999994	488898.6760000001	 543447.522		60773.07489999999
297862.158	328558.89499999996	 367132.58700000006		38304.4589
194185.29599999994	212316.76400000005	 241855.191		23421.429599999996
92835.458	102272.79999999999	 116198.30699999999		11961.81491
20209.5236	22250.0235	 25123.1619		2663.0397240000007
7977.05675	8904.28069	 9917.81369		1128.4507407
3170.5067299999996	3486.20882	 3928.5645999999992		391.53381058800005
1606.80019	1763.04466	 1990.1289519999996		195.70981700000002
1468.419022	1662.524303	 1843.569371		251.62435299999999
2.01 < |eta| < 2.37
257831.71099999998	323088.49100000004	 316674.97500000003		81365.3178
411993.86000000004	510320.836	 507909.0739999999		122237.453
544785.325	639906.1199999999	 673384.5399999999		119135.186
637309.59	744038.88	 784417.72		132997.691
442097.00399999996	497335.49700000003	 546147.3640000001		68810.75
274684.286	314894.18999999994	 340767.50399999996		50441.2025
131531.182	148079.827	 163338.19199999998		20546.677000000003
27636.968900000003	31084.485300000004	 34295.1773		4190.22607
11112.6879	12498.492599999998	 13557.32988		1737.8301869999998
4385.8021899999985	4915.6935300000005	 5395.81049		704.7977030000002
1881.7987500000004	2157.70771	 2306.5311300000008		341.41122590000003
1859.671778	2141.8418319999996	 2276.3473050000002		346.156844