0 < |eta| < 0.6
333651	440347
661493	812970
1069090	1256031
1395458	1619713
960434	1096430
569989	649461
251918	276019
51899	58103
23921	26440
10523	11515
5137	5744
5542	6207
0.6 < |eta| < 0.8
102542	136864
222447	273782
364361	428964
464599	520528
310252	351795
187206	206056
78717	86471
17029	18267
7296	8159
2844	3426
1677	1840
1662	1892
0.8 < |eta| < 1.15
179871	244040
352893	437905
596670	701463
725992	868296
508066	558424
301790	326893
122418	135238
25995	28986
12372	13201
5344	5791
2653	2792
2932	3150
1.15 < |eta| < 1.37
107391	145641
194012	243860
326185	382313
439314	493293
286885	315757
172072	185955
69662	75105
14844	15904
6867	7358
3075	3244
1653	1735
1638	1777
1.52 < |eta| < 1.81
127862	166070
220292	268773
333786	392532
425290	484942
307683	338293
185664	204470
75122	80528
15252	16486
7066	7443
3175	3350
1578	1664
1668	1755
1.81 < |eta| < 2.01
81637	106158
141672	169222
204232	236929
258650	291557
177180	199304
103967	116118
40453	45411
8307	9112
3718	4011
1514	1649
692	786
783	850
2.01 < |eta| < 2.37
144613	189500
231576	291912
325394	379404
378480	434155
251642	287891
145773	165000
55707	62730
10776	12134
4574	5342
1889	2128
889	1039
876	1037
