0 < |eta| < 0.6
382813	510918
727415	912653
1174556	1366047
1496119	1700079
1015990	1126740
628782	690355
270608	288486
57799	61171
26336	27454
11434	11867
5597	5874
6046	6348
0.6 < |eta| < 0.8
119730	160367
245834	306011
391978	463666
483577	545089
328825	360285
201586	218763
85343	90581
18230	19112
8081	8463
3378	3505
1776	1845
1847	1927
0.8 < |eta| < 1.15
213522	286965
402305	498506
656945	765279
804712	905483
518295	564346
317669	341960
132765	139641
28551	30266
13184	13656
5784	5948
2790	2859
3155	3254
1.15 < |eta| < 1.37
125226	171685
222029	278758
363074	419894
460163	513348
290544	318163
179373	193533
72891	77292
15675	16557
7335	7680
3211	3325
1698	1765
1693	1794
1.52 < |eta| < 1.81
148360	193992
251628	303864
366534	427019
451354	511714
320167	350812
202912	219153
79617	84918
16330	17321
7404	7713
3293	3407
1653	1700
1751	1796
1.81 < |eta| < 2.01
94609	120221
156675	187662
221697	256106
275898	305547
185296	202834
113224	121934
44157	47119
8898	9475
3882	4092
1669	1728
767	804
829	869
2.01 < |eta| < 2.37
166990	212741
271733	321789
360970	409194
408131	454378
264815	290022
157546	171309
59601	64544
11695	12644
5113	5431
2038	2162
963	1049
960	1044
