0 < |eta| < 0.6
406265	510918
748832	912653
1166468	1366047
1489534	1700079
1009846	1126740
620990	690355
263515	288486
56245	61171
25420	27454
11045	11867
5435	5874
5857	6348
0.6 < |eta| < 0.8
126765	160367
248311	306011
392110	463666
473306	545089
319134	360285
196725	218763
82732	90581
17626	19112
7828	8463
3281	3505
1713	1845
1763	1927
0.8 < |eta| < 1.15
213065	286965
396141	498506
637231	765279
767316	905483
488977	564346
301416	341960
124924	139641
27116	30266
12316	13656
5308	5948
2567	2859
2923	3254
1.15 < |eta| < 1.37
137445	171685
236100	278758
363175	419894
451736	513348
283472	318163
174416	193533
70117	77292
15025	16557
6983	7680
3064	3325
1590	1765
1646	1794
1.52 < |eta| < 1.81
151366	193992
246167	303864
364602	427019
443202	511714
316237	350812
201597	219153
78701	84918
15911	17321
7263	7713
3225	3407
1617	1700
1711	1796
1.81 < |eta| < 2.01
92384	120221
148881	187662
213602	256106
261974	305547
175863	202834
106776	121934
41876	47119
8490	9475
3705	4092
1572	1728
734	804
785	869
2.01 < |eta| < 2.37
170052	212741
265661	321789
349189	409194
395341	454378
256502	290022
151537	171309
56960	64544
11226	12644
4919	5431
1961	2162
939	1049
937	1044
