0 < |eta| < 0.6
347472	458122
669594	834862
1107777	1285106
1443671	1638617
968888	1072633
576029	631219
251653	267413
53130	55943
24561	25477
10657	11014
5290	5502
5695	5939
0.6 < |eta| < 0.8
107090	141954
226573	280777
370737	437356
466194	525056
313204	342869
184327	199750
79152	83761
16798	17515
7506	7819
3172	3281
1657	1717
1779	1847
0.8 < |eta| < 1.15
190745	253924
367079	452607
619627	720407
775929	872221
492819	535726
291015	312499
123327	129260
26288	27735
12293	12672
5425	5546
2630	2682
2960	3041
1.15 < |eta| < 1.37
111772	150528
201744	250202
341921	393287
443906	494621
275888	301657
163910	176514
67549	71416
14390	15125
6837	7109
3024	3117
1602	1653
1607	1692
1.52 < |eta| < 1.81
131849	169094
227110	271411
341569	396746
433844	490867
304672	333146
184809	199060
73381	77873
14988	15817
6889	7142
3076	3166
1543	1583
1647	1686
1.81 < |eta| < 2.01
85889	108379
143825	171508
207737	239534
265370	293555
176786	193227
103750	111609
40965	43598
8165	8671
3632	3814
1550	1606
719	753
776	805
2.01 < |eta| < 2.37
153009	193722
251352	296414
339040	383662
392212	436219
252476	276187
144754	157111
55264	59744
10750	11564
4786	5062
1911	2012
907	978
905	979
