0 < |eta| < 0.6
312071.0			405326.0
611237.0			757071.0
1040308.0			1204165.0
1390731.0			1577155.0
920306.0			1018526.0
522540.0			572083.0
232436.0			246340.0
48355.0			50715.0
22726.0			23500.0
9862.0			10161.0
4939.0			5130.0
5314.0			5530.0
0.6 < |eta| < 0.8
94408.0			123541.0
207318.0			255543.0
348828.0			411046.0
448807.0			505023.0
297567.0			325453.0
166980.0			180737.0
72857.0			76941.0
15306.0			15918.0
6923.0			7175.0
2952.0			3057.0
1534.0			1589.0
1705.0			1767.0
0.8 < |eta| < 1.15
168246.0			220883.0
332247.0			406708.0
582579.0			675535.0
747114.0			838959.0
466753.0			507106.0
263911.0			283038.0
113679.0			118879.0
24021.0			25204.0
11384.0			11688.0
5054.0			5144.0
2462.0			2505.0
2755.0			2828.0
1.15 < |eta| < 1.37
97026.0			129371.0
178923.0			221646.0
318768.0			366680.0
427535.0			475894.0
260982.0			285151.0
148389.0			159495.0
62173.0			65540.0
13097.0			13693.0
6331.0			6538.0
2827.0			2909.0
1504.0			1541.0
1517.0			1590.0
1.52 < |eta| < 1.81
115550.0			144196.0
203030.0			238958.0
317220.0			366473.0
416324.0			470020.0
288999.0			315480.0
166656.0			178967.0
67127.0			70828.0
13630.0			14313.0
6372.0			6571.0
2857.0			2925.0
1433.0			1466.0
1541.0			1576.0
1.81 < |eta| < 2.01
77305.0			96537.0
130821.0			155354.0
193771.0			222962.0
254768.0			281563.0
168178.0			183620.0
94254.0			101284.0
37761.0			40077.0
7426.0			7867.0
3372.0			3536.0
1431.0			1484.0
669.0			702.0
717.0			741.0
2.01 < |eta| < 2.37
138982.0			174703.0
230717.0			271039.0
316966.0			358130.0
376181.0			418060.0
239935.0			262352.0
131872.0			142913.0
50897.0			54944.0
9793.0			10484.0
4449.0			4693.0
1770.0			1862.0
833.0			907.0
840.0			914.0
