0 < |eta| < 0.6
328739.0			405326.0
623696.0			757071.0
1024898.0			1204165.0
1375641.0			1577155.0
910125.0			1018526.0
514089.0			572083.0
226010.0			246340.0
47051.0			50715.0
21975.0			23500.0
9552.0			10161.0
4793.0			5130.0
5157.0			5530.0
0.6 < |eta| < 0.8
99710.0			123541.0
208268.0			255543.0
346924.0			411046.0
437355.0			505023.0
287814.0			325453.0
162398.0			180737.0
70567.0			76941.0
14797.0			15918.0
6711.0			7175.0
2863.0			3057.0
1478.0			1589.0
1637.0			1767.0
0.8 < |eta| < 1.15
167319.0			220883.0
325064.0			406708.0
561709.0			675535.0
708881.0			838959.0
438427.0			507106.0
249863.0			283038.0
107034.0			118879.0
22856.0			25204.0
10649.0			11688.0
4654.0			5144.0
2284.0			2505.0
2565.0			2828.0
1.15 < |eta| < 1.37
106375.0			129371.0
189599.0			221646.0
317764.0			366680.0
418451.0			475894.0
254113.0			285151.0
144141.0			159495.0
59789.0			65540.0
12547.0			13693.0
6041.0			6538.0
2714.0			2909.0
1410.0			1541.0
1485.0			1590.0
1.52 < |eta| < 1.81
118021.0			144196.0
198366.0			238958.0
314185.0			366473.0
407552.0			470020.0
284938.0			315480.0
165245.0			178967.0
66298.0			70828.0
13286.0			14313.0
6248.0			6571.0
2803.0			2925.0
1405.0			1466.0
1505.0			1576.0
1.81 < |eta| < 2.01
75324.0			96537.0
123890.0			155354.0
185582.0			222962.0
240763.0			281563.0
158852.0			183620.0
88579.0			101284.0
35755.0			40077.0
7067.0			7867.0
3201.0			3536.0
1343.0			1484.0
637.0			702.0
679.0			741.0
2.01 < |eta| < 2.37
141255.0			174703.0
225369.0			271039.0
306605.0			358130.0
364715.0			418060.0
232845.0			262352.0
127112.0			142913.0
48819.0			54944.0
9410.0			10484.0
4283.0			4693.0
1708.0			1862.0
818.0			907.0
826.0			914.0
