0 < |eta| < 0.6
312104.0			405326.0
611492.0			757071.0
1040637.0			1204165.0
1390969.0			1577155.0
921012.0			1018526.0
522870.0			572083.0
232550.0			246340.0
48399.0			50715.0
22755.0			23500.0
9871.0			10161.0
4960.0			5130.0
5327.0			5530.0
0.6 < |eta| < 0.8
94425.0			123541.0
207313.0			255543.0
349135.0			411046.0
448807.0			505023.0
297574.0			325453.0
167022.0			180737.0
72905.0			76941.0
15335.0			15918.0
6927.0			7175.0
2958.0			3057.0
1536.0			1589.0
1708.0			1767.0
0.8 < |eta| < 1.15
168127.0			220883.0
332077.0			406708.0
582445.0			675535.0
747130.0			838959.0
467037.0			507106.0
264119.0			283038.0
113777.0			118879.0
24024.0			25204.0
11393.0			11688.0
5058.0			5144.0
2466.0			2505.0
2760.0			2828.0
1.15 < |eta| < 1.37
97592.0			129371.0
180068.0			221646.0
319684.0			366680.0
427587.0			475894.0
261097.0			285151.0
148415.0			159495.0
62188.0			65540.0
13099.0			13693.0
6335.0			6538.0
2832.0			2909.0
1505.0			1541.0
1519.0			1590.0
1.52 < |eta| < 1.81
115469.0			144196.0
202837.0			238958.0
316940.0			366473.0
416332.0			470020.0
289086.0			315480.0
166680.0			178967.0
67135.0			70828.0
13637.0			14313.0
6372.0			6571.0
2858.0			2925.0
1433.0			1466.0
1542.0			1576.0
1.81 < |eta| < 2.01
77236.0			96537.0
130889.0			155354.0
193772.0			222962.0
254805.0			281563.0
168226.0			183620.0
94262.0			101284.0
37766.0			40077.0
7429.0			7867.0
3377.0			3536.0
1431.0			1484.0
670.0			702.0
720.0			741.0
2.01 < |eta| < 2.37
139004.0			174703.0
230832.0			271039.0
317036.0			358130.0
376233.0			418060.0
240028.0			262352.0
131908.0			142913.0
50910.0			54944.0
9799.0			10484.0
4454.0			4693.0
1777.0			1862.0
842.0			907.0
845.0			914.0
