0 < |eta| < 0.6
0.008087317369228741
0.008292485116983772
0.007327899415777717
0.005940443393325334
0.004597820772371031
0.0036935199962243592
0.001960704717057782
0.0002760524499654249
0.0005531914893617262
0.0012794016336974412
0.0019493177387914784
0.001808318264014508
0.6 < |eta| < 0.8
0.007649282424458281
0.007321664064364852
0.005512764994672126
0.004088922682729312
0.003330742073356152
0.0035687214018159663
0.0014946517461431608
0.00031410981279056394
0.0006968641114982743
0.0006542361792607476
0.0018879798615482057
0.0011318619128466434
0.8 < |eta| < 1.15
0.008583729847928545
0.007024695850585627
0.005793926295454721
0.004277920613522168
0.0036205448170599785
0.001974999823345258
0.00048789104888169454
0.0004761149023964073
0.0014544832306638833
0.0038880248833591535
0.001996007984031989
0.0035360678925034916
1.15 < |eta| < 1.37
0.0045759868904159395
0.0035868005738880493
0.003346241954838014
0.002653952350733624
0.002072586103503027
0.0012853067494278392
0.0006408300274640677
0.000292120061345158
0.0
0.0013750429700928324
0.0
0.0006289308176100628
1.52 < |eta| < 1.81
0.004903048628255968
0.004615873919266211
0.004013938271032247
0.003016892898174639
0.0019684290604792265
0.0018215648695011355
0.0008894787372225599
0.00034933277440085675
0.0001521838380763585
0.0006837606837606369
0.0
0.0
1.81 < |eta| < 2.01
0.00793478148274751
0.006520591680935217
0.00564221705940926
0.004315197664465864
0.0041771048905348
0.003860432052446572
0.0012226464056691588
0.0016524723528664742
0.0011312217194570096
0.0006738544474392816
0.0014245014245013454
0.0026990553306343035
2.01 < |eta| < 2.37
0.0024670440690772732
0.0016676566840934104
0.0006143020690809742
0.0006171362962255067
0.0011930536073671005
0.0017143296970884014
0.002311444379732075
0.0022892025944296623
0.0004261666311528023
0.0026852846401718145
0.0011025358324144863
0.005470459518599591
