0 < |eta| < 0.6
5323370	6340655
9732036	11391480
13840567	15740405
16656850	18674273
11404483	12622858
7888179	8719600
3988004	4345113
869597	948174
351940	381143
141157	152825
68541	74147
70093	76489
0.6 < |eta| < 0.8
1498476	1803051
2913004	3450626
4463153	5131752
5398558	6101693
3704028	4130382
2538823	2827360
1289622	1407894
284371	307534
114739	123059
46610	49335
22123	23639
23491	24566
0.8 < |eta| < 1.15
2334235	2989205
4370708	5327253
7055279	8225395
8849519	10189474
6063456	6871414
4184352	4697812
2073789	2294877
456082	502309
183218	202376
74261	81422
35606	39281
37255	40859
1.15 < |eta| < 1.37
1496885	1803289
2604074	3021821
3982880	4524914
5221804	5873870
3619710	4018417
2466874	2727359
1208072	1320232
260592	283613
107262	116031
43828	46800
21559	22742
21813	23282
1.52 < |eta| < 1.81
1643395	2051290
2814038	3385225
4105260	4739848
5284240	6020351
3910037	4350762
2715312	2977235
1313524	1419417
279889	300859
112877	120463
46391	48839
21828	23089
22345	23711
1.81 < |eta| < 2.01
1077988	1370992
1789160	2183915
2490412	2915411
3154093	3657615
2130292	2458727
1409613	1600602
697683	782155
152079	168254
60998	67013
24599	26765
11616	12742
11212	12407
2.01 < |eta| < 2.37
1967985	2409487
3146095	3785180
4195503	4902260
5016148	5752280
3267317	3691183
2124702	2370684
1019395	1131343
218595	240358
86738	94947
33885	36944
15605	16915
14530	15671
