0 < |eta| < 0.6
5320109	6340655
9728130	11391480
13836229	15740405
16653206	18674273
11403538	12622858
7886345	8719600
3987526	4345113
869542	948174
351872	381143
141153	152825
68540	74147
70093	76489
0.6 < |eta| < 0.8
1497813	1803051
2911881	3450626
4461903	5131752
5397216	6101693
3703435	4130382
2538316	2827360
1289486	1407894
284355	307534
114730	123059
46610	49335
22123	23639
23491	24566
0.8 < |eta| < 1.15
2332945	2989205
4368715	5327253
7052664	8225395
8846524	10189474
6061175	6871414
4183548	4697812
2073366	2294877
456058	502309
183204	202376
74260	81422
35601	39281
37255	40859
1.15 < |eta| < 1.37
1496106	1803289
2603375	3021821
3981957	4524914
5220966	5873870
3619217	4018417
2466514	2727359
1207918	1320232
260569	283613
107249	116031
43820	46800
21559	22742
21814	23282
1.52 < |eta| < 1.81
1641875	2051290
2811612	3385225
4103356	4739848
5282433	6020351
3908479	4350762
2714100	2977235
1312857	1419417
279625	300859
112767	120463
46396	48839
21800	23089
22322	23711
1.81 < |eta| < 2.01
1076763	1370992
1787838	2183915
2488153	2915411
3152345	3657615
2129287	2458727
1408683	1600602
696986	782155
152003	168254
60978	67013
24598	26765
11613	12742
11213	12407
2.01 < |eta| < 2.37
1964967	2409487
3141887	3785180
4191226	4902260
5011915	5752280
3265032	3691183
2123187	2370684
1018789	1131343
218545	240358
86655	94947
33877	36944
15605	16915
14529	15671
