0 < |eta| < 0.6
361565	440347
682695	812970
1089363	1256031
1435082	1619713
988082	1096430
586280	649461
252629	276019
53509	58103
24480	26440
10749	11515
5297	5744
5706	6207
0.6 < |eta| < 0.8
110449	136864
225369	273782
364207	428964
453540	520528
312821	351795
184302	206056
78980	86471
16871	18267
7581	8159
3173	3426
1715	1840
1743	1892
0.8 < |eta| < 1.15
183382	244040
348473	437905
584049	701463
735028	868296
484103	558424
288531	326893
121369	135238
26143	28986
11952	13201
5225	5791
2526	2792
2839	3150
1.15 < |eta| < 1.37
118422	145641
207242	243860
331699	382313
433710	493293
282171	315757
168140	185955
68206	75105
14470	15904
6785	7358
3009	3244
1588	1735
1640	1777
1.52 < |eta| < 1.81
132126	166070
220182	268773
335022	392532
422171	484942
305538	338293
189433	204470
75184	80528
15285	16486
7047	7443
3179	3350
1581	1664
1668	1755
1.81 < |eta| < 2.01
82007	106158
136433	169222
200899	236929
248218	291557
172589	199304
100861	116118
40429	45411
8205	9112
3617	4011
1515	1649
717	786
767	850
2.01 < |eta| < 2.37
152096	189500
240639	291912
323337	379404
377676	434155
254478	287891
146357	165000
55574	62730
10832	12134
4826	5342
1943	2128
929	1039
930	1037
