0 < |eta| < 0.6
0.012394527278345446
0.009656265665858199
0.014217771874949547
0.01607074414504761
0.021758734876741403
0.027645308308250405
0.022815665969192933
0.04248316274114372
0.051673167727366076
0.05429055325555143
0.07298180121325248
0.06839459084604715
0.6 < |eta| < 0.8
0.010938129110186656
0.010020927882996244
0.011171016117312416
0.0064124866531498625
0.019042135597998056
0.01812008183609659
0.027374724235739056
0.02665258074252952
0.05556668670273157
0.08823991207410897
0.06042827808741558
0.08458542014468551
0.8 < |eta| < 1.15
0.015219659372885275
0.0067975706294221006
0.0075852360994945744
0.031769038693397755
0.010216693069569294
0.010609415094211871
0.03207371638683387
0.006123419226015003
0.030739475741739075
0.049565947913749575
0.035583766108867154
0.04207285787583381
1.15 < |eta| < 1.37
0.013110997963340143
0.01948890036138362
0.01774100652885857
0.009063727489547757
0.011581975843499182
0.007506643245065003
0.014830323650004362
0.01701979854116009
0.02217950613633013
0.019805248390823538
0.015156201670275204
0.03842689882918049
1.52 < |eta| < 1.81
0.012633590361959324
0.004851328879053152
0.012046083127211116
0.011405856694596705
0.009170739945022488
0.01832765912137535
0.008082398029017224
0.021101441483821093
0.017646628102804263
0.02533483943843795
0.019499512512187178
0.035409035409035394
1.81 < |eta| < 2.01
0.017080096663828814
0.012471053411544752
0.015092561975984076
0.014233576642335821
0.01943931260687659
0.02196437746189417
0.03579013041861134
0.028163906684395057
0.029798657718120847
0.035584843492586504
0.06500691562932226
0.05964467005076135
2.01 < |eta| < 2.37
0.016669395200898163
0.02809278832662987
0.01604676356414192
0.021483987429991247
0.03135605941340791
0.028371327567156324
0.031705875193434485
0.043108930680476054
0.06858183289500297
0.06297807241203457
0.09833506763787714
0.08243173621844413
