0 < |eta| < 0.6
0.0016180711105070467
0.0011591041500128574
0.0005187634311294431
0.0003730066454247227
0.0006921047632101329
0.0012467659079830051
0.0009319352334566933
0.0012080971043719746
0.0012112502566208327
0.0005175009409107423
0.0005599626691553672
0.0005201109570041051
0.6 < |eta| < 0.8
0.0009646356193799832
0.0007096236188398608
0.0004649940108771844
0.00034791789137766926
0.00033586128928753123
0.0013200237658046454
0.0011534825086668699
0.0012375490492001484
0.0008014425966740291
0.0009420631182288641
0.001760046934584869
0.0
0.8 < |eta| < 1.15
0.001120854951500161
0.0007900907653226596
0.0012405298498222583
0.0004336334228350891
0.000603765299961645
0.0008683200292487481
0.0008376862140206942
0.001255110773034196
0.0004938068392247308
0.0014935125548398709
0.0015387574533564097
0.0003420557550880554
1.15 < |eta| < 1.37
0.0010859534114052716
0.00044251050962462735
0.00048486479138909466
0.0003066912441230807
0.00038897197389864413
0.00082611846598446
0.00046526505568644794
0.0010072941993748419
0.0011089753068165287
0.0011553061561313527
0.0009279307145065863
0.002401681176823822
1.52 < |eta| < 1.81
0.0025963324584178382
0.0018068185184088037
0.0007031592531622222
0.00036313402986098975
0.0004737824728631157
0.0006033684888758772
0.0006501505611826719
0.0017808541379658038
0.0016841180347074713
0.0003227368081329951
0.0
0.0
1.81 < |eta| < 2.01
0.0009042404116145208
0.0013028000429924358
0.0004778707348338518
0.00034886217260632346
0.00037794992559936347
0.001146505299613687
0.0011998032322698693
0.0019340021757524584
0.0012080536912751905
0.0006589785831959682
0.0
0.0
2.01 < |eta| < 2.37
0.0013652415922166261
0.0006472734075391173
0.0005571792904215389
0.00038965584008709975
0.00031486030819705135
0.0023233843966044
0.0009128370976996258
0.0010447896792949996
0.0004046125834513692
0.0005099439061703182
0.0010405827263267886
0.0
